{"status":"success","data":[{"CODGEO":"06001","REG":"93","DEP":"06","LIBGEO":"Aiglun","P12_POP":"91","C12_POP15P":"70","C12_POP15P_CS1":"0","C12_POP15P_CS2":"8","C12_POP15P_CS3":"0","C12_POP15P_CS4":"16","C12_POP15P_CS5":"8","C12_POP15P_CS6":"4","C12_POP15P_CS7":"25","C12_POP15P_CS8":"8","TxCS6":"5.714286"}
,{"CODGEO":"06002","REG":"93","DEP":"06","LIBGEO":"Amirat","P12_POP":"63","C12_POP15P":"50","C12_POP15P_CS1":"0","C12_POP15P_CS2":"0","C12_POP15P_CS3":"8","C12_POP15P_CS4":"17","C12_POP15P_CS5":"4","C12_POP15P_CS6":"4","C12_POP15P_CS7":"13","C12_POP15P_CS8":"4","TxCS6":"8.0"}
,{"CODGEO":"06003","REG":"93","DEP":"06","LIBGEO":"Andon","P12_POP":"568","C12_POP15P":"454","C12_POP15P_CS1":"4","C12_POP15P_CS2":"49","C12_POP15P_CS3":"24","C12_POP15P_CS4":"57","C12_POP15P_CS5":"113","C12_POP15P_CS6":"45","C12_POP15P_CS7":"105","C12_POP15P_CS8":"57","TxCS6":"9.911894"}
,{"CODGEO":"06004","REG":"93","DEP":"06","LIBGEO":"Antibes","P12_POP":"75568","C12_POP15P":"64821","C12_POP15P_CS1":"75","C12_POP15P_CS2":"3067","C12_POP15P_CS3":"7340","C12_POP15P_CS4":"8279","C12_POP15P_CS5":"11045","C12_POP15P_CS6":"5188","C12_POP15P_CS7":"20648","C12_POP15P_CS8":"9178","TxCS6":"8.003579"}
,{"CODGEO":"06005","REG":"93","DEP":"06","LIBGEO":"Ascros","P12_POP":"169","C12_POP15P":"154","C12_POP15P_CS1":"14","C12_POP15P_CS2":"14","C12_POP15P_CS3":"10","C12_POP15P_CS4":"10","C12_POP15P_CS5":"15","C12_POP15P_CS6":"15","C12_POP15P_CS7":"38","C12_POP15P_CS8":"37","TxCS6":"9.740259"}
,{"CODGEO":"06006","REG":"93","DEP":"06","LIBGEO":"Aspremont","P12_POP":"2179","C12_POP15P":"1888","C12_POP15P_CS1":"5","C12_POP15P_CS2":"189","C12_POP15P_CS3":"254","C12_POP15P_CS4":"336","C12_POP15P_CS5":"229","C12_POP15P_CS6":"142","C12_POP15P_CS7":"473","C12_POP15P_CS8":"259","TxCS6":"7.521187"}
,{"CODGEO":"06007","REG":"93","DEP":"06","LIBGEO":"Auribeau-sur-Siagne","P12_POP":"3049","C12_POP15P":"2501","C12_POP15P_CS1":"12","C12_POP15P_CS2":"156","C12_POP15P_CS3":"282","C12_POP15P_CS4":"391","C12_POP15P_CS5":"464","C12_POP15P_CS6":"255","C12_POP15P_CS7":"568","C12_POP15P_CS8":"373","TxCS6":"10.195921"}
,{"CODGEO":"06008","REG":"93","DEP":"06","LIBGEO":"Auvare","P12_POP":"45","C12_POP15P":"47","C12_POP15P_CS1":"4","C12_POP15P_CS2":"4","C12_POP15P_CS3":"4","C12_POP15P_CS4":"8","C12_POP15P_CS5":"12","C12_POP15P_CS6":"4","C12_POP15P_CS7":"8","C12_POP15P_CS8":"4","TxCS6":"8.510638"}
,{"CODGEO":"06009","REG":"93","DEP":"06","LIBGEO":"Bairols","P12_POP":"108","C12_POP15P":"92","C12_POP15P_CS1":"0","C12_POP15P_CS2":"0","C12_POP15P_CS3":"10","C12_POP15P_CS4":"15","C12_POP15P_CS5":"15","C12_POP15P_CS6":"10","C12_POP15P_CS7":"36","C12_POP15P_CS8":"5","TxCS6":"10.869565"}
,{"CODGEO":"06010","REG":"93","DEP":"06","LIBGEO":"Le Bar-sur-Loup","P12_POP":"2926","C12_POP15P":"2439","C12_POP15P_CS1":"8","C12_POP15P_CS2":"211","C12_POP15P_CS3":"289","C12_POP15P_CS4":"337","C12_POP15P_CS5":"332","C12_POP15P_CS6":"215","C12_POP15P_CS7":"717","C12_POP15P_CS8":"329","TxCS6":"8.815088"}
,{"CODGEO":"06011","REG":"93","DEP":"06","LIBGEO":"Beaulieu-sur-Mer","P12_POP":"3764","C12_POP15P":"3313","C12_POP15P_CS1":"0","C12_POP15P_CS2":"225","C12_POP15P_CS3":"188","C12_POP15P_CS4":"408","C12_POP15P_CS5":"748","C12_POP15P_CS6":"256","C12_POP15P_CS7":"1036","C12_POP15P_CS8":"452","TxCS6":"7.7271357"}
,{"CODGEO":"06012","REG":"93","DEP":"06","LIBGEO":"Beausoleil","P12_POP":"13272","C12_POP15P":"11142","C12_POP15P_CS1":"2","C12_POP15P_CS2":"271","C12_POP15P_CS3":"633","C12_POP15P_CS4":"1195","C12_POP15P_CS5":"2734","C12_POP15P_CS6":"1867","C12_POP15P_CS7":"2667","C12_POP15P_CS8":"1774","TxCS6":"16.756416"}
,{"CODGEO":"06013","REG":"93","DEP":"06","LIBGEO":"Belvédère","P12_POP":"640","C12_POP15P":"548","C12_POP15P_CS1":"0","C12_POP15P_CS2":"56","C12_POP15P_CS3":"32","C12_POP15P_CS4":"76","C12_POP15P_CS5":"48","C12_POP15P_CS6":"48","C12_POP15P_CS7":"228","C12_POP15P_CS8":"60","TxCS6":"8.759124"}
,{"CODGEO":"06014","REG":"93","DEP":"06","LIBGEO":"Bendejun","P12_POP":"949","C12_POP15P":"762","C12_POP15P_CS1":"4","C12_POP15P_CS2":"40","C12_POP15P_CS3":"33","C12_POP15P_CS4":"93","C12_POP15P_CS5":"160","C12_POP15P_CS6":"88","C12_POP15P_CS7":"264","C12_POP15P_CS8":"80","TxCS6":"11.548556"}
,{"CODGEO":"06015","REG":"93","DEP":"06","LIBGEO":"Berre-les-Alpes","P12_POP":"1278","C12_POP15P":"1151","C12_POP15P_CS1":"5","C12_POP15P_CS2":"59","C12_POP15P_CS3":"59","C12_POP15P_CS4":"139","C12_POP15P_CS5":"216","C12_POP15P_CS6":"104","C12_POP15P_CS7":"313","C12_POP15P_CS8":"256","TxCS6":"9.035621"}
,{"CODGEO":"06016","REG":"93","DEP":"06","LIBGEO":"Beuil","P12_POP":"503","C12_POP15P":"429","C12_POP15P_CS1":"0","C12_POP15P_CS2":"69","C12_POP15P_CS3":"30","C12_POP15P_CS4":"35","C12_POP15P_CS5":"56","C12_POP15P_CS6":"51","C12_POP15P_CS7":"163","C12_POP15P_CS8":"25","TxCS6":"11.888112"}
,{"CODGEO":"06017","REG":"93","DEP":"06","LIBGEO":"Bézaudun-les-Alpes","P12_POP":"233","C12_POP15P":"163","C12_POP15P_CS1":"0","C12_POP15P_CS2":"4","C12_POP15P_CS3":"13","C12_POP15P_CS4":"21","C12_POP15P_CS5":"21","C12_POP15P_CS6":"29","C12_POP15P_CS7":"46","C12_POP15P_CS8":"29","TxCS6":"17.79141"}
,{"CODGEO":"06018","REG":"93","DEP":"06","LIBGEO":"Biot","P12_POP":"10054","C12_POP15P":"8112","C12_POP15P_CS1":"44","C12_POP15P_CS2":"556","C12_POP15P_CS3":"1720","C12_POP15P_CS4":"1112","C12_POP15P_CS5":"1208","C12_POP15P_CS6":"500","C12_POP15P_CS7":"1608","C12_POP15P_CS8":"1364","TxCS6":"6.163708"}
,{"CODGEO":"06019","REG":"93","DEP":"06","LIBGEO":"Blausasc","P12_POP":"1468","C12_POP15P":"1202","C12_POP15P_CS1":"0","C12_POP15P_CS2":"64","C12_POP15P_CS3":"76","C12_POP15P_CS4":"208","C12_POP15P_CS5":"280","C12_POP15P_CS6":"156","C12_POP15P_CS7":"320","C12_POP15P_CS8":"96","TxCS6":"12.978369"}
,{"CODGEO":"06020","REG":"93","DEP":"06","LIBGEO":"La Bollène-Vésubie","P12_POP":"552","C12_POP15P":"458","C12_POP15P_CS1":"4","C12_POP15P_CS2":"44","C12_POP15P_CS3":"20","C12_POP15P_CS4":"52","C12_POP15P_CS5":"132","C12_POP15P_CS6":"60","C12_POP15P_CS7":"112","C12_POP15P_CS8":"32","TxCS6":"13.100436"}
,{"CODGEO":"06021","REG":"93","DEP":"06","LIBGEO":"Bonson","P12_POP":"706","C12_POP15P":"567","C12_POP15P_CS1":"0","C12_POP15P_CS2":"12","C12_POP15P_CS3":"35","C12_POP15P_CS4":"113","C12_POP15P_CS5":"101","C12_POP15P_CS6":"70","C12_POP15P_CS7":"136","C12_POP15P_CS8":"101","TxCS6":"12.345679"}
,{"CODGEO":"06022","REG":"93","DEP":"06","LIBGEO":"Bouyon","P12_POP":"484","C12_POP15P":"367","C12_POP15P_CS1":"0","C12_POP15P_CS2":"28","C12_POP15P_CS3":"60","C12_POP15P_CS4":"44","C12_POP15P_CS5":"88","C12_POP15P_CS6":"36","C12_POP15P_CS7":"80","C12_POP15P_CS8":"32","TxCS6":"9.809264"}
,{"CODGEO":"06023","REG":"93","DEP":"06","LIBGEO":"Breil-sur-Roya","P12_POP":"2444","C12_POP15P":"2094","C12_POP15P_CS1":"20","C12_POP15P_CS2":"101","C12_POP15P_CS3":"61","C12_POP15P_CS4":"211","C12_POP15P_CS5":"320","C12_POP15P_CS6":"198","C12_POP15P_CS7":"878","C12_POP15P_CS8":"304","TxCS6":"9.455587"}
,{"CODGEO":"06024","REG":"93","DEP":"06","LIBGEO":"Briançonnet","P12_POP":"234","C12_POP15P":"211","C12_POP15P_CS1":"0","C12_POP15P_CS2":"8","C12_POP15P_CS3":"8","C12_POP15P_CS4":"16","C12_POP15P_CS5":"24","C12_POP15P_CS6":"28","C12_POP15P_CS7":"85","C12_POP15P_CS8":"41","TxCS6":"13.270143"}
,{"CODGEO":"06025","REG":"93","DEP":"06","LIBGEO":"Le Broc","P12_POP":"1376","C12_POP15P":"1136","C12_POP15P_CS1":"8","C12_POP15P_CS2":"71","C12_POP15P_CS3":"90","C12_POP15P_CS4":"133","C12_POP15P_CS5":"231","C12_POP15P_CS6":"168","C12_POP15P_CS7":"251","C12_POP15P_CS8":"184","TxCS6":"14.788732"}
,{"CODGEO":"06026","REG":"93","DEP":"06","LIBGEO":"Cabris","P12_POP":"1384","C12_POP15P":"1150","C12_POP15P_CS1":"5","C12_POP15P_CS2":"85","C12_POP15P_CS3":"106","C12_POP15P_CS4":"88","C12_POP15P_CS5":"137","C12_POP15P_CS6":"40","C12_POP15P_CS7":"548","C12_POP15P_CS8":"138","TxCS6":"3.4782608"}
,{"CODGEO":"06027","REG":"93","DEP":"06","LIBGEO":"Cagnes-sur-Mer","P12_POP":"46686","C12_POP15P":"40072","C12_POP15P_CS1":"89","C12_POP15P_CS2":"1954","C12_POP15P_CS3":"3383","C12_POP15P_CS4":"5448","C12_POP15P_CS5":"6748","C12_POP15P_CS6":"3443","C12_POP15P_CS7":"13774","C12_POP15P_CS8":"5233","TxCS6":"8.592034"}
,{"CODGEO":"06028","REG":"93","DEP":"06","LIBGEO":"Caille","P12_POP":"403","C12_POP15P":"328","C12_POP15P_CS1":"0","C12_POP15P_CS2":"26","C12_POP15P_CS3":"11","C12_POP15P_CS4":"30","C12_POP15P_CS5":"55","C12_POP15P_CS6":"41","C12_POP15P_CS7":"103","C12_POP15P_CS8":"63","TxCS6":"12.5"}
,{"CODGEO":"06029","REG":"93","DEP":"06","LIBGEO":"Cannes","P12_POP":"73603","C12_POP15P":"63345","C12_POP15P_CS1":"61","C12_POP15P_CS2":"2964","C12_POP15P_CS3":"3543","C12_POP15P_CS4":"6530","C12_POP15P_CS5":"12004","C12_POP15P_CS6":"5859","C12_POP15P_CS7":"22413","C12_POP15P_CS8":"9973","TxCS6":"9.249349"}
,{"CODGEO":"06030","REG":"93","DEP":"06","LIBGEO":"Le Cannet","P12_POP":"43115","C12_POP15P":"36814","C12_POP15P_CS1":"20","C12_POP15P_CS2":"1701","C12_POP15P_CS3":"2443","C12_POP15P_CS4":"4688","C12_POP15P_CS5":"6663","C12_POP15P_CS6":"3901","C12_POP15P_CS7":"12275","C12_POP15P_CS8":"5123","TxCS6":"10.596512"}
,{"CODGEO":"06031","REG":"93","DEP":"06","LIBGEO":"Cantaron","P12_POP":"1337","C12_POP15P":"1156","C12_POP15P_CS1":"8","C12_POP15P_CS2":"76","C12_POP15P_CS3":"100","C12_POP15P_CS4":"152","C12_POP15P_CS5":"208","C12_POP15P_CS6":"116","C12_POP15P_CS7":"340","C12_POP15P_CS8":"156","TxCS6":"10.034602"}
,{"CODGEO":"06032","REG":"93","DEP":"06","LIBGEO":"Cap-d'Ail","P12_POP":"4741","C12_POP15P":"4031","C12_POP15P_CS1":"4","C12_POP15P_CS2":"120","C12_POP15P_CS3":"438","C12_POP15P_CS4":"462","C12_POP15P_CS5":"928","C12_POP15P_CS6":"256","C12_POP15P_CS7":"1159","C12_POP15P_CS8":"665","TxCS6":"6.350782"}
,{"CODGEO":"06033","REG":"93","DEP":"06","LIBGEO":"Carros","P12_POP":"11497","C12_POP15P":"9023","C12_POP15P_CS1":"21","C12_POP15P_CS2":"417","C12_POP15P_CS3":"652","C12_POP15P_CS4":"1304","C12_POP15P_CS5":"1750","C12_POP15P_CS6":"1522","C12_POP15P_CS7":"1898","C12_POP15P_CS8":"1459","TxCS6":"16.868004"}
,{"CODGEO":"06034","REG":"93","DEP":"06","LIBGEO":"Castagniers","P12_POP":"1540","C12_POP15P":"1271","C12_POP15P_CS1":"4","C12_POP15P_CS2":"92","C12_POP15P_CS3":"152","C12_POP15P_CS4":"157","C12_POP15P_CS5":"217","C12_POP15P_CS6":"92","C12_POP15P_CS7":"353","C12_POP15P_CS8":"204","TxCS6":"7.2383947"}
,{"CODGEO":"06035","REG":"93","DEP":"06","LIBGEO":"Castellar","P12_POP":"963","C12_POP15P":"789","C12_POP15P_CS1":"0","C12_POP15P_CS2":"64","C12_POP15P_CS3":"64","C12_POP15P_CS4":"132","C12_POP15P_CS5":"140","C12_POP15P_CS6":"56","C12_POP15P_CS7":"216","C12_POP15P_CS8":"117","TxCS6":"7.0975924"}
,{"CODGEO":"06036","REG":"93","DEP":"06","LIBGEO":"Castillon","P12_POP":"383","C12_POP15P":"301","C12_POP15P_CS1":"0","C12_POP15P_CS2":"21","C12_POP15P_CS3":"29","C12_POP15P_CS4":"62","C12_POP15P_CS5":"45","C12_POP15P_CS6":"37","C12_POP15P_CS7":"66","C12_POP15P_CS8":"41","TxCS6":"12.292359"}
,{"CODGEO":"06037","REG":"93","DEP":"06","LIBGEO":"Caussols","P12_POP":"253","C12_POP15P":"184","C12_POP15P_CS1":"12","C12_POP15P_CS2":"40","C12_POP15P_CS3":"4","C12_POP15P_CS4":"28","C12_POP15P_CS5":"32","C12_POP15P_CS6":"24","C12_POP15P_CS7":"24","C12_POP15P_CS8":"20","TxCS6":"13.043478"}
,{"CODGEO":"06038","REG":"93","DEP":"06","LIBGEO":"Châteauneuf-Grasse","P12_POP":"3184","C12_POP15P":"2632","C12_POP15P_CS1":"4","C12_POP15P_CS2":"227","C12_POP15P_CS3":"424","C12_POP15P_CS4":"331","C12_POP15P_CS5":"287","C12_POP15P_CS6":"121","C12_POP15P_CS7":"855","C12_POP15P_CS8":"383","TxCS6":"4.5972643"}
,{"CODGEO":"06039","REG":"93","DEP":"06","LIBGEO":"Châteauneuf-Villevieille","P12_POP":"896","C12_POP15P":"756","C12_POP15P_CS1":"4","C12_POP15P_CS2":"68","C12_POP15P_CS3":"52","C12_POP15P_CS4":"157","C12_POP15P_CS5":"145","C12_POP15P_CS6":"64","C12_POP15P_CS7":"193","C12_POP15P_CS8":"72","TxCS6":"8.465609"}
,{"CODGEO":"06040","REG":"93","DEP":"06","LIBGEO":"Châteauneuf-d'Entraunes","P12_POP":"52","C12_POP15P":"36","C12_POP15P_CS1":"0","C12_POP15P_CS2":"5","C12_POP15P_CS3":"5","C12_POP15P_CS4":"0","C12_POP15P_CS5":"5","C12_POP15P_CS6":"14","C12_POP15P_CS7":"5","C12_POP15P_CS8":"5","TxCS6":"38.88889"}
,{"CODGEO":"06041","REG":"93","DEP":"06","LIBGEO":"Cipières","P12_POP":"372","C12_POP15P":"327","C12_POP15P_CS1":"4","C12_POP15P_CS2":"12","C12_POP15P_CS3":"32","C12_POP15P_CS4":"68","C12_POP15P_CS5":"36","C12_POP15P_CS6":"56","C12_POP15P_CS7":"76","C12_POP15P_CS8":"44","TxCS6":"17.125381"}
,{"CODGEO":"06042","REG":"93","DEP":"06","LIBGEO":"Clans","P12_POP":"575","C12_POP15P":"431","C12_POP15P_CS1":"8","C12_POP15P_CS2":"16","C12_POP15P_CS3":"32","C12_POP15P_CS4":"67","C12_POP15P_CS5":"51","C12_POP15P_CS6":"40","C12_POP15P_CS7":"174","C12_POP15P_CS8":"43","TxCS6":"9.280743"}
,{"CODGEO":"06043","REG":"93","DEP":"06","LIBGEO":"Coaraze","P12_POP":"783","C12_POP15P":"671","C12_POP15P_CS1":"8","C12_POP15P_CS2":"35","C12_POP15P_CS3":"62","C12_POP15P_CS4":"66","C12_POP15P_CS5":"140","C12_POP15P_CS6":"97","C12_POP15P_CS7":"182","C12_POP15P_CS8":"82","TxCS6":"14.456036"}
,{"CODGEO":"06044","REG":"93","DEP":"06","LIBGEO":"La Colle-sur-Loup","P12_POP":"7726","C12_POP15P":"6307","C12_POP15P_CS1":"4","C12_POP15P_CS2":"500","C12_POP15P_CS3":"925","C12_POP15P_CS4":"852","C12_POP15P_CS5":"864","C12_POP15P_CS6":"404","C12_POP15P_CS7":"1808","C12_POP15P_CS8":"950","TxCS6":"6.405581"}
,{"CODGEO":"06045","REG":"93","DEP":"06","LIBGEO":"Collongues","P12_POP":"102","C12_POP15P":"72","C12_POP15P_CS1":"12","C12_POP15P_CS2":"8","C12_POP15P_CS3":"0","C12_POP15P_CS4":"0","C12_POP15P_CS5":"12","C12_POP15P_CS6":"4","C12_POP15P_CS7":"32","C12_POP15P_CS8":"4","TxCS6":"5.555556"}
,{"CODGEO":"06046","REG":"93","DEP":"06","LIBGEO":"Colomars","P12_POP":"3318","C12_POP15P":"2851","C12_POP15P_CS1":"0","C12_POP15P_CS2":"177","C12_POP15P_CS3":"305","C12_POP15P_CS4":"467","C12_POP15P_CS5":"437","C12_POP15P_CS6":"253","C12_POP15P_CS7":"803","C12_POP15P_CS8":"408","TxCS6":"8.87408"}
,{"CODGEO":"06047","REG":"93","DEP":"06","LIBGEO":"Conségudes","P12_POP":"93","C12_POP15P":"76","C12_POP15P_CS1":"4","C12_POP15P_CS2":"0","C12_POP15P_CS3":"0","C12_POP15P_CS4":"15","C12_POP15P_CS5":"4","C12_POP15P_CS6":"23","C12_POP15P_CS7":"19","C12_POP15P_CS8":"11","TxCS6":"30.263159"}
,{"CODGEO":"06048","REG":"93","DEP":"06","LIBGEO":"Contes","P12_POP":"7187","C12_POP15P":"5999","C12_POP15P_CS1":"32","C12_POP15P_CS2":"303","C12_POP15P_CS3":"299","C12_POP15P_CS4":"854","C12_POP15P_CS5":"1075","C12_POP15P_CS6":"690","C12_POP15P_CS7":"2001","C12_POP15P_CS8":"744","TxCS6":"11.501917"}
,{"CODGEO":"06049","REG":"93","DEP":"06","LIBGEO":"Courmes","P12_POP":"106","C12_POP15P":"107","C12_POP15P_CS1":"13","C12_POP15P_CS2":"0","C12_POP15P_CS3":"4","C12_POP15P_CS4":"21","C12_POP15P_CS5":"21","C12_POP15P_CS6":"9","C12_POP15P_CS7":"26","C12_POP15P_CS8":"13","TxCS6":"8.411215"}
,{"CODGEO":"06050","REG":"93","DEP":"06","LIBGEO":"Coursegoules","P12_POP":"497","C12_POP15P":"394","C12_POP15P_CS1":"8","C12_POP15P_CS2":"23","C12_POP15P_CS3":"39","C12_POP15P_CS4":"78","C12_POP15P_CS5":"86","C12_POP15P_CS6":"47","C12_POP15P_CS7":"66","C12_POP15P_CS8":"47","TxCS6":"11.928934"}
,{"CODGEO":"06051","REG":"93","DEP":"06","LIBGEO":"La Croix-sur-Roudoule","P12_POP":"94","C12_POP15P":"92","C12_POP15P_CS1":"4","C12_POP15P_CS2":"0","C12_POP15P_CS3":"4","C12_POP15P_CS4":"15","C12_POP15P_CS5":"15","C12_POP15P_CS6":"4","C12_POP15P_CS7":"38","C12_POP15P_CS8":"12","TxCS6":"4.347826"}
,{"CODGEO":"06052","REG":"93","DEP":"06","LIBGEO":"Cuébris","P12_POP":"122","C12_POP15P":"112","C12_POP15P_CS1":"0","C12_POP15P_CS2":"8","C12_POP15P_CS3":"4","C12_POP15P_CS4":"19","C12_POP15P_CS5":"19","C12_POP15P_CS6":"15","C12_POP15P_CS7":"27","C12_POP15P_CS8":"19","TxCS6":"13.392857"}
,{"CODGEO":"06053","REG":"93","DEP":"06","LIBGEO":"Daluis","P12_POP":"152","C12_POP15P":"115","C12_POP15P_CS1":"4","C12_POP15P_CS2":"4","C12_POP15P_CS3":"4","C12_POP15P_CS4":"8","C12_POP15P_CS5":"25","C12_POP15P_CS6":"8","C12_POP15P_CS7":"41","C12_POP15P_CS8":"21","TxCS6":"6.9565215"}
,{"CODGEO":"06054","REG":"93","DEP":"06","LIBGEO":"Drap","P12_POP":"4341","C12_POP15P":"3444","C12_POP15P_CS1":"12","C12_POP15P_CS2":"207","C12_POP15P_CS3":"211","C12_POP15P_CS4":"410","C12_POP15P_CS5":"582","C12_POP15P_CS6":"488","C12_POP15P_CS7":"820","C12_POP15P_CS8":"713","TxCS6":"14.169571"}
,{"CODGEO":"06055","REG":"93","DEP":"06","LIBGEO":"Duranus","P12_POP":"170","C12_POP15P":"179","C12_POP15P_CS1":"6","C12_POP15P_CS2":"0","C12_POP15P_CS3":"0","C12_POP15P_CS4":"31","C12_POP15P_CS5":"29","C12_POP15P_CS6":"23","C12_POP15P_CS7":"48","C12_POP15P_CS8":"42","TxCS6":"12.849162"}
,{"CODGEO":"06056","REG":"93","DEP":"06","LIBGEO":"Entraunes","P12_POP":"120","C12_POP15P":"100","C12_POP15P_CS1":"0","C12_POP15P_CS2":"4","C12_POP15P_CS3":"12","C12_POP15P_CS4":"12","C12_POP15P_CS5":"8","C12_POP15P_CS6":"8","C12_POP15P_CS7":"48","C12_POP15P_CS8":"8","TxCS6":"8.0"}
,{"CODGEO":"06057","REG":"93","DEP":"06","LIBGEO":"L'Escarène","P12_POP":"2449","C12_POP15P":"2051","C12_POP15P_CS1":"5","C12_POP15P_CS2":"136","C12_POP15P_CS3":"45","C12_POP15P_CS4":"246","C12_POP15P_CS5":"405","C12_POP15P_CS6":"241","C12_POP15P_CS7":"665","C12_POP15P_CS8":"309","TxCS6":"11.750366"}
,{"CODGEO":"06058","REG":"93","DEP":"06","LIBGEO":"Escragnolles","P12_POP":"620","C12_POP15P":"499","C12_POP15P_CS1":"4","C12_POP15P_CS2":"58","C12_POP15P_CS3":"25","C12_POP15P_CS4":"42","C12_POP15P_CS5":"62","C12_POP15P_CS6":"83","C12_POP15P_CS7":"141","C12_POP15P_CS8":"83","TxCS6":"16.633266"}
,{"CODGEO":"06059","REG":"93","DEP":"06","LIBGEO":"Èze","P12_POP":"2535","C12_POP15P":"2079","C12_POP15P_CS1":"12","C12_POP15P_CS2":"143","C12_POP15P_CS3":"282","C12_POP15P_CS4":"271","C12_POP15P_CS5":"385","C12_POP15P_CS6":"140","C12_POP15P_CS7":"453","C12_POP15P_CS8":"392","TxCS6":"6.734007"}
,{"CODGEO":"06060","REG":"93","DEP":"06","LIBGEO":"Falicon","P12_POP":"1920","C12_POP15P":"1546","C12_POP15P_CS1":"0","C12_POP15P_CS2":"133","C12_POP15P_CS3":"193","C12_POP15P_CS4":"254","C12_POP15P_CS5":"141","C12_POP15P_CS6":"105","C12_POP15P_CS7":"483","C12_POP15P_CS8":"238","TxCS6":"6.7917204"}
,{"CODGEO":"06061","REG":"93","DEP":"06","LIBGEO":"Les Ferres","P12_POP":"96","C12_POP15P":"75","C12_POP15P_CS1":"0","C12_POP15P_CS2":"4","C12_POP15P_CS3":"4","C12_POP15P_CS4":"4","C12_POP15P_CS5":"8","C12_POP15P_CS6":"12","C12_POP15P_CS7":"40","C12_POP15P_CS8":"4","TxCS6":"16.0"}
,{"CODGEO":"06062","REG":"93","DEP":"06","LIBGEO":"Fontan","P12_POP":"291","C12_POP15P":"230","C12_POP15P_CS1":"0","C12_POP15P_CS2":"8","C12_POP15P_CS3":"16","C12_POP15P_CS4":"8","C12_POP15P_CS5":"78","C12_POP15P_CS6":"0","C12_POP15P_CS7":"107","C12_POP15P_CS8":"12","TxCS6":"0.0"}
,{"CODGEO":"06063","REG":"93","DEP":"06","LIBGEO":"Gars","P12_POP":"67","C12_POP15P":"57","C12_POP15P_CS1":"0","C12_POP15P_CS2":"4","C12_POP15P_CS3":"0","C12_POP15P_CS4":"8","C12_POP15P_CS5":"0","C12_POP15P_CS6":"4","C12_POP15P_CS7":"38","C12_POP15P_CS8":"4","TxCS6":"7.017544"}
,{"CODGEO":"06064","REG":"93","DEP":"06","LIBGEO":"Gattières","P12_POP":"4103","C12_POP15P":"3397","C12_POP15P_CS1":"37","C12_POP15P_CS2":"183","C12_POP15P_CS3":"338","C12_POP15P_CS4":"533","C12_POP15P_CS5":"590","C12_POP15P_CS6":"334","C12_POP15P_CS7":"897","C12_POP15P_CS8":"485","TxCS6":"9.832205"}
,{"CODGEO":"06065","REG":"93","DEP":"06","LIBGEO":"La Gaude","P12_POP":"6695","C12_POP15P":"5685","C12_POP15P_CS1":"51","C12_POP15P_CS2":"378","C12_POP15P_CS3":"687","C12_POP15P_CS4":"950","C12_POP15P_CS5":"733","C12_POP15P_CS6":"431","C12_POP15P_CS7":"1500","C12_POP15P_CS8":"955","TxCS6":"7.5813546"}
,{"CODGEO":"06066","REG":"93","DEP":"06","LIBGEO":"Gilette","P12_POP":"1516","C12_POP15P":"1244","C12_POP15P_CS1":"8","C12_POP15P_CS2":"92","C12_POP15P_CS3":"120","C12_POP15P_CS4":"144","C12_POP15P_CS5":"224","C12_POP15P_CS6":"180","C12_POP15P_CS7":"272","C12_POP15P_CS8":"204","TxCS6":"14.469454"}
,{"CODGEO":"06067","REG":"93","DEP":"06","LIBGEO":"Gorbio","P12_POP":"1304","C12_POP15P":"1140","C12_POP15P_CS1":"4","C12_POP15P_CS2":"32","C12_POP15P_CS3":"56","C12_POP15P_CS4":"184","C12_POP15P_CS5":"200","C12_POP15P_CS6":"100","C12_POP15P_CS7":"424","C12_POP15P_CS8":"140","TxCS6":"8.77193"}
,{"CODGEO":"06068","REG":"93","DEP":"06","LIBGEO":"Gourdon","P12_POP":"416","C12_POP15P":"351","C12_POP15P_CS1":"0","C12_POP15P_CS2":"44","C12_POP15P_CS3":"16","C12_POP15P_CS4":"68","C12_POP15P_CS5":"52","C12_POP15P_CS6":"20","C12_POP15P_CS7":"101","C12_POP15P_CS8":"48","TxCS6":"5.6980057"}
,{"CODGEO":"06069","REG":"93","DEP":"06","LIBGEO":"Grasse","P12_POP":"51021","C12_POP15P":"41206","C12_POP15P_CS1":"33","C12_POP15P_CS2":"1985","C12_POP15P_CS3":"3860","C12_POP15P_CS4":"5782","C12_POP15P_CS5":"7349","C12_POP15P_CS6":"5294","C12_POP15P_CS7":"10126","C12_POP15P_CS8":"6777","TxCS6":"12.847644"}
,{"CODGEO":"06070","REG":"93","DEP":"06","LIBGEO":"Gréolières","P12_POP":"589","C12_POP15P":"516","C12_POP15P_CS1":"0","C12_POP15P_CS2":"48","C12_POP15P_CS3":"20","C12_POP15P_CS4":"76","C12_POP15P_CS5":"88","C12_POP15P_CS6":"68","C12_POP15P_CS7":"112","C12_POP15P_CS8":"104","TxCS6":"13.178295"}
,{"CODGEO":"06071","REG":"93","DEP":"06","LIBGEO":"Guillaumes","P12_POP":"689","C12_POP15P":"616","C12_POP15P_CS1":"8","C12_POP15P_CS2":"56","C12_POP15P_CS3":"36","C12_POP15P_CS4":"60","C12_POP15P_CS5":"100","C12_POP15P_CS6":"52","C12_POP15P_CS7":"236","C12_POP15P_CS8":"68","TxCS6":"8.441559"}
,{"CODGEO":"06072","REG":"93","DEP":"06","LIBGEO":"Ilonse","P12_POP":"173","C12_POP15P":"170","C12_POP15P_CS1":"0","C12_POP15P_CS2":"8","C12_POP15P_CS3":"8","C12_POP15P_CS4":"50","C12_POP15P_CS5":"29","C12_POP15P_CS6":"25","C12_POP15P_CS7":"37","C12_POP15P_CS8":"12","TxCS6":"14.705883"}
,{"CODGEO":"06073","REG":"93","DEP":"06","LIBGEO":"Isola","P12_POP":"747","C12_POP15P":"634","C12_POP15P_CS1":"0","C12_POP15P_CS2":"43","C12_POP15P_CS3":"16","C12_POP15P_CS4":"112","C12_POP15P_CS5":"166","C12_POP15P_CS6":"69","C12_POP15P_CS7":"143","C12_POP15P_CS8":"85","TxCS6":"10.883281"}
,{"CODGEO":"06074","REG":"93","DEP":"06","LIBGEO":"Lantosque","P12_POP":"1320","C12_POP15P":"1093","C12_POP15P_CS1":"0","C12_POP15P_CS2":"35","C12_POP15P_CS3":"35","C12_POP15P_CS4":"130","C12_POP15P_CS5":"138","C12_POP15P_CS6":"141","C12_POP15P_CS7":"460","C12_POP15P_CS8":"153","TxCS6":"12.900275"}
,{"CODGEO":"06075","REG":"93","DEP":"06","LIBGEO":"Levens","P12_POP":"4761","C12_POP15P":"3727","C12_POP15P_CS1":"8","C12_POP15P_CS2":"214","C12_POP15P_CS3":"307","C12_POP15P_CS4":"664","C12_POP15P_CS5":"655","C12_POP15P_CS6":"319","C12_POP15P_CS7":"1051","C12_POP15P_CS8":"508","TxCS6":"8.559163"}
,{"CODGEO":"06076","REG":"93","DEP":"06","LIBGEO":"Lieuche","P12_POP":"38","C12_POP15P":"38","C12_POP15P_CS1":"0","C12_POP15P_CS2":"8","C12_POP15P_CS3":"0","C12_POP15P_CS4":"4","C12_POP15P_CS5":"8","C12_POP15P_CS6":"0","C12_POP15P_CS7":"15","C12_POP15P_CS8":"4","TxCS6":"0.0"}
,{"CODGEO":"06077","REG":"93","DEP":"06","LIBGEO":"Lucéram","P12_POP":"1215","C12_POP15P":"1001","C12_POP15P_CS1":"4","C12_POP15P_CS2":"64","C12_POP15P_CS3":"44","C12_POP15P_CS4":"87","C12_POP15P_CS5":"214","C12_POP15P_CS6":"123","C12_POP15P_CS7":"357","C12_POP15P_CS8":"107","TxCS6":"12.287712"}
,{"CODGEO":"06078","REG":"93","DEP":"06","LIBGEO":"Malaussène","P12_POP":"265","C12_POP15P":"230","C12_POP15P_CS1":"4","C12_POP15P_CS2":"16","C12_POP15P_CS3":"8","C12_POP15P_CS4":"32","C12_POP15P_CS5":"48","C12_POP15P_CS6":"32","C12_POP15P_CS7":"56","C12_POP15P_CS8":"36","TxCS6":"13.913043"}
,{"CODGEO":"06079","REG":"93","DEP":"06","LIBGEO":"Mandelieu-la-Napoule","P12_POP":"22714","C12_POP15P":"19742","C12_POP15P_CS1":"20","C12_POP15P_CS2":"920","C12_POP15P_CS3":"1566","C12_POP15P_CS4":"2674","C12_POP15P_CS5":"3588","C12_POP15P_CS6":"1645","C12_POP15P_CS7":"7145","C12_POP15P_CS8":"2184","TxCS6":"8.332489"}
,{"CODGEO":"06080","REG":"93","DEP":"06","LIBGEO":"Marie","P12_POP":"91","C12_POP15P":"88","C12_POP15P_CS1":"0","C12_POP15P_CS2":"0","C12_POP15P_CS3":"21","C12_POP15P_CS4":"13","C12_POP15P_CS5":"13","C12_POP15P_CS6":"8","C12_POP15P_CS7":"25","C12_POP15P_CS8":"8","TxCS6":"9.090909"}
,{"CODGEO":"06081","REG":"93","DEP":"06","LIBGEO":"Le Mas","P12_POP":"171","C12_POP15P":"142","C12_POP15P_CS1":"0","C12_POP15P_CS2":"16","C12_POP15P_CS3":"8","C12_POP15P_CS4":"24","C12_POP15P_CS5":"4","C12_POP15P_CS6":"12","C12_POP15P_CS7":"57","C12_POP15P_CS8":"20","TxCS6":"8.450704"}
,{"CODGEO":"06082","REG":"93","DEP":"06","LIBGEO":"Massoins","P12_POP":"111","C12_POP15P":"88","C12_POP15P_CS1":"0","C12_POP15P_CS2":"16","C12_POP15P_CS3":"12","C12_POP15P_CS4":"4","C12_POP15P_CS5":"12","C12_POP15P_CS6":"8","C12_POP15P_CS7":"28","C12_POP15P_CS8":"8","TxCS6":"9.090909"}
,{"CODGEO":"06083","REG":"93","DEP":"06","LIBGEO":"Menton","P12_POP":"29073","C12_POP15P":"24761","C12_POP15P_CS1":"14","C12_POP15P_CS2":"1085","C12_POP15P_CS3":"1274","C12_POP15P_CS4":"2700","C12_POP15P_CS5":"5407","C12_POP15P_CS6":"2636","C12_POP15P_CS7":"8144","C12_POP15P_CS8":"3500","TxCS6":"10.645773"}
,{"CODGEO":"06084","REG":"93","DEP":"06","LIBGEO":"Mouans-Sartoux","P12_POP":"10214","C12_POP15P":"8590","C12_POP15P_CS1":"11","C12_POP15P_CS2":"457","C12_POP15P_CS3":"1190","C12_POP15P_CS4":"1241","C12_POP15P_CS5":"1252","C12_POP15P_CS6":"730","C12_POP15P_CS7":"2496","C12_POP15P_CS8":"1213","TxCS6":"8.498254"}
,{"CODGEO":"06085","REG":"93","DEP":"06","LIBGEO":"Mougins","P12_POP":"17884","C12_POP15P":"14794","C12_POP15P_CS1":"35","C12_POP15P_CS2":"1077","C12_POP15P_CS3":"2114","C12_POP15P_CS4":"2123","C12_POP15P_CS5":"2538","C12_POP15P_CS6":"1174","C12_POP15P_CS7":"3720","C12_POP15P_CS8":"2013","TxCS6":"7.93565"}
,{"CODGEO":"06086","REG":"93","DEP":"06","LIBGEO":"Moulinet","P12_POP":"224","C12_POP15P":"209","C12_POP15P_CS1":"25","C12_POP15P_CS2":"4","C12_POP15P_CS3":"17","C12_POP15P_CS4":"21","C12_POP15P_CS5":"13","C12_POP15P_CS6":"17","C12_POP15P_CS7":"79","C12_POP15P_CS8":"33","TxCS6":"8.133971"}
,{"CODGEO":"06087","REG":"93","DEP":"06","LIBGEO":"Les Mujouls","P12_POP":"41","C12_POP15P":"45","C12_POP15P_CS1":"0","C12_POP15P_CS2":"4","C12_POP15P_CS3":"7","C12_POP15P_CS4":"7","C12_POP15P_CS5":"0","C12_POP15P_CS6":"0","C12_POP15P_CS7":"26","C12_POP15P_CS8":"0","TxCS6":"0.0"}
,{"CODGEO":"06088","REG":"93","DEP":"06","LIBGEO":"Nice","P12_POP":"343629","C12_POP15P":"290292","C12_POP15P_CS1":"258","C12_POP15P_CS2":"11461","C12_POP15P_CS3":"24112","C12_POP15P_CS4":"37547","C12_POP15P_CS5":"51639","C12_POP15P_CS6":"26214","C12_POP15P_CS7":"83235","C12_POP15P_CS8":"55825","TxCS6":"9.030218"}
,{"CODGEO":"06089","REG":"93","DEP":"06","LIBGEO":"Opio","P12_POP":"2184","C12_POP15P":"1875","C12_POP15P_CS1":"5","C12_POP15P_CS2":"151","C12_POP15P_CS3":"319","C12_POP15P_CS4":"294","C12_POP15P_CS5":"182","C12_POP15P_CS6":"59","C12_POP15P_CS7":"532","C12_POP15P_CS8":"332","TxCS6":"3.1466668"}
,{"CODGEO":"06090","REG":"93","DEP":"06","LIBGEO":"Pégomas","P12_POP":"7285","C12_POP15P":"5876","C12_POP15P_CS1":"20","C12_POP15P_CS2":"440","C12_POP15P_CS3":"540","C12_POP15P_CS4":"1036","C12_POP15P_CS5":"1148","C12_POP15P_CS6":"684","C12_POP15P_CS7":"1360","C12_POP15P_CS8":"648","TxCS6":"11.640572"}
,{"CODGEO":"06091","REG":"93","DEP":"06","LIBGEO":"Peille","P12_POP":"2317","C12_POP15P":"1904","C12_POP15P_CS1":"4","C12_POP15P_CS2":"72","C12_POP15P_CS3":"140","C12_POP15P_CS4":"243","C12_POP15P_CS5":"344","C12_POP15P_CS6":"248","C12_POP15P_CS7":"544","C12_POP15P_CS8":"309","TxCS6":"13.02521"}
,{"CODGEO":"06092","REG":"93","DEP":"06","LIBGEO":"Peillon","P12_POP":"1439","C12_POP15P":"1204","C12_POP15P_CS1":"0","C12_POP15P_CS2":"52","C12_POP15P_CS3":"104","C12_POP15P_CS4":"200","C12_POP15P_CS5":"216","C12_POP15P_CS6":"180","C12_POP15P_CS7":"296","C12_POP15P_CS8":"156","TxCS6":"14.950167"}
,{"CODGEO":"06093","REG":"93","DEP":"06","LIBGEO":"La Penne","P12_POP":"327","C12_POP15P":"275","C12_POP15P_CS1":"8","C12_POP15P_CS2":"21","C12_POP15P_CS3":"4","C12_POP15P_CS4":"49","C12_POP15P_CS5":"29","C12_POP15P_CS6":"37","C12_POP15P_CS7":"107","C12_POP15P_CS8":"21","TxCS6":"13.454546"}
,{"CODGEO":"06094","REG":"93","DEP":"06","LIBGEO":"Péone","P12_POP":"984","C12_POP15P":"782","C12_POP15P_CS1":"0","C12_POP15P_CS2":"66","C12_POP15P_CS3":"57","C12_POP15P_CS4":"135","C12_POP15P_CS5":"111","C12_POP15P_CS6":"49","C12_POP15P_CS7":"315","C12_POP15P_CS8":"49","TxCS6":"6.2659845"}
,{"CODGEO":"06095","REG":"93","DEP":"06","LIBGEO":"Peymeinade","P12_POP":"7949","C12_POP15P":"6589","C12_POP15P_CS1":"20","C12_POP15P_CS2":"356","C12_POP15P_CS3":"657","C12_POP15P_CS4":"927","C12_POP15P_CS5":"953","C12_POP15P_CS6":"627","C12_POP15P_CS7":"2120","C12_POP15P_CS8":"931","TxCS6":"9.51586"}
,{"CODGEO":"06096","REG":"93","DEP":"06","LIBGEO":"Pierlas","P12_POP":"89","C12_POP15P":"87","C12_POP15P_CS1":"0","C12_POP15P_CS2":"8","C12_POP15P_CS3":"4","C12_POP15P_CS4":"20","C12_POP15P_CS5":"12","C12_POP15P_CS6":"8","C12_POP15P_CS7":"28","C12_POP15P_CS8":"8","TxCS6":"9.195402"}
,{"CODGEO":"06097","REG":"93","DEP":"06","LIBGEO":"Pierrefeu","P12_POP":"282","C12_POP15P":"232","C12_POP15P_CS1":"0","C12_POP15P_CS2":"11","C12_POP15P_CS3":"8","C12_POP15P_CS4":"15","C12_POP15P_CS5":"65","C12_POP15P_CS6":"27","C12_POP15P_CS7":"91","C12_POP15P_CS8":"15","TxCS6":"11.637931"}
,{"CODGEO":"06098","REG":"93","DEP":"06","LIBGEO":"Puget-Rostang","P12_POP":"123","C12_POP15P":"105","C12_POP15P_CS1":"0","C12_POP15P_CS2":"15","C12_POP15P_CS3":"11","C12_POP15P_CS4":"38","C12_POP15P_CS5":"11","C12_POP15P_CS6":"8","C12_POP15P_CS7":"11","C12_POP15P_CS8":"11","TxCS6":"7.619048"}
,{"CODGEO":"06099","REG":"93","DEP":"06","LIBGEO":"Puget-Théniers","P12_POP":"1840","C12_POP15P":"1502","C12_POP15P_CS1":"10","C12_POP15P_CS2":"101","C12_POP15P_CS3":"49","C12_POP15P_CS4":"170","C12_POP15P_CS5":"294","C12_POP15P_CS6":"193","C12_POP15P_CS7":"349","C12_POP15P_CS8":"336","TxCS6":"12.849533"}
,{"CODGEO":"06100","REG":"93","DEP":"06","LIBGEO":"Revest-les-Roches","P12_POP":"211","C12_POP15P":"207","C12_POP15P_CS1":"0","C12_POP15P_CS2":"8","C12_POP15P_CS3":"8","C12_POP15P_CS4":"20","C12_POP15P_CS5":"52","C12_POP15P_CS6":"12","C12_POP15P_CS7":"68","C12_POP15P_CS8":"40","TxCS6":"5.7971015"}
,{"CODGEO":"06101","REG":"93","DEP":"06","LIBGEO":"Rigaud","P12_POP":"220","C12_POP15P":"185","C12_POP15P_CS1":"4","C12_POP15P_CS2":"8","C12_POP15P_CS3":"16","C12_POP15P_CS4":"24","C12_POP15P_CS5":"40","C12_POP15P_CS6":"20","C12_POP15P_CS7":"44","C12_POP15P_CS8":"28","TxCS6":"10.810811"}
,{"CODGEO":"06102","REG":"93","DEP":"06","LIBGEO":"Rimplas","P12_POP":"141","C12_POP15P":"137","C12_POP15P_CS1":"0","C12_POP15P_CS2":"12","C12_POP15P_CS3":"4","C12_POP15P_CS4":"21","C12_POP15P_CS5":"12","C12_POP15P_CS6":"12","C12_POP15P_CS7":"50","C12_POP15P_CS8":"25","TxCS6":"8.759124"}
,{"CODGEO":"06103","REG":"93","DEP":"06","LIBGEO":"Roquebillière","P12_POP":"1752","C12_POP15P":"1552","C12_POP15P_CS1":"20","C12_POP15P_CS2":"100","C12_POP15P_CS3":"24","C12_POP15P_CS4":"152","C12_POP15P_CS5":"208","C12_POP15P_CS6":"228","C12_POP15P_CS7":"596","C12_POP15P_CS8":"224","TxCS6":"14.6907215"}
,{"CODGEO":"06104","REG":"93","DEP":"06","LIBGEO":"Roquebrune-Cap-Martin","P12_POP":"12641","C12_POP15P":"10747","C12_POP15P_CS1":"0","C12_POP15P_CS2":"516","C12_POP15P_CS3":"747","C12_POP15P_CS4":"1460","C12_POP15P_CS5":"2405","C12_POP15P_CS6":"925","C12_POP15P_CS7":"3243","C12_POP15P_CS8":"1452","TxCS6":"8.607053"}
,{"CODGEO":"06105","REG":"93","DEP":"06","LIBGEO":"Roquefort-les-Pins","P12_POP":"6222","C12_POP15P":"5096","C12_POP15P_CS1":"4","C12_POP15P_CS2":"360","C12_POP15P_CS3":"1004","C12_POP15P_CS4":"708","C12_POP15P_CS5":"532","C12_POP15P_CS6":"208","C12_POP15P_CS7":"1552","C12_POP15P_CS8":"728","TxCS6":"4.0816326"}
,{"CODGEO":"06106","REG":"93","DEP":"06","LIBGEO":"Roquestéron","P12_POP":"559","C12_POP15P":"456","C12_POP15P_CS1":"0","C12_POP15P_CS2":"29","C12_POP15P_CS3":"5","C12_POP15P_CS4":"43","C12_POP15P_CS5":"95","C12_POP15P_CS6":"71","C12_POP15P_CS7":"144","C12_POP15P_CS8":"70","TxCS6":"15.570175"}
,{"CODGEO":"06107","REG":"93","DEP":"06","LIBGEO":"Roquestéron-Grasse","P12_POP":"81","C12_POP15P":"66","C12_POP15P_CS1":"0","C12_POP15P_CS2":"0","C12_POP15P_CS3":"0","C12_POP15P_CS4":"4","C12_POP15P_CS5":"4","C12_POP15P_CS6":"8","C12_POP15P_CS7":"37","C12_POP15P_CS8":"12","TxCS6":"12.121212"}
,{"CODGEO":"06108","REG":"93","DEP":"06","LIBGEO":"La Roquette-sur-Siagne","P12_POP":"5243","C12_POP15P":"4233","C12_POP15P_CS1":"31","C12_POP15P_CS2":"293","C12_POP15P_CS3":"483","C12_POP15P_CS4":"686","C12_POP15P_CS5":"756","C12_POP15P_CS6":"410","C12_POP15P_CS7":"1025","C12_POP15P_CS8":"550","TxCS6":"9.6858015"}
,{"CODGEO":"06109","REG":"93","DEP":"06","LIBGEO":"La Roquette-sur-Var","P12_POP":"897","C12_POP15P":"784","C12_POP15P_CS1":"12","C12_POP15P_CS2":"28","C12_POP15P_CS3":"32","C12_POP15P_CS4":"140","C12_POP15P_CS5":"160","C12_POP15P_CS6":"144","C12_POP15P_CS7":"184","C12_POP15P_CS8":"84","TxCS6":"18.367348"}
,{"CODGEO":"06110","REG":"93","DEP":"06","LIBGEO":"Roubion","P12_POP":"125","C12_POP15P":"109","C12_POP15P_CS1":"0","C12_POP15P_CS2":"24","C12_POP15P_CS3":"4","C12_POP15P_CS4":"16","C12_POP15P_CS5":"16","C12_POP15P_CS6":"4","C12_POP15P_CS7":"40","C12_POP15P_CS8":"4","TxCS6":"3.6697247"}
,{"CODGEO":"06111","REG":"93","DEP":"06","LIBGEO":"Roure","P12_POP":"205","C12_POP15P":"207","C12_POP15P_CS1":"0","C12_POP15P_CS2":"0","C12_POP15P_CS3":"9","C12_POP15P_CS4":"5","C12_POP15P_CS5":"43","C12_POP15P_CS6":"15","C12_POP15P_CS7":"115","C12_POP15P_CS8":"20","TxCS6":"7.2463765"}
,{"CODGEO":"06112","REG":"93","DEP":"06","LIBGEO":"Le Rouret","P12_POP":"3965","C12_POP15P":"3113","C12_POP15P_CS1":"0","C12_POP15P_CS2":"233","C12_POP15P_CS3":"716","C12_POP15P_CS4":"384","C12_POP15P_CS5":"400","C12_POP15P_CS6":"167","C12_POP15P_CS7":"692","C12_POP15P_CS8":"522","TxCS6":"5.3646"}
,{"CODGEO":"06113","REG":"93","DEP":"06","LIBGEO":"Sainte-Agnès","P12_POP":"1169","C12_POP15P":"981","C12_POP15P_CS1":"4","C12_POP15P_CS2":"52","C12_POP15P_CS3":"108","C12_POP15P_CS4":"167","C12_POP15P_CS5":"212","C12_POP15P_CS6":"65","C12_POP15P_CS7":"228","C12_POP15P_CS8":"145","TxCS6":"6.625892"}
,{"CODGEO":"06114","REG":"93","DEP":"06","LIBGEO":"Saint-André-de-la-Roche","P12_POP":"5346","C12_POP15P":"4425","C12_POP15P_CS1":"0","C12_POP15P_CS2":"151","C12_POP15P_CS3":"296","C12_POP15P_CS4":"738","C12_POP15P_CS5":"884","C12_POP15P_CS6":"536","C12_POP15P_CS7":"1036","C12_POP15P_CS8":"784","TxCS6":"12.112994"}
,{"CODGEO":"06115","REG":"93","DEP":"06","LIBGEO":"Saint-Antonin","P12_POP":"118","C12_POP15P":"109","C12_POP15P_CS1":"8","C12_POP15P_CS2":"0","C12_POP15P_CS3":"0","C12_POP15P_CS4":"8","C12_POP15P_CS5":"13","C12_POP15P_CS6":"8","C12_POP15P_CS7":"50","C12_POP15P_CS8":"21","TxCS6":"7.3394494"}
,{"CODGEO":"06116","REG":"93","DEP":"06","LIBGEO":"Saint-Auban","P12_POP":"228","C12_POP15P":"193","C12_POP15P_CS1":"4","C12_POP15P_CS2":"24","C12_POP15P_CS3":"12","C12_POP15P_CS4":"16","C12_POP15P_CS5":"8","C12_POP15P_CS6":"16","C12_POP15P_CS7":"102","C12_POP15P_CS8":"12","TxCS6":"8.290155"}
,{"CODGEO":"06117","REG":"93","DEP":"06","LIBGEO":"Saint-Blaise","P12_POP":"988","C12_POP15P":"787","C12_POP15P_CS1":"8","C12_POP15P_CS2":"25","C12_POP15P_CS3":"78","C12_POP15P_CS4":"136","C12_POP15P_CS5":"144","C12_POP15P_CS6":"136","C12_POP15P_CS7":"157","C12_POP15P_CS8":"103","TxCS6":"17.280813"}
,{"CODGEO":"06118","REG":"93","DEP":"06","LIBGEO":"Saint-Cézaire-sur-Siagne","P12_POP":"3772","C12_POP15P":"3056","C12_POP15P_CS1":"10","C12_POP15P_CS2":"260","C12_POP15P_CS3":"249","C12_POP15P_CS4":"498","C12_POP15P_CS5":"561","C12_POP15P_CS6":"267","C12_POP15P_CS7":"815","C12_POP15P_CS8":"397","TxCS6":"8.736911"}
,{"CODGEO":"06119","REG":"93","DEP":"06","LIBGEO":"Saint-Dalmas-le-Selvage","P12_POP":"125","C12_POP15P":"97","C12_POP15P_CS1":"0","C12_POP15P_CS2":"10","C12_POP15P_CS3":"5","C12_POP15P_CS4":"5","C12_POP15P_CS5":"0","C12_POP15P_CS6":"10","C12_POP15P_CS7":"61","C12_POP15P_CS8":"5","TxCS6":"10.3092785"}
,{"CODGEO":"06120","REG":"93","DEP":"06","LIBGEO":"Saint-Étienne-de-Tinée","P12_POP":"1298","C12_POP15P":"1114","C12_POP15P_CS1":"8","C12_POP15P_CS2":"76","C12_POP15P_CS3":"56","C12_POP15P_CS4":"156","C12_POP15P_CS5":"212","C12_POP15P_CS6":"156","C12_POP15P_CS7":"336","C12_POP15P_CS8":"112","TxCS6":"14.003592"}
,{"CODGEO":"06121","REG":"93","DEP":"06","LIBGEO":"Saint-Jean-Cap-Ferrat","P12_POP":"1889","C12_POP15P":"1609","C12_POP15P_CS1":"6","C12_POP15P_CS2":"137","C12_POP15P_CS3":"63","C12_POP15P_CS4":"115","C12_POP15P_CS5":"397","C12_POP15P_CS6":"164","C12_POP15P_CS7":"504","C12_POP15P_CS8":"223","TxCS6":"10.192666"}
,{"CODGEO":"06122","REG":"93","DEP":"06","LIBGEO":"Saint-Jeannet","P12_POP":"3887","C12_POP15P":"3237","C12_POP15P_CS1":"27","C12_POP15P_CS2":"226","C12_POP15P_CS3":"420","C12_POP15P_CS4":"471","C12_POP15P_CS5":"393","C12_POP15P_CS6":"281","C12_POP15P_CS7":"982","C12_POP15P_CS8":"437","TxCS6":"8.680877"}
,{"CODGEO":"06123","REG":"93","DEP":"06","LIBGEO":"Saint-Laurent-du-Var","P12_POP":"29343","C12_POP15P":"24867","C12_POP15P_CS1":"64","C12_POP15P_CS2":"1217","C12_POP15P_CS3":"2230","C12_POP15P_CS4":"4042","C12_POP15P_CS5":"4453","C12_POP15P_CS6":"2349","C12_POP15P_CS7":"7399","C12_POP15P_CS8":"3113","TxCS6":"9.446255"}
,{"CODGEO":"06124","REG":"93","DEP":"06","LIBGEO":"Saint-Léger","P12_POP":"69","C12_POP15P":"56","C12_POP15P_CS1":"0","C12_POP15P_CS2":"4","C12_POP15P_CS3":"0","C12_POP15P_CS4":"0","C12_POP15P_CS5":"0","C12_POP15P_CS6":"4","C12_POP15P_CS7":"48","C12_POP15P_CS8":"0","TxCS6":"7.1428576"}
,{"CODGEO":"06125","REG":"93","DEP":"06","LIBGEO":"Saint-Martin-d'Entraunes","P12_POP":"102","C12_POP15P":"84","C12_POP15P_CS1":"4","C12_POP15P_CS2":"7","C12_POP15P_CS3":"0","C12_POP15P_CS4":"4","C12_POP15P_CS5":"11","C12_POP15P_CS6":"22","C12_POP15P_CS7":"29","C12_POP15P_CS8":"7","TxCS6":"26.190477"}
,{"CODGEO":"06126","REG":"93","DEP":"06","LIBGEO":"Saint-Martin-du-Var","P12_POP":"2682","C12_POP15P":"2185","C12_POP15P_CS1":"0","C12_POP15P_CS2":"145","C12_POP15P_CS3":"129","C12_POP15P_CS4":"392","C12_POP15P_CS5":"400","C12_POP15P_CS6":"314","C12_POP15P_CS7":"553","C12_POP15P_CS8":"251","TxCS6":"14.370709"}
,{"CODGEO":"06127","REG":"93","DEP":"06","LIBGEO":"Saint-Martin-Vésubie","P12_POP":"1345","C12_POP15P":"1227","C12_POP15P_CS1":"5","C12_POP15P_CS2":"100","C12_POP15P_CS3":"48","C12_POP15P_CS4":"121","C12_POP15P_CS5":"183","C12_POP15P_CS6":"97","C12_POP15P_CS7":"517","C12_POP15P_CS8":"156","TxCS6":"7.9054604"}
,{"CODGEO":"06128","REG":"93","DEP":"06","LIBGEO":"Saint-Paul-de-Vence","P12_POP":"3548","C12_POP15P":"3028","C12_POP15P_CS1":"4","C12_POP15P_CS2":"281","C12_POP15P_CS3":"330","C12_POP15P_CS4":"407","C12_POP15P_CS5":"395","C12_POP15P_CS6":"155","C12_POP15P_CS7":"834","C12_POP15P_CS8":"623","TxCS6":"5.1188903"}
,{"CODGEO":"06129","REG":"93","DEP":"06","LIBGEO":"Saint-Sauveur-sur-Tinée","P12_POP":"347","C12_POP15P":"296","C12_POP15P_CS1":"0","C12_POP15P_CS2":"4","C12_POP15P_CS3":"20","C12_POP15P_CS4":"40","C12_POP15P_CS5":"68","C12_POP15P_CS6":"40","C12_POP15P_CS7":"88","C12_POP15P_CS8":"36","TxCS6":"13.513513"}
,{"CODGEO":"06130","REG":"93","DEP":"06","LIBGEO":"Saint-Vallier-de-Thiey","P12_POP":"3478","C12_POP15P":"2739","C12_POP15P_CS1":"4","C12_POP15P_CS2":"224","C12_POP15P_CS3":"284","C12_POP15P_CS4":"469","C12_POP15P_CS5":"536","C12_POP15P_CS6":"328","C12_POP15P_CS7":"504","C12_POP15P_CS8":"390","TxCS6":"11.975174"}
,{"CODGEO":"06131","REG":"93","DEP":"06","LIBGEO":"Sallagriffon","P12_POP":"45","C12_POP15P":"40","C12_POP15P_CS1":"0","C12_POP15P_CS2":"0","C12_POP15P_CS3":"8","C12_POP15P_CS4":"4","C12_POP15P_CS5":"8","C12_POP15P_CS6":"0","C12_POP15P_CS7":"16","C12_POP15P_CS8":"4","TxCS6":"0.0"}
,{"CODGEO":"06132","REG":"93","DEP":"06","LIBGEO":"Saorge","P12_POP":"444","C12_POP15P":"390","C12_POP15P_CS1":"8","C12_POP15P_CS2":"20","C12_POP15P_CS3":"16","C12_POP15P_CS4":"64","C12_POP15P_CS5":"64","C12_POP15P_CS6":"44","C12_POP15P_CS7":"120","C12_POP15P_CS8":"56","TxCS6":"11.282051"}
,{"CODGEO":"06133","REG":"93","DEP":"06","LIBGEO":"Sauze","P12_POP":"84","C12_POP15P":"84","C12_POP15P_CS1":"4","C12_POP15P_CS2":"4","C12_POP15P_CS3":"0","C12_POP15P_CS4":"12","C12_POP15P_CS5":"16","C12_POP15P_CS6":"0","C12_POP15P_CS7":"44","C12_POP15P_CS8":"4","TxCS6":"0.0"}
,{"CODGEO":"06134","REG":"93","DEP":"06","LIBGEO":"Séranon","P12_POP":"482","C12_POP15P":"375","C12_POP15P_CS1":"0","C12_POP15P_CS2":"24","C12_POP15P_CS3":"16","C12_POP15P_CS4":"39","C12_POP15P_CS5":"83","C12_POP15P_CS6":"67","C12_POP15P_CS7":"110","C12_POP15P_CS8":"35","TxCS6":"17.866667"}
,{"CODGEO":"06135","REG":"93","DEP":"06","LIBGEO":"Sigale","P12_POP":"210","C12_POP15P":"160","C12_POP15P_CS1":"0","C12_POP15P_CS2":"0","C12_POP15P_CS3":"4","C12_POP15P_CS4":"8","C12_POP15P_CS5":"44","C12_POP15P_CS6":"36","C12_POP15P_CS7":"56","C12_POP15P_CS8":"12","TxCS6":"22.5"}
,{"CODGEO":"06136","REG":"93","DEP":"06","LIBGEO":"Sospel","P12_POP":"3568","C12_POP15P":"2979","C12_POP15P_CS1":"36","C12_POP15P_CS2":"125","C12_POP15P_CS3":"118","C12_POP15P_CS4":"344","C12_POP15P_CS5":"647","C12_POP15P_CS6":"319","C12_POP15P_CS7":"986","C12_POP15P_CS8":"403","TxCS6":"10.708291"}
,{"CODGEO":"06137","REG":"93","DEP":"06","LIBGEO":"Spéracèdes","P12_POP":"1279","C12_POP15P":"1062","C12_POP15P_CS1":"5","C12_POP15P_CS2":"103","C12_POP15P_CS3":"103","C12_POP15P_CS4":"173","C12_POP15P_CS5":"108","C12_POP15P_CS6":"45","C12_POP15P_CS7":"379","C12_POP15P_CS8":"147","TxCS6":"4.2372885"}
,{"CODGEO":"06138","REG":"93","DEP":"06","LIBGEO":"Théoule-sur-Mer","P12_POP":"1526","C12_POP15P":"1314","C12_POP15P_CS1":"4","C12_POP15P_CS2":"92","C12_POP15P_CS3":"52","C12_POP15P_CS4":"165","C12_POP15P_CS5":"271","C12_POP15P_CS6":"85","C12_POP15P_CS7":"447","C12_POP15P_CS8":"198","TxCS6":"6.4687977"}
,{"CODGEO":"06139","REG":"93","DEP":"06","LIBGEO":"Thiéry","P12_POP":"104","C12_POP15P":"87","C12_POP15P_CS1":"0","C12_POP15P_CS2":"10","C12_POP15P_CS3":"0","C12_POP15P_CS4":"5","C12_POP15P_CS5":"5","C12_POP15P_CS6":"0","C12_POP15P_CS7":"66","C12_POP15P_CS8":"0","TxCS6":"0.0"}
,{"CODGEO":"06140","REG":"93","DEP":"06","LIBGEO":"Le Tignet","P12_POP":"3225","C12_POP15P":"2653","C12_POP15P_CS1":"0","C12_POP15P_CS2":"170","C12_POP15P_CS3":"213","C12_POP15P_CS4":"411","C12_POP15P_CS5":"482","C12_POP15P_CS6":"237","C12_POP15P_CS7":"821","C12_POP15P_CS8":"320","TxCS6":"8.933284"}
,{"CODGEO":"06141","REG":"93","DEP":"06","LIBGEO":"Toudon","P12_POP":"317","C12_POP15P":"248","C12_POP15P_CS1":"12","C12_POP15P_CS2":"8","C12_POP15P_CS3":"24","C12_POP15P_CS4":"20","C12_POP15P_CS5":"64","C12_POP15P_CS6":"28","C12_POP15P_CS7":"76","C12_POP15P_CS8":"16","TxCS6":"11.290322"}
,{"CODGEO":"06142","REG":"93","DEP":"06","LIBGEO":"Touët-de-l'Escarène","P12_POP":"313","C12_POP15P":"243","C12_POP15P_CS1":"4","C12_POP15P_CS2":"4","C12_POP15P_CS3":"19","C12_POP15P_CS4":"50","C12_POP15P_CS5":"58","C12_POP15P_CS6":"27","C12_POP15P_CS7":"54","C12_POP15P_CS8":"27","TxCS6":"11.111112"}
,{"CODGEO":"06143","REG":"93","DEP":"06","LIBGEO":"Touët-sur-Var","P12_POP":"686","C12_POP15P":"527","C12_POP15P_CS1":"0","C12_POP15P_CS2":"40","C12_POP15P_CS3":"20","C12_POP15P_CS4":"48","C12_POP15P_CS5":"121","C12_POP15P_CS6":"72","C12_POP15P_CS7":"133","C12_POP15P_CS8":"93","TxCS6":"13.662238"}
,{"CODGEO":"06144","REG":"93","DEP":"06","LIBGEO":"La Tour","P12_POP":"537","C12_POP15P":"454","C12_POP15P_CS1":"7","C12_POP15P_CS2":"34","C12_POP15P_CS3":"19","C12_POP15P_CS4":"63","C12_POP15P_CS5":"41","C12_POP15P_CS6":"74","C12_POP15P_CS7":"115","C12_POP15P_CS8":"101","TxCS6":"16.299559"}
,{"CODGEO":"06145","REG":"93","DEP":"06","LIBGEO":"Tourette-du-Château","P12_POP":"119","C12_POP15P":"118","C12_POP15P_CS1":"0","C12_POP15P_CS2":"12","C12_POP15P_CS3":"4","C12_POP15P_CS4":"4","C12_POP15P_CS5":"24","C12_POP15P_CS6":"20","C12_POP15P_CS7":"45","C12_POP15P_CS8":"8","TxCS6":"16.949154"}
,{"CODGEO":"06146","REG":"93","DEP":"06","LIBGEO":"Tournefort","P12_POP":"140","C12_POP15P":"106","C12_POP15P_CS1":"4","C12_POP15P_CS2":"4","C12_POP15P_CS3":"4","C12_POP15P_CS4":"20","C12_POP15P_CS5":"37","C12_POP15P_CS6":"16","C12_POP15P_CS7":"20","C12_POP15P_CS8":"0","TxCS6":"15.094339"}
,{"CODGEO":"06147","REG":"93","DEP":"06","LIBGEO":"Tourrette-Levens","P12_POP":"4786","C12_POP15P":"3905","C12_POP15P_CS1":"4","C12_POP15P_CS2":"178","C12_POP15P_CS3":"275","C12_POP15P_CS4":"713","C12_POP15P_CS5":"732","C12_POP15P_CS6":"308","C12_POP15P_CS7":"1111","C12_POP15P_CS8":"584","TxCS6":"7.887324"}
,{"CODGEO":"06148","REG":"93","DEP":"06","LIBGEO":"Tourrettes-sur-Loup","P12_POP":"3993","C12_POP15P":"3282","C12_POP15P_CS1":"24","C12_POP15P_CS2":"270","C12_POP15P_CS3":"402","C12_POP15P_CS4":"401","C12_POP15P_CS5":"404","C12_POP15P_CS6":"203","C12_POP15P_CS7":"1078","C12_POP15P_CS8":"500","TxCS6":"6.185253"}
,{"CODGEO":"06149","REG":"93","DEP":"06","LIBGEO":"La Trinité","P12_POP":"10085","C12_POP15P":"8180","C12_POP15P_CS1":"2","C12_POP15P_CS2":"354","C12_POP15P_CS3":"341","C12_POP15P_CS4":"1086","C12_POP15P_CS5":"1897","C12_POP15P_CS6":"1144","C12_POP15P_CS7":"2117","C12_POP15P_CS8":"1240","TxCS6":"13.98533"}
,{"CODGEO":"06150","REG":"93","DEP":"06","LIBGEO":"La Turbie","P12_POP":"3179","C12_POP15P":"2632","C12_POP15P_CS1":"0","C12_POP15P_CS2":"157","C12_POP15P_CS3":"308","C12_POP15P_CS4":"401","C12_POP15P_CS5":"421","C12_POP15P_CS6":"242","C12_POP15P_CS7":"797","C12_POP15P_CS8":"305","TxCS6":"9.194529"}
,{"CODGEO":"06151","REG":"93","DEP":"06","LIBGEO":"Utelle","P12_POP":"765","C12_POP15P":"592","C12_POP15P_CS1":"0","C12_POP15P_CS2":"24","C12_POP15P_CS3":"32","C12_POP15P_CS4":"52","C12_POP15P_CS5":"132","C12_POP15P_CS6":"112","C12_POP15P_CS7":"188","C12_POP15P_CS8":"52","TxCS6":"18.918919"}
,{"CODGEO":"06152","REG":"93","DEP":"06","LIBGEO":"Valbonne","P12_POP":"12619","C12_POP15P":"10350","C12_POP15P_CS1":"18","C12_POP15P_CS2":"523","C12_POP15P_CS3":"1937","C12_POP15P_CS4":"1447","C12_POP15P_CS5":"1555","C12_POP15P_CS6":"780","C12_POP15P_CS7":"1617","C12_POP15P_CS8":"2472","TxCS6":"7.5362315"}
,{"CODGEO":"06153","REG":"93","DEP":"06","LIBGEO":"Valdeblore","P12_POP":"908","C12_POP15P":"774","C12_POP15P_CS1":"4","C12_POP15P_CS2":"82","C12_POP15P_CS3":"33","C12_POP15P_CS4":"115","C12_POP15P_CS5":"132","C12_POP15P_CS6":"49","C12_POP15P_CS7":"239","C12_POP15P_CS8":"119","TxCS6":"6.3307495"}
,{"CODGEO":"06154","REG":"93","DEP":"06","LIBGEO":"Valderoure","P12_POP":"421","C12_POP15P":"352","C12_POP15P_CS1":"8","C12_POP15P_CS2":"48","C12_POP15P_CS3":"8","C12_POP15P_CS4":"48","C12_POP15P_CS5":"16","C12_POP15P_CS6":"32","C12_POP15P_CS7":"136","C12_POP15P_CS8":"56","TxCS6":"9.090909"}
,{"CODGEO":"06155","REG":"93","DEP":"06","LIBGEO":"Vallauris","P12_POP":"26595","C12_POP15P":"22478","C12_POP15P_CS1":"32","C12_POP15P_CS2":"1274","C12_POP15P_CS3":"1562","C12_POP15P_CS4":"2339","C12_POP15P_CS5":"3706","C12_POP15P_CS6":"2253","C12_POP15P_CS7":"7816","C12_POP15P_CS8":"3496","TxCS6":"10.023133"}
,{"CODGEO":"06156","REG":"93","DEP":"06","LIBGEO":"Venanson","P12_POP":"152","C12_POP15P":"146","C12_POP15P_CS1":"0","C12_POP15P_CS2":"12","C12_POP15P_CS3":"4","C12_POP15P_CS4":"20","C12_POP15P_CS5":"28","C12_POP15P_CS6":"28","C12_POP15P_CS7":"51","C12_POP15P_CS8":"4","TxCS6":"19.178082"}
,{"CODGEO":"06157","REG":"93","DEP":"06","LIBGEO":"Vence","P12_POP":"19241","C12_POP15P":"16124","C12_POP15P_CS1":"76","C12_POP15P_CS2":"1000","C12_POP15P_CS3":"1699","C12_POP15P_CS4":"2093","C12_POP15P_CS5":"2367","C12_POP15P_CS6":"1333","C12_POP15P_CS7":"4792","C12_POP15P_CS8":"2763","TxCS6":"8.2671795"}
,{"CODGEO":"06158","REG":"93","DEP":"06","LIBGEO":"Villars-sur-Var","P12_POP":"667","C12_POP15P":"529","C12_POP15P_CS1":"8","C12_POP15P_CS2":"28","C12_POP15P_CS3":"12","C12_POP15P_CS4":"72","C12_POP15P_CS5":"123","C12_POP15P_CS6":"68","C12_POP15P_CS7":"139","C12_POP15P_CS8":"80","TxCS6":"12.854442"}
,{"CODGEO":"06159","REG":"93","DEP":"06","LIBGEO":"Villefranche-sur-Mer","P12_POP":"5443","C12_POP15P":"4837","C12_POP15P_CS1":"20","C12_POP15P_CS2":"265","C12_POP15P_CS3":"462","C12_POP15P_CS4":"510","C12_POP15P_CS5":"723","C12_POP15P_CS6":"317","C12_POP15P_CS7":"1710","C12_POP15P_CS8":"830","TxCS6":"6.553649"}
,{"CODGEO":"06160","REG":"93","DEP":"06","LIBGEO":"Villeneuve-d'Entraunes","P12_POP":"73","C12_POP15P":"70","C12_POP15P_CS1":"0","C12_POP15P_CS2":"0","C12_POP15P_CS3":"0","C12_POP15P_CS4":"9","C12_POP15P_CS5":"9","C12_POP15P_CS6":"0","C12_POP15P_CS7":"44","C12_POP15P_CS8":"9","TxCS6":"0.0"}
,{"CODGEO":"06161","REG":"93","DEP":"06","LIBGEO":"Villeneuve-Loubet","P12_POP":"14814","C12_POP15P":"12235","C12_POP15P_CS1":"22","C12_POP15P_CS2":"722","C12_POP15P_CS3":"1566","C12_POP15P_CS4":"2153","C12_POP15P_CS5":"2170","C12_POP15P_CS6":"981","C12_POP15P_CS7":"3214","C12_POP15P_CS8":"1407","TxCS6":"8.017981"}
,{"CODGEO":"06162","REG":"93","DEP":"06","LIBGEO":"La Brigue","P12_POP":"726","C12_POP15P":"673","C12_POP15P_CS1":"0","C12_POP15P_CS2":"43","C12_POP15P_CS3":"16","C12_POP15P_CS4":"83","C12_POP15P_CS5":"119","C12_POP15P_CS6":"40","C12_POP15P_CS7":"229","C12_POP15P_CS8":"143","TxCS6":"5.9435363"}
,{"CODGEO":"06163","REG":"93","DEP":"06","LIBGEO":"Tende","P12_POP":"2153","C12_POP15P":"1857","C12_POP15P_CS1":"20","C12_POP15P_CS2":"90","C12_POP15P_CS3":"33","C12_POP15P_CS4":"171","C12_POP15P_CS5":"388","C12_POP15P_CS6":"175","C12_POP15P_CS7":"755","C12_POP15P_CS8":"224","TxCS6":"9.423802"}
]}
