{"status":"success","data":[{"CODGEO":"12001","REG":"73","DEP":"12","LIBGEO":"Agen-d'Aveyron","P12_POP":"1076","C12_POP15P":"874","C12_POP15P_CS1":"51","C12_POP15P_CS2":"36","C12_POP15P_CS3":"59","C12_POP15P_CS4":"146","C12_POP15P_CS5":"103","C12_POP15P_CS6":"131","C12_POP15P_CS7":"249","C12_POP15P_CS8":"99","TxCS6":"14.988558"}
,{"CODGEO":"12002","REG":"73","DEP":"12","LIBGEO":"Aguessac","P12_POP":"858","C12_POP15P":"685","C12_POP15P_CS1":"16","C12_POP15P_CS2":"51","C12_POP15P_CS3":"12","C12_POP15P_CS4":"110","C12_POP15P_CS5":"146","C12_POP15P_CS6":"114","C12_POP15P_CS7":"161","C12_POP15P_CS8":"75","TxCS6":"16.642336"}
,{"CODGEO":"12003","REG":"73","DEP":"12","LIBGEO":"Les Albres","P12_POP":"331","C12_POP15P":"291","C12_POP15P_CS1":"16","C12_POP15P_CS2":"4","C12_POP15P_CS3":"4","C12_POP15P_CS4":"43","C12_POP15P_CS5":"35","C12_POP15P_CS6":"51","C12_POP15P_CS7":"106","C12_POP15P_CS8":"31","TxCS6":"17.525772"}
,{"CODGEO":"12004","REG":"73","DEP":"12","LIBGEO":"Almont-les-Junies","P12_POP":"482","C12_POP15P":"384","C12_POP15P_CS1":"32","C12_POP15P_CS2":"12","C12_POP15P_CS3":"16","C12_POP15P_CS4":"44","C12_POP15P_CS5":"20","C12_POP15P_CS6":"84","C12_POP15P_CS7":"144","C12_POP15P_CS8":"32","TxCS6":"21.875"}
,{"CODGEO":"12005","REG":"73","DEP":"12","LIBGEO":"Alpuech","P12_POP":"67","C12_POP15P":"60","C12_POP15P_CS1":"4","C12_POP15P_CS2":"0","C12_POP15P_CS3":"0","C12_POP15P_CS4":"0","C12_POP15P_CS5":"8","C12_POP15P_CS6":"4","C12_POP15P_CS7":"28","C12_POP15P_CS8":"16","TxCS6":"6.666667"}
,{"CODGEO":"12006","REG":"73","DEP":"12","LIBGEO":"Alrance","P12_POP":"383","C12_POP15P":"365","C12_POP15P_CS1":"80","C12_POP15P_CS2":"11","C12_POP15P_CS3":"5","C12_POP15P_CS4":"27","C12_POP15P_CS5":"21","C12_POP15P_CS6":"16","C12_POP15P_CS7":"161","C12_POP15P_CS8":"43","TxCS6":"4.3835616"}
,{"CODGEO":"12007","REG":"73","DEP":"12","LIBGEO":"Ambeyrac","P12_POP":"180","C12_POP15P":"156","C12_POP15P_CS1":"4","C12_POP15P_CS2":"16","C12_POP15P_CS3":"0","C12_POP15P_CS4":"8","C12_POP15P_CS5":"23","C12_POP15P_CS6":"23","C12_POP15P_CS7":"70","C12_POP15P_CS8":"12","TxCS6":"14.74359"}
,{"CODGEO":"12008","REG":"73","DEP":"12","LIBGEO":"Anglars-Saint-Félix","P12_POP":"754","C12_POP15P":"570","C12_POP15P_CS1":"34","C12_POP15P_CS2":"0","C12_POP15P_CS3":"26","C12_POP15P_CS4":"98","C12_POP15P_CS5":"98","C12_POP15P_CS6":"89","C12_POP15P_CS7":"166","C12_POP15P_CS8":"60","TxCS6":"15.614036"}
,{"CODGEO":"12009","REG":"73","DEP":"12","LIBGEO":"Arnac-sur-Dourdou","P12_POP":"37","C12_POP15P":"32","C12_POP15P_CS1":"8","C12_POP15P_CS2":"0","C12_POP15P_CS3":"0","C12_POP15P_CS4":"0","C12_POP15P_CS5":"4","C12_POP15P_CS6":"0","C12_POP15P_CS7":"20","C12_POP15P_CS8":"0","TxCS6":"0.0"}
,{"CODGEO":"12010","REG":"73","DEP":"12","LIBGEO":"Arques","P12_POP":"120","C12_POP15P":"101","C12_POP15P_CS1":"19","C12_POP15P_CS2":"5","C12_POP15P_CS3":"0","C12_POP15P_CS4":"10","C12_POP15P_CS5":"10","C12_POP15P_CS6":"14","C12_POP15P_CS7":"38","C12_POP15P_CS8":"5","TxCS6":"13.861386"}
,{"CODGEO":"12011","REG":"73","DEP":"12","LIBGEO":"Arvieu","P12_POP":"820","C12_POP15P":"675","C12_POP15P_CS1":"132","C12_POP15P_CS2":"58","C12_POP15P_CS3":"25","C12_POP15P_CS4":"25","C12_POP15P_CS5":"62","C12_POP15P_CS6":"33","C12_POP15P_CS7":"280","C12_POP15P_CS8":"62","TxCS6":"4.888889"}
,{"CODGEO":"12012","REG":"73","DEP":"12","LIBGEO":"Asprières","P12_POP":"701","C12_POP15P":"609","C12_POP15P_CS1":"5","C12_POP15P_CS2":"24","C12_POP15P_CS3":"5","C12_POP15P_CS4":"78","C12_POP15P_CS5":"68","C12_POP15P_CS6":"92","C12_POP15P_CS7":"244","C12_POP15P_CS8":"92","TxCS6":"15.106731"}
,{"CODGEO":"12013","REG":"73","DEP":"12","LIBGEO":"Aubin","P12_POP":"3937","C12_POP15P":"3362","C12_POP15P_CS1":"4","C12_POP15P_CS2":"123","C12_POP15P_CS3":"96","C12_POP15P_CS4":"342","C12_POP15P_CS5":"482","C12_POP15P_CS6":"506","C12_POP15P_CS7":"1339","C12_POP15P_CS8":"470","TxCS6":"15.050565"}
,{"CODGEO":"12014","REG":"73","DEP":"12","LIBGEO":"Aurelle-Verlac","P12_POP":"164","C12_POP15P":"151","C12_POP15P_CS1":"24","C12_POP15P_CS2":"8","C12_POP15P_CS3":"8","C12_POP15P_CS4":"12","C12_POP15P_CS5":"12","C12_POP15P_CS6":"8","C12_POP15P_CS7":"80","C12_POP15P_CS8":"0","TxCS6":"5.298013"}
,{"CODGEO":"12015","REG":"73","DEP":"12","LIBGEO":"Auriac-Lagast","P12_POP":"234","C12_POP15P":"193","C12_POP15P_CS1":"40","C12_POP15P_CS2":"4","C12_POP15P_CS3":"0","C12_POP15P_CS4":"28","C12_POP15P_CS5":"16","C12_POP15P_CS6":"20","C12_POP15P_CS7":"56","C12_POP15P_CS8":"28","TxCS6":"10.362695"}
,{"CODGEO":"12016","REG":"73","DEP":"12","LIBGEO":"Auzits","P12_POP":"859","C12_POP15P":"753","C12_POP15P_CS1":"25","C12_POP15P_CS2":"45","C12_POP15P_CS3":"10","C12_POP15P_CS4":"115","C12_POP15P_CS5":"125","C12_POP15P_CS6":"55","C12_POP15P_CS7":"288","C12_POP15P_CS8":"90","TxCS6":"7.304117"}
,{"CODGEO":"12017","REG":"73","DEP":"12","LIBGEO":"Ayssènes","P12_POP":"212","C12_POP15P":"181","C12_POP15P_CS1":"24","C12_POP15P_CS2":"12","C12_POP15P_CS3":"4","C12_POP15P_CS4":"20","C12_POP15P_CS5":"8","C12_POP15P_CS6":"24","C12_POP15P_CS7":"72","C12_POP15P_CS8":"16","TxCS6":"13.259668"}
,{"CODGEO":"12018","REG":"73","DEP":"12","LIBGEO":"Balaguier-d'Olt","P12_POP":"136","C12_POP15P":"117","C12_POP15P_CS1":"0","C12_POP15P_CS2":"4","C12_POP15P_CS3":"9","C12_POP15P_CS4":"9","C12_POP15P_CS5":"31","C12_POP15P_CS6":"9","C12_POP15P_CS7":"29","C12_POP15P_CS8":"26","TxCS6":"7.692308"}
,{"CODGEO":"12019","REG":"73","DEP":"12","LIBGEO":"Balaguier-sur-Rance","P12_POP":"100","C12_POP15P":"81","C12_POP15P_CS1":"12","C12_POP15P_CS2":"4","C12_POP15P_CS3":"4","C12_POP15P_CS4":"8","C12_POP15P_CS5":"8","C12_POP15P_CS6":"8","C12_POP15P_CS7":"35","C12_POP15P_CS8":"4","TxCS6":"9.876543"}
,{"CODGEO":"12020","REG":"73","DEP":"12","LIBGEO":"Balsac","P12_POP":"615","C12_POP15P":"455","C12_POP15P_CS1":"28","C12_POP15P_CS2":"8","C12_POP15P_CS3":"24","C12_POP15P_CS4":"97","C12_POP15P_CS5":"97","C12_POP15P_CS6":"76","C12_POP15P_CS7":"93","C12_POP15P_CS8":"32","TxCS6":"16.703297"}
,{"CODGEO":"12021","REG":"73","DEP":"12","LIBGEO":"La Bastide-l'Évêque","P12_POP":"826","C12_POP15P":"699","C12_POP15P_CS1":"100","C12_POP15P_CS2":"40","C12_POP15P_CS3":"28","C12_POP15P_CS4":"52","C12_POP15P_CS5":"80","C12_POP15P_CS6":"80","C12_POP15P_CS7":"253","C12_POP15P_CS8":"64","TxCS6":"11.4449215"}
,{"CODGEO":"12022","REG":"73","DEP":"12","LIBGEO":"La Bastide-Pradines","P12_POP":"109","C12_POP15P":"90","C12_POP15P_CS1":"8","C12_POP15P_CS2":"4","C12_POP15P_CS3":"8","C12_POP15P_CS4":"12","C12_POP15P_CS5":"12","C12_POP15P_CS6":"4","C12_POP15P_CS7":"31","C12_POP15P_CS8":"12","TxCS6":"4.4444447"}
,{"CODGEO":"12023","REG":"73","DEP":"12","LIBGEO":"La Bastide-Solages","P12_POP":"112","C12_POP15P":"118","C12_POP15P_CS1":"16","C12_POP15P_CS2":"4","C12_POP15P_CS3":"0","C12_POP15P_CS4":"8","C12_POP15P_CS5":"4","C12_POP15P_CS6":"16","C12_POP15P_CS7":"61","C12_POP15P_CS8":"8","TxCS6":"13.559322"}
,{"CODGEO":"12024","REG":"73","DEP":"12","LIBGEO":"Belcastel","P12_POP":"216","C12_POP15P":"197","C12_POP15P_CS1":"17","C12_POP15P_CS2":"0","C12_POP15P_CS3":"6","C12_POP15P_CS4":"11","C12_POP15P_CS5":"17","C12_POP15P_CS6":"11","C12_POP15P_CS7":"124","C12_POP15P_CS8":"11","TxCS6":"5.5837564"}
,{"CODGEO":"12025","REG":"73","DEP":"12","LIBGEO":"Belmont-sur-Rance","P12_POP":"976","C12_POP15P":"872","C12_POP15P_CS1":"44","C12_POP15P_CS2":"48","C12_POP15P_CS3":"20","C12_POP15P_CS4":"88","C12_POP15P_CS5":"104","C12_POP15P_CS6":"140","C12_POP15P_CS7":"284","C12_POP15P_CS8":"144","TxCS6":"16.055046"}
,{"CODGEO":"12026","REG":"73","DEP":"12","LIBGEO":"Bertholène","P12_POP":"1013","C12_POP15P":"824","C12_POP15P_CS1":"44","C12_POP15P_CS2":"44","C12_POP15P_CS3":"28","C12_POP15P_CS4":"88","C12_POP15P_CS5":"152","C12_POP15P_CS6":"124","C12_POP15P_CS7":"272","C12_POP15P_CS8":"72","TxCS6":"15.048544"}
,{"CODGEO":"12027","REG":"73","DEP":"12","LIBGEO":"Bessuéjouls","P12_POP":"250","C12_POP15P":"199","C12_POP15P_CS1":"4","C12_POP15P_CS2":"0","C12_POP15P_CS3":"12","C12_POP15P_CS4":"8","C12_POP15P_CS5":"44","C12_POP15P_CS6":"40","C12_POP15P_CS7":"72","C12_POP15P_CS8":"20","TxCS6":"20.100502"}
,{"CODGEO":"12028","REG":"73","DEP":"12","LIBGEO":"Boisse-Penchot","P12_POP":"538","C12_POP15P":"444","C12_POP15P_CS1":"0","C12_POP15P_CS2":"8","C12_POP15P_CS3":"4","C12_POP15P_CS4":"48","C12_POP15P_CS5":"48","C12_POP15P_CS6":"76","C12_POP15P_CS7":"196","C12_POP15P_CS8":"64","TxCS6":"17.117117"}
,{"CODGEO":"12029","REG":"73","DEP":"12","LIBGEO":"Bor-et-Bar","P12_POP":"190","C12_POP15P":"160","C12_POP15P_CS1":"19","C12_POP15P_CS2":"5","C12_POP15P_CS3":"5","C12_POP15P_CS4":"15","C12_POP15P_CS5":"34","C12_POP15P_CS6":"15","C12_POP15P_CS7":"58","C12_POP15P_CS8":"10","TxCS6":"9.375"}
,{"CODGEO":"12030","REG":"73","DEP":"12","LIBGEO":"Bouillac","P12_POP":"435","C12_POP15P":"342","C12_POP15P_CS1":"0","C12_POP15P_CS2":"26","C12_POP15P_CS3":"15","C12_POP15P_CS4":"46","C12_POP15P_CS5":"26","C12_POP15P_CS6":"57","C12_POP15P_CS7":"147","C12_POP15P_CS8":"26","TxCS6":"16.666668"}
,{"CODGEO":"12031","REG":"73","DEP":"12","LIBGEO":"Bournazel","P12_POP":"319","C12_POP15P":"250","C12_POP15P_CS1":"16","C12_POP15P_CS2":"4","C12_POP15P_CS3":"12","C12_POP15P_CS4":"33","C12_POP15P_CS5":"33","C12_POP15P_CS6":"45","C12_POP15P_CS7":"94","C12_POP15P_CS8":"12","TxCS6":"18.0"}
,{"CODGEO":"12032","REG":"73","DEP":"12","LIBGEO":"Boussac","P12_POP":"534","C12_POP15P":"437","C12_POP15P_CS1":"32","C12_POP15P_CS2":"12","C12_POP15P_CS3":"8","C12_POP15P_CS4":"45","C12_POP15P_CS5":"77","C12_POP15P_CS6":"53","C12_POP15P_CS7":"186","C12_POP15P_CS8":"24","TxCS6":"12.128147"}
,{"CODGEO":"12033","REG":"73","DEP":"12","LIBGEO":"Bozouls","P12_POP":"2742","C12_POP15P":"2206","C12_POP15P_CS1":"92","C12_POP15P_CS2":"111","C12_POP15P_CS3":"48","C12_POP15P_CS4":"307","C12_POP15P_CS5":"402","C12_POP15P_CS6":"311","C12_POP15P_CS7":"748","C12_POP15P_CS8":"187","TxCS6":"14.097914"}
,{"CODGEO":"12034","REG":"73","DEP":"12","LIBGEO":"Brandonnet","P12_POP":"314","C12_POP15P":"256","C12_POP15P_CS1":"8","C12_POP15P_CS2":"0","C12_POP15P_CS3":"12","C12_POP15P_CS4":"33","C12_POP15P_CS5":"28","C12_POP15P_CS6":"37","C12_POP15P_CS7":"114","C12_POP15P_CS8":"24","TxCS6":"14.453125"}
,{"CODGEO":"12035","REG":"73","DEP":"12","LIBGEO":"Brasc","P12_POP":"177","C12_POP15P":"142","C12_POP15P_CS1":"30","C12_POP15P_CS2":"9","C12_POP15P_CS3":"4","C12_POP15P_CS4":"4","C12_POP15P_CS5":"17","C12_POP15P_CS6":"4","C12_POP15P_CS7":"52","C12_POP15P_CS8":"22","TxCS6":"2.8169014"}
,{"CODGEO":"12036","REG":"73","DEP":"12","LIBGEO":"Brommat","P12_POP":"662","C12_POP15P":"553","C12_POP15P_CS1":"20","C12_POP15P_CS2":"25","C12_POP15P_CS3":"20","C12_POP15P_CS4":"61","C12_POP15P_CS5":"66","C12_POP15P_CS6":"66","C12_POP15P_CS7":"238","C12_POP15P_CS8":"57","TxCS6":"11.9349"}
,{"CODGEO":"12037","REG":"73","DEP":"12","LIBGEO":"Broquiès","P12_POP":"621","C12_POP15P":"560","C12_POP15P_CS1":"60","C12_POP15P_CS2":"20","C12_POP15P_CS3":"12","C12_POP15P_CS4":"56","C12_POP15P_CS5":"40","C12_POP15P_CS6":"32","C12_POP15P_CS7":"272","C12_POP15P_CS8":"68","TxCS6":"5.714286"}
,{"CODGEO":"12038","REG":"73","DEP":"12","LIBGEO":"Brousse-le-Château","P12_POP":"151","C12_POP15P":"140","C12_POP15P_CS1":"33","C12_POP15P_CS2":"10","C12_POP15P_CS3":"0","C12_POP15P_CS4":"5","C12_POP15P_CS5":"5","C12_POP15P_CS6":"5","C12_POP15P_CS7":"78","C12_POP15P_CS8":"5","TxCS6":"3.5714288"}
,{"CODGEO":"12039","REG":"73","DEP":"12","LIBGEO":"Brusque","P12_POP":"297","C12_POP15P":"276","C12_POP15P_CS1":"4","C12_POP15P_CS2":"24","C12_POP15P_CS3":"8","C12_POP15P_CS4":"12","C12_POP15P_CS5":"28","C12_POP15P_CS6":"36","C12_POP15P_CS7":"130","C12_POP15P_CS8":"32","TxCS6":"13.043478"}
,{"CODGEO":"12040","REG":"73","DEP":"12","LIBGEO":"Buzeins","P12_POP":"186","C12_POP15P":"155","C12_POP15P_CS1":"52","C12_POP15P_CS2":"4","C12_POP15P_CS3":"16","C12_POP15P_CS4":"16","C12_POP15P_CS5":"4","C12_POP15P_CS6":"12","C12_POP15P_CS7":"40","C12_POP15P_CS8":"12","TxCS6":"7.7419357"}
,{"CODGEO":"12041","REG":"73","DEP":"12","LIBGEO":"Cabanès","P12_POP":"229","C12_POP15P":"189","C12_POP15P_CS1":"20","C12_POP15P_CS2":"8","C12_POP15P_CS3":"0","C12_POP15P_CS4":"16","C12_POP15P_CS5":"24","C12_POP15P_CS6":"16","C12_POP15P_CS7":"102","C12_POP15P_CS8":"4","TxCS6":"8.465609"}
,{"CODGEO":"12042","REG":"73","DEP":"12","LIBGEO":"Calmels-et-le-Viala","P12_POP":"223","C12_POP15P":"172","C12_POP15P_CS1":"20","C12_POP15P_CS2":"12","C12_POP15P_CS3":"8","C12_POP15P_CS4":"20","C12_POP15P_CS5":"23","C12_POP15P_CS6":"16","C12_POP15P_CS7":"51","C12_POP15P_CS8":"23","TxCS6":"9.302325"}
,{"CODGEO":"12043","REG":"73","DEP":"12","LIBGEO":"Calmont","P12_POP":"1990","C12_POP15P":"1620","C12_POP15P_CS1":"74","C12_POP15P_CS2":"60","C12_POP15P_CS3":"79","C12_POP15P_CS4":"252","C12_POP15P_CS5":"263","C12_POP15P_CS6":"251","C12_POP15P_CS7":"498","C12_POP15P_CS8":"144","TxCS6":"15.493827"}
,{"CODGEO":"12044","REG":"73","DEP":"12","LIBGEO":"Camarès","P12_POP":"987","C12_POP15P":"816","C12_POP15P_CS1":"48","C12_POP15P_CS2":"52","C12_POP15P_CS3":"32","C12_POP15P_CS4":"104","C12_POP15P_CS5":"104","C12_POP15P_CS6":"68","C12_POP15P_CS7":"316","C12_POP15P_CS8":"92","TxCS6":"8.333334"}
,{"CODGEO":"12045","REG":"73","DEP":"12","LIBGEO":"Camboulazet","P12_POP":"405","C12_POP15P":"308","C12_POP15P_CS1":"21","C12_POP15P_CS2":"8","C12_POP15P_CS3":"8","C12_POP15P_CS4":"55","C12_POP15P_CS5":"51","C12_POP15P_CS6":"59","C12_POP15P_CS7":"84","C12_POP15P_CS8":"21","TxCS6":"19.155844"}
,{"CODGEO":"12046","REG":"73","DEP":"12","LIBGEO":"Camjac","P12_POP":"561","C12_POP15P":"456","C12_POP15P_CS1":"20","C12_POP15P_CS2":"16","C12_POP15P_CS3":"8","C12_POP15P_CS4":"63","C12_POP15P_CS5":"71","C12_POP15P_CS6":"71","C12_POP15P_CS7":"178","C12_POP15P_CS8":"28","TxCS6":"15.570175"}
,{"CODGEO":"12047","REG":"73","DEP":"12","LIBGEO":"Campagnac","P12_POP":"450","C12_POP15P":"372","C12_POP15P_CS1":"36","C12_POP15P_CS2":"24","C12_POP15P_CS3":"16","C12_POP15P_CS4":"16","C12_POP15P_CS5":"48","C12_POP15P_CS6":"56","C12_POP15P_CS7":"132","C12_POP15P_CS8":"44","TxCS6":"15.053764"}
,{"CODGEO":"12048","REG":"73","DEP":"12","LIBGEO":"Campouriez","P12_POP":"367","C12_POP15P":"335","C12_POP15P_CS1":"12","C12_POP15P_CS2":"8","C12_POP15P_CS3":"4","C12_POP15P_CS4":"29","C12_POP15P_CS5":"29","C12_POP15P_CS6":"53","C12_POP15P_CS7":"168","C12_POP15P_CS8":"33","TxCS6":"15.820895"}
,{"CODGEO":"12049","REG":"73","DEP":"12","LIBGEO":"Campuac","P12_POP":"446","C12_POP15P":"408","C12_POP15P_CS1":"44","C12_POP15P_CS2":"20","C12_POP15P_CS3":"0","C12_POP15P_CS4":"24","C12_POP15P_CS5":"48","C12_POP15P_CS6":"44","C12_POP15P_CS7":"188","C12_POP15P_CS8":"40","TxCS6":"10.784314"}
,{"CODGEO":"12050","REG":"73","DEP":"12","LIBGEO":"Canet-de-Salars","P12_POP":"422","C12_POP15P":"353","C12_POP15P_CS1":"32","C12_POP15P_CS2":"32","C12_POP15P_CS3":"4","C12_POP15P_CS4":"24","C12_POP15P_CS5":"56","C12_POP15P_CS6":"76","C12_POP15P_CS7":"100","C12_POP15P_CS8":"28","TxCS6":"21.529745"}
,{"CODGEO":"12051","REG":"73","DEP":"12","LIBGEO":"Cantoin","P12_POP":"322","C12_POP15P":"272","C12_POP15P_CS1":"39","C12_POP15P_CS2":"8","C12_POP15P_CS3":"4","C12_POP15P_CS4":"16","C12_POP15P_CS5":"43","C12_POP15P_CS6":"28","C12_POP15P_CS7":"106","C12_POP15P_CS8":"28","TxCS6":"10.294118"}
,{"CODGEO":"12052","REG":"73","DEP":"12","LIBGEO":"Capdenac-Gare","P12_POP":"4474","C12_POP15P":"3883","C12_POP15P_CS1":"29","C12_POP15P_CS2":"142","C12_POP15P_CS3":"186","C12_POP15P_CS4":"299","C12_POP15P_CS5":"623","C12_POP15P_CS6":"564","C12_POP15P_CS7":"1549","C12_POP15P_CS8":"490","TxCS6":"14.524852"}
,{"CODGEO":"12053","REG":"73","DEP":"12","LIBGEO":"La Capelle-Balaguier","P12_POP":"289","C12_POP15P":"230","C12_POP15P_CS1":"4","C12_POP15P_CS2":"21","C12_POP15P_CS3":"4","C12_POP15P_CS4":"17","C12_POP15P_CS5":"54","C12_POP15P_CS6":"42","C12_POP15P_CS7":"75","C12_POP15P_CS8":"13","TxCS6":"18.26087"}
,{"CODGEO":"12054","REG":"73","DEP":"12","LIBGEO":"La Capelle-Bleys","P12_POP":"381","C12_POP15P":"328","C12_POP15P_CS1":"24","C12_POP15P_CS2":"28","C12_POP15P_CS3":"4","C12_POP15P_CS4":"61","C12_POP15P_CS5":"24","C12_POP15P_CS6":"24","C12_POP15P_CS7":"125","C12_POP15P_CS8":"37","TxCS6":"7.317073"}
,{"CODGEO":"12055","REG":"73","DEP":"12","LIBGEO":"La Capelle-Bonance","P12_POP":"98","C12_POP15P":"76","C12_POP15P_CS1":"4","C12_POP15P_CS2":"8","C12_POP15P_CS3":"0","C12_POP15P_CS4":"8","C12_POP15P_CS5":"20","C12_POP15P_CS6":"4","C12_POP15P_CS7":"24","C12_POP15P_CS8":"8","TxCS6":"5.263158"}
,{"CODGEO":"12056","REG":"73","DEP":"12","LIBGEO":"Baraqueville","P12_POP":"3060","C12_POP15P":"2479","C12_POP15P_CS1":"68","C12_POP15P_CS2":"100","C12_POP15P_CS3":"132","C12_POP15P_CS4":"348","C12_POP15P_CS5":"524","C12_POP15P_CS6":"372","C12_POP15P_CS7":"684","C12_POP15P_CS8":"252","TxCS6":"15.00605"}
,{"CODGEO":"12057","REG":"73","DEP":"12","LIBGEO":"Cassagnes-Bégonhès","P12_POP":"878","C12_POP15P":"731","C12_POP15P_CS1":"74","C12_POP15P_CS2":"31","C12_POP15P_CS3":"23","C12_POP15P_CS4":"31","C12_POP15P_CS5":"117","C12_POP15P_CS6":"78","C12_POP15P_CS7":"292","C12_POP15P_CS8":"86","TxCS6":"10.670315"}
,{"CODGEO":"12058","REG":"73","DEP":"12","LIBGEO":"Cassuéjouls","P12_POP":"119","C12_POP15P":"96","C12_POP15P_CS1":"8","C12_POP15P_CS2":"4","C12_POP15P_CS3":"0","C12_POP15P_CS4":"0","C12_POP15P_CS5":"16","C12_POP15P_CS6":"24","C12_POP15P_CS7":"28","C12_POP15P_CS8":"16","TxCS6":"25.0"}
,{"CODGEO":"12059","REG":"73","DEP":"12","LIBGEO":"Castanet","P12_POP":"532","C12_POP15P":"448","C12_POP15P_CS1":"80","C12_POP15P_CS2":"16","C12_POP15P_CS3":"24","C12_POP15P_CS4":"36","C12_POP15P_CS5":"28","C12_POP15P_CS6":"16","C12_POP15P_CS7":"212","C12_POP15P_CS8":"36","TxCS6":"3.5714288"}
,{"CODGEO":"12060","REG":"73","DEP":"12","LIBGEO":"Castelmary","P12_POP":"129","C12_POP15P":"112","C12_POP15P_CS1":"8","C12_POP15P_CS2":"0","C12_POP15P_CS3":"8","C12_POP15P_CS4":"0","C12_POP15P_CS5":"4","C12_POP15P_CS6":"8","C12_POP15P_CS7":"72","C12_POP15P_CS8":"12","TxCS6":"7.1428576"}
,{"CODGEO":"12061","REG":"73","DEP":"12","LIBGEO":"Castelnau-de-Mandailles","P12_POP":"541","C12_POP15P":"435","C12_POP15P_CS1":"32","C12_POP15P_CS2":"32","C12_POP15P_CS3":"16","C12_POP15P_CS4":"20","C12_POP15P_CS5":"84","C12_POP15P_CS6":"48","C12_POP15P_CS7":"152","C12_POP15P_CS8":"52","TxCS6":"11.034483"}
,{"CODGEO":"12062","REG":"73","DEP":"12","LIBGEO":"Castelnau-Pégayrols","P12_POP":"342","C12_POP15P":"280","C12_POP15P_CS1":"44","C12_POP15P_CS2":"20","C12_POP15P_CS3":"4","C12_POP15P_CS4":"20","C12_POP15P_CS5":"52","C12_POP15P_CS6":"28","C12_POP15P_CS7":"84","C12_POP15P_CS8":"28","TxCS6":"10.0"}
,{"CODGEO":"12063","REG":"73","DEP":"12","LIBGEO":"La Cavalerie","P12_POP":"1058","C12_POP15P":"802","C12_POP15P_CS1":"28","C12_POP15P_CS2":"24","C12_POP15P_CS3":"55","C12_POP15P_CS4":"63","C12_POP15P_CS5":"233","C12_POP15P_CS6":"99","C12_POP15P_CS7":"174","C12_POP15P_CS8":"126","TxCS6":"12.34414"}
,{"CODGEO":"12064","REG":"73","DEP":"12","LIBGEO":"Le Cayrol","P12_POP":"263","C12_POP15P":"244","C12_POP15P_CS1":"32","C12_POP15P_CS2":"12","C12_POP15P_CS3":"0","C12_POP15P_CS4":"4","C12_POP15P_CS5":"32","C12_POP15P_CS6":"24","C12_POP15P_CS7":"128","C12_POP15P_CS8":"12","TxCS6":"9.836065"}
,{"CODGEO":"12065","REG":"73","DEP":"12","LIBGEO":"Centrès","P12_POP":"550","C12_POP15P":"443","C12_POP15P_CS1":"52","C12_POP15P_CS2":"40","C12_POP15P_CS3":"12","C12_POP15P_CS4":"24","C12_POP15P_CS5":"44","C12_POP15P_CS6":"48","C12_POP15P_CS7":"185","C12_POP15P_CS8":"36","TxCS6":"10.835215"}
,{"CODGEO":"12066","REG":"73","DEP":"12","LIBGEO":"Clairvaux-d'Aveyron","P12_POP":"1161","C12_POP15P":"936","C12_POP15P_CS1":"24","C12_POP15P_CS2":"48","C12_POP15P_CS3":"60","C12_POP15P_CS4":"160","C12_POP15P_CS5":"128","C12_POP15P_CS6":"136","C12_POP15P_CS7":"320","C12_POP15P_CS8":"60","TxCS6":"14.529915"}
,{"CODGEO":"12067","REG":"73","DEP":"12","LIBGEO":"Le Clapier","P12_POP":"75","C12_POP15P":"64","C12_POP15P_CS1":"16","C12_POP15P_CS2":"0","C12_POP15P_CS3":"4","C12_POP15P_CS4":"4","C12_POP15P_CS5":"12","C12_POP15P_CS6":"0","C12_POP15P_CS7":"20","C12_POP15P_CS8":"8","TxCS6":"0.0"}
,{"CODGEO":"12068","REG":"73","DEP":"12","LIBGEO":"Colombiès","P12_POP":"934","C12_POP15P":"808","C12_POP15P_CS1":"104","C12_POP15P_CS2":"12","C12_POP15P_CS3":"16","C12_POP15P_CS4":"88","C12_POP15P_CS5":"60","C12_POP15P_CS6":"76","C12_POP15P_CS7":"356","C12_POP15P_CS8":"96","TxCS6":"9.405941"}
,{"CODGEO":"12069","REG":"73","DEP":"12","LIBGEO":"Combret","P12_POP":"294","C12_POP15P":"243","C12_POP15P_CS1":"59","C12_POP15P_CS2":"27","C12_POP15P_CS3":"5","C12_POP15P_CS4":"16","C12_POP15P_CS5":"22","C12_POP15P_CS6":"5","C12_POP15P_CS7":"86","C12_POP15P_CS8":"22","TxCS6":"2.0576131"}
,{"CODGEO":"12070","REG":"73","DEP":"12","LIBGEO":"Compeyre","P12_POP":"519","C12_POP15P":"426","C12_POP15P_CS1":"16","C12_POP15P_CS2":"36","C12_POP15P_CS3":"20","C12_POP15P_CS4":"72","C12_POP15P_CS5":"68","C12_POP15P_CS6":"44","C12_POP15P_CS7":"128","C12_POP15P_CS8":"40","TxCS6":"10.328638"}
,{"CODGEO":"12071","REG":"73","DEP":"12","LIBGEO":"Compolibat","P12_POP":"383","C12_POP15P":"317","C12_POP15P_CS1":"22","C12_POP15P_CS2":"27","C12_POP15P_CS3":"11","C12_POP15P_CS4":"32","C12_POP15P_CS5":"43","C12_POP15P_CS6":"32","C12_POP15P_CS7":"108","C12_POP15P_CS8":"43","TxCS6":"10.094638"}
,{"CODGEO":"12072","REG":"73","DEP":"12","LIBGEO":"Comprégnac","P12_POP":"236","C12_POP15P":"177","C12_POP15P_CS1":"0","C12_POP15P_CS2":"14","C12_POP15P_CS3":"10","C12_POP15P_CS4":"38","C12_POP15P_CS5":"38","C12_POP15P_CS6":"19","C12_POP15P_CS7":"24","C12_POP15P_CS8":"33","TxCS6":"10.734464"}
,{"CODGEO":"12073","REG":"73","DEP":"12","LIBGEO":"Comps-la-Grand-Ville","P12_POP":"563","C12_POP15P":"421","C12_POP15P_CS1":"43","C12_POP15P_CS2":"14","C12_POP15P_CS3":"0","C12_POP15P_CS4":"67","C12_POP15P_CS5":"52","C12_POP15P_CS6":"38","C12_POP15P_CS7":"143","C12_POP15P_CS8":"63","TxCS6":"9.026128"}
,{"CODGEO":"12074","REG":"73","DEP":"12","LIBGEO":"Condom-d'Aubrac","P12_POP":"310","C12_POP15P":"272","C12_POP15P_CS1":"47","C12_POP15P_CS2":"8","C12_POP15P_CS3":"8","C12_POP15P_CS4":"24","C12_POP15P_CS5":"12","C12_POP15P_CS6":"12","C12_POP15P_CS7":"134","C12_POP15P_CS8":"28","TxCS6":"4.4117646"}
,{"CODGEO":"12075","REG":"73","DEP":"12","LIBGEO":"Connac","P12_POP":"112","C12_POP15P":"90","C12_POP15P_CS1":"4","C12_POP15P_CS2":"8","C12_POP15P_CS3":"0","C12_POP15P_CS4":"21","C12_POP15P_CS5":"8","C12_POP15P_CS6":"4","C12_POP15P_CS7":"33","C12_POP15P_CS8":"12","TxCS6":"4.4444447"}
,{"CODGEO":"12076","REG":"73","DEP":"12","LIBGEO":"Conques","P12_POP":"262","C12_POP15P":"222","C12_POP15P_CS1":"12","C12_POP15P_CS2":"25","C12_POP15P_CS3":"8","C12_POP15P_CS4":"29","C12_POP15P_CS5":"41","C12_POP15P_CS6":"16","C12_POP15P_CS7":"70","C12_POP15P_CS8":"20","TxCS6":"7.207207"}
,{"CODGEO":"12077","REG":"73","DEP":"12","LIBGEO":"Cornus","P12_POP":"500","C12_POP15P":"412","C12_POP15P_CS1":"32","C12_POP15P_CS2":"28","C12_POP15P_CS3":"28","C12_POP15P_CS4":"60","C12_POP15P_CS5":"44","C12_POP15P_CS6":"32","C12_POP15P_CS7":"140","C12_POP15P_CS8":"48","TxCS6":"7.76699"}
,{"CODGEO":"12078","REG":"73","DEP":"12","LIBGEO":"Les Costes-Gozon","P12_POP":"175","C12_POP15P":"164","C12_POP15P_CS1":"40","C12_POP15P_CS2":"4","C12_POP15P_CS3":"0","C12_POP15P_CS4":"4","C12_POP15P_CS5":"12","C12_POP15P_CS6":"16","C12_POP15P_CS7":"60","C12_POP15P_CS8":"28","TxCS6":"9.756097"}
,{"CODGEO":"12079","REG":"73","DEP":"12","LIBGEO":"Coubisou","P12_POP":"516","C12_POP15P":"422","C12_POP15P_CS1":"53","C12_POP15P_CS2":"25","C12_POP15P_CS3":"8","C12_POP15P_CS4":"41","C12_POP15P_CS5":"37","C12_POP15P_CS6":"25","C12_POP15P_CS7":"192","C12_POP15P_CS8":"41","TxCS6":"5.9241705"}
,{"CODGEO":"12080","REG":"73","DEP":"12","LIBGEO":"Coupiac","P12_POP":"438","C12_POP15P":"371","C12_POP15P_CS1":"20","C12_POP15P_CS2":"8","C12_POP15P_CS3":"8","C12_POP15P_CS4":"20","C12_POP15P_CS5":"55","C12_POP15P_CS6":"55","C12_POP15P_CS7":"156","C12_POP15P_CS8":"51","TxCS6":"14.824798"}
,{"CODGEO":"12081","REG":"73","DEP":"12","LIBGEO":"Coussergues","P12_POP":"277","C12_POP15P":"211","C12_POP15P_CS1":"17","C12_POP15P_CS2":"8","C12_POP15P_CS3":"13","C12_POP15P_CS4":"29","C12_POP15P_CS5":"34","C12_POP15P_CS6":"17","C12_POP15P_CS7":"59","C12_POP15P_CS8":"34","TxCS6":"8.056872"}
,{"CODGEO":"12082","REG":"73","DEP":"12","LIBGEO":"La Couvertoirade","P12_POP":"177","C12_POP15P":"155","C12_POP15P_CS1":"24","C12_POP15P_CS2":"16","C12_POP15P_CS3":"12","C12_POP15P_CS4":"24","C12_POP15P_CS5":"12","C12_POP15P_CS6":"0","C12_POP15P_CS7":"60","C12_POP15P_CS8":"8","TxCS6":"0.0"}
,{"CODGEO":"12083","REG":"73","DEP":"12","LIBGEO":"Cransac","P12_POP":"1614","C12_POP15P":"1408","C12_POP15P_CS1":"21","C12_POP15P_CS2":"42","C12_POP15P_CS3":"26","C12_POP15P_CS4":"89","C12_POP15P_CS5":"220","C12_POP15P_CS6":"220","C12_POP15P_CS7":"602","C12_POP15P_CS8":"188","TxCS6":"15.625"}
,{"CODGEO":"12084","REG":"73","DEP":"12","LIBGEO":"Creissels","P12_POP":"1558","C12_POP15P":"1264","C12_POP15P_CS1":"8","C12_POP15P_CS2":"30","C12_POP15P_CS3":"51","C12_POP15P_CS4":"152","C12_POP15P_CS5":"224","C12_POP15P_CS6":"169","C12_POP15P_CS7":"490","C12_POP15P_CS8":"140","TxCS6":"13.370254"}
,{"CODGEO":"12085","REG":"73","DEP":"12","LIBGEO":"Crespin","P12_POP":"283","C12_POP15P":"233","C12_POP15P_CS1":"34","C12_POP15P_CS2":"15","C12_POP15P_CS3":"27","C12_POP15P_CS4":"15","C12_POP15P_CS5":"19","C12_POP15P_CS6":"11","C12_POP15P_CS7":"103","C12_POP15P_CS8":"8","TxCS6":"4.72103"}
,{"CODGEO":"12086","REG":"73","DEP":"12","LIBGEO":"La Cresse","P12_POP":"329","C12_POP15P":"307","C12_POP15P_CS1":"21","C12_POP15P_CS2":"16","C12_POP15P_CS3":"16","C12_POP15P_CS4":"36","C12_POP15P_CS5":"36","C12_POP15P_CS6":"41","C12_POP15P_CS7":"100","C12_POP15P_CS8":"41","TxCS6":"13.355049"}
,{"CODGEO":"12087","REG":"73","DEP":"12","LIBGEO":"Cruéjouls","P12_POP":"423","C12_POP15P":"365","C12_POP15P_CS1":"33","C12_POP15P_CS2":"24","C12_POP15P_CS3":"16","C12_POP15P_CS4":"45","C12_POP15P_CS5":"16","C12_POP15P_CS6":"49","C12_POP15P_CS7":"141","C12_POP15P_CS8":"41","TxCS6":"13.424657"}
,{"CODGEO":"12088","REG":"73","DEP":"12","LIBGEO":"Curières","P12_POP":"224","C12_POP15P":"181","C12_POP15P_CS1":"28","C12_POP15P_CS2":"12","C12_POP15P_CS3":"0","C12_POP15P_CS4":"36","C12_POP15P_CS5":"12","C12_POP15P_CS6":"8","C12_POP15P_CS7":"72","C12_POP15P_CS8":"12","TxCS6":"4.4198895"}
,{"CODGEO":"12089","REG":"73","DEP":"12","LIBGEO":"Decazeville","P12_POP":"5935","C12_POP15P":"5107","C12_POP15P_CS1":"24","C12_POP15P_CS2":"184","C12_POP15P_CS3":"132","C12_POP15P_CS4":"325","C12_POP15P_CS5":"731","C12_POP15P_CS6":"774","C12_POP15P_CS7":"2041","C12_POP15P_CS8":"895","TxCS6":"15.155668"}
,{"CODGEO":"12090","REG":"73","DEP":"12","LIBGEO":"Druelle","P12_POP":"2019","C12_POP15P":"1608","C12_POP15P_CS1":"36","C12_POP15P_CS2":"48","C12_POP15P_CS3":"112","C12_POP15P_CS4":"328","C12_POP15P_CS5":"280","C12_POP15P_CS6":"176","C12_POP15P_CS7":"448","C12_POP15P_CS8":"180","TxCS6":"10.945274"}
,{"CODGEO":"12091","REG":"73","DEP":"12","LIBGEO":"Drulhe","P12_POP":"435","C12_POP15P":"364","C12_POP15P_CS1":"16","C12_POP15P_CS2":"16","C12_POP15P_CS3":"12","C12_POP15P_CS4":"28","C12_POP15P_CS5":"80","C12_POP15P_CS6":"40","C12_POP15P_CS7":"132","C12_POP15P_CS8":"40","TxCS6":"10.989011"}
,{"CODGEO":"12092","REG":"73","DEP":"12","LIBGEO":"Durenque","P12_POP":"556","C12_POP15P":"462","C12_POP15P_CS1":"114","C12_POP15P_CS2":"5","C12_POP15P_CS3":"0","C12_POP15P_CS4":"31","C12_POP15P_CS5":"78","C12_POP15P_CS6":"21","C12_POP15P_CS7":"192","C12_POP15P_CS8":"21","TxCS6":"4.5454545"}
,{"CODGEO":"12093","REG":"73","DEP":"12","LIBGEO":"Le Fel","P12_POP":"157","C12_POP15P":"139","C12_POP15P_CS1":"40","C12_POP15P_CS2":"8","C12_POP15P_CS3":"0","C12_POP15P_CS4":"12","C12_POP15P_CS5":"8","C12_POP15P_CS6":"12","C12_POP15P_CS7":"56","C12_POP15P_CS8":"4","TxCS6":"8.633094"}
,{"CODGEO":"12094","REG":"73","DEP":"12","LIBGEO":"Entraygues-sur-Truyère","P12_POP":"1059","C12_POP15P":"960","C12_POP15P_CS1":"20","C12_POP15P_CS2":"48","C12_POP15P_CS3":"20","C12_POP15P_CS4":"60","C12_POP15P_CS5":"124","C12_POP15P_CS6":"104","C12_POP15P_CS7":"528","C12_POP15P_CS8":"56","TxCS6":"10.833333"}
,{"CODGEO":"12095","REG":"73","DEP":"12","LIBGEO":"Escandolières","P12_POP":"219","C12_POP15P":"188","C12_POP15P_CS1":"24","C12_POP15P_CS2":"8","C12_POP15P_CS3":"12","C12_POP15P_CS4":"8","C12_POP15P_CS5":"24","C12_POP15P_CS6":"36","C12_POP15P_CS7":"56","C12_POP15P_CS8":"20","TxCS6":"19.148937"}
,{"CODGEO":"12096","REG":"73","DEP":"12","LIBGEO":"Espalion","P12_POP":"4291","C12_POP15P":"3691","C12_POP15P_CS1":"47","C12_POP15P_CS2":"201","C12_POP15P_CS3":"129","C12_POP15P_CS4":"328","C12_POP15P_CS5":"620","C12_POP15P_CS6":"450","C12_POP15P_CS7":"1573","C12_POP15P_CS8":"342","TxCS6":"12.191818"}
,{"CODGEO":"12097","REG":"73","DEP":"12","LIBGEO":"Espeyrac","P12_POP":"240","C12_POP15P":"203","C12_POP15P_CS1":"16","C12_POP15P_CS2":"12","C12_POP15P_CS3":"8","C12_POP15P_CS4":"0","C12_POP15P_CS5":"20","C12_POP15P_CS6":"37","C12_POP15P_CS7":"89","C12_POP15P_CS8":"20","TxCS6":"18.2266"}
,{"CODGEO":"12098","REG":"73","DEP":"12","LIBGEO":"Estaing","P12_POP":"593","C12_POP15P":"501","C12_POP15P_CS1":"8","C12_POP15P_CS2":"32","C12_POP15P_CS3":"24","C12_POP15P_CS4":"32","C12_POP15P_CS5":"68","C12_POP15P_CS6":"48","C12_POP15P_CS7":"235","C12_POP15P_CS8":"56","TxCS6":"9.580839"}
,{"CODGEO":"12099","REG":"73","DEP":"12","LIBGEO":"Fayet","P12_POP":"259","C12_POP15P":"208","C12_POP15P_CS1":"0","C12_POP15P_CS2":"30","C12_POP15P_CS3":"5","C12_POP15P_CS4":"10","C12_POP15P_CS5":"35","C12_POP15P_CS6":"25","C12_POP15P_CS7":"89","C12_POP15P_CS8":"15","TxCS6":"12.019231"}
,{"CODGEO":"12100","REG":"73","DEP":"12","LIBGEO":"Firmi","P12_POP":"2463","C12_POP15P":"2106","C12_POP15P_CS1":"24","C12_POP15P_CS2":"101","C12_POP15P_CS3":"65","C12_POP15P_CS4":"178","C12_POP15P_CS5":"304","C12_POP15P_CS6":"296","C12_POP15P_CS7":"854","C12_POP15P_CS8":"283","TxCS6":"14.05508"}
,{"CODGEO":"12101","REG":"73","DEP":"12","LIBGEO":"Flagnac","P12_POP":"1035","C12_POP15P":"885","C12_POP15P_CS1":"16","C12_POP15P_CS2":"44","C12_POP15P_CS3":"17","C12_POP15P_CS4":"88","C12_POP15P_CS5":"151","C12_POP15P_CS6":"119","C12_POP15P_CS7":"363","C12_POP15P_CS8":"86","TxCS6":"13.446328"}
,{"CODGEO":"12102","REG":"73","DEP":"12","LIBGEO":"Flavin","P12_POP":"2268","C12_POP15P":"1741","C12_POP15P_CS1":"131","C12_POP15P_CS2":"72","C12_POP15P_CS3":"104","C12_POP15P_CS4":"283","C12_POP15P_CS5":"335","C12_POP15P_CS6":"275","C12_POP15P_CS7":"386","C12_POP15P_CS8":"155","TxCS6":"15.79552"}
,{"CODGEO":"12103","REG":"73","DEP":"12","LIBGEO":"Florentin-la-Capelle","P12_POP":"313","C12_POP15P":"299","C12_POP15P_CS1":"44","C12_POP15P_CS2":"16","C12_POP15P_CS3":"0","C12_POP15P_CS4":"0","C12_POP15P_CS5":"27","C12_POP15P_CS6":"22","C12_POP15P_CS7":"174","C12_POP15P_CS8":"16","TxCS6":"7.3578596"}
,{"CODGEO":"12104","REG":"73","DEP":"12","LIBGEO":"Foissac","P12_POP":"450","C12_POP15P":"342","C12_POP15P_CS1":"16","C12_POP15P_CS2":"16","C12_POP15P_CS3":"20","C12_POP15P_CS4":"28","C12_POP15P_CS5":"60","C12_POP15P_CS6":"56","C12_POP15P_CS7":"121","C12_POP15P_CS8":"24","TxCS6":"16.37427"}
,{"CODGEO":"12105","REG":"73","DEP":"12","LIBGEO":"La Fouillade","P12_POP":"1096","C12_POP15P":"935","C12_POP15P_CS1":"41","C12_POP15P_CS2":"77","C12_POP15P_CS3":"26","C12_POP15P_CS4":"87","C12_POP15P_CS5":"154","C12_POP15P_CS6":"87","C12_POP15P_CS7":"345","C12_POP15P_CS8":"118","TxCS6":"9.304812"}
,{"CODGEO":"12106","REG":"73","DEP":"12","LIBGEO":"Gabriac","P12_POP":"501","C12_POP15P":"416","C12_POP15P_CS1":"62","C12_POP15P_CS2":"25","C12_POP15P_CS3":"4","C12_POP15P_CS4":"25","C12_POP15P_CS5":"86","C12_POP15P_CS6":"49","C12_POP15P_CS7":"136","C12_POP15P_CS8":"29","TxCS6":"11.778847"}
,{"CODGEO":"12107","REG":"73","DEP":"12","LIBGEO":"Gaillac-d'Aveyron","P12_POP":"324","C12_POP15P":"276","C12_POP15P_CS1":"48","C12_POP15P_CS2":"16","C12_POP15P_CS3":"5","C12_POP15P_CS4":"32","C12_POP15P_CS5":"32","C12_POP15P_CS6":"21","C12_POP15P_CS7":"80","C12_POP15P_CS8":"42","TxCS6":"7.6086955"}
,{"CODGEO":"12108","REG":"73","DEP":"12","LIBGEO":"Galgan","P12_POP":"353","C12_POP15P":"292","C12_POP15P_CS1":"32","C12_POP15P_CS2":"12","C12_POP15P_CS3":"12","C12_POP15P_CS4":"16","C12_POP15P_CS5":"48","C12_POP15P_CS6":"44","C12_POP15P_CS7":"96","C12_POP15P_CS8":"32","TxCS6":"15.068494"}
,{"CODGEO":"12109","REG":"73","DEP":"12","LIBGEO":"Gissac","P12_POP":"109","C12_POP15P":"90","C12_POP15P_CS1":"37","C12_POP15P_CS2":"0","C12_POP15P_CS3":"0","C12_POP15P_CS4":"4","C12_POP15P_CS5":"16","C12_POP15P_CS6":"12","C12_POP15P_CS7":"16","C12_POP15P_CS8":"4","TxCS6":"13.333334"}
,{"CODGEO":"12110","REG":"73","DEP":"12","LIBGEO":"Golinhac","P12_POP":"383","C12_POP15P":"333","C12_POP15P_CS1":"32","C12_POP15P_CS2":"12","C12_POP15P_CS3":"12","C12_POP15P_CS4":"20","C12_POP15P_CS5":"67","C12_POP15P_CS6":"48","C12_POP15P_CS7":"119","C12_POP15P_CS8":"24","TxCS6":"14.414414"}
,{"CODGEO":"12111","REG":"73","DEP":"12","LIBGEO":"Goutrens","P12_POP":"504","C12_POP15P":"380","C12_POP15P_CS1":"30","C12_POP15P_CS2":"15","C12_POP15P_CS3":"10","C12_POP15P_CS4":"84","C12_POP15P_CS5":"49","C12_POP15P_CS6":"44","C12_POP15P_CS7":"124","C12_POP15P_CS8":"25","TxCS6":"11.578947"}
,{"CODGEO":"12112","REG":"73","DEP":"12","LIBGEO":"Graissac","P12_POP":"207","C12_POP15P":"184","C12_POP15P_CS1":"24","C12_POP15P_CS2":"4","C12_POP15P_CS3":"12","C12_POP15P_CS4":"8","C12_POP15P_CS5":"16","C12_POP15P_CS6":"36","C12_POP15P_CS7":"80","C12_POP15P_CS8":"4","TxCS6":"19.565218"}
,{"CODGEO":"12113","REG":"73","DEP":"12","LIBGEO":"Gramond","P12_POP":"460","C12_POP15P":"393","C12_POP15P_CS1":"12","C12_POP15P_CS2":"16","C12_POP15P_CS3":"12","C12_POP15P_CS4":"53","C12_POP15P_CS5":"45","C12_POP15P_CS6":"61","C12_POP15P_CS7":"157","C12_POP15P_CS8":"37","TxCS6":"15.521629"}
,{"CODGEO":"12114","REG":"73","DEP":"12","LIBGEO":"Grand-Vabre","P12_POP":"403","C12_POP15P":"372","C12_POP15P_CS1":"68","C12_POP15P_CS2":"20","C12_POP15P_CS3":"4","C12_POP15P_CS4":"16","C12_POP15P_CS5":"40","C12_POP15P_CS6":"28","C12_POP15P_CS7":"144","C12_POP15P_CS8":"52","TxCS6":"7.526882"}
,{"CODGEO":"12115","REG":"73","DEP":"12","LIBGEO":"L'Hospitalet-du-Larzac","P12_POP":"310","C12_POP15P":"229","C12_POP15P_CS1":"4","C12_POP15P_CS2":"16","C12_POP15P_CS3":"0","C12_POP15P_CS4":"24","C12_POP15P_CS5":"44","C12_POP15P_CS6":"28","C12_POP15P_CS7":"72","C12_POP15P_CS8":"40","TxCS6":"12.227074"}
,{"CODGEO":"12116","REG":"73","DEP":"12","LIBGEO":"Huparlac","P12_POP":"241","C12_POP15P":"187","C12_POP15P_CS1":"62","C12_POP15P_CS2":"4","C12_POP15P_CS3":"4","C12_POP15P_CS4":"8","C12_POP15P_CS5":"23","C12_POP15P_CS6":"16","C12_POP15P_CS7":"59","C12_POP15P_CS8":"12","TxCS6":"8.5561495"}
,{"CODGEO":"12117","REG":"73","DEP":"12","LIBGEO":"Lacalm","P12_POP":"186","C12_POP15P":"176","C12_POP15P_CS1":"31","C12_POP15P_CS2":"12","C12_POP15P_CS3":"8","C12_POP15P_CS4":"8","C12_POP15P_CS5":"12","C12_POP15P_CS6":"23","C12_POP15P_CS7":"63","C12_POP15P_CS8":"20","TxCS6":"13.068181"}
,{"CODGEO":"12118","REG":"73","DEP":"12","LIBGEO":"Lacroix-Barrez","P12_POP":"475","C12_POP15P":"432","C12_POP15P_CS1":"40","C12_POP15P_CS2":"16","C12_POP15P_CS3":"12","C12_POP15P_CS4":"20","C12_POP15P_CS5":"72","C12_POP15P_CS6":"56","C12_POP15P_CS7":"180","C12_POP15P_CS8":"36","TxCS6":"12.962963"}
,{"CODGEO":"12119","REG":"73","DEP":"12","LIBGEO":"Laguiole","P12_POP":"1230","C12_POP15P":"1092","C12_POP15P_CS1":"84","C12_POP15P_CS2":"92","C12_POP15P_CS3":"56","C12_POP15P_CS4":"44","C12_POP15P_CS5":"144","C12_POP15P_CS6":"212","C12_POP15P_CS7":"388","C12_POP15P_CS8":"72","TxCS6":"19.41392"}
,{"CODGEO":"12120","REG":"73","DEP":"12","LIBGEO":"Laissac","P12_POP":"1629","C12_POP15P":"1368","C12_POP15P_CS1":"20","C12_POP15P_CS2":"80","C12_POP15P_CS3":"60","C12_POP15P_CS4":"128","C12_POP15P_CS5":"228","C12_POP15P_CS6":"172","C12_POP15P_CS7":"536","C12_POP15P_CS8":"144","TxCS6":"12.573099"}
,{"CODGEO":"12121","REG":"73","DEP":"12","LIBGEO":"Lanuéjouls","P12_POP":"730","C12_POP15P":"616","C12_POP15P_CS1":"20","C12_POP15P_CS2":"24","C12_POP15P_CS3":"16","C12_POP15P_CS4":"68","C12_POP15P_CS5":"116","C12_POP15P_CS6":"76","C12_POP15P_CS7":"244","C12_POP15P_CS8":"52","TxCS6":"12.337663"}
,{"CODGEO":"12122","REG":"73","DEP":"12","LIBGEO":"Lapanouse-de-Cernon","P12_POP":"122","C12_POP15P":"106","C12_POP15P_CS1":"4","C12_POP15P_CS2":"0","C12_POP15P_CS3":"4","C12_POP15P_CS4":"12","C12_POP15P_CS5":"24","C12_POP15P_CS6":"12","C12_POP15P_CS7":"35","C12_POP15P_CS8":"16","TxCS6":"11.320755"}
,{"CODGEO":"12123","REG":"73","DEP":"12","LIBGEO":"Lapanouse","P12_POP":"759","C12_POP15P":"623","C12_POP15P_CS1":"29","C12_POP15P_CS2":"24","C12_POP15P_CS3":"19","C12_POP15P_CS4":"97","C12_POP15P_CS5":"63","C12_POP15P_CS6":"102","C12_POP15P_CS7":"190","C12_POP15P_CS8":"97","TxCS6":"16.37239"}
,{"CODGEO":"12124","REG":"73","DEP":"12","LIBGEO":"Lassouts","P12_POP":"317","C12_POP15P":"254","C12_POP15P_CS1":"32","C12_POP15P_CS2":"24","C12_POP15P_CS3":"0","C12_POP15P_CS4":"4","C12_POP15P_CS5":"52","C12_POP15P_CS6":"28","C12_POP15P_CS7":"91","C12_POP15P_CS8":"24","TxCS6":"11.023622"}
,{"CODGEO":"12125","REG":"73","DEP":"12","LIBGEO":"Laval-Roquecezière","P12_POP":"259","C12_POP15P":"224","C12_POP15P_CS1":"28","C12_POP15P_CS2":"4","C12_POP15P_CS3":"0","C12_POP15P_CS4":"20","C12_POP15P_CS5":"20","C12_POP15P_CS6":"8","C12_POP15P_CS7":"124","C12_POP15P_CS8":"20","TxCS6":"3.5714288"}
,{"CODGEO":"12126","REG":"73","DEP":"12","LIBGEO":"Lavernhe","P12_POP":"235","C12_POP15P":"199","C12_POP15P_CS1":"16","C12_POP15P_CS2":"16","C12_POP15P_CS3":"12","C12_POP15P_CS4":"12","C12_POP15P_CS5":"33","C12_POP15P_CS6":"20","C12_POP15P_CS7":"69","C12_POP15P_CS8":"20","TxCS6":"10.050251"}
,{"CODGEO":"12127","REG":"73","DEP":"12","LIBGEO":"Lédergues","P12_POP":"704","C12_POP15P":"592","C12_POP15P_CS1":"56","C12_POP15P_CS2":"20","C12_POP15P_CS3":"28","C12_POP15P_CS4":"36","C12_POP15P_CS5":"60","C12_POP15P_CS6":"48","C12_POP15P_CS7":"288","C12_POP15P_CS8":"56","TxCS6":"8.108108"}
,{"CODGEO":"12128","REG":"73","DEP":"12","LIBGEO":"Lescure-Jaoul","P12_POP":"248","C12_POP15P":"237","C12_POP15P_CS1":"31","C12_POP15P_CS2":"10","C12_POP15P_CS3":"26","C12_POP15P_CS4":"5","C12_POP15P_CS5":"10","C12_POP15P_CS6":"5","C12_POP15P_CS7":"123","C12_POP15P_CS8":"26","TxCS6":"2.1097047"}
,{"CODGEO":"12129","REG":"73","DEP":"12","LIBGEO":"Lestrade-et-Thouels","P12_POP":"486","C12_POP15P":"400","C12_POP15P_CS1":"79","C12_POP15P_CS2":"33","C12_POP15P_CS3":"4","C12_POP15P_CS4":"25","C12_POP15P_CS5":"42","C12_POP15P_CS6":"33","C12_POP15P_CS7":"158","C12_POP15P_CS8":"25","TxCS6":"8.25"}
,{"CODGEO":"12130","REG":"73","DEP":"12","LIBGEO":"Livinhac-le-Haut","P12_POP":"1199","C12_POP15P":"1008","C12_POP15P_CS1":"20","C12_POP15P_CS2":"44","C12_POP15P_CS3":"44","C12_POP15P_CS4":"88","C12_POP15P_CS5":"128","C12_POP15P_CS6":"116","C12_POP15P_CS7":"456","C12_POP15P_CS8":"112","TxCS6":"11.5079365"}
,{"CODGEO":"12131","REG":"73","DEP":"12","LIBGEO":"La Loubière","P12_POP":"1457","C12_POP15P":"1139","C12_POP15P_CS1":"45","C12_POP15P_CS2":"69","C12_POP15P_CS3":"89","C12_POP15P_CS4":"231","C12_POP15P_CS5":"166","C12_POP15P_CS6":"134","C12_POP15P_CS7":"288","C12_POP15P_CS8":"118","TxCS6":"11.764706"}
,{"CODGEO":"12133","REG":"73","DEP":"12","LIBGEO":"Luc-la-Primaube","P12_POP":"5767","C12_POP15P":"4693","C12_POP15P_CS1":"44","C12_POP15P_CS2":"151","C12_POP15P_CS3":"239","C12_POP15P_CS4":"890","C12_POP15P_CS5":"832","C12_POP15P_CS6":"619","C12_POP15P_CS7":"1472","C12_POP15P_CS8":"445","TxCS6":"13.189857"}
,{"CODGEO":"12134","REG":"73","DEP":"12","LIBGEO":"Lugan","P12_POP":"341","C12_POP15P":"278","C12_POP15P_CS1":"8","C12_POP15P_CS2":"8","C12_POP15P_CS3":"4","C12_POP15P_CS4":"45","C12_POP15P_CS5":"37","C12_POP15P_CS6":"41","C12_POP15P_CS7":"106","C12_POP15P_CS8":"29","TxCS6":"14.7482"}
,{"CODGEO":"12135","REG":"73","DEP":"12","LIBGEO":"Lunac","P12_POP":"429","C12_POP15P":"392","C12_POP15P_CS1":"44","C12_POP15P_CS2":"24","C12_POP15P_CS3":"12","C12_POP15P_CS4":"40","C12_POP15P_CS5":"36","C12_POP15P_CS6":"4","C12_POP15P_CS7":"190","C12_POP15P_CS8":"44","TxCS6":"1.0204082"}
,{"CODGEO":"12136","REG":"73","DEP":"12","LIBGEO":"Maleville","P12_POP":"949","C12_POP15P":"780","C12_POP15P_CS1":"47","C12_POP15P_CS2":"35","C12_POP15P_CS3":"4","C12_POP15P_CS4":"91","C12_POP15P_CS5":"154","C12_POP15P_CS6":"79","C12_POP15P_CS7":"280","C12_POP15P_CS8":"91","TxCS6":"10.128205"}
,{"CODGEO":"12137","REG":"73","DEP":"12","LIBGEO":"Manhac","P12_POP":"751","C12_POP15P":"592","C12_POP15P_CS1":"39","C12_POP15P_CS2":"24","C12_POP15P_CS3":"19","C12_POP15P_CS4":"92","C12_POP15P_CS5":"112","C12_POP15P_CS6":"121","C12_POP15P_CS7":"107","C12_POP15P_CS8":"78","TxCS6":"20.43919"}
,{"CODGEO":"12138","REG":"73","DEP":"12","LIBGEO":"Marcillac-Vallon","P12_POP":"1672","C12_POP15P":"1409","C12_POP15P_CS1":"12","C12_POP15P_CS2":"52","C12_POP15P_CS3":"48","C12_POP15P_CS4":"238","C12_POP15P_CS5":"149","C12_POP15P_CS6":"209","C12_POP15P_CS7":"587","C12_POP15P_CS8":"113","TxCS6":"14.833215"}
,{"CODGEO":"12139","REG":"73","DEP":"12","LIBGEO":"Marnhagues-et-Latour","P12_POP":"125","C12_POP15P":"104","C12_POP15P_CS1":"12","C12_POP15P_CS2":"0","C12_POP15P_CS3":"0","C12_POP15P_CS4":"4","C12_POP15P_CS5":"16","C12_POP15P_CS6":"4","C12_POP15P_CS7":"44","C12_POP15P_CS8":"24","TxCS6":"3.846154"}
,{"CODGEO":"12140","REG":"73","DEP":"12","LIBGEO":"Martiel","P12_POP":"972","C12_POP15P":"777","C12_POP15P_CS1":"31","C12_POP15P_CS2":"27","C12_POP15P_CS3":"50","C12_POP15P_CS4":"101","C12_POP15P_CS5":"74","C12_POP15P_CS6":"138","C12_POP15P_CS7":"306","C12_POP15P_CS8":"50","TxCS6":"17.760618"}
,{"CODGEO":"12141","REG":"73","DEP":"12","LIBGEO":"Martrin","P12_POP":"235","C12_POP15P":"188","C12_POP15P_CS1":"40","C12_POP15P_CS2":"8","C12_POP15P_CS3":"4","C12_POP15P_CS4":"4","C12_POP15P_CS5":"24","C12_POP15P_CS6":"24","C12_POP15P_CS7":"76","C12_POP15P_CS8":"8","TxCS6":"12.765958"}
,{"CODGEO":"12142","REG":"73","DEP":"12","LIBGEO":"Mayran","P12_POP":"628","C12_POP15P":"482","C12_POP15P_CS1":"46","C12_POP15P_CS2":"12","C12_POP15P_CS3":"29","C12_POP15P_CS4":"58","C12_POP15P_CS5":"58","C12_POP15P_CS6":"62","C12_POP15P_CS7":"187","C12_POP15P_CS8":"29","TxCS6":"12.863071"}
,{"CODGEO":"12143","REG":"73","DEP":"12","LIBGEO":"Mélagues","P12_POP":"62","C12_POP15P":"52","C12_POP15P_CS1":"8","C12_POP15P_CS2":"0","C12_POP15P_CS3":"0","C12_POP15P_CS4":"4","C12_POP15P_CS5":"0","C12_POP15P_CS6":"8","C12_POP15P_CS7":"24","C12_POP15P_CS8":"8","TxCS6":"15.384616"}
,{"CODGEO":"12144","REG":"73","DEP":"12","LIBGEO":"Meljac","P12_POP":"140","C12_POP15P":"120","C12_POP15P_CS1":"32","C12_POP15P_CS2":"8","C12_POP15P_CS3":"0","C12_POP15P_CS4":"0","C12_POP15P_CS5":"4","C12_POP15P_CS6":"8","C12_POP15P_CS7":"60","C12_POP15P_CS8":"8","TxCS6":"6.666667"}
,{"CODGEO":"12145","REG":"73","DEP":"12","LIBGEO":"Millau","P12_POP":"22013","C12_POP15P":"18580","C12_POP15P_CS1":"92","C12_POP15P_CS2":"679","C12_POP15P_CS3":"928","C12_POP15P_CS4":"2320","C12_POP15P_CS5":"3152","C12_POP15P_CS6":"2339","C12_POP15P_CS7":"6870","C12_POP15P_CS8":"2200","TxCS6":"12.588805"}
,{"CODGEO":"12146","REG":"73","DEP":"12","LIBGEO":"Le Monastère","P12_POP":"2104","C12_POP15P":"1764","C12_POP15P_CS1":"20","C12_POP15P_CS2":"44","C12_POP15P_CS3":"148","C12_POP15P_CS4":"372","C12_POP15P_CS5":"320","C12_POP15P_CS6":"220","C12_POP15P_CS7":"404","C12_POP15P_CS8":"236","TxCS6":"12.471655"}
,{"CODGEO":"12147","REG":"73","DEP":"12","LIBGEO":"Montagnol","P12_POP":"139","C12_POP15P":"107","C12_POP15P_CS1":"17","C12_POP15P_CS2":"9","C12_POP15P_CS3":"0","C12_POP15P_CS4":"9","C12_POP15P_CS5":"4","C12_POP15P_CS6":"9","C12_POP15P_CS7":"47","C12_POP15P_CS8":"13","TxCS6":"8.411215"}
,{"CODGEO":"12148","REG":"73","DEP":"12","LIBGEO":"Montbazens","P12_POP":"1425","C12_POP15P":"1238","C12_POP15P_CS1":"28","C12_POP15P_CS2":"65","C12_POP15P_CS3":"41","C12_POP15P_CS4":"138","C12_POP15P_CS5":"211","C12_POP15P_CS6":"114","C12_POP15P_CS7":"505","C12_POP15P_CS8":"138","TxCS6":"9.208401"}
,{"CODGEO":"12149","REG":"73","DEP":"12","LIBGEO":"Montclar","P12_POP":"164","C12_POP15P":"128","C12_POP15P_CS1":"16","C12_POP15P_CS2":"12","C12_POP15P_CS3":"4","C12_POP15P_CS4":"16","C12_POP15P_CS5":"12","C12_POP15P_CS6":"8","C12_POP15P_CS7":"58","C12_POP15P_CS8":"4","TxCS6":"6.25"}
,{"CODGEO":"12150","REG":"73","DEP":"12","LIBGEO":"Monteils","P12_POP":"559","C12_POP15P":"464","C12_POP15P_CS1":"4","C12_POP15P_CS2":"20","C12_POP15P_CS3":"20","C12_POP15P_CS4":"57","C12_POP15P_CS5":"73","C12_POP15P_CS6":"49","C12_POP15P_CS7":"167","C12_POP15P_CS8":"73","TxCS6":"10.560345"}
,{"CODGEO":"12151","REG":"73","DEP":"12","LIBGEO":"Montézic","P12_POP":"258","C12_POP15P":"206","C12_POP15P_CS1":"4","C12_POP15P_CS2":"17","C12_POP15P_CS3":"8","C12_POP15P_CS4":"17","C12_POP15P_CS5":"42","C12_POP15P_CS6":"29","C12_POP15P_CS7":"76","C12_POP15P_CS8":"13","TxCS6":"14.077669"}
,{"CODGEO":"12152","REG":"73","DEP":"12","LIBGEO":"Montfranc","P12_POP":"123","C12_POP15P":"111","C12_POP15P_CS1":"19","C12_POP15P_CS2":"8","C12_POP15P_CS3":"0","C12_POP15P_CS4":"4","C12_POP15P_CS5":"12","C12_POP15P_CS6":"4","C12_POP15P_CS7":"58","C12_POP15P_CS8":"8","TxCS6":"3.6036036"}
,{"CODGEO":"12153","REG":"73","DEP":"12","LIBGEO":"Montjaux","P12_POP":"392","C12_POP15P":"368","C12_POP15P_CS1":"40","C12_POP15P_CS2":"36","C12_POP15P_CS3":"4","C12_POP15P_CS4":"32","C12_POP15P_CS5":"44","C12_POP15P_CS6":"55","C12_POP15P_CS7":"131","C12_POP15P_CS8":"28","TxCS6":"14.945652"}
,{"CODGEO":"12154","REG":"73","DEP":"12","LIBGEO":"Montlaur","P12_POP":"634","C12_POP15P":"522","C12_POP15P_CS1":"56","C12_POP15P_CS2":"28","C12_POP15P_CS3":"8","C12_POP15P_CS4":"52","C12_POP15P_CS5":"84","C12_POP15P_CS6":"80","C12_POP15P_CS7":"148","C12_POP15P_CS8":"68","TxCS6":"15.32567"}
,{"CODGEO":"12155","REG":"73","DEP":"12","LIBGEO":"Fondamente","P12_POP":"321","C12_POP15P":"259","C12_POP15P_CS1":"10","C12_POP15P_CS2":"24","C12_POP15P_CS3":"0","C12_POP15P_CS4":"20","C12_POP15P_CS5":"44","C12_POP15P_CS6":"24","C12_POP15P_CS7":"127","C12_POP15P_CS8":"10","TxCS6":"9.266409"}
,{"CODGEO":"12156","REG":"73","DEP":"12","LIBGEO":"Montpeyroux","P12_POP":"550","C12_POP15P":"477","C12_POP15P_CS1":"107","C12_POP15P_CS2":"28","C12_POP15P_CS3":"4","C12_POP15P_CS4":"24","C12_POP15P_CS5":"36","C12_POP15P_CS6":"60","C12_POP15P_CS7":"151","C12_POP15P_CS8":"68","TxCS6":"12.578617"}
,{"CODGEO":"12157","REG":"73","DEP":"12","LIBGEO":"Montrozier","P12_POP":"1495","C12_POP15P":"1183","C12_POP15P_CS1":"33","C12_POP15P_CS2":"73","C12_POP15P_CS3":"116","C12_POP15P_CS4":"170","C12_POP15P_CS5":"208","C12_POP15P_CS6":"115","C12_POP15P_CS7":"336","C12_POP15P_CS8":"131","TxCS6":"9.721048"}
,{"CODGEO":"12158","REG":"73","DEP":"12","LIBGEO":"Montsalès","P12_POP":"253","C12_POP15P":"200","C12_POP15P_CS1":"0","C12_POP15P_CS2":"4","C12_POP15P_CS3":"16","C12_POP15P_CS4":"49","C12_POP15P_CS5":"24","C12_POP15P_CS6":"16","C12_POP15P_CS7":"73","C12_POP15P_CS8":"16","TxCS6":"8.0"}
,{"CODGEO":"12159","REG":"73","DEP":"12","LIBGEO":"Morlhon-le-Haut","P12_POP":"569","C12_POP15P":"480","C12_POP15P_CS1":"44","C12_POP15P_CS2":"20","C12_POP15P_CS3":"16","C12_POP15P_CS4":"56","C12_POP15P_CS5":"68","C12_POP15P_CS6":"48","C12_POP15P_CS7":"164","C12_POP15P_CS8":"64","TxCS6":"10.0"}
,{"CODGEO":"12160","REG":"73","DEP":"12","LIBGEO":"Mostuéjouls","P12_POP":"296","C12_POP15P":"256","C12_POP15P_CS1":"5","C12_POP15P_CS2":"10","C12_POP15P_CS3":"19","C12_POP15P_CS4":"14","C12_POP15P_CS5":"29","C12_POP15P_CS6":"43","C12_POP15P_CS7":"121","C12_POP15P_CS8":"14","TxCS6":"16.796875"}
,{"CODGEO":"12161","REG":"73","DEP":"12","LIBGEO":"Mouret","P12_POP":"509","C12_POP15P":"399","C12_POP15P_CS1":"36","C12_POP15P_CS2":"12","C12_POP15P_CS3":"12","C12_POP15P_CS4":"40","C12_POP15P_CS5":"68","C12_POP15P_CS6":"40","C12_POP15P_CS7":"156","C12_POP15P_CS8":"36","TxCS6":"10.025063"}
,{"CODGEO":"12162","REG":"73","DEP":"12","LIBGEO":"Moyrazès","P12_POP":"1135","C12_POP15P":"898","C12_POP15P_CS1":"84","C12_POP15P_CS2":"48","C12_POP15P_CS3":"32","C12_POP15P_CS4":"112","C12_POP15P_CS5":"160","C12_POP15P_CS6":"124","C12_POP15P_CS7":"245","C12_POP15P_CS8":"92","TxCS6":"13.808463"}
,{"CODGEO":"12163","REG":"73","DEP":"12","LIBGEO":"Murasson","P12_POP":"189","C12_POP15P":"148","C12_POP15P_CS1":"21","C12_POP15P_CS2":"5","C12_POP15P_CS3":"0","C12_POP15P_CS4":"10","C12_POP15P_CS5":"5","C12_POP15P_CS6":"40","C12_POP15P_CS7":"51","C12_POP15P_CS8":"15","TxCS6":"27.027025"}
,{"CODGEO":"12164","REG":"73","DEP":"12","LIBGEO":"Mur-de-Barrez","P12_POP":"800","C12_POP15P":"709","C12_POP15P_CS1":"20","C12_POP15P_CS2":"51","C12_POP15P_CS3":"10","C12_POP15P_CS4":"36","C12_POP15P_CS5":"137","C12_POP15P_CS6":"66","C12_POP15P_CS7":"333","C12_POP15P_CS8":"56","TxCS6":"9.308886"}
,{"CODGEO":"12165","REG":"73","DEP":"12","LIBGEO":"Muret-le-Château","P12_POP":"338","C12_POP15P":"250","C12_POP15P_CS1":"10","C12_POP15P_CS2":"24","C12_POP15P_CS3":"5","C12_POP15P_CS4":"54","C12_POP15P_CS5":"39","C12_POP15P_CS6":"34","C12_POP15P_CS7":"64","C12_POP15P_CS8":"20","TxCS6":"13.6"}
,{"CODGEO":"12166","REG":"73","DEP":"12","LIBGEO":"Murols","P12_POP":"109","C12_POP15P":"96","C12_POP15P_CS1":"12","C12_POP15P_CS2":"0","C12_POP15P_CS3":"4","C12_POP15P_CS4":"0","C12_POP15P_CS5":"8","C12_POP15P_CS6":"4","C12_POP15P_CS7":"56","C12_POP15P_CS8":"12","TxCS6":"4.166667"}
,{"CODGEO":"12167","REG":"73","DEP":"12","LIBGEO":"Najac","P12_POP":"731","C12_POP15P":"646","C12_POP15P_CS1":"49","C12_POP15P_CS2":"41","C12_POP15P_CS3":"41","C12_POP15P_CS4":"49","C12_POP15P_CS5":"69","C12_POP15P_CS6":"45","C12_POP15P_CS7":"309","C12_POP15P_CS8":"45","TxCS6":"6.9659443"}
,{"CODGEO":"12168","REG":"73","DEP":"12","LIBGEO":"Nant","P12_POP":"934","C12_POP15P":"808","C12_POP15P_CS1":"16","C12_POP15P_CS2":"68","C12_POP15P_CS3":"40","C12_POP15P_CS4":"72","C12_POP15P_CS5":"68","C12_POP15P_CS6":"56","C12_POP15P_CS7":"408","C12_POP15P_CS8":"80","TxCS6":"6.930693"}
,{"CODGEO":"12169","REG":"73","DEP":"12","LIBGEO":"Naucelle","P12_POP":"1954","C12_POP15P":"1648","C12_POP15P_CS1":"28","C12_POP15P_CS2":"92","C12_POP15P_CS3":"64","C12_POP15P_CS4":"196","C12_POP15P_CS5":"216","C12_POP15P_CS6":"136","C12_POP15P_CS7":"768","C12_POP15P_CS8":"148","TxCS6":"8.252427"}
,{"CODGEO":"12170","REG":"73","DEP":"12","LIBGEO":"Naussac","P12_POP":"357","C12_POP15P":"300","C12_POP15P_CS1":"12","C12_POP15P_CS2":"16","C12_POP15P_CS3":"8","C12_POP15P_CS4":"36","C12_POP15P_CS5":"40","C12_POP15P_CS6":"32","C12_POP15P_CS7":"128","C12_POP15P_CS8":"28","TxCS6":"10.666667"}
,{"CODGEO":"12171","REG":"73","DEP":"12","LIBGEO":"Nauviale","P12_POP":"536","C12_POP15P":"433","C12_POP15P_CS1":"49","C12_POP15P_CS2":"41","C12_POP15P_CS3":"8","C12_POP15P_CS4":"87","C12_POP15P_CS5":"54","C12_POP15P_CS6":"37","C12_POP15P_CS7":"120","C12_POP15P_CS8":"37","TxCS6":"8.545034"}
,{"CODGEO":"12172","REG":"73","DEP":"12","LIBGEO":"Le Nayrac","P12_POP":"523","C12_POP15P":"456","C12_POP15P_CS1":"32","C12_POP15P_CS2":"28","C12_POP15P_CS3":"4","C12_POP15P_CS4":"36","C12_POP15P_CS5":"48","C12_POP15P_CS6":"48","C12_POP15P_CS7":"232","C12_POP15P_CS8":"28","TxCS6":"10.526316"}
,{"CODGEO":"12173","REG":"73","DEP":"12","LIBGEO":"Noailhac","P12_POP":"169","C12_POP15P":"132","C12_POP15P_CS1":"24","C12_POP15P_CS2":"4","C12_POP15P_CS3":"0","C12_POP15P_CS4":"8","C12_POP15P_CS5":"20","C12_POP15P_CS6":"12","C12_POP15P_CS7":"44","C12_POP15P_CS8":"20","TxCS6":"9.090909"}
,{"CODGEO":"12174","REG":"73","DEP":"12","LIBGEO":"Olemps","P12_POP":"3247","C12_POP15P":"2742","C12_POP15P_CS1":"8","C12_POP15P_CS2":"103","C12_POP15P_CS3":"185","C12_POP15P_CS4":"446","C12_POP15P_CS5":"461","C12_POP15P_CS6":"428","C12_POP15P_CS7":"852","C12_POP15P_CS8":"260","TxCS6":"15.609044"}
,{"CODGEO":"12175","REG":"73","DEP":"12","LIBGEO":"Ols-et-Rinhodes","P12_POP":"154","C12_POP15P":"120","C12_POP15P_CS1":"4","C12_POP15P_CS2":"4","C12_POP15P_CS3":"0","C12_POP15P_CS4":"12","C12_POP15P_CS5":"16","C12_POP15P_CS6":"28","C12_POP15P_CS7":"24","C12_POP15P_CS8":"32","TxCS6":"23.333334"}
,{"CODGEO":"12176","REG":"73","DEP":"12","LIBGEO":"Onet-le-Château","P12_POP":"11070","C12_POP15P":"9121","C12_POP15P_CS1":"56","C12_POP15P_CS2":"289","C12_POP15P_CS3":"525","C12_POP15P_CS4":"1372","C12_POP15P_CS5":"1696","C12_POP15P_CS6":"1349","C12_POP15P_CS7":"2624","C12_POP15P_CS8":"1211","TxCS6":"14.790045"}
,{"CODGEO":"12177","REG":"73","DEP":"12","LIBGEO":"Palmas","P12_POP":"338","C12_POP15P":"264","C12_POP15P_CS1":"8","C12_POP15P_CS2":"24","C12_POP15P_CS3":"20","C12_POP15P_CS4":"44","C12_POP15P_CS5":"40","C12_POP15P_CS6":"40","C12_POP15P_CS7":"64","C12_POP15P_CS8":"24","TxCS6":"15.151516"}
,{"CODGEO":"12178","REG":"73","DEP":"12","LIBGEO":"Paulhe","P12_POP":"360","C12_POP15P":"293","C12_POP15P_CS1":"5","C12_POP15P_CS2":"23","C12_POP15P_CS3":"23","C12_POP15P_CS4":"37","C12_POP15P_CS5":"47","C12_POP15P_CS6":"37","C12_POP15P_CS7":"97","C12_POP15P_CS8":"23","TxCS6":"12.627986"}
,{"CODGEO":"12179","REG":"73","DEP":"12","LIBGEO":"Peux-et-Couffouleux","P12_POP":"99","C12_POP15P":"97","C12_POP15P_CS1":"39","C12_POP15P_CS2":"0","C12_POP15P_CS3":"0","C12_POP15P_CS4":"8","C12_POP15P_CS5":"19","C12_POP15P_CS6":"4","C12_POP15P_CS7":"19","C12_POP15P_CS8":"8","TxCS6":"4.123711"}
,{"CODGEO":"12180","REG":"73","DEP":"12","LIBGEO":"Peyreleau","P12_POP":"82","C12_POP15P":"76","C12_POP15P_CS1":"4","C12_POP15P_CS2":"4","C12_POP15P_CS3":"8","C12_POP15P_CS4":"13","C12_POP15P_CS5":"8","C12_POP15P_CS6":"13","C12_POP15P_CS7":"17","C12_POP15P_CS8":"8","TxCS6":"17.105263"}
,{"CODGEO":"12181","REG":"73","DEP":"12","LIBGEO":"Peyrusse-le-Roc","P12_POP":"221","C12_POP15P":"181","C12_POP15P_CS1":"39","C12_POP15P_CS2":"10","C12_POP15P_CS3":"0","C12_POP15P_CS4":"20","C12_POP15P_CS5":"20","C12_POP15P_CS6":"10","C12_POP15P_CS7":"78","C12_POP15P_CS8":"5","TxCS6":"5.524862"}
,{"CODGEO":"12182","REG":"73","DEP":"12","LIBGEO":"Pierrefiche","P12_POP":"270","C12_POP15P":"226","C12_POP15P_CS1":"16","C12_POP15P_CS2":"20","C12_POP15P_CS3":"0","C12_POP15P_CS4":"20","C12_POP15P_CS5":"32","C12_POP15P_CS6":"36","C12_POP15P_CS7":"93","C12_POP15P_CS8":"8","TxCS6":"15.929204"}
,{"CODGEO":"12183","REG":"73","DEP":"12","LIBGEO":"Plaisance","P12_POP":"203","C12_POP15P":"173","C12_POP15P_CS1":"24","C12_POP15P_CS2":"12","C12_POP15P_CS3":"4","C12_POP15P_CS4":"12","C12_POP15P_CS5":"16","C12_POP15P_CS6":"16","C12_POP15P_CS7":"63","C12_POP15P_CS8":"28","TxCS6":"9.248554"}
,{"CODGEO":"12184","REG":"73","DEP":"12","LIBGEO":"Pomayrols","P12_POP":"132","C12_POP15P":"127","C12_POP15P_CS1":"8","C12_POP15P_CS2":"0","C12_POP15P_CS3":"0","C12_POP15P_CS4":"12","C12_POP15P_CS5":"12","C12_POP15P_CS6":"15","C12_POP15P_CS7":"73","C12_POP15P_CS8":"8","TxCS6":"11.811024"}
,{"CODGEO":"12185","REG":"73","DEP":"12","LIBGEO":"Pont-de-Salars","P12_POP":"1642","C12_POP15P":"1358","C12_POP15P_CS1":"80","C12_POP15P_CS2":"68","C12_POP15P_CS3":"44","C12_POP15P_CS4":"104","C12_POP15P_CS5":"265","C12_POP15P_CS6":"173","C12_POP15P_CS7":"446","C12_POP15P_CS8":"177","TxCS6":"12.739323"}
,{"CODGEO":"12186","REG":"73","DEP":"12","LIBGEO":"Pousthomy","P12_POP":"211","C12_POP15P":"176","C12_POP15P_CS1":"33","C12_POP15P_CS2":"16","C12_POP15P_CS3":"8","C12_POP15P_CS4":"33","C12_POP15P_CS5":"25","C12_POP15P_CS6":"4","C12_POP15P_CS7":"37","C12_POP15P_CS8":"20","TxCS6":"2.2727273"}
,{"CODGEO":"12187","REG":"73","DEP":"12","LIBGEO":"Prades-d'Aubrac","P12_POP":"421","C12_POP15P":"408","C12_POP15P_CS1":"39","C12_POP15P_CS2":"47","C12_POP15P_CS3":"0","C12_POP15P_CS4":"16","C12_POP15P_CS5":"32","C12_POP15P_CS6":"28","C12_POP15P_CS7":"199","C12_POP15P_CS8":"47","TxCS6":"6.8627453"}
,{"CODGEO":"12188","REG":"73","DEP":"12","LIBGEO":"Prades-Salars","P12_POP":"272","C12_POP15P":"218","C12_POP15P_CS1":"23","C12_POP15P_CS2":"8","C12_POP15P_CS3":"4","C12_POP15P_CS4":"31","C12_POP15P_CS5":"39","C12_POP15P_CS6":"19","C12_POP15P_CS7":"90","C12_POP15P_CS8":"4","TxCS6":"8.715596"}
,{"CODGEO":"12189","REG":"73","DEP":"12","LIBGEO":"Pradinas","P12_POP":"370","C12_POP15P":"313","C12_POP15P_CS1":"48","C12_POP15P_CS2":"0","C12_POP15P_CS3":"16","C12_POP15P_CS4":"16","C12_POP15P_CS5":"48","C12_POP15P_CS6":"40","C12_POP15P_CS7":"116","C12_POP15P_CS8":"28","TxCS6":"12.779553"}
,{"CODGEO":"12190","REG":"73","DEP":"12","LIBGEO":"Prévinquières","P12_POP":"304","C12_POP15P":"246","C12_POP15P_CS1":"28","C12_POP15P_CS2":"4","C12_POP15P_CS3":"0","C12_POP15P_CS4":"32","C12_POP15P_CS5":"24","C12_POP15P_CS6":"44","C12_POP15P_CS7":"93","C12_POP15P_CS8":"20","TxCS6":"17.886179"}
,{"CODGEO":"12191","REG":"73","DEP":"12","LIBGEO":"Privezac","P12_POP":"340","C12_POP15P":"288","C12_POP15P_CS1":"0","C12_POP15P_CS2":"36","C12_POP15P_CS3":"24","C12_POP15P_CS4":"32","C12_POP15P_CS5":"36","C12_POP15P_CS6":"28","C12_POP15P_CS7":"108","C12_POP15P_CS8":"24","TxCS6":"9.722222"}
,{"CODGEO":"12192","REG":"73","DEP":"12","LIBGEO":"Mounes-Prohencoux","P12_POP":"180","C12_POP15P":"157","C12_POP15P_CS1":"23","C12_POP15P_CS2":"4","C12_POP15P_CS3":"0","C12_POP15P_CS4":"16","C12_POP15P_CS5":"20","C12_POP15P_CS6":"16","C12_POP15P_CS7":"59","C12_POP15P_CS8":"20","TxCS6":"10.191083"}
,{"CODGEO":"12193","REG":"73","DEP":"12","LIBGEO":"Pruines","P12_POP":"302","C12_POP15P":"248","C12_POP15P_CS1":"12","C12_POP15P_CS2":"16","C12_POP15P_CS3":"4","C12_POP15P_CS4":"20","C12_POP15P_CS5":"44","C12_POP15P_CS6":"32","C12_POP15P_CS7":"92","C12_POP15P_CS8":"28","TxCS6":"12.903225"}
,{"CODGEO":"12194","REG":"73","DEP":"12","LIBGEO":"Quins","P12_POP":"830","C12_POP15P":"663","C12_POP15P_CS1":"60","C12_POP15P_CS2":"20","C12_POP15P_CS3":"28","C12_POP15P_CS4":"92","C12_POP15P_CS5":"92","C12_POP15P_CS6":"96","C12_POP15P_CS7":"213","C12_POP15P_CS8":"60","TxCS6":"14.479639"}
,{"CODGEO":"12195","REG":"73","DEP":"12","LIBGEO":"Rebourguil","P12_POP":"274","C12_POP15P":"220","C12_POP15P_CS1":"24","C12_POP15P_CS2":"16","C12_POP15P_CS3":"4","C12_POP15P_CS4":"20","C12_POP15P_CS5":"36","C12_POP15P_CS6":"28","C12_POP15P_CS7":"72","C12_POP15P_CS8":"20","TxCS6":"12.727272"}
,{"CODGEO":"12196","REG":"73","DEP":"12","LIBGEO":"Recoules-Prévinquières","P12_POP":"482","C12_POP15P":"396","C12_POP15P_CS1":"40","C12_POP15P_CS2":"16","C12_POP15P_CS3":"8","C12_POP15P_CS4":"24","C12_POP15P_CS5":"72","C12_POP15P_CS6":"52","C12_POP15P_CS7":"156","C12_POP15P_CS8":"28","TxCS6":"13.131313"}
,{"CODGEO":"12197","REG":"73","DEP":"12","LIBGEO":"Réquista","P12_POP":"2020","C12_POP15P":"1733","C12_POP15P_CS1":"111","C12_POP15P_CS2":"132","C12_POP15P_CS3":"30","C12_POP15P_CS4":"111","C12_POP15P_CS5":"283","C12_POP15P_CS6":"161","C12_POP15P_CS7":"716","C12_POP15P_CS8":"189","TxCS6":"9.290248"}
,{"CODGEO":"12198","REG":"73","DEP":"12","LIBGEO":"Rieupeyroux","P12_POP":"2040","C12_POP15P":"1766","C12_POP15P_CS1":"107","C12_POP15P_CS2":"66","C12_POP15P_CS3":"61","C12_POP15P_CS4":"164","C12_POP15P_CS5":"225","C12_POP15P_CS6":"215","C12_POP15P_CS7":"718","C12_POP15P_CS8":"209","TxCS6":"12.174405"}
,{"CODGEO":"12199","REG":"73","DEP":"12","LIBGEO":"Rignac","P12_POP":"1901","C12_POP15P":"1555","C12_POP15P_CS1":"65","C12_POP15P_CS2":"75","C12_POP15P_CS3":"70","C12_POP15P_CS4":"192","C12_POP15P_CS5":"235","C12_POP15P_CS6":"135","C12_POP15P_CS7":"599","C12_POP15P_CS8":"184","TxCS6":"8.681672"}
,{"CODGEO":"12200","REG":"73","DEP":"12","LIBGEO":"Rivière-sur-Tarn","P12_POP":"1052","C12_POP15P":"857","C12_POP15P_CS1":"16","C12_POP15P_CS2":"32","C12_POP15P_CS3":"60","C12_POP15P_CS4":"104","C12_POP15P_CS5":"104","C12_POP15P_CS6":"132","C12_POP15P_CS7":"320","C12_POP15P_CS8":"88","TxCS6":"15.402567"}
,{"CODGEO":"12201","REG":"73","DEP":"12","LIBGEO":"Rodelle","P12_POP":"1027","C12_POP15P":"804","C12_POP15P_CS1":"43","C12_POP15P_CS2":"62","C12_POP15P_CS3":"66","C12_POP15P_CS4":"144","C12_POP15P_CS5":"137","C12_POP15P_CS6":"86","C12_POP15P_CS7":"199","C12_POP15P_CS8":"66","TxCS6":"10.696518"}
,{"CODGEO":"12202","REG":"73","DEP":"12","LIBGEO":"Rodez","P12_POP":"23744","C12_POP15P":"20698","C12_POP15P_CS1":"34","C12_POP15P_CS2":"632","C12_POP15P_CS3":"1559","C12_POP15P_CS4":"3043","C12_POP15P_CS5":"3657","C12_POP15P_CS6":"2413","C12_POP15P_CS7":"5795","C12_POP15P_CS8":"3564","TxCS6":"11.658132"}
,{"CODGEO":"12203","REG":"73","DEP":"12","LIBGEO":"Roquefort-sur-Soulzon","P12_POP":"620","C12_POP15P":"524","C12_POP15P_CS1":"12","C12_POP15P_CS2":"28","C12_POP15P_CS3":"32","C12_POP15P_CS4":"72","C12_POP15P_CS5":"60","C12_POP15P_CS6":"140","C12_POP15P_CS7":"132","C12_POP15P_CS8":"48","TxCS6":"26.717558"}
,{"CODGEO":"12204","REG":"73","DEP":"12","LIBGEO":"La Roque-Sainte-Marguerite","P12_POP":"192","C12_POP15P":"161","C12_POP15P_CS1":"21","C12_POP15P_CS2":"5","C12_POP15P_CS3":"16","C12_POP15P_CS4":"21","C12_POP15P_CS5":"10","C12_POP15P_CS6":"16","C12_POP15P_CS7":"57","C12_POP15P_CS8":"16","TxCS6":"9.937888"}
,{"CODGEO":"12205","REG":"73","DEP":"12","LIBGEO":"La Rouquette","P12_POP":"760","C12_POP15P":"590","C12_POP15P_CS1":"8","C12_POP15P_CS2":"29","C12_POP15P_CS3":"37","C12_POP15P_CS4":"99","C12_POP15P_CS5":"111","C12_POP15P_CS6":"58","C12_POP15P_CS7":"194","C12_POP15P_CS8":"54","TxCS6":"9.830508"}
,{"CODGEO":"12206","REG":"73","DEP":"12","LIBGEO":"Roussennac","P12_POP":"548","C12_POP15P":"443","C12_POP15P_CS1":"29","C12_POP15P_CS2":"0","C12_POP15P_CS3":"33","C12_POP15P_CS4":"58","C12_POP15P_CS5":"70","C12_POP15P_CS6":"66","C12_POP15P_CS7":"166","C12_POP15P_CS8":"21","TxCS6":"14.898419"}
,{"CODGEO":"12207","REG":"73","DEP":"12","LIBGEO":"Rullac-Saint-Cirq","P12_POP":"388","C12_POP15P":"341","C12_POP15P_CS1":"57","C12_POP15P_CS2":"12","C12_POP15P_CS3":"0","C12_POP15P_CS4":"49","C12_POP15P_CS5":"12","C12_POP15P_CS6":"28","C12_POP15P_CS7":"154","C12_POP15P_CS8":"28","TxCS6":"8.211144"}
,{"CODGEO":"12208","REG":"73","DEP":"12","LIBGEO":"Saint-Affrique","P12_POP":"8255","C12_POP15P":"7066","C12_POP15P_CS1":"77","C12_POP15P_CS2":"328","C12_POP15P_CS3":"325","C12_POP15P_CS4":"861","C12_POP15P_CS5":"1097","C12_POP15P_CS6":"965","C12_POP15P_CS7":"2440","C12_POP15P_CS8":"973","TxCS6":"13.656948"}
,{"CODGEO":"12209","REG":"73","DEP":"12","LIBGEO":"Saint-Amans-des-Cots","P12_POP":"764","C12_POP15P":"695","C12_POP15P_CS1":"73","C12_POP15P_CS2":"36","C12_POP15P_CS3":"16","C12_POP15P_CS4":"49","C12_POP15P_CS5":"65","C12_POP15P_CS6":"69","C12_POP15P_CS7":"339","C12_POP15P_CS8":"48","TxCS6":"9.928058"}
,{"CODGEO":"12210","REG":"73","DEP":"12","LIBGEO":"Saint-André-de-Najac","P12_POP":"419","C12_POP15P":"340","C12_POP15P_CS1":"36","C12_POP15P_CS2":"16","C12_POP15P_CS3":"8","C12_POP15P_CS4":"32","C12_POP15P_CS5":"32","C12_POP15P_CS6":"36","C12_POP15P_CS7":"160","C12_POP15P_CS8":"20","TxCS6":"10.588236"}
,{"CODGEO":"12211","REG":"73","DEP":"12","LIBGEO":"Saint-André-de-Vézines","P12_POP":"128","C12_POP15P":"113","C12_POP15P_CS1":"20","C12_POP15P_CS2":"0","C12_POP15P_CS3":"0","C12_POP15P_CS4":"12","C12_POP15P_CS5":"16","C12_POP15P_CS6":"16","C12_POP15P_CS7":"32","C12_POP15P_CS8":"16","TxCS6":"14.159292"}
,{"CODGEO":"12212","REG":"73","DEP":"12","LIBGEO":"Saint-Beaulize","P12_POP":"109","C12_POP15P":"84","C12_POP15P_CS1":"8","C12_POP15P_CS2":"4","C12_POP15P_CS3":"4","C12_POP15P_CS4":"4","C12_POP15P_CS5":"4","C12_POP15P_CS6":"20","C12_POP15P_CS7":"32","C12_POP15P_CS8":"8","TxCS6":"23.809525"}
,{"CODGEO":"12213","REG":"73","DEP":"12","LIBGEO":"Saint-Beauzély","P12_POP":"553","C12_POP15P":"468","C12_POP15P_CS1":"12","C12_POP15P_CS2":"32","C12_POP15P_CS3":"12","C12_POP15P_CS4":"68","C12_POP15P_CS5":"64","C12_POP15P_CS6":"64","C12_POP15P_CS7":"160","C12_POP15P_CS8":"56","TxCS6":"13.675215"}
,{"CODGEO":"12214","REG":"73","DEP":"12","LIBGEO":"Saint-Chély-d'Aubrac","P12_POP":"543","C12_POP15P":"508","C12_POP15P_CS1":"40","C12_POP15P_CS2":"28","C12_POP15P_CS3":"12","C12_POP15P_CS4":"40","C12_POP15P_CS5":"77","C12_POP15P_CS6":"32","C12_POP15P_CS7":"217","C12_POP15P_CS8":"61","TxCS6":"6.2992125"}
,{"CODGEO":"12215","REG":"73","DEP":"12","LIBGEO":"Saint-Christophe-Vallon","P12_POP":"1138","C12_POP15P":"934","C12_POP15P_CS1":"40","C12_POP15P_CS2":"52","C12_POP15P_CS3":"16","C12_POP15P_CS4":"160","C12_POP15P_CS5":"156","C12_POP15P_CS6":"120","C12_POP15P_CS7":"283","C12_POP15P_CS8":"108","TxCS6":"12.847966"}
,{"CODGEO":"12216","REG":"73","DEP":"12","LIBGEO":"Saint-Côme-d'Olt","P12_POP":"1320","C12_POP15P":"1119","C12_POP15P_CS1":"50","C12_POP15P_CS2":"65","C12_POP15P_CS3":"42","C12_POP15P_CS4":"77","C12_POP15P_CS5":"166","C12_POP15P_CS6":"96","C12_POP15P_CS7":"505","C12_POP15P_CS8":"117","TxCS6":"8.579089"}
,{"CODGEO":"12217","REG":"73","DEP":"12","LIBGEO":"Sainte-Croix","P12_POP":"726","C12_POP15P":"588","C12_POP15P_CS1":"32","C12_POP15P_CS2":"56","C12_POP15P_CS3":"28","C12_POP15P_CS4":"60","C12_POP15P_CS5":"69","C12_POP15P_CS6":"81","C12_POP15P_CS7":"181","C12_POP15P_CS8":"80","TxCS6":"13.77551"}
,{"CODGEO":"12218","REG":"73","DEP":"12","LIBGEO":"Saint-Cyprien-sur-Dourdou","P12_POP":"860","C12_POP15P":"719","C12_POP15P_CS1":"41","C12_POP15P_CS2":"65","C12_POP15P_CS3":"32","C12_POP15P_CS4":"81","C12_POP15P_CS5":"81","C12_POP15P_CS6":"53","C12_POP15P_CS7":"309","C12_POP15P_CS8":"57","TxCS6":"7.371349"}
,{"CODGEO":"12219","REG":"73","DEP":"12","LIBGEO":"Sainte-Eulalie-d'Olt","P12_POP":"369","C12_POP15P":"319","C12_POP15P_CS1":"12","C12_POP15P_CS2":"24","C12_POP15P_CS3":"4","C12_POP15P_CS4":"32","C12_POP15P_CS5":"40","C12_POP15P_CS6":"24","C12_POP15P_CS7":"149","C12_POP15P_CS8":"32","TxCS6":"7.5235105"}
,{"CODGEO":"12220","REG":"73","DEP":"12","LIBGEO":"Sainte-Eulalie-de-Cernon","P12_POP":"262","C12_POP15P":"214","C12_POP15P_CS1":"16","C12_POP15P_CS2":"20","C12_POP15P_CS3":"8","C12_POP15P_CS4":"16","C12_POP15P_CS5":"16","C12_POP15P_CS6":"20","C12_POP15P_CS7":"81","C12_POP15P_CS8":"36","TxCS6":"9.345795"}
,{"CODGEO":"12221","REG":"73","DEP":"12","LIBGEO":"Saint-Félix-de-Lunel","P12_POP":"414","C12_POP15P":"368","C12_POP15P_CS1":"60","C12_POP15P_CS2":"24","C12_POP15P_CS3":"0","C12_POP15P_CS4":"32","C12_POP15P_CS5":"20","C12_POP15P_CS6":"56","C12_POP15P_CS7":"148","C12_POP15P_CS8":"28","TxCS6":"15.217391"}
,{"CODGEO":"12222","REG":"73","DEP":"12","LIBGEO":"Saint-Félix-de-Sorgues","P12_POP":"217","C12_POP15P":"169","C12_POP15P_CS1":"15","C12_POP15P_CS2":"4","C12_POP15P_CS3":"15","C12_POP15P_CS4":"19","C12_POP15P_CS5":"12","C12_POP15P_CS6":"4","C12_POP15P_CS7":"77","C12_POP15P_CS8":"23","TxCS6":"2.366864"}
,{"CODGEO":"12223","REG":"73","DEP":"12","LIBGEO":"Sainte-Geneviève-sur-Argence","P12_POP":"988","C12_POP15P":"903","C12_POP15P_CS1":"36","C12_POP15P_CS2":"73","C12_POP15P_CS3":"31","C12_POP15P_CS4":"67","C12_POP15P_CS5":"88","C12_POP15P_CS6":"88","C12_POP15P_CS7":"457","C12_POP15P_CS8":"62","TxCS6":"9.745293"}
,{"CODGEO":"12224","REG":"73","DEP":"12","LIBGEO":"Saint-Geniez-d'Olt","P12_POP":"1983","C12_POP15P":"1724","C12_POP15P_CS1":"28","C12_POP15P_CS2":"96","C12_POP15P_CS3":"56","C12_POP15P_CS4":"132","C12_POP15P_CS5":"260","C12_POP15P_CS6":"160","C12_POP15P_CS7":"852","C12_POP15P_CS8":"140","TxCS6":"9.280743"}
,{"CODGEO":"12225","REG":"73","DEP":"12","LIBGEO":"Saint-Georges-de-Luzençon","P12_POP":"1514","C12_POP15P":"1236","C12_POP15P_CS1":"48","C12_POP15P_CS2":"64","C12_POP15P_CS3":"72","C12_POP15P_CS4":"140","C12_POP15P_CS5":"188","C12_POP15P_CS6":"196","C12_POP15P_CS7":"396","C12_POP15P_CS8":"132","TxCS6":"15.857606"}
,{"CODGEO":"12226","REG":"73","DEP":"12","LIBGEO":"Saint-Hippolyte","P12_POP":"444","C12_POP15P":"400","C12_POP15P_CS1":"32","C12_POP15P_CS2":"24","C12_POP15P_CS3":"4","C12_POP15P_CS4":"28","C12_POP15P_CS5":"64","C12_POP15P_CS6":"24","C12_POP15P_CS7":"184","C12_POP15P_CS8":"40","TxCS6":"6.0"}
,{"CODGEO":"12227","REG":"73","DEP":"12","LIBGEO":"Saint-Igest","P12_POP":"191","C12_POP15P":"147","C12_POP15P_CS1":"23","C12_POP15P_CS2":"4","C12_POP15P_CS3":"0","C12_POP15P_CS4":"15","C12_POP15P_CS5":"19","C12_POP15P_CS6":"19","C12_POP15P_CS7":"54","C12_POP15P_CS8":"12","TxCS6":"12.92517"}
,{"CODGEO":"12228","REG":"73","DEP":"12","LIBGEO":"Saint-Izaire","P12_POP":"306","C12_POP15P":"278","C12_POP15P_CS1":"40","C12_POP15P_CS2":"20","C12_POP15P_CS3":"12","C12_POP15P_CS4":"16","C12_POP15P_CS5":"28","C12_POP15P_CS6":"32","C12_POP15P_CS7":"109","C12_POP15P_CS8":"20","TxCS6":"11.510792"}
,{"CODGEO":"12229","REG":"73","DEP":"12","LIBGEO":"Saint-Jean-d'Alcapiès","P12_POP":"258","C12_POP15P":"193","C12_POP15P_CS1":"0","C12_POP15P_CS2":"16","C12_POP15P_CS3":"16","C12_POP15P_CS4":"44","C12_POP15P_CS5":"44","C12_POP15P_CS6":"28","C12_POP15P_CS7":"40","C12_POP15P_CS8":"4","TxCS6":"14.507772"}
,{"CODGEO":"12230","REG":"73","DEP":"12","LIBGEO":"Saint-Jean-Delnous","P12_POP":"433","C12_POP15P":"364","C12_POP15P_CS1":"25","C12_POP15P_CS2":"10","C12_POP15P_CS3":"5","C12_POP15P_CS4":"35","C12_POP15P_CS5":"46","C12_POP15P_CS6":"61","C12_POP15P_CS7":"157","C12_POP15P_CS8":"25","TxCS6":"16.758242"}
,{"CODGEO":"12231","REG":"73","DEP":"12","LIBGEO":"Saint-Jean-du-Bruel","P12_POP":"655","C12_POP15P":"604","C12_POP15P_CS1":"16","C12_POP15P_CS2":"56","C12_POP15P_CS3":"12","C12_POP15P_CS4":"32","C12_POP15P_CS5":"88","C12_POP15P_CS6":"44","C12_POP15P_CS7":"320","C12_POP15P_CS8":"36","TxCS6":"7.284768"}
,{"CODGEO":"12232","REG":"73","DEP":"12","LIBGEO":"Saint-Jean-et-Saint-Paul","P12_POP":"268","C12_POP15P":"204","C12_POP15P_CS1":"24","C12_POP15P_CS2":"4","C12_POP15P_CS3":"20","C12_POP15P_CS4":"36","C12_POP15P_CS5":"16","C12_POP15P_CS6":"20","C12_POP15P_CS7":"56","C12_POP15P_CS8":"28","TxCS6":"9.803922"}
,{"CODGEO":"12233","REG":"73","DEP":"12","LIBGEO":"Saint-Juéry","P12_POP":"255","C12_POP15P":"225","C12_POP15P_CS1":"41","C12_POP15P_CS2":"8","C12_POP15P_CS3":"4","C12_POP15P_CS4":"15","C12_POP15P_CS5":"15","C12_POP15P_CS6":"19","C12_POP15P_CS7":"98","C12_POP15P_CS8":"26","TxCS6":"8.444444"}
,{"CODGEO":"12234","REG":"73","DEP":"12","LIBGEO":"Sainte-Juliette-sur-Viaur","P12_POP":"555","C12_POP15P":"413","C12_POP15P_CS1":"24","C12_POP15P_CS2":"10","C12_POP15P_CS3":"14","C12_POP15P_CS4":"72","C12_POP15P_CS5":"67","C12_POP15P_CS6":"82","C12_POP15P_CS7":"120","C12_POP15P_CS8":"24","TxCS6":"19.854721"}
,{"CODGEO":"12235","REG":"73","DEP":"12","LIBGEO":"Saint-Just-sur-Viaur","P12_POP":"208","C12_POP15P":"181","C12_POP15P_CS1":"20","C12_POP15P_CS2":"12","C12_POP15P_CS3":"8","C12_POP15P_CS4":"8","C12_POP15P_CS5":"20","C12_POP15P_CS6":"20","C12_POP15P_CS7":"75","C12_POP15P_CS8":"20","TxCS6":"11.049724"}
,{"CODGEO":"12236","REG":"73","DEP":"12","LIBGEO":"Saint-Laurent-de-Lévézou","P12_POP":"157","C12_POP15P":"132","C12_POP15P_CS1":"32","C12_POP15P_CS2":"0","C12_POP15P_CS3":"0","C12_POP15P_CS4":"8","C12_POP15P_CS5":"32","C12_POP15P_CS6":"12","C12_POP15P_CS7":"44","C12_POP15P_CS8":"4","TxCS6":"9.090909"}
,{"CODGEO":"12237","REG":"73","DEP":"12","LIBGEO":"Saint-Laurent-d'Olt","P12_POP":"617","C12_POP15P":"536","C12_POP15P_CS1":"32","C12_POP15P_CS2":"20","C12_POP15P_CS3":"8","C12_POP15P_CS4":"60","C12_POP15P_CS5":"72","C12_POP15P_CS6":"44","C12_POP15P_CS7":"224","C12_POP15P_CS8":"76","TxCS6":"8.208955"}
,{"CODGEO":"12238","REG":"73","DEP":"12","LIBGEO":"Saint-Léons","P12_POP":"367","C12_POP15P":"299","C12_POP15P_CS1":"45","C12_POP15P_CS2":"12","C12_POP15P_CS3":"0","C12_POP15P_CS4":"32","C12_POP15P_CS5":"49","C12_POP15P_CS6":"57","C12_POP15P_CS7":"65","C12_POP15P_CS8":"40","TxCS6":"19.063545"}
,{"CODGEO":"12239","REG":"73","DEP":"12","LIBGEO":"Saint-Martin-de-Lenne","P12_POP":"301","C12_POP15P":"257","C12_POP15P_CS1":"5","C12_POP15P_CS2":"10","C12_POP15P_CS3":"0","C12_POP15P_CS4":"21","C12_POP15P_CS5":"57","C12_POP15P_CS6":"31","C12_POP15P_CS7":"101","C12_POP15P_CS8":"31","TxCS6":"12.062257"}
,{"CODGEO":"12240","REG":"73","DEP":"12","LIBGEO":"Saint-Parthem","P12_POP":"406","C12_POP15P":"363","C12_POP15P_CS1":"30","C12_POP15P_CS2":"15","C12_POP15P_CS3":"0","C12_POP15P_CS4":"40","C12_POP15P_CS5":"50","C12_POP15P_CS6":"50","C12_POP15P_CS7":"154","C12_POP15P_CS8":"25","TxCS6":"13.774104"}
,{"CODGEO":"12241","REG":"73","DEP":"12","LIBGEO":"Sainte-Radegonde","P12_POP":"1707","C12_POP15P":"1325","C12_POP15P_CS1":"36","C12_POP15P_CS2":"67","C12_POP15P_CS3":"142","C12_POP15P_CS4":"249","C12_POP15P_CS5":"193","C12_POP15P_CS6":"138","C12_POP15P_CS7":"362","C12_POP15P_CS8":"138","TxCS6":"10.415094"}
,{"CODGEO":"12242","REG":"73","DEP":"12","LIBGEO":"Saint-Rémy","P12_POP":"329","C12_POP15P":"280","C12_POP15P_CS1":"4","C12_POP15P_CS2":"20","C12_POP15P_CS3":"4","C12_POP15P_CS4":"39","C12_POP15P_CS5":"55","C12_POP15P_CS6":"51","C12_POP15P_CS7":"79","C12_POP15P_CS8":"28","TxCS6":"18.214285"}
,{"CODGEO":"12243","REG":"73","DEP":"12","LIBGEO":"Saint-Rome-de-Cernon","P12_POP":"806","C12_POP15P":"692","C12_POP15P_CS1":"36","C12_POP15P_CS2":"44","C12_POP15P_CS3":"12","C12_POP15P_CS4":"76","C12_POP15P_CS5":"84","C12_POP15P_CS6":"108","C12_POP15P_CS7":"268","C12_POP15P_CS8":"64","TxCS6":"15.606936"}
,{"CODGEO":"12244","REG":"73","DEP":"12","LIBGEO":"Saint-Rome-de-Tarn","P12_POP":"858","C12_POP15P":"710","C12_POP15P_CS1":"28","C12_POP15P_CS2":"20","C12_POP15P_CS3":"36","C12_POP15P_CS4":"64","C12_POP15P_CS5":"96","C12_POP15P_CS6":"96","C12_POP15P_CS7":"303","C12_POP15P_CS8":"68","TxCS6":"13.521128"}
,{"CODGEO":"12245","REG":"73","DEP":"12","LIBGEO":"Saint-Salvadou","P12_POP":"385","C12_POP15P":"320","C12_POP15P_CS1":"12","C12_POP15P_CS2":"28","C12_POP15P_CS3":"8","C12_POP15P_CS4":"32","C12_POP15P_CS5":"52","C12_POP15P_CS6":"20","C12_POP15P_CS7":"148","C12_POP15P_CS8":"20","TxCS6":"6.25"}
,{"CODGEO":"12246","REG":"73","DEP":"12","LIBGEO":"Saint-Santin","P12_POP":"551","C12_POP15P":"480","C12_POP15P_CS1":"52","C12_POP15P_CS2":"32","C12_POP15P_CS3":"8","C12_POP15P_CS4":"44","C12_POP15P_CS5":"44","C12_POP15P_CS6":"48","C12_POP15P_CS7":"218","C12_POP15P_CS8":"32","TxCS6":"10.0"}
,{"CODGEO":"12247","REG":"73","DEP":"12","LIBGEO":"Saint-Saturnin-de-Lenne","P12_POP":"336","C12_POP15P":"288","C12_POP15P_CS1":"20","C12_POP15P_CS2":"16","C12_POP15P_CS3":"0","C12_POP15P_CS4":"12","C12_POP15P_CS5":"52","C12_POP15P_CS6":"32","C12_POP15P_CS7":"140","C12_POP15P_CS8":"16","TxCS6":"11.111112"}
,{"CODGEO":"12248","REG":"73","DEP":"12","LIBGEO":"Saint-Sernin-sur-Rance","P12_POP":"650","C12_POP15P":"583","C12_POP15P_CS1":"12","C12_POP15P_CS2":"29","C12_POP15P_CS3":"4","C12_POP15P_CS4":"37","C12_POP15P_CS5":"69","C12_POP15P_CS6":"82","C12_POP15P_CS7":"187","C12_POP15P_CS8":"163","TxCS6":"14.065181"}
,{"CODGEO":"12249","REG":"73","DEP":"12","LIBGEO":"Saint-Sever-du-Moustier","P12_POP":"234","C12_POP15P":"199","C12_POP15P_CS1":"28","C12_POP15P_CS2":"12","C12_POP15P_CS3":"8","C12_POP15P_CS4":"28","C12_POP15P_CS5":"20","C12_POP15P_CS6":"4","C12_POP15P_CS7":"77","C12_POP15P_CS8":"20","TxCS6":"2.0100503"}
,{"CODGEO":"12250","REG":"73","DEP":"12","LIBGEO":"Saint-Symphorien-de-Thénières","P12_POP":"232","C12_POP15P":"213","C12_POP15P_CS1":"32","C12_POP15P_CS2":"20","C12_POP15P_CS3":"0","C12_POP15P_CS4":"24","C12_POP15P_CS5":"8","C12_POP15P_CS6":"24","C12_POP15P_CS7":"95","C12_POP15P_CS8":"12","TxCS6":"11.267606"}
,{"CODGEO":"12251","REG":"73","DEP":"12","LIBGEO":"Saint-Victor-et-Melvieu","P12_POP":"389","C12_POP15P":"339","C12_POP15P_CS1":"8","C12_POP15P_CS2":"20","C12_POP15P_CS3":"4","C12_POP15P_CS4":"33","C12_POP15P_CS5":"49","C12_POP15P_CS6":"45","C12_POP15P_CS7":"135","C12_POP15P_CS8":"45","TxCS6":"13.274336"}
,{"CODGEO":"12252","REG":"73","DEP":"12","LIBGEO":"Salles-Courbatiès","P12_POP":"408","C12_POP15P":"356","C12_POP15P_CS1":"20","C12_POP15P_CS2":"40","C12_POP15P_CS3":"8","C12_POP15P_CS4":"36","C12_POP15P_CS5":"24","C12_POP15P_CS6":"28","C12_POP15P_CS7":"136","C12_POP15P_CS8":"64","TxCS6":"7.865169"}
,{"CODGEO":"12253","REG":"73","DEP":"12","LIBGEO":"Salles-Curan","P12_POP":"1068","C12_POP15P":"924","C12_POP15P_CS1":"80","C12_POP15P_CS2":"76","C12_POP15P_CS3":"28","C12_POP15P_CS4":"72","C12_POP15P_CS5":"100","C12_POP15P_CS6":"104","C12_POP15P_CS7":"384","C12_POP15P_CS8":"80","TxCS6":"11.255411"}
,{"CODGEO":"12254","REG":"73","DEP":"12","LIBGEO":"Salles-la-Source","P12_POP":"2131","C12_POP15P":"1664","C12_POP15P_CS1":"15","C12_POP15P_CS2":"121","C12_POP15P_CS3":"122","C12_POP15P_CS4":"362","C12_POP15P_CS5":"208","C12_POP15P_CS6":"170","C12_POP15P_CS7":"550","C12_POP15P_CS8":"116","TxCS6":"10.216347"}
,{"CODGEO":"12255","REG":"73","DEP":"12","LIBGEO":"Salmiech","P12_POP":"734","C12_POP15P":"627","C12_POP15P_CS1":"48","C12_POP15P_CS2":"16","C12_POP15P_CS3":"12","C12_POP15P_CS4":"44","C12_POP15P_CS5":"88","C12_POP15P_CS6":"52","C12_POP15P_CS7":"301","C12_POP15P_CS8":"64","TxCS6":"8.293461"}
,{"CODGEO":"12256","REG":"73","DEP":"12","LIBGEO":"Salvagnac-Cajarc","P12_POP":"359","C12_POP15P":"301","C12_POP15P_CS1":"14","C12_POP15P_CS2":"10","C12_POP15P_CS3":"10","C12_POP15P_CS4":"38","C12_POP15P_CS5":"24","C12_POP15P_CS6":"29","C12_POP15P_CS7":"148","C12_POP15P_CS8":"29","TxCS6":"9.634551"}
,{"CODGEO":"12257","REG":"73","DEP":"12","LIBGEO":"Causse-et-Diège","P12_POP":"723","C12_POP15P":"624","C12_POP15P_CS1":"40","C12_POP15P_CS2":"48","C12_POP15P_CS3":"28","C12_POP15P_CS4":"72","C12_POP15P_CS5":"100","C12_POP15P_CS6":"88","C12_POP15P_CS7":"201","C12_POP15P_CS8":"48","TxCS6":"14.102565"}
,{"CODGEO":"12258","REG":"73","DEP":"12","LIBGEO":"La Salvetat-Peyralès","P12_POP":"1013","C12_POP15P":"911","C12_POP15P_CS1":"70","C12_POP15P_CS2":"33","C12_POP15P_CS3":"12","C12_POP15P_CS4":"29","C12_POP15P_CS5":"103","C12_POP15P_CS6":"37","C12_POP15P_CS7":"552","C12_POP15P_CS8":"74","TxCS6":"4.061471"}
,{"CODGEO":"12259","REG":"73","DEP":"12","LIBGEO":"Sanvensa","P12_POP":"651","C12_POP15P":"528","C12_POP15P_CS1":"52","C12_POP15P_CS2":"12","C12_POP15P_CS3":"16","C12_POP15P_CS4":"84","C12_POP15P_CS5":"80","C12_POP15P_CS6":"44","C12_POP15P_CS7":"184","C12_POP15P_CS8":"56","TxCS6":"8.333334"}
,{"CODGEO":"12260","REG":"73","DEP":"12","LIBGEO":"Sauclières","P12_POP":"147","C12_POP15P":"128","C12_POP15P_CS1":"4","C12_POP15P_CS2":"4","C12_POP15P_CS3":"8","C12_POP15P_CS4":"20","C12_POP15P_CS5":"16","C12_POP15P_CS6":"32","C12_POP15P_CS7":"36","C12_POP15P_CS8":"8","TxCS6":"25.0"}
,{"CODGEO":"12261","REG":"73","DEP":"12","LIBGEO":"Saujac","P12_POP":"127","C12_POP15P":"128","C12_POP15P_CS1":"8","C12_POP15P_CS2":"0","C12_POP15P_CS3":"0","C12_POP15P_CS4":"16","C12_POP15P_CS5":"20","C12_POP15P_CS6":"8","C12_POP15P_CS7":"64","C12_POP15P_CS8":"12","TxCS6":"6.25"}
,{"CODGEO":"12262","REG":"73","DEP":"12","LIBGEO":"Sauveterre-de-Rouergue","P12_POP":"793","C12_POP15P":"697","C12_POP15P_CS1":"35","C12_POP15P_CS2":"50","C12_POP15P_CS3":"25","C12_POP15P_CS4":"65","C12_POP15P_CS5":"55","C12_POP15P_CS6":"60","C12_POP15P_CS7":"369","C12_POP15P_CS8":"40","TxCS6":"8.608321"}
,{"CODGEO":"12263","REG":"73","DEP":"12","LIBGEO":"Savignac","P12_POP":"657","C12_POP15P":"524","C12_POP15P_CS1":"15","C12_POP15P_CS2":"42","C12_POP15P_CS3":"8","C12_POP15P_CS4":"62","C12_POP15P_CS5":"104","C12_POP15P_CS6":"89","C12_POP15P_CS7":"150","C12_POP15P_CS8":"54","TxCS6":"16.984732"}
,{"CODGEO":"12264","REG":"73","DEP":"12","LIBGEO":"Sébazac-Concourès","P12_POP":"3146","C12_POP15P":"2516","C12_POP15P_CS1":"24","C12_POP15P_CS2":"120","C12_POP15P_CS3":"248","C12_POP15P_CS4":"372","C12_POP15P_CS5":"432","C12_POP15P_CS6":"372","C12_POP15P_CS7":"716","C12_POP15P_CS8":"232","TxCS6":"14.785374"}
,{"CODGEO":"12265","REG":"73","DEP":"12","LIBGEO":"Sébrazac","P12_POP":"502","C12_POP15P":"414","C12_POP15P_CS1":"47","C12_POP15P_CS2":"4","C12_POP15P_CS3":"20","C12_POP15P_CS4":"36","C12_POP15P_CS5":"55","C12_POP15P_CS6":"39","C12_POP15P_CS7":"150","C12_POP15P_CS8":"63","TxCS6":"9.42029"}
,{"CODGEO":"12266","REG":"73","DEP":"12","LIBGEO":"Ségur","P12_POP":"579","C12_POP15P":"449","C12_POP15P_CS1":"104","C12_POP15P_CS2":"32","C12_POP15P_CS3":"8","C12_POP15P_CS4":"28","C12_POP15P_CS5":"48","C12_POP15P_CS6":"48","C12_POP15P_CS7":"140","C12_POP15P_CS8":"40","TxCS6":"10.690423"}
,{"CODGEO":"12267","REG":"73","DEP":"12","LIBGEO":"La Selve","P12_POP":"643","C12_POP15P":"552","C12_POP15P_CS1":"136","C12_POP15P_CS2":"8","C12_POP15P_CS3":"4","C12_POP15P_CS4":"24","C12_POP15P_CS5":"56","C12_POP15P_CS6":"40","C12_POP15P_CS7":"244","C12_POP15P_CS8":"40","TxCS6":"7.2463765"}
,{"CODGEO":"12268","REG":"73","DEP":"12","LIBGEO":"Sénergues","P12_POP":"443","C12_POP15P":"407","C12_POP15P_CS1":"75","C12_POP15P_CS2":"21","C12_POP15P_CS3":"4","C12_POP15P_CS4":"17","C12_POP15P_CS5":"33","C12_POP15P_CS6":"12","C12_POP15P_CS7":"212","C12_POP15P_CS8":"33","TxCS6":"2.948403"}
,{"CODGEO":"12269","REG":"73","DEP":"12","LIBGEO":"La Serre","P12_POP":"124","C12_POP15P":"105","C12_POP15P_CS1":"37","C12_POP15P_CS2":"0","C12_POP15P_CS3":"0","C12_POP15P_CS4":"5","C12_POP15P_CS5":"11","C12_POP15P_CS6":"5","C12_POP15P_CS7":"42","C12_POP15P_CS8":"5","TxCS6":"4.7619047"}
,{"CODGEO":"12270","REG":"73","DEP":"12","LIBGEO":"Sévérac-le-Château","P12_POP":"2401","C12_POP15P":"2032","C12_POP15P_CS1":"80","C12_POP15P_CS2":"72","C12_POP15P_CS3":"76","C12_POP15P_CS4":"224","C12_POP15P_CS5":"356","C12_POP15P_CS6":"360","C12_POP15P_CS7":"688","C12_POP15P_CS8":"176","TxCS6":"17.716536"}
,{"CODGEO":"12271","REG":"73","DEP":"12","LIBGEO":"Sévérac-l'Église","P12_POP":"429","C12_POP15P":"367","C12_POP15P_CS1":"37","C12_POP15P_CS2":"16","C12_POP15P_CS3":"4","C12_POP15P_CS4":"41","C12_POP15P_CS5":"82","C12_POP15P_CS6":"69","C12_POP15P_CS7":"98","C12_POP15P_CS8":"20","TxCS6":"18.80109"}
,{"CODGEO":"12272","REG":"73","DEP":"12","LIBGEO":"Sonnac","P12_POP":"481","C12_POP15P":"384","C12_POP15P_CS1":"4","C12_POP15P_CS2":"21","C12_POP15P_CS3":"17","C12_POP15P_CS4":"70","C12_POP15P_CS5":"83","C12_POP15P_CS6":"33","C12_POP15P_CS7":"95","C12_POP15P_CS8":"62","TxCS6":"8.59375"}
,{"CODGEO":"12273","REG":"73","DEP":"12","LIBGEO":"Soulages-Bonneval","P12_POP":"283","C12_POP15P":"228","C12_POP15P_CS1":"15","C12_POP15P_CS2":"29","C12_POP15P_CS3":"5","C12_POP15P_CS4":"34","C12_POP15P_CS5":"24","C12_POP15P_CS6":"39","C12_POP15P_CS7":"53","C12_POP15P_CS8":"29","TxCS6":"17.105263"}
,{"CODGEO":"12274","REG":"73","DEP":"12","LIBGEO":"Sylvanès","P12_POP":"105","C12_POP15P":"96","C12_POP15P_CS1":"16","C12_POP15P_CS2":"16","C12_POP15P_CS3":"0","C12_POP15P_CS4":"12","C12_POP15P_CS5":"4","C12_POP15P_CS6":"4","C12_POP15P_CS7":"40","C12_POP15P_CS8":"4","TxCS6":"4.166667"}
,{"CODGEO":"12275","REG":"73","DEP":"12","LIBGEO":"Tauriac-de-Camarès","P12_POP":"53","C12_POP15P":"35","C12_POP15P_CS1":"0","C12_POP15P_CS2":"0","C12_POP15P_CS3":"0","C12_POP15P_CS4":"9","C12_POP15P_CS5":"0","C12_POP15P_CS6":"0","C12_POP15P_CS7":"22","C12_POP15P_CS8":"4","TxCS6":"0.0"}
,{"CODGEO":"12276","REG":"73","DEP":"12","LIBGEO":"Tauriac-de-Naucelle","P12_POP":"363","C12_POP15P":"300","C12_POP15P_CS1":"36","C12_POP15P_CS2":"16","C12_POP15P_CS3":"0","C12_POP15P_CS4":"20","C12_POP15P_CS5":"28","C12_POP15P_CS6":"20","C12_POP15P_CS7":"128","C12_POP15P_CS8":"52","TxCS6":"6.666667"}
,{"CODGEO":"12277","REG":"73","DEP":"12","LIBGEO":"Taussac","P12_POP":"449","C12_POP15P":"393","C12_POP15P_CS1":"35","C12_POP15P_CS2":"12","C12_POP15P_CS3":"4","C12_POP15P_CS4":"20","C12_POP15P_CS5":"63","C12_POP15P_CS6":"24","C12_POP15P_CS7":"200","C12_POP15P_CS8":"35","TxCS6":"6.10687"}
,{"CODGEO":"12278","REG":"73","DEP":"12","LIBGEO":"Tayrac","P12_POP":"164","C12_POP15P":"143","C12_POP15P_CS1":"16","C12_POP15P_CS2":"0","C12_POP15P_CS3":"0","C12_POP15P_CS4":"24","C12_POP15P_CS5":"12","C12_POP15P_CS6":"20","C12_POP15P_CS7":"61","C12_POP15P_CS8":"8","TxCS6":"13.986013"}
,{"CODGEO":"12279","REG":"73","DEP":"12","LIBGEO":"La Terrisse","P12_POP":"156","C12_POP15P":"127","C12_POP15P_CS1":"57","C12_POP15P_CS2":"0","C12_POP15P_CS3":"0","C12_POP15P_CS4":"12","C12_POP15P_CS5":"16","C12_POP15P_CS6":"4","C12_POP15P_CS7":"33","C12_POP15P_CS8":"4","TxCS6":"3.1496062"}
,{"CODGEO":"12280","REG":"73","DEP":"12","LIBGEO":"Thérondels","P12_POP":"421","C12_POP15P":"371","C12_POP15P_CS1":"28","C12_POP15P_CS2":"8","C12_POP15P_CS3":"0","C12_POP15P_CS4":"12","C12_POP15P_CS5":"35","C12_POP15P_CS6":"35","C12_POP15P_CS7":"229","C12_POP15P_CS8":"24","TxCS6":"9.433963"}
,{"CODGEO":"12281","REG":"73","DEP":"12","LIBGEO":"Toulonjac","P12_POP":"724","C12_POP15P":"623","C12_POP15P_CS1":"8","C12_POP15P_CS2":"43","C12_POP15P_CS3":"27","C12_POP15P_CS4":"90","C12_POP15P_CS5":"121","C12_POP15P_CS6":"82","C12_POP15P_CS7":"184","C12_POP15P_CS8":"67","TxCS6":"13.162118"}
,{"CODGEO":"12282","REG":"73","DEP":"12","LIBGEO":"Tournemire","P12_POP":"387","C12_POP15P":"339","C12_POP15P_CS1":"8","C12_POP15P_CS2":"8","C12_POP15P_CS3":"8","C12_POP15P_CS4":"47","C12_POP15P_CS5":"51","C12_POP15P_CS6":"32","C12_POP15P_CS7":"134","C12_POP15P_CS8":"51","TxCS6":"9.4395275"}
,{"CODGEO":"12283","REG":"73","DEP":"12","LIBGEO":"Trémouilles","P12_POP":"508","C12_POP15P":"421","C12_POP15P_CS1":"87","C12_POP15P_CS2":"16","C12_POP15P_CS3":"4","C12_POP15P_CS4":"56","C12_POP15P_CS5":"52","C12_POP15P_CS6":"40","C12_POP15P_CS7":"139","C12_POP15P_CS8":"28","TxCS6":"9.501187"}
,{"CODGEO":"12284","REG":"73","DEP":"12","LIBGEO":"Le Truel","P12_POP":"342","C12_POP15P":"288","C12_POP15P_CS1":"27","C12_POP15P_CS2":"4","C12_POP15P_CS3":"4","C12_POP15P_CS4":"23","C12_POP15P_CS5":"51","C12_POP15P_CS6":"16","C12_POP15P_CS7":"140","C12_POP15P_CS8":"23","TxCS6":"5.555556"}
,{"CODGEO":"12285","REG":"73","DEP":"12","LIBGEO":"Vabre-Tizac","P12_POP":"439","C12_POP15P":"371","C12_POP15P_CS1":"64","C12_POP15P_CS2":"8","C12_POP15P_CS3":"4","C12_POP15P_CS4":"12","C12_POP15P_CS5":"40","C12_POP15P_CS6":"52","C12_POP15P_CS7":"129","C12_POP15P_CS8":"60","TxCS6":"14.016172"}
,{"CODGEO":"12286","REG":"73","DEP":"12","LIBGEO":"Vabres-l'Abbaye","P12_POP":"1158","C12_POP15P":"968","C12_POP15P_CS1":"52","C12_POP15P_CS2":"80","C12_POP15P_CS3":"56","C12_POP15P_CS4":"148","C12_POP15P_CS5":"180","C12_POP15P_CS6":"92","C12_POP15P_CS7":"264","C12_POP15P_CS8":"96","TxCS6":"9.504132"}
,{"CODGEO":"12287","REG":"73","DEP":"12","LIBGEO":"Vailhourles","P12_POP":"696","C12_POP15P":"576","C12_POP15P_CS1":"37","C12_POP15P_CS2":"45","C12_POP15P_CS3":"24","C12_POP15P_CS4":"53","C12_POP15P_CS5":"78","C12_POP15P_CS6":"78","C12_POP15P_CS7":"204","C12_POP15P_CS8":"57","TxCS6":"13.541667"}
,{"CODGEO":"12288","REG":"73","DEP":"12","LIBGEO":"Valady","P12_POP":"1551","C12_POP15P":"1210","C12_POP15P_CS1":"15","C12_POP15P_CS2":"56","C12_POP15P_CS3":"51","C12_POP15P_CS4":"215","C12_POP15P_CS5":"210","C12_POP15P_CS6":"174","C12_POP15P_CS7":"333","C12_POP15P_CS8":"154","TxCS6":"14.380166"}
,{"CODGEO":"12289","REG":"73","DEP":"12","LIBGEO":"Valzergues","P12_POP":"201","C12_POP15P":"169","C12_POP15P_CS1":"14","C12_POP15P_CS2":"0","C12_POP15P_CS3":"9","C12_POP15P_CS4":"19","C12_POP15P_CS5":"19","C12_POP15P_CS6":"23","C12_POP15P_CS7":"75","C12_POP15P_CS8":"9","TxCS6":"13.6094675"}
,{"CODGEO":"12290","REG":"73","DEP":"12","LIBGEO":"Vaureilles","P12_POP":"516","C12_POP15P":"412","C12_POP15P_CS1":"24","C12_POP15P_CS2":"12","C12_POP15P_CS3":"8","C12_POP15P_CS4":"52","C12_POP15P_CS5":"52","C12_POP15P_CS6":"56","C12_POP15P_CS7":"176","C12_POP15P_CS8":"32","TxCS6":"13.592233"}
,{"CODGEO":"12291","REG":"73","DEP":"12","LIBGEO":"Verrières","P12_POP":"426","C12_POP15P":"354","C12_POP15P_CS1":"24","C12_POP15P_CS2":"16","C12_POP15P_CS3":"8","C12_POP15P_CS4":"44","C12_POP15P_CS5":"28","C12_POP15P_CS6":"44","C12_POP15P_CS7":"167","C12_POP15P_CS8":"24","TxCS6":"12.4293785"}
,{"CODGEO":"12292","REG":"73","DEP":"12","LIBGEO":"Versols-et-Lapeyre","P12_POP":"458","C12_POP15P":"368","C12_POP15P_CS1":"12","C12_POP15P_CS2":"32","C12_POP15P_CS3":"20","C12_POP15P_CS4":"16","C12_POP15P_CS5":"84","C12_POP15P_CS6":"60","C12_POP15P_CS7":"108","C12_POP15P_CS8":"36","TxCS6":"16.304348"}
,{"CODGEO":"12293","REG":"73","DEP":"12","LIBGEO":"Veyreau","P12_POP":"134","C12_POP15P":"112","C12_POP15P_CS1":"8","C12_POP15P_CS2":"8","C12_POP15P_CS3":"8","C12_POP15P_CS4":"16","C12_POP15P_CS5":"20","C12_POP15P_CS6":"20","C12_POP15P_CS7":"16","C12_POP15P_CS8":"16","TxCS6":"17.857143"}
,{"CODGEO":"12294","REG":"73","DEP":"12","LIBGEO":"Vézins-de-Lévézou","P12_POP":"654","C12_POP15P":"532","C12_POP15P_CS1":"144","C12_POP15P_CS2":"20","C12_POP15P_CS3":"8","C12_POP15P_CS4":"40","C12_POP15P_CS5":"80","C12_POP15P_CS6":"24","C12_POP15P_CS7":"180","C12_POP15P_CS8":"36","TxCS6":"4.511278"}
,{"CODGEO":"12295","REG":"73","DEP":"12","LIBGEO":"Viala-du-Pas-de-Jaux","P12_POP":"95","C12_POP15P":"76","C12_POP15P_CS1":"4","C12_POP15P_CS2":"0","C12_POP15P_CS3":"0","C12_POP15P_CS4":"8","C12_POP15P_CS5":"0","C12_POP15P_CS6":"16","C12_POP15P_CS7":"48","C12_POP15P_CS8":"0","TxCS6":"21.052631"}
,{"CODGEO":"12296","REG":"73","DEP":"12","LIBGEO":"Viala-du-Tarn","P12_POP":"471","C12_POP15P":"379","C12_POP15P_CS1":"26","C12_POP15P_CS2":"21","C12_POP15P_CS3":"17","C12_POP15P_CS4":"43","C12_POP15P_CS5":"43","C12_POP15P_CS6":"26","C12_POP15P_CS7":"166","C12_POP15P_CS8":"38","TxCS6":"6.8601584"}
,{"CODGEO":"12297","REG":"73","DEP":"12","LIBGEO":"Le Vibal","P12_POP":"480","C12_POP15P":"420","C12_POP15P_CS1":"72","C12_POP15P_CS2":"29","C12_POP15P_CS3":"5","C12_POP15P_CS4":"47","C12_POP15P_CS5":"43","C12_POP15P_CS6":"38","C12_POP15P_CS7":"120","C12_POP15P_CS8":"66","TxCS6":"9.047619"}
,{"CODGEO":"12298","REG":"73","DEP":"12","LIBGEO":"Villecomtal","P12_POP":"378","C12_POP15P":"320","C12_POP15P_CS1":"20","C12_POP15P_CS2":"16","C12_POP15P_CS3":"24","C12_POP15P_CS4":"36","C12_POP15P_CS5":"48","C12_POP15P_CS6":"36","C12_POP15P_CS7":"108","C12_POP15P_CS8":"32","TxCS6":"11.25"}
,{"CODGEO":"12299","REG":"73","DEP":"12","LIBGEO":"Villefranche-de-Panat","P12_POP":"729","C12_POP15P":"619","C12_POP15P_CS1":"73","C12_POP15P_CS2":"69","C12_POP15P_CS3":"16","C12_POP15P_CS4":"41","C12_POP15P_CS5":"53","C12_POP15P_CS6":"65","C12_POP15P_CS7":"256","C12_POP15P_CS8":"45","TxCS6":"10.500808"}
,{"CODGEO":"12300","REG":"73","DEP":"12","LIBGEO":"Villefranche-de-Rouergue","P12_POP":"11712","C12_POP15P":"10076","C12_POP15P_CS1":"63","C12_POP15P_CS2":"393","C12_POP15P_CS3":"510","C12_POP15P_CS4":"973","C12_POP15P_CS5":"1457","C12_POP15P_CS6":"1432","C12_POP15P_CS7":"3932","C12_POP15P_CS8":"1317","TxCS6":"14.211988"}
,{"CODGEO":"12301","REG":"73","DEP":"12","LIBGEO":"Villeneuve","P12_POP":"1947","C12_POP15P":"1650","C12_POP15P_CS1":"72","C12_POP15P_CS2":"84","C12_POP15P_CS3":"96","C12_POP15P_CS4":"144","C12_POP15P_CS5":"240","C12_POP15P_CS6":"204","C12_POP15P_CS7":"646","C12_POP15P_CS8":"164","TxCS6":"12.363636"}
,{"CODGEO":"12303","REG":"73","DEP":"12","LIBGEO":"Vimenet","P12_POP":"257","C12_POP15P":"212","C12_POP15P_CS1":"36","C12_POP15P_CS2":"12","C12_POP15P_CS3":"8","C12_POP15P_CS4":"8","C12_POP15P_CS5":"24","C12_POP15P_CS6":"36","C12_POP15P_CS7":"76","C12_POP15P_CS8":"12","TxCS6":"16.981133"}
,{"CODGEO":"12304","REG":"73","DEP":"12","LIBGEO":"Vitrac-en-Viadène","P12_POP":"113","C12_POP15P":"88","C12_POP15P_CS1":"16","C12_POP15P_CS2":"12","C12_POP15P_CS3":"0","C12_POP15P_CS4":"4","C12_POP15P_CS5":"0","C12_POP15P_CS6":"4","C12_POP15P_CS7":"48","C12_POP15P_CS8":"4","TxCS6":"4.5454545"}
,{"CODGEO":"12305","REG":"73","DEP":"12","LIBGEO":"Viviez","P12_POP":"1345","C12_POP15P":"1170","C12_POP15P_CS1":"4","C12_POP15P_CS2":"39","C12_POP15P_CS3":"20","C12_POP15P_CS4":"94","C12_POP15P_CS5":"184","C12_POP15P_CS6":"239","C12_POP15P_CS7":"481","C12_POP15P_CS8":"110","TxCS6":"20.427351"}
,{"CODGEO":"12307","REG":"73","DEP":"12","LIBGEO":"Curan","P12_POP":"317","C12_POP15P":"272","C12_POP15P_CS1":"44","C12_POP15P_CS2":"8","C12_POP15P_CS3":"4","C12_POP15P_CS4":"8","C12_POP15P_CS5":"24","C12_POP15P_CS6":"48","C12_POP15P_CS7":"120","C12_POP15P_CS8":"16","TxCS6":"17.647058"}
]}
