{"status":"success","data":[{"CODGEO":"13001","REG":"93","DEP":"13","LIBGEO":"Aix-en-Provence","P12_POP":"141148","C12_POP15P":"121716","C12_POP15P_CS1":"206","C12_POP15P_CS2":"3851","C12_POP15P_CS3":"17451","C12_POP15P_CS4":"17453","C12_POP15P_CS5":"17583","C12_POP15P_CS6":"8269","C12_POP15P_CS7":"26776","C12_POP15P_CS8":"30126","TxCS6":"6.793684"}
,{"CODGEO":"13002","REG":"93","DEP":"13","LIBGEO":"Allauch","P12_POP":"20690","C12_POP15P":"17361","C12_POP15P_CS1":"38","C12_POP15P_CS2":"779","C12_POP15P_CS3":"2033","C12_POP15P_CS4":"2811","C12_POP15P_CS5":"2475","C12_POP15P_CS6":"1071","C12_POP15P_CS7":"5502","C12_POP15P_CS8":"2654","TxCS6":"6.1689997"}
,{"CODGEO":"13003","REG":"93","DEP":"13","LIBGEO":"Alleins","P12_POP":"2428","C12_POP15P":"1981","C12_POP15P_CS1":"12","C12_POP15P_CS2":"122","C12_POP15P_CS3":"242","C12_POP15P_CS4":"356","C12_POP15P_CS5":"351","C12_POP15P_CS6":"207","C12_POP15P_CS7":"349","C12_POP15P_CS8":"343","TxCS6":"10.449268"}
,{"CODGEO":"13004","REG":"93","DEP":"13","LIBGEO":"Arles","P12_POP":"52439","C12_POP15P":"43409","C12_POP15P_CS1":"378","C12_POP15P_CS2":"1580","C12_POP15P_CS3":"2415","C12_POP15P_CS4":"5171","C12_POP15P_CS5":"7289","C12_POP15P_CS6":"5712","C12_POP15P_CS7":"12515","C12_POP15P_CS8":"8347","TxCS6":"13.158562"}
,{"CODGEO":"13005","REG":"93","DEP":"13","LIBGEO":"Aubagne","P12_POP":"45243","C12_POP15P":"37146","C12_POP15P_CS1":"80","C12_POP15P_CS2":"1214","C12_POP15P_CS3":"2645","C12_POP15P_CS4":"5388","C12_POP15P_CS5":"6749","C12_POP15P_CS6":"3837","C12_POP15P_CS7":"9917","C12_POP15P_CS8":"7317","TxCS6":"10.329511"}
,{"CODGEO":"13006","REG":"93","DEP":"13","LIBGEO":"Aureille","P12_POP":"1544","C12_POP15P":"1256","C12_POP15P_CS1":"16","C12_POP15P_CS2":"92","C12_POP15P_CS3":"84","C12_POP15P_CS4":"156","C12_POP15P_CS5":"232","C12_POP15P_CS6":"160","C12_POP15P_CS7":"348","C12_POP15P_CS8":"168","TxCS6":"12.738853"}
,{"CODGEO":"13007","REG":"93","DEP":"13","LIBGEO":"Auriol","P12_POP":"11621","C12_POP15P":"9356","C12_POP15P_CS1":"57","C12_POP15P_CS2":"522","C12_POP15P_CS3":"985","C12_POP15P_CS4":"1760","C12_POP15P_CS5":"1549","C12_POP15P_CS6":"826","C12_POP15P_CS7":"2078","C12_POP15P_CS8":"1581","TxCS6":"8.82856"}
,{"CODGEO":"13008","REG":"93","DEP":"13","LIBGEO":"Aurons","P12_POP":"531","C12_POP15P":"419","C12_POP15P_CS1":"12","C12_POP15P_CS2":"16","C12_POP15P_CS3":"76","C12_POP15P_CS4":"64","C12_POP15P_CS5":"40","C12_POP15P_CS6":"16","C12_POP15P_CS7":"134","C12_POP15P_CS8":"60","TxCS6":"3.818616"}
,{"CODGEO":"13009","REG":"93","DEP":"13","LIBGEO":"La Barben","P12_POP":"724","C12_POP15P":"589","C12_POP15P_CS1":"5","C12_POP15P_CS2":"36","C12_POP15P_CS3":"80","C12_POP15P_CS4":"126","C12_POP15P_CS5":"99","C12_POP15P_CS6":"46","C12_POP15P_CS7":"130","C12_POP15P_CS8":"68","TxCS6":"7.809847"}
,{"CODGEO":"13010","REG":"93","DEP":"13","LIBGEO":"Barbentane","P12_POP":"3877","C12_POP15P":"3293","C12_POP15P_CS1":"49","C12_POP15P_CS2":"195","C12_POP15P_CS3":"255","C12_POP15P_CS4":"518","C12_POP15P_CS5":"403","C12_POP15P_CS6":"368","C12_POP15P_CS7":"1012","C12_POP15P_CS8":"493","TxCS6":"11.1752205"}
,{"CODGEO":"13011","REG":"93","DEP":"13","LIBGEO":"Les Baux-de-Provence","P12_POP":"465","C12_POP15P":"437","C12_POP15P_CS1":"4","C12_POP15P_CS2":"25","C12_POP15P_CS3":"29","C12_POP15P_CS4":"41","C12_POP15P_CS5":"70","C12_POP15P_CS6":"37","C12_POP15P_CS7":"172","C12_POP15P_CS8":"58","TxCS6":"8.466819"}
,{"CODGEO":"13012","REG":"93","DEP":"13","LIBGEO":"Beaurecueil","P12_POP":"551","C12_POP15P":"520","C12_POP15P_CS1":"4","C12_POP15P_CS2":"20","C12_POP15P_CS3":"66","C12_POP15P_CS4":"102","C12_POP15P_CS5":"53","C12_POP15P_CS6":"20","C12_POP15P_CS7":"188","C12_POP15P_CS8":"66","TxCS6":"3.846154"}
,{"CODGEO":"13013","REG":"93","DEP":"13","LIBGEO":"Belcodène","P12_POP":"1849","C12_POP15P":"1464","C12_POP15P_CS1":"8","C12_POP15P_CS2":"48","C12_POP15P_CS3":"272","C12_POP15P_CS4":"292","C12_POP15P_CS5":"148","C12_POP15P_CS6":"180","C12_POP15P_CS7":"324","C12_POP15P_CS8":"192","TxCS6":"12.295082"}
,{"CODGEO":"13014","REG":"93","DEP":"13","LIBGEO":"Berre-l'Étang","P12_POP":"13978","C12_POP15P":"11328","C12_POP15P_CS1":"83","C12_POP15P_CS2":"363","C12_POP15P_CS3":"309","C12_POP15P_CS4":"1160","C12_POP15P_CS5":"1974","C12_POP15P_CS6":"2231","C12_POP15P_CS7":"2838","C12_POP15P_CS8":"2370","TxCS6":"19.694563"}
,{"CODGEO":"13015","REG":"93","DEP":"13","LIBGEO":"Bouc-Bel-Air","P12_POP":"13844","C12_POP15P":"11434","C12_POP15P_CS1":"1","C12_POP15P_CS2":"515","C12_POP15P_CS3":"1907","C12_POP15P_CS4":"1775","C12_POP15P_CS5":"1210","C12_POP15P_CS6":"997","C12_POP15P_CS7":"3270","C12_POP15P_CS8":"1760","TxCS6":"8.719608"}
,{"CODGEO":"13016","REG":"93","DEP":"13","LIBGEO":"La Bouilladisse","P12_POP":"6022","C12_POP15P":"4962","C12_POP15P_CS1":"0","C12_POP15P_CS2":"228","C12_POP15P_CS3":"510","C12_POP15P_CS4":"845","C12_POP15P_CS5":"733","C12_POP15P_CS6":"402","C12_POP15P_CS7":"1382","C12_POP15P_CS8":"862","TxCS6":"8.101572"}
,{"CODGEO":"13017","REG":"93","DEP":"13","LIBGEO":"Boulbon","P12_POP":"1510","C12_POP15P":"1235","C12_POP15P_CS1":"24","C12_POP15P_CS2":"65","C12_POP15P_CS3":"77","C12_POP15P_CS4":"169","C12_POP15P_CS5":"153","C12_POP15P_CS6":"169","C12_POP15P_CS7":"424","C12_POP15P_CS8":"153","TxCS6":"13.68421"}
,{"CODGEO":"13018","REG":"93","DEP":"13","LIBGEO":"Cabannes","P12_POP":"4357","C12_POP15P":"3588","C12_POP15P_CS1":"28","C12_POP15P_CS2":"175","C12_POP15P_CS3":"167","C12_POP15P_CS4":"415","C12_POP15P_CS5":"562","C12_POP15P_CS6":"682","C12_POP15P_CS7":"1001","C12_POP15P_CS8":"558","TxCS6":"19.007803"}
,{"CODGEO":"13019","REG":"93","DEP":"13","LIBGEO":"Cabriès","P12_POP":"9011","C12_POP15P":"7316","C12_POP15P_CS1":"19","C12_POP15P_CS2":"288","C12_POP15P_CS3":"1373","C12_POP15P_CS4":"1208","C12_POP15P_CS5":"830","C12_POP15P_CS6":"365","C12_POP15P_CS7":"2216","C12_POP15P_CS8":"1017","TxCS6":"4.989065"}
,{"CODGEO":"13020","REG":"93","DEP":"13","LIBGEO":"Cadolive","P12_POP":"2123","C12_POP15P":"1740","C12_POP15P_CS1":"4","C12_POP15P_CS2":"84","C12_POP15P_CS3":"184","C12_POP15P_CS4":"332","C12_POP15P_CS5":"272","C12_POP15P_CS6":"160","C12_POP15P_CS7":"452","C12_POP15P_CS8":"252","TxCS6":"9.195402"}
,{"CODGEO":"13021","REG":"93","DEP":"13","LIBGEO":"Carry-le-Rouet","P12_POP":"6197","C12_POP15P":"5427","C12_POP15P_CS1":"15","C12_POP15P_CS2":"288","C12_POP15P_CS3":"697","C12_POP15P_CS4":"683","C12_POP15P_CS5":"642","C12_POP15P_CS6":"277","C12_POP15P_CS7":"2154","C12_POP15P_CS8":"672","TxCS6":"5.104109"}
,{"CODGEO":"13022","REG":"93","DEP":"13","LIBGEO":"Cassis","P12_POP":"7560","C12_POP15P":"6506","C12_POP15P_CS1":"4","C12_POP15P_CS2":"490","C12_POP15P_CS3":"688","C12_POP15P_CS4":"771","C12_POP15P_CS5":"914","C12_POP15P_CS6":"522","C12_POP15P_CS7":"2059","C12_POP15P_CS8":"1058","TxCS6":"8.023363"}
,{"CODGEO":"13023","REG":"93","DEP":"13","LIBGEO":"Ceyreste","P12_POP":"4178","C12_POP15P":"3517","C12_POP15P_CS1":"4","C12_POP15P_CS2":"190","C12_POP15P_CS3":"429","C12_POP15P_CS4":"550","C12_POP15P_CS5":"466","C12_POP15P_CS6":"279","C12_POP15P_CS7":"1108","C12_POP15P_CS8":"490","TxCS6":"7.9328976"}
,{"CODGEO":"13024","REG":"93","DEP":"13","LIBGEO":"Charleval","P12_POP":"2515","C12_POP15P":"1988","C12_POP15P_CS1":"8","C12_POP15P_CS2":"84","C12_POP15P_CS3":"140","C12_POP15P_CS4":"263","C12_POP15P_CS5":"371","C12_POP15P_CS6":"255","C12_POP15P_CS7":"556","C12_POP15P_CS8":"311","TxCS6":"12.8269615"}
,{"CODGEO":"13025","REG":"93","DEP":"13","LIBGEO":"Châteauneuf-le-Rouge","P12_POP":"2130","C12_POP15P":"1828","C12_POP15P_CS1":"5","C12_POP15P_CS2":"91","C12_POP15P_CS3":"284","C12_POP15P_CS4":"293","C12_POP15P_CS5":"219","C12_POP15P_CS6":"126","C12_POP15P_CS7":"501","C12_POP15P_CS8":"309","TxCS6":"6.892779"}
,{"CODGEO":"13026","REG":"93","DEP":"13","LIBGEO":"Châteauneuf-les-Martigues","P12_POP":"13277","C12_POP15P":"10700","C12_POP15P_CS1":"36","C12_POP15P_CS2":"335","C12_POP15P_CS3":"591","C12_POP15P_CS4":"1683","C12_POP15P_CS5":"1984","C12_POP15P_CS6":"1369","C12_POP15P_CS7":"2924","C12_POP15P_CS8":"1777","TxCS6":"12.794392"}
,{"CODGEO":"13027","REG":"93","DEP":"13","LIBGEO":"Châteaurenard","P12_POP":"15934","C12_POP15P":"12880","C12_POP15P_CS1":"200","C12_POP15P_CS2":"654","C12_POP15P_CS3":"705","C12_POP15P_CS4":"1682","C12_POP15P_CS5":"2297","C12_POP15P_CS6":"2025","C12_POP15P_CS7":"3334","C12_POP15P_CS8":"1984","TxCS6":"15.72205"}
,{"CODGEO":"13028","REG":"93","DEP":"13","LIBGEO":"La Ciotat","P12_POP":"34063","C12_POP15P":"28929","C12_POP15P_CS1":"35","C12_POP15P_CS2":"1192","C12_POP15P_CS3":"2335","C12_POP15P_CS4":"3891","C12_POP15P_CS5":"4412","C12_POP15P_CS6":"2423","C12_POP15P_CS7":"9784","C12_POP15P_CS8":"4857","TxCS6":"8.375678"}
,{"CODGEO":"13029","REG":"93","DEP":"13","LIBGEO":"Cornillon-Confoux","P12_POP":"1348","C12_POP15P":"1100","C12_POP15P_CS1":"20","C12_POP15P_CS2":"64","C12_POP15P_CS3":"120","C12_POP15P_CS4":"148","C12_POP15P_CS5":"156","C12_POP15P_CS6":"160","C12_POP15P_CS7":"300","C12_POP15P_CS8":"132","TxCS6":"14.545454"}
,{"CODGEO":"13030","REG":"93","DEP":"13","LIBGEO":"Cuges-les-Pins","P12_POP":"4922","C12_POP15P":"3904","C12_POP15P_CS1":"24","C12_POP15P_CS2":"168","C12_POP15P_CS3":"328","C12_POP15P_CS4":"748","C12_POP15P_CS5":"840","C12_POP15P_CS6":"412","C12_POP15P_CS7":"808","C12_POP15P_CS8":"576","TxCS6":"10.553279"}
,{"CODGEO":"13031","REG":"93","DEP":"13","LIBGEO":"La Destrousse","P12_POP":"3074","C12_POP15P":"2550","C12_POP15P_CS1":"4","C12_POP15P_CS2":"116","C12_POP15P_CS3":"240","C12_POP15P_CS4":"396","C12_POP15P_CS5":"482","C12_POP15P_CS6":"256","C12_POP15P_CS7":"740","C12_POP15P_CS8":"316","TxCS6":"10.039215"}
,{"CODGEO":"13032","REG":"93","DEP":"13","LIBGEO":"Éguilles","P12_POP":"7453","C12_POP15P":"6080","C12_POP15P_CS1":"28","C12_POP15P_CS2":"292","C12_POP15P_CS3":"1168","C12_POP15P_CS4":"976","C12_POP15P_CS5":"724","C12_POP15P_CS6":"292","C12_POP15P_CS7":"1712","C12_POP15P_CS8":"888","TxCS6":"4.8026314"}
,{"CODGEO":"13033","REG":"93","DEP":"13","LIBGEO":"Ensuès-la-Redonne","P12_POP":"5311","C12_POP15P":"4422","C12_POP15P_CS1":"24","C12_POP15P_CS2":"202","C12_POP15P_CS3":"599","C12_POP15P_CS4":"869","C12_POP15P_CS5":"562","C12_POP15P_CS6":"331","C12_POP15P_CS7":"1035","C12_POP15P_CS8":"800","TxCS6":"7.485301"}
,{"CODGEO":"13034","REG":"93","DEP":"13","LIBGEO":"Eygalières","P12_POP":"1761","C12_POP15P":"1494","C12_POP15P_CS1":"29","C12_POP15P_CS2":"134","C12_POP15P_CS3":"74","C12_POP15P_CS4":"173","C12_POP15P_CS5":"227","C12_POP15P_CS6":"158","C12_POP15P_CS7":"552","C12_POP15P_CS8":"147","TxCS6":"10.575636"}
,{"CODGEO":"13035","REG":"93","DEP":"13","LIBGEO":"Eyguières","P12_POP":"6596","C12_POP15P":"5460","C12_POP15P_CS1":"121","C12_POP15P_CS2":"245","C12_POP15P_CS3":"636","C12_POP15P_CS4":"1032","C12_POP15P_CS5":"841","C12_POP15P_CS6":"690","C12_POP15P_CS7":"1219","C12_POP15P_CS8":"675","TxCS6":"12.637363"}
,{"CODGEO":"13036","REG":"93","DEP":"13","LIBGEO":"Eyragues","P12_POP":"4178","C12_POP15P":"3492","C12_POP15P_CS1":"74","C12_POP15P_CS2":"203","C12_POP15P_CS3":"256","C12_POP15P_CS4":"437","C12_POP15P_CS5":"518","C12_POP15P_CS6":"412","C12_POP15P_CS7":"1042","C12_POP15P_CS8":"550","TxCS6":"11.798397"}
,{"CODGEO":"13037","REG":"93","DEP":"13","LIBGEO":"La Fare-les-Oliviers","P12_POP":"7618","C12_POP15P":"6179","C12_POP15P_CS1":"11","C12_POP15P_CS2":"233","C12_POP15P_CS3":"710","C12_POP15P_CS4":"1199","C12_POP15P_CS5":"928","C12_POP15P_CS6":"695","C12_POP15P_CS7":"1530","C12_POP15P_CS8":"874","TxCS6":"11.247775"}
,{"CODGEO":"13038","REG":"93","DEP":"13","LIBGEO":"Fontvieille","P12_POP":"3653","C12_POP15P":"3123","C12_POP15P_CS1":"94","C12_POP15P_CS2":"184","C12_POP15P_CS3":"171","C12_POP15P_CS4":"384","C12_POP15P_CS5":"475","C12_POP15P_CS6":"294","C12_POP15P_CS7":"1122","C12_POP15P_CS8":"400","TxCS6":"9.414024"}
,{"CODGEO":"13039","REG":"93","DEP":"13","LIBGEO":"Fos-sur-Mer","P12_POP":"15859","C12_POP15P":"12692","C12_POP15P_CS1":"3","C12_POP15P_CS2":"317","C12_POP15P_CS3":"557","C12_POP15P_CS4":"2119","C12_POP15P_CS5":"2484","C12_POP15P_CS6":"2118","C12_POP15P_CS7":"2783","C12_POP15P_CS8":"2311","TxCS6":"16.687677"}
,{"CODGEO":"13040","REG":"93","DEP":"13","LIBGEO":"Fuveau","P12_POP":"9369","C12_POP15P":"7554","C12_POP15P_CS1":"16","C12_POP15P_CS2":"425","C12_POP15P_CS3":"1115","C12_POP15P_CS4":"1333","C12_POP15P_CS5":"1148","C12_POP15P_CS6":"619","C12_POP15P_CS7":"1653","C12_POP15P_CS8":"1245","TxCS6":"8.194334"}
,{"CODGEO":"13041","REG":"93","DEP":"13","LIBGEO":"Gardanne","P12_POP":"20616","C12_POP15P":"16822","C12_POP15P_CS1":"19","C12_POP15P_CS2":"533","C12_POP15P_CS3":"1262","C12_POP15P_CS4":"2585","C12_POP15P_CS5":"3038","C12_POP15P_CS6":"2060","C12_POP15P_CS7":"4382","C12_POP15P_CS8":"2943","TxCS6":"12.245868"}
,{"CODGEO":"13042","REG":"93","DEP":"13","LIBGEO":"Gémenos","P12_POP":"6198","C12_POP15P":"5164","C12_POP15P_CS1":"16","C12_POP15P_CS2":"286","C12_POP15P_CS3":"672","C12_POP15P_CS4":"772","C12_POP15P_CS5":"636","C12_POP15P_CS6":"398","C12_POP15P_CS7":"1712","C12_POP15P_CS8":"672","TxCS6":"7.707204"}
,{"CODGEO":"13043","REG":"93","DEP":"13","LIBGEO":"Gignac-la-Nerthe","P12_POP":"9070","C12_POP15P":"7500","C12_POP15P_CS1":"0","C12_POP15P_CS2":"339","C12_POP15P_CS3":"531","C12_POP15P_CS4":"1249","C12_POP15P_CS5":"1473","C12_POP15P_CS6":"765","C12_POP15P_CS7":"1917","C12_POP15P_CS8":"1226","TxCS6":"10.2"}
,{"CODGEO":"13044","REG":"93","DEP":"13","LIBGEO":"Grans","P12_POP":"4319","C12_POP15P":"3558","C12_POP15P_CS1":"44","C12_POP15P_CS2":"152","C12_POP15P_CS3":"420","C12_POP15P_CS4":"540","C12_POP15P_CS5":"502","C12_POP15P_CS6":"336","C12_POP15P_CS7":"1056","C12_POP15P_CS8":"508","TxCS6":"9.443507"}
,{"CODGEO":"13045","REG":"93","DEP":"13","LIBGEO":"Graveson","P12_POP":"4271","C12_POP15P":"3318","C12_POP15P_CS1":"61","C12_POP15P_CS2":"196","C12_POP15P_CS3":"271","C12_POP15P_CS4":"493","C12_POP15P_CS5":"672","C12_POP15P_CS6":"410","C12_POP15P_CS7":"752","C12_POP15P_CS8":"463","TxCS6":"12.356842"}
,{"CODGEO":"13046","REG":"93","DEP":"13","LIBGEO":"Gréasque","P12_POP":"4086","C12_POP15P":"3298","C12_POP15P_CS1":"0","C12_POP15P_CS2":"76","C12_POP15P_CS3":"391","C12_POP15P_CS4":"624","C12_POP15P_CS5":"490","C12_POP15P_CS6":"257","C12_POP15P_CS7":"1018","C12_POP15P_CS8":"443","TxCS6":"7.7926016"}
,{"CODGEO":"13047","REG":"93","DEP":"13","LIBGEO":"Istres","P12_POP":"42944","C12_POP15P":"34634","C12_POP15P_CS1":"77","C12_POP15P_CS2":"845","C12_POP15P_CS3":"2018","C12_POP15P_CS4":"6057","C12_POP15P_CS5":"7256","C12_POP15P_CS6":"4442","C12_POP15P_CS7":"7768","C12_POP15P_CS8":"6171","TxCS6":"12.825547"}
,{"CODGEO":"13048","REG":"93","DEP":"13","LIBGEO":"Jouques","P12_POP":"4257","C12_POP15P":"3440","C12_POP15P_CS1":"20","C12_POP15P_CS2":"152","C12_POP15P_CS3":"375","C12_POP15P_CS4":"603","C12_POP15P_CS5":"535","C12_POP15P_CS6":"263","C12_POP15P_CS7":"934","C12_POP15P_CS8":"558","TxCS6":"7.645349"}
,{"CODGEO":"13049","REG":"93","DEP":"13","LIBGEO":"Lamanon","P12_POP":"1900","C12_POP15P":"1542","C12_POP15P_CS1":"19","C12_POP15P_CS2":"50","C12_POP15P_CS3":"188","C12_POP15P_CS4":"288","C12_POP15P_CS5":"238","C12_POP15P_CS6":"142","C12_POP15P_CS7":"400","C12_POP15P_CS8":"215","TxCS6":"9.20882"}
,{"CODGEO":"13050","REG":"93","DEP":"13","LIBGEO":"Lambesc","P12_POP":"9261","C12_POP15P":"7402","C12_POP15P_CS1":"82","C12_POP15P_CS2":"289","C12_POP15P_CS3":"796","C12_POP15P_CS4":"1324","C12_POP15P_CS5":"1214","C12_POP15P_CS6":"597","C12_POP15P_CS7":"1913","C12_POP15P_CS8":"1187","TxCS6":"8.065388"}
,{"CODGEO":"13051","REG":"93","DEP":"13","LIBGEO":"Lançon-Provence","P12_POP":"8473","C12_POP15P":"6612","C12_POP15P_CS1":"28","C12_POP15P_CS2":"364","C12_POP15P_CS3":"632","C12_POP15P_CS4":"1248","C12_POP15P_CS5":"1156","C12_POP15P_CS6":"744","C12_POP15P_CS7":"1336","C12_POP15P_CS8":"1104","TxCS6":"11.252269"}
,{"CODGEO":"13052","REG":"93","DEP":"13","LIBGEO":"Maillane","P12_POP":"2437","C12_POP15P":"1962","C12_POP15P_CS1":"44","C12_POP15P_CS2":"123","C12_POP15P_CS3":"162","C12_POP15P_CS4":"316","C12_POP15P_CS5":"292","C12_POP15P_CS6":"269","C12_POP15P_CS7":"585","C12_POP15P_CS8":"170","TxCS6":"13.710499"}
,{"CODGEO":"13053","REG":"93","DEP":"13","LIBGEO":"Mallemort","P12_POP":"6197","C12_POP15P":"5042","C12_POP15P_CS1":"53","C12_POP15P_CS2":"308","C12_POP15P_CS3":"390","C12_POP15P_CS4":"739","C12_POP15P_CS5":"777","C12_POP15P_CS6":"641","C12_POP15P_CS7":"1195","C12_POP15P_CS8":"940","TxCS6":"12.713209"}
,{"CODGEO":"13054","REG":"93","DEP":"13","LIBGEO":"Marignane","P12_POP":"34405","C12_POP15P":"27777","C12_POP15P_CS1":"28","C12_POP15P_CS2":"926","C12_POP15P_CS3":"1261","C12_POP15P_CS4":"3916","C12_POP15P_CS5":"5311","C12_POP15P_CS6":"4041","C12_POP15P_CS7":"6949","C12_POP15P_CS8":"5345","TxCS6":"14.548007"}
,{"CODGEO":"13055","REG":"93","DEP":"13","LIBGEO":"Marseille","P12_POP":"852516","C12_POP15P":"696804","C12_POP15P_CS1":"221","C12_POP15P_CS2":"20440","C12_POP15P_CS3":"63634","C12_POP15P_CS4":"93830","C12_POP15P_CS5":"117278","C12_POP15P_CS6":"65826","C12_POP15P_CS7":"171569","C12_POP15P_CS8":"164004","TxCS6":"9.446846"}
,{"CODGEO":"13056","REG":"93","DEP":"13","LIBGEO":"Martigues","P12_POP":"47624","C12_POP15P":"39184","C12_POP15P_CS1":"44","C12_POP15P_CS2":"1122","C12_POP15P_CS3":"2443","C12_POP15P_CS4":"5625","C12_POP15P_CS5":"6901","C12_POP15P_CS6":"5066","C12_POP15P_CS7":"10455","C12_POP15P_CS8":"7528","TxCS6":"12.928746"}
,{"CODGEO":"13057","REG":"93","DEP":"13","LIBGEO":"Mas-Blanc-des-Alpilles","P12_POP":"507","C12_POP15P":"399","C12_POP15P_CS1":"8","C12_POP15P_CS2":"24","C12_POP15P_CS3":"40","C12_POP15P_CS4":"80","C12_POP15P_CS5":"64","C12_POP15P_CS6":"24","C12_POP15P_CS7":"96","C12_POP15P_CS8":"64","TxCS6":"6.0150375"}
,{"CODGEO":"13058","REG":"93","DEP":"13","LIBGEO":"Maussane-les-Alpilles","P12_POP":"2242","C12_POP15P":"1913","C12_POP15P_CS1":"30","C12_POP15P_CS2":"155","C12_POP15P_CS3":"127","C12_POP15P_CS4":"173","C12_POP15P_CS5":"224","C12_POP15P_CS6":"187","C12_POP15P_CS7":"764","C12_POP15P_CS8":"252","TxCS6":"9.775222"}
,{"CODGEO":"13059","REG":"93","DEP":"13","LIBGEO":"Meyrargues","P12_POP":"3704","C12_POP15P":"2947","C12_POP15P_CS1":"4","C12_POP15P_CS2":"180","C12_POP15P_CS3":"372","C12_POP15P_CS4":"512","C12_POP15P_CS5":"482","C12_POP15P_CS6":"320","C12_POP15P_CS7":"586","C12_POP15P_CS8":"491","TxCS6":"10.8585"}
,{"CODGEO":"13060","REG":"93","DEP":"13","LIBGEO":"Meyreuil","P12_POP":"5293","C12_POP15P":"4378","C12_POP15P_CS1":"32","C12_POP15P_CS2":"352","C12_POP15P_CS3":"532","C12_POP15P_CS4":"624","C12_POP15P_CS5":"756","C12_POP15P_CS6":"408","C12_POP15P_CS7":"968","C12_POP15P_CS8":"704","TxCS6":"9.3193245"}
,{"CODGEO":"13061","REG":"93","DEP":"13","LIBGEO":"Saint-Pierre-de-Mézoargues","P12_POP":"232","C12_POP15P":"201","C12_POP15P_CS1":"24","C12_POP15P_CS2":"4","C12_POP15P_CS3":"16","C12_POP15P_CS4":"20","C12_POP15P_CS5":"12","C12_POP15P_CS6":"24","C12_POP15P_CS7":"83","C12_POP15P_CS8":"20","TxCS6":"11.940298"}
,{"CODGEO":"13062","REG":"93","DEP":"13","LIBGEO":"Mimet","P12_POP":"4536","C12_POP15P":"3757","C12_POP15P_CS1":"10","C12_POP15P_CS2":"190","C12_POP15P_CS3":"568","C12_POP15P_CS4":"668","C12_POP15P_CS5":"488","C12_POP15P_CS6":"309","C12_POP15P_CS7":"1049","C12_POP15P_CS8":"475","TxCS6":"8.2246475"}
,{"CODGEO":"13063","REG":"93","DEP":"13","LIBGEO":"Miramas","P12_POP":"25064","C12_POP15P":"19912","C12_POP15P_CS1":"20","C12_POP15P_CS2":"531","C12_POP15P_CS3":"723","C12_POP15P_CS4":"2321","C12_POP15P_CS5":"3484","C12_POP15P_CS6":"3684","C12_POP15P_CS7":"5022","C12_POP15P_CS8":"4127","TxCS6":"18.501408"}
,{"CODGEO":"13064","REG":"93","DEP":"13","LIBGEO":"Mollégès","P12_POP":"2534","C12_POP15P":"2090","C12_POP15P_CS1":"68","C12_POP15P_CS2":"136","C12_POP15P_CS3":"132","C12_POP15P_CS4":"277","C12_POP15P_CS5":"397","C12_POP15P_CS6":"293","C12_POP15P_CS7":"582","C12_POP15P_CS8":"205","TxCS6":"14.019139"}
,{"CODGEO":"13065","REG":"93","DEP":"13","LIBGEO":"Mouriès","P12_POP":"3484","C12_POP15P":"2874","C12_POP15P_CS1":"57","C12_POP15P_CS2":"190","C12_POP15P_CS3":"198","C12_POP15P_CS4":"340","C12_POP15P_CS5":"461","C12_POP15P_CS6":"356","C12_POP15P_CS7":"825","C12_POP15P_CS8":"449","TxCS6":"12.386917"}
,{"CODGEO":"13066","REG":"93","DEP":"13","LIBGEO":"Noves","P12_POP":"5293","C12_POP15P":"4371","C12_POP15P_CS1":"105","C12_POP15P_CS2":"243","C12_POP15P_CS3":"263","C12_POP15P_CS4":"661","C12_POP15P_CS5":"621","C12_POP15P_CS6":"580","C12_POP15P_CS7":"1326","C12_POP15P_CS8":"573","TxCS6":"13.269276"}
,{"CODGEO":"13067","REG":"93","DEP":"13","LIBGEO":"Orgon","P12_POP":"3120","C12_POP15P":"2603","C12_POP15P_CS1":"40","C12_POP15P_CS2":"135","C12_POP15P_CS3":"103","C12_POP15P_CS4":"300","C12_POP15P_CS5":"372","C12_POP15P_CS6":"478","C12_POP15P_CS7":"610","C12_POP15P_CS8":"564","TxCS6":"18.363426"}
,{"CODGEO":"13068","REG":"93","DEP":"13","LIBGEO":"Paradou","P12_POP":"1638","C12_POP15P":"1269","C12_POP15P_CS1":"7","C12_POP15P_CS2":"101","C12_POP15P_CS3":"135","C12_POP15P_CS4":"206","C12_POP15P_CS5":"221","C12_POP15P_CS6":"105","C12_POP15P_CS7":"363","C12_POP15P_CS8":"131","TxCS6":"8.274232"}
,{"CODGEO":"13069","REG":"93","DEP":"13","LIBGEO":"Pélissanne","P12_POP":"9601","C12_POP15P":"7857","C12_POP15P_CS1":"32","C12_POP15P_CS2":"295","C12_POP15P_CS3":"843","C12_POP15P_CS4":"1390","C12_POP15P_CS5":"1156","C12_POP15P_CS6":"734","C12_POP15P_CS7":"2199","C12_POP15P_CS8":"1208","TxCS6":"9.341988"}
,{"CODGEO":"13070","REG":"93","DEP":"13","LIBGEO":"La Penne-sur-Huveaune","P12_POP":"6300","C12_POP15P":"5155","C12_POP15P_CS1":"8","C12_POP15P_CS2":"231","C12_POP15P_CS3":"301","C12_POP15P_CS4":"904","C12_POP15P_CS5":"932","C12_POP15P_CS6":"540","C12_POP15P_CS7":"1479","C12_POP15P_CS8":"760","TxCS6":"10.475266"}
,{"CODGEO":"13071","REG":"93","DEP":"13","LIBGEO":"Les Pennes-Mirabeau","P12_POP":"20279","C12_POP15P":"16983","C12_POP15P_CS1":"20","C12_POP15P_CS2":"743","C12_POP15P_CS3":"1522","C12_POP15P_CS4":"2592","C12_POP15P_CS5":"2774","C12_POP15P_CS6":"1500","C12_POP15P_CS7":"5312","C12_POP15P_CS8":"2520","TxCS6":"8.832361"}
,{"CODGEO":"13072","REG":"93","DEP":"13","LIBGEO":"Peynier","P12_POP":"2974","C12_POP15P":"2428","C12_POP15P_CS1":"20","C12_POP15P_CS2":"138","C12_POP15P_CS3":"416","C12_POP15P_CS4":"417","C12_POP15P_CS5":"263","C12_POP15P_CS6":"219","C12_POP15P_CS7":"612","C12_POP15P_CS8":"344","TxCS6":"9.01977"}
,{"CODGEO":"13073","REG":"93","DEP":"13","LIBGEO":"Peypin","P12_POP":"5397","C12_POP15P":"4424","C12_POP15P_CS1":"0","C12_POP15P_CS2":"237","C12_POP15P_CS3":"490","C12_POP15P_CS4":"766","C12_POP15P_CS5":"813","C12_POP15P_CS6":"358","C12_POP15P_CS7":"1044","C12_POP15P_CS8":"716","TxCS6":"8.092224"}
,{"CODGEO":"13074","REG":"93","DEP":"13","LIBGEO":"Peyrolles-en-Provence","P12_POP":"4751","C12_POP15P":"3712","C12_POP15P_CS1":"12","C12_POP15P_CS2":"132","C12_POP15P_CS3":"316","C12_POP15P_CS4":"652","C12_POP15P_CS5":"588","C12_POP15P_CS6":"476","C12_POP15P_CS7":"980","C12_POP15P_CS8":"556","TxCS6":"12.8232765"}
,{"CODGEO":"13075","REG":"93","DEP":"13","LIBGEO":"Plan-de-Cuques","P12_POP":"10896","C12_POP15P":"9162","C12_POP15P_CS1":"0","C12_POP15P_CS2":"394","C12_POP15P_CS3":"785","C12_POP15P_CS4":"1450","C12_POP15P_CS5":"1317","C12_POP15P_CS6":"609","C12_POP15P_CS7":"3141","C12_POP15P_CS8":"1465","TxCS6":"6.6470203"}
,{"CODGEO":"13076","REG":"93","DEP":"13","LIBGEO":"Plan-d'Orgon","P12_POP":"3067","C12_POP15P":"2452","C12_POP15P_CS1":"36","C12_POP15P_CS2":"120","C12_POP15P_CS3":"80","C12_POP15P_CS4":"316","C12_POP15P_CS5":"524","C12_POP15P_CS6":"372","C12_POP15P_CS7":"656","C12_POP15P_CS8":"348","TxCS6":"15.171289"}
,{"CODGEO":"13077","REG":"93","DEP":"13","LIBGEO":"Port-de-Bouc","P12_POP":"17112","C12_POP15P":"13831","C12_POP15P_CS1":"17","C12_POP15P_CS2":"359","C12_POP15P_CS3":"321","C12_POP15P_CS4":"1373","C12_POP15P_CS5":"2090","C12_POP15P_CS6":"2213","C12_POP15P_CS7":"3960","C12_POP15P_CS8":"3497","TxCS6":"16.000288"}
,{"CODGEO":"13078","REG":"93","DEP":"13","LIBGEO":"Port-Saint-Louis-du-Rhône","P12_POP":"8579","C12_POP15P":"7024","C12_POP15P_CS1":"44","C12_POP15P_CS2":"164","C12_POP15P_CS3":"152","C12_POP15P_CS4":"688","C12_POP15P_CS5":"1097","C12_POP15P_CS6":"1442","C12_POP15P_CS7":"2016","C12_POP15P_CS8":"1421","TxCS6":"20.529613"}
,{"CODGEO":"13079","REG":"93","DEP":"13","LIBGEO":"Puyloubier","P12_POP":"1860","C12_POP15P":"1536","C12_POP15P_CS1":"57","C12_POP15P_CS2":"81","C12_POP15P_CS3":"226","C12_POP15P_CS4":"214","C12_POP15P_CS5":"149","C12_POP15P_CS6":"173","C12_POP15P_CS7":"318","C12_POP15P_CS8":"318","TxCS6":"11.263021"}
,{"CODGEO":"13080","REG":"93","DEP":"13","LIBGEO":"Le Puy-Sainte-Réparade","P12_POP":"5379","C12_POP15P":"4388","C12_POP15P_CS1":"25","C12_POP15P_CS2":"294","C12_POP15P_CS3":"451","C12_POP15P_CS4":"605","C12_POP15P_CS5":"650","C12_POP15P_CS6":"431","C12_POP15P_CS7":"1221","C12_POP15P_CS8":"711","TxCS6":"9.822243"}
,{"CODGEO":"13081","REG":"93","DEP":"13","LIBGEO":"Rognac","P12_POP":"11737","C12_POP15P":"9540","C12_POP15P_CS1":"3","C12_POP15P_CS2":"375","C12_POP15P_CS3":"614","C12_POP15P_CS4":"1620","C12_POP15P_CS5":"1739","C12_POP15P_CS6":"1254","C12_POP15P_CS7":"2401","C12_POP15P_CS8":"1534","TxCS6":"13.144654"}
,{"CODGEO":"13082","REG":"93","DEP":"13","LIBGEO":"Rognes","P12_POP":"4684","C12_POP15P":"3863","C12_POP15P_CS1":"48","C12_POP15P_CS2":"220","C12_POP15P_CS3":"619","C12_POP15P_CS4":"523","C12_POP15P_CS5":"495","C12_POP15P_CS6":"220","C12_POP15P_CS7":"1128","C12_POP15P_CS8":"611","TxCS6":"5.695056"}
,{"CODGEO":"13083","REG":"93","DEP":"13","LIBGEO":"Rognonas","P12_POP":"4024","C12_POP15P":"3352","C12_POP15P_CS1":"68","C12_POP15P_CS2":"188","C12_POP15P_CS3":"256","C12_POP15P_CS4":"544","C12_POP15P_CS5":"528","C12_POP15P_CS6":"416","C12_POP15P_CS7":"964","C12_POP15P_CS8":"388","TxCS6":"12.4105015"}
,{"CODGEO":"13084","REG":"93","DEP":"13","LIBGEO":"La Roque-d'Anthéron","P12_POP":"5390","C12_POP15P":"4206","C12_POP15P_CS1":"10","C12_POP15P_CS2":"166","C12_POP15P_CS3":"355","C12_POP15P_CS4":"600","C12_POP15P_CS5":"631","C12_POP15P_CS6":"618","C12_POP15P_CS7":"1177","C12_POP15P_CS8":"647","TxCS6":"14.693296"}
,{"CODGEO":"13085","REG":"93","DEP":"13","LIBGEO":"Roquefort-la-Bédoule","P12_POP":"5148","C12_POP15P":"4385","C12_POP15P_CS1":"12","C12_POP15P_CS2":"214","C12_POP15P_CS3":"415","C12_POP15P_CS4":"668","C12_POP15P_CS5":"618","C12_POP15P_CS6":"345","C12_POP15P_CS7":"1377","C12_POP15P_CS8":"735","TxCS6":"7.867731"}
,{"CODGEO":"13086","REG":"93","DEP":"13","LIBGEO":"Roquevaire","P12_POP":"8693","C12_POP15P":"7214","C12_POP15P_CS1":"16","C12_POP15P_CS2":"325","C12_POP15P_CS3":"788","C12_POP15P_CS4":"1177","C12_POP15P_CS5":"1163","C12_POP15P_CS6":"720","C12_POP15P_CS7":"1847","C12_POP15P_CS8":"1178","TxCS6":"9.980594"}
,{"CODGEO":"13087","REG":"93","DEP":"13","LIBGEO":"Rousset","P12_POP":"4561","C12_POP15P":"3694","C12_POP15P_CS1":"38","C12_POP15P_CS2":"130","C12_POP15P_CS3":"489","C12_POP15P_CS4":"682","C12_POP15P_CS5":"511","C12_POP15P_CS6":"413","C12_POP15P_CS7":"824","C12_POP15P_CS8":"608","TxCS6":"11.180292"}
,{"CODGEO":"13088","REG":"93","DEP":"13","LIBGEO":"Le Rove","P12_POP":"4507","C12_POP15P":"3661","C12_POP15P_CS1":"0","C12_POP15P_CS2":"190","C12_POP15P_CS3":"288","C12_POP15P_CS4":"694","C12_POP15P_CS5":"591","C12_POP15P_CS6":"347","C12_POP15P_CS7":"1023","C12_POP15P_CS8":"528","TxCS6":"9.478285"}
,{"CODGEO":"13089","REG":"93","DEP":"13","LIBGEO":"Saint-Andiol","P12_POP":"3298","C12_POP15P":"2545","C12_POP15P_CS1":"29","C12_POP15P_CS2":"157","C12_POP15P_CS3":"128","C12_POP15P_CS4":"265","C12_POP15P_CS5":"376","C12_POP15P_CS6":"468","C12_POP15P_CS7":"661","C12_POP15P_CS8":"461","TxCS6":"18.388998"}
,{"CODGEO":"13090","REG":"93","DEP":"13","LIBGEO":"Saint-Antonin-sur-Bayon","P12_POP":"130","C12_POP15P":"123","C12_POP15P_CS1":"0","C12_POP15P_CS2":"0","C12_POP15P_CS3":"15","C12_POP15P_CS4":"46","C12_POP15P_CS5":"10","C12_POP15P_CS6":"0","C12_POP15P_CS7":"36","C12_POP15P_CS8":"15","TxCS6":"0.0"}
,{"CODGEO":"13091","REG":"93","DEP":"13","LIBGEO":"Saint-Cannat","P12_POP":"5431","C12_POP15P":"4456","C12_POP15P_CS1":"36","C12_POP15P_CS2":"246","C12_POP15P_CS3":"552","C12_POP15P_CS4":"729","C12_POP15P_CS5":"584","C12_POP15P_CS6":"346","C12_POP15P_CS7":"1271","C12_POP15P_CS8":"693","TxCS6":"7.764812"}
,{"CODGEO":"13092","REG":"93","DEP":"13","LIBGEO":"Saint-Chamas","P12_POP":"7852","C12_POP15P":"6410","C12_POP15P_CS1":"20","C12_POP15P_CS2":"307","C12_POP15P_CS3":"465","C12_POP15P_CS4":"1209","C12_POP15P_CS5":"1049","C12_POP15P_CS6":"767","C12_POP15P_CS7":"1534","C12_POP15P_CS8":"1058","TxCS6":"11.965678"}
,{"CODGEO":"13093","REG":"93","DEP":"13","LIBGEO":"Saint-Estève-Janson","P12_POP":"359","C12_POP15P":"276","C12_POP15P_CS1":"8","C12_POP15P_CS2":"12","C12_POP15P_CS3":"36","C12_POP15P_CS4":"52","C12_POP15P_CS5":"40","C12_POP15P_CS6":"32","C12_POP15P_CS7":"64","C12_POP15P_CS8":"32","TxCS6":"11.594203"}
,{"CODGEO":"13094","REG":"93","DEP":"13","LIBGEO":"Saint-Étienne-du-Grès","P12_POP":"2302","C12_POP15P":"1904","C12_POP15P_CS1":"32","C12_POP15P_CS2":"96","C12_POP15P_CS3":"160","C12_POP15P_CS4":"264","C12_POP15P_CS5":"272","C12_POP15P_CS6":"156","C12_POP15P_CS7":"642","C12_POP15P_CS8":"280","TxCS6":"8.193277"}
,{"CODGEO":"13095","REG":"93","DEP":"13","LIBGEO":"Saint-Marc-Jaumegarde","P12_POP":"1125","C12_POP15P":"946","C12_POP15P_CS1":"4","C12_POP15P_CS2":"64","C12_POP15P_CS3":"232","C12_POP15P_CS4":"136","C12_POP15P_CS5":"60","C12_POP15P_CS6":"8","C12_POP15P_CS7":"204","C12_POP15P_CS8":"236","TxCS6":"0.84566593"}
,{"CODGEO":"13096","REG":"93","DEP":"13","LIBGEO":"Saintes-Maries-de-la-Mer","P12_POP":"2495","C12_POP15P":"2163","C12_POP15P_CS1":"65","C12_POP15P_CS2":"300","C12_POP15P_CS3":"65","C12_POP15P_CS4":"154","C12_POP15P_CS5":"408","C12_POP15P_CS6":"185","C12_POP15P_CS7":"685","C12_POP15P_CS8":"300","TxCS6":"8.552936"}
,{"CODGEO":"13097","REG":"93","DEP":"13","LIBGEO":"Saint-Martin-de-Crau","P12_POP":"12072","C12_POP15P":"9866","C12_POP15P_CS1":"142","C12_POP15P_CS2":"364","C12_POP15P_CS3":"603","C12_POP15P_CS4":"1279","C12_POP15P_CS5":"1556","C12_POP15P_CS6":"1245","C12_POP15P_CS7":"3045","C12_POP15P_CS8":"1632","TxCS6":"12.619096"}
,{"CODGEO":"13098","REG":"93","DEP":"13","LIBGEO":"Saint-Mitre-les-Remparts","P12_POP":"5721","C12_POP15P":"4840","C12_POP15P_CS1":"23","C12_POP15P_CS2":"191","C12_POP15P_CS3":"499","C12_POP15P_CS4":"721","C12_POP15P_CS5":"706","C12_POP15P_CS6":"487","C12_POP15P_CS7":"1518","C12_POP15P_CS8":"694","TxCS6":"10.061984"}
,{"CODGEO":"13099","REG":"93","DEP":"13","LIBGEO":"Saint-Paul-lès-Durance","P12_POP":"987","C12_POP15P":"834","C12_POP15P_CS1":"0","C12_POP15P_CS2":"84","C12_POP15P_CS3":"24","C12_POP15P_CS4":"120","C12_POP15P_CS5":"216","C12_POP15P_CS6":"128","C12_POP15P_CS7":"156","C12_POP15P_CS8":"104","TxCS6":"15.347722"}
,{"CODGEO":"13100","REG":"93","DEP":"13","LIBGEO":"Saint-Rémy-de-Provence","P12_POP":"10406","C12_POP15P":"8937","C12_POP15P_CS1":"200","C12_POP15P_CS2":"631","C12_POP15P_CS3":"454","C12_POP15P_CS4":"1025","C12_POP15P_CS5":"1347","C12_POP15P_CS6":"1035","C12_POP15P_CS7":"3001","C12_POP15P_CS8":"1244","TxCS6":"11.581068"}
,{"CODGEO":"13101","REG":"93","DEP":"13","LIBGEO":"Saint-Savournin","P12_POP":"3240","C12_POP15P":"2576","C12_POP15P_CS1":"4","C12_POP15P_CS2":"96","C12_POP15P_CS3":"316","C12_POP15P_CS4":"564","C12_POP15P_CS5":"444","C12_POP15P_CS6":"248","C12_POP15P_CS7":"577","C12_POP15P_CS8":"328","TxCS6":"9.62733"}
,{"CODGEO":"13102","REG":"93","DEP":"13","LIBGEO":"Saint-Victoret","P12_POP":"6632","C12_POP15P":"5564","C12_POP15P_CS1":"0","C12_POP15P_CS2":"300","C12_POP15P_CS3":"240","C12_POP15P_CS4":"708","C12_POP15P_CS5":"1080","C12_POP15P_CS6":"796","C12_POP15P_CS7":"1404","C12_POP15P_CS8":"1036","TxCS6":"14.306254"}
,{"CODGEO":"13103","REG":"93","DEP":"13","LIBGEO":"Salon-de-Provence","P12_POP":"43771","C12_POP15P":"35739","C12_POP15P_CS1":"92","C12_POP15P_CS2":"1034","C12_POP15P_CS3":"3220","C12_POP15P_CS4":"5056","C12_POP15P_CS5":"6384","C12_POP15P_CS6":"4270","C12_POP15P_CS7":"8943","C12_POP15P_CS8":"6741","TxCS6":"11.947732"}
,{"CODGEO":"13104","REG":"93","DEP":"13","LIBGEO":"Sausset-les-Pins","P12_POP":"7703","C12_POP15P":"6633","C12_POP15P_CS1":"0","C12_POP15P_CS2":"317","C12_POP15P_CS3":"926","C12_POP15P_CS4":"992","C12_POP15P_CS5":"684","C12_POP15P_CS6":"457","C12_POP15P_CS7":"2307","C12_POP15P_CS8":"949","TxCS6":"6.8897934"}
,{"CODGEO":"13105","REG":"93","DEP":"13","LIBGEO":"Sénas","P12_POP":"6770","C12_POP15P":"5370","C12_POP15P_CS1":"63","C12_POP15P_CS2":"261","C12_POP15P_CS3":"327","C12_POP15P_CS4":"741","C12_POP15P_CS5":"968","C12_POP15P_CS6":"911","C12_POP15P_CS7":"1304","C12_POP15P_CS8":"797","TxCS6":"16.964619"}
,{"CODGEO":"13106","REG":"93","DEP":"13","LIBGEO":"Septèmes-les-Vallons","P12_POP":"10708","C12_POP15P":"8772","C12_POP15P_CS1":"9","C12_POP15P_CS2":"384","C12_POP15P_CS3":"478","C12_POP15P_CS4":"1215","C12_POP15P_CS5":"1543","C12_POP15P_CS6":"1006","C12_POP15P_CS7":"2606","C12_POP15P_CS8":"1530","TxCS6":"11.468308"}
,{"CODGEO":"13107","REG":"93","DEP":"13","LIBGEO":"Simiane-Collongue","P12_POP":"5437","C12_POP15P":"4442","C12_POP15P_CS1":"16","C12_POP15P_CS2":"192","C12_POP15P_CS3":"601","C12_POP15P_CS4":"732","C12_POP15P_CS5":"678","C12_POP15P_CS6":"384","C12_POP15P_CS7":"1145","C12_POP15P_CS8":"693","TxCS6":"8.644754"}
,{"CODGEO":"13108","REG":"93","DEP":"13","LIBGEO":"Tarascon","P12_POP":"13540","C12_POP15P":"11335","C12_POP15P_CS1":"124","C12_POP15P_CS2":"418","C12_POP15P_CS3":"362","C12_POP15P_CS4":"1153","C12_POP15P_CS5":"1677","C12_POP15P_CS6":"1667","C12_POP15P_CS7":"3072","C12_POP15P_CS8":"2863","TxCS6":"14.706661"}
,{"CODGEO":"13109","REG":"93","DEP":"13","LIBGEO":"Le Tholonet","P12_POP":"2289","C12_POP15P":"1908","C12_POP15P_CS1":"0","C12_POP15P_CS2":"87","C12_POP15P_CS3":"340","C12_POP15P_CS4":"289","C12_POP15P_CS5":"245","C12_POP15P_CS6":"127","C12_POP15P_CS7":"495","C12_POP15P_CS8":"325","TxCS6":"6.6561847"}
,{"CODGEO":"13110","REG":"93","DEP":"13","LIBGEO":"Trets","P12_POP":"10383","C12_POP15P":"8394","C12_POP15P_CS1":"67","C12_POP15P_CS2":"436","C12_POP15P_CS3":"890","C12_POP15P_CS4":"1367","C12_POP15P_CS5":"1230","C12_POP15P_CS6":"1018","C12_POP15P_CS7":"2012","C12_POP15P_CS8":"1374","TxCS6":"12.12771"}
,{"CODGEO":"13111","REG":"93","DEP":"13","LIBGEO":"Vauvenargues","P12_POP":"1034","C12_POP15P":"826","C12_POP15P_CS1":"8","C12_POP15P_CS2":"28","C12_POP15P_CS3":"121","C12_POP15P_CS4":"177","C12_POP15P_CS5":"105","C12_POP15P_CS6":"40","C12_POP15P_CS7":"225","C12_POP15P_CS8":"121","TxCS6":"4.842615"}
,{"CODGEO":"13112","REG":"93","DEP":"13","LIBGEO":"Velaux","P12_POP":"8664","C12_POP15P":"7040","C12_POP15P_CS1":"16","C12_POP15P_CS2":"260","C12_POP15P_CS3":"1068","C12_POP15P_CS4":"1132","C12_POP15P_CS5":"1056","C12_POP15P_CS6":"500","C12_POP15P_CS7":"1896","C12_POP15P_CS8":"1112","TxCS6":"7.1022725"}
,{"CODGEO":"13113","REG":"93","DEP":"13","LIBGEO":"Venelles","P12_POP":"8278","C12_POP15P":"6943","C12_POP15P_CS1":"28","C12_POP15P_CS2":"301","C12_POP15P_CS3":"1046","C12_POP15P_CS4":"1226","C12_POP15P_CS5":"971","C12_POP15P_CS6":"399","C12_POP15P_CS7":"1941","C12_POP15P_CS8":"1030","TxCS6":"5.746795"}
,{"CODGEO":"13114","REG":"93","DEP":"13","LIBGEO":"Ventabren","P12_POP":"4646","C12_POP15P":"3801","C12_POP15P_CS1":"8","C12_POP15P_CS2":"217","C12_POP15P_CS3":"667","C12_POP15P_CS4":"658","C12_POP15P_CS5":"389","C12_POP15P_CS6":"162","C12_POP15P_CS7":"1030","C12_POP15P_CS8":"670","TxCS6":"4.2620363"}
,{"CODGEO":"13115","REG":"93","DEP":"13","LIBGEO":"Vernègues","P12_POP":"1524","C12_POP15P":"1206","C12_POP15P_CS1":"5","C12_POP15P_CS2":"56","C12_POP15P_CS3":"138","C12_POP15P_CS4":"262","C12_POP15P_CS5":"204","C12_POP15P_CS6":"169","C12_POP15P_CS7":"204","C12_POP15P_CS8":"170","TxCS6":"14.013267"}
,{"CODGEO":"13116","REG":"93","DEP":"13","LIBGEO":"Verquières","P12_POP":"799","C12_POP15P":"678","C12_POP15P_CS1":"43","C12_POP15P_CS2":"39","C12_POP15P_CS3":"39","C12_POP15P_CS4":"98","C12_POP15P_CS5":"114","C12_POP15P_CS6":"82","C12_POP15P_CS7":"161","C12_POP15P_CS8":"102","TxCS6":"12.094396"}
,{"CODGEO":"13117","REG":"93","DEP":"13","LIBGEO":"Vitrolles","P12_POP":"34843","C12_POP15P":"27510","C12_POP15P_CS1":"3","C12_POP15P_CS2":"651","C12_POP15P_CS3":"1675","C12_POP15P_CS4":"4217","C12_POP15P_CS5":"5621","C12_POP15P_CS6":"3948","C12_POP15P_CS7":"6219","C12_POP15P_CS8":"5177","TxCS6":"14.351145"}
,{"CODGEO":"13118","REG":"93","DEP":"13","LIBGEO":"Coudoux","P12_POP":"3470","C12_POP15P":"2716","C12_POP15P_CS1":"8","C12_POP15P_CS2":"160","C12_POP15P_CS3":"476","C12_POP15P_CS4":"452","C12_POP15P_CS5":"376","C12_POP15P_CS6":"184","C12_POP15P_CS7":"672","C12_POP15P_CS8":"388","TxCS6":"6.774668"}
,{"CODGEO":"13119","REG":"93","DEP":"13","LIBGEO":"Carnoux-en-Provence","P12_POP":"6764","C12_POP15P":"5619","C12_POP15P_CS1":"0","C12_POP15P_CS2":"215","C12_POP15P_CS3":"621","C12_POP15P_CS4":"809","C12_POP15P_CS5":"976","C12_POP15P_CS6":"495","C12_POP15P_CS7":"1618","C12_POP15P_CS8":"885","TxCS6":"8.809397"}
]}
