{"status":"success","data":[{"CODGEO":"37001","REG":"24","DEP":"37","LIBGEO":"Abilly","P12_POP":"1138","C12_POP15P":"964","C12_POP15P_CS1":"48","C12_POP15P_CS2":"24","C12_POP15P_CS3":"24","C12_POP15P_CS4":"48","C12_POP15P_CS5":"164","C12_POP15P_CS6":"136","C12_POP15P_CS7":"420","C12_POP15P_CS8":"100","TxCS6":"14.107884"}
,{"CODGEO":"37002","REG":"24","DEP":"37","LIBGEO":"Ambillou","P12_POP":"1822","C12_POP15P":"1380","C12_POP15P_CS1":"8","C12_POP15P_CS2":"32","C12_POP15P_CS3":"88","C12_POP15P_CS4":"244","C12_POP15P_CS5":"264","C12_POP15P_CS6":"256","C12_POP15P_CS7":"280","C12_POP15P_CS8":"208","TxCS6":"18.550726"}
,{"CODGEO":"37003","REG":"24","DEP":"37","LIBGEO":"Amboise","P12_POP":"13157","C12_POP15P":"10757","C12_POP15P_CS1":"7","C12_POP15P_CS2":"302","C12_POP15P_CS3":"686","C12_POP15P_CS4":"1407","C12_POP15P_CS5":"1653","C12_POP15P_CS6":"1604","C12_POP15P_CS7":"3554","C12_POP15P_CS8":"1544","TxCS6":"14.911221"}
,{"CODGEO":"37004","REG":"24","DEP":"37","LIBGEO":"Anché","P12_POP":"415","C12_POP15P":"346","C12_POP15P_CS1":"4","C12_POP15P_CS2":"24","C12_POP15P_CS3":"8","C12_POP15P_CS4":"33","C12_POP15P_CS5":"53","C12_POP15P_CS6":"61","C12_POP15P_CS7":"138","C12_POP15P_CS8":"24","TxCS6":"17.630058"}
,{"CODGEO":"37005","REG":"24","DEP":"37","LIBGEO":"Antogny-le-Tillac","P12_POP":"515","C12_POP15P":"412","C12_POP15P_CS1":"12","C12_POP15P_CS2":"28","C12_POP15P_CS3":"20","C12_POP15P_CS4":"52","C12_POP15P_CS5":"60","C12_POP15P_CS6":"68","C12_POP15P_CS7":"132","C12_POP15P_CS8":"40","TxCS6":"16.504854"}
,{"CODGEO":"37006","REG":"24","DEP":"37","LIBGEO":"Artannes-sur-Indre","P12_POP":"2493","C12_POP15P":"2001","C12_POP15P_CS1":"24","C12_POP15P_CS2":"80","C12_POP15P_CS3":"169","C12_POP15P_CS4":"326","C12_POP15P_CS5":"312","C12_POP15P_CS6":"304","C12_POP15P_CS7":"544","C12_POP15P_CS8":"240","TxCS6":"15.192405"}
,{"CODGEO":"37007","REG":"24","DEP":"37","LIBGEO":"Assay","P12_POP":"160","C12_POP15P":"140","C12_POP15P_CS1":"8","C12_POP15P_CS2":"8","C12_POP15P_CS3":"16","C12_POP15P_CS4":"8","C12_POP15P_CS5":"8","C12_POP15P_CS6":"32","C12_POP15P_CS7":"44","C12_POP15P_CS8":"16","TxCS6":"22.857143"}
,{"CODGEO":"37008","REG":"24","DEP":"37","LIBGEO":"Athée-sur-Cher","P12_POP":"2618","C12_POP15P":"2018","C12_POP15P_CS1":"20","C12_POP15P_CS2":"86","C12_POP15P_CS3":"143","C12_POP15P_CS4":"286","C12_POP15P_CS5":"356","C12_POP15P_CS6":"348","C12_POP15P_CS7":"570","C12_POP15P_CS8":"209","TxCS6":"17.244797"}
,{"CODGEO":"37009","REG":"24","DEP":"37","LIBGEO":"Autrèche","P12_POP":"411","C12_POP15P":"339","C12_POP15P_CS1":"8","C12_POP15P_CS2":"20","C12_POP15P_CS3":"37","C12_POP15P_CS4":"20","C12_POP15P_CS5":"74","C12_POP15P_CS6":"45","C12_POP15P_CS7":"61","C12_POP15P_CS8":"73","TxCS6":"13.274336"}
,{"CODGEO":"37010","REG":"24","DEP":"37","LIBGEO":"Auzouer-en-Touraine","P12_POP":"2118","C12_POP15P":"1664","C12_POP15P_CS1":"16","C12_POP15P_CS2":"40","C12_POP15P_CS3":"64","C12_POP15P_CS4":"245","C12_POP15P_CS5":"326","C12_POP15P_CS6":"273","C12_POP15P_CS7":"434","C12_POP15P_CS8":"265","TxCS6":"16.40625"}
,{"CODGEO":"37011","REG":"24","DEP":"37","LIBGEO":"Avoine","P12_POP":"1811","C12_POP15P":"1454","C12_POP15P_CS1":"0","C12_POP15P_CS2":"43","C12_POP15P_CS3":"51","C12_POP15P_CS4":"213","C12_POP15P_CS5":"237","C12_POP15P_CS6":"190","C12_POP15P_CS7":"462","C12_POP15P_CS8":"257","TxCS6":"13.0674"}
,{"CODGEO":"37012","REG":"24","DEP":"37","LIBGEO":"Avon-les-Roches","P12_POP":"562","C12_POP15P":"458","C12_POP15P_CS1":"24","C12_POP15P_CS2":"8","C12_POP15P_CS3":"40","C12_POP15P_CS4":"72","C12_POP15P_CS5":"44","C12_POP15P_CS6":"68","C12_POP15P_CS7":"153","C12_POP15P_CS8":"48","TxCS6":"14.847161"}
,{"CODGEO":"37013","REG":"24","DEP":"37","LIBGEO":"Avrillé-les-Ponceaux","P12_POP":"461","C12_POP15P":"366","C12_POP15P_CS1":"0","C12_POP15P_CS2":"24","C12_POP15P_CS3":"33","C12_POP15P_CS4":"48","C12_POP15P_CS5":"43","C12_POP15P_CS6":"90","C12_POP15P_CS7":"90","C12_POP15P_CS8":"38","TxCS6":"24.590164"}
,{"CODGEO":"37014","REG":"24","DEP":"37","LIBGEO":"Azay-le-Rideau","P12_POP":"3431","C12_POP15P":"2815","C12_POP15P_CS1":"12","C12_POP15P_CS2":"115","C12_POP15P_CS3":"214","C12_POP15P_CS4":"468","C12_POP15P_CS5":"426","C12_POP15P_CS6":"449","C12_POP15P_CS7":"769","C12_POP15P_CS8":"360","TxCS6":"15.950267"}
,{"CODGEO":"37015","REG":"24","DEP":"37","LIBGEO":"Azay-sur-Cher","P12_POP":"3023","C12_POP15P":"2439","C12_POP15P_CS1":"20","C12_POP15P_CS2":"104","C12_POP15P_CS3":"247","C12_POP15P_CS4":"558","C12_POP15P_CS5":"376","C12_POP15P_CS6":"252","C12_POP15P_CS7":"597","C12_POP15P_CS8":"286","TxCS6":"10.332103"}
,{"CODGEO":"37016","REG":"24","DEP":"37","LIBGEO":"Azay-sur-Indre","P12_POP":"389","C12_POP15P":"318","C12_POP15P_CS1":"8","C12_POP15P_CS2":"0","C12_POP15P_CS3":"33","C12_POP15P_CS4":"49","C12_POP15P_CS5":"53","C12_POP15P_CS6":"29","C12_POP15P_CS7":"114","C12_POP15P_CS8":"33","TxCS6":"9.119496"}
,{"CODGEO":"37018","REG":"24","DEP":"37","LIBGEO":"Ballan-Miré","P12_POP":"8043","C12_POP15P":"6620","C12_POP15P_CS1":"4","C12_POP15P_CS2":"220","C12_POP15P_CS3":"724","C12_POP15P_CS4":"1204","C12_POP15P_CS5":"1028","C12_POP15P_CS6":"644","C12_POP15P_CS7":"1972","C12_POP15P_CS8":"824","TxCS6":"9.728096"}
,{"CODGEO":"37019","REG":"24","DEP":"37","LIBGEO":"Barrou","P12_POP":"512","C12_POP15P":"409","C12_POP15P_CS1":"12","C12_POP15P_CS2":"16","C12_POP15P_CS3":"8","C12_POP15P_CS4":"16","C12_POP15P_CS5":"40","C12_POP15P_CS6":"57","C12_POP15P_CS7":"211","C12_POP15P_CS8":"49","TxCS6":"13.93643"}
,{"CODGEO":"37020","REG":"24","DEP":"37","LIBGEO":"Beaulieu-lès-Loches","P12_POP":"1787","C12_POP15P":"1468","C12_POP15P_CS1":"8","C12_POP15P_CS2":"60","C12_POP15P_CS3":"60","C12_POP15P_CS4":"236","C12_POP15P_CS5":"256","C12_POP15P_CS6":"164","C12_POP15P_CS7":"512","C12_POP15P_CS8":"172","TxCS6":"11.171662"}
,{"CODGEO":"37021","REG":"24","DEP":"37","LIBGEO":"Beaumont-la-Ronce","P12_POP":"1187","C12_POP15P":"936","C12_POP15P_CS1":"0","C12_POP15P_CS2":"52","C12_POP15P_CS3":"64","C12_POP15P_CS4":"140","C12_POP15P_CS5":"172","C12_POP15P_CS6":"156","C12_POP15P_CS7":"240","C12_POP15P_CS8":"112","TxCS6":"16.666668"}
,{"CODGEO":"37022","REG":"24","DEP":"37","LIBGEO":"Beaumont-en-Véron","P12_POP":"2753","C12_POP15P":"2282","C12_POP15P_CS1":"12","C12_POP15P_CS2":"51","C12_POP15P_CS3":"105","C12_POP15P_CS4":"484","C12_POP15P_CS5":"371","C12_POP15P_CS6":"291","C12_POP15P_CS7":"601","C12_POP15P_CS8":"366","TxCS6":"12.751972"}
,{"CODGEO":"37023","REG":"24","DEP":"37","LIBGEO":"Beaumont-Village","P12_POP":"273","C12_POP15P":"218","C12_POP15P_CS1":"8","C12_POP15P_CS2":"12","C12_POP15P_CS3":"12","C12_POP15P_CS4":"43","C12_POP15P_CS5":"16","C12_POP15P_CS6":"27","C12_POP15P_CS7":"90","C12_POP15P_CS8":"12","TxCS6":"12.385322"}
,{"CODGEO":"37024","REG":"24","DEP":"37","LIBGEO":"Benais","P12_POP":"963","C12_POP15P":"796","C12_POP15P_CS1":"20","C12_POP15P_CS2":"28","C12_POP15P_CS3":"53","C12_POP15P_CS4":"89","C12_POP15P_CS5":"101","C12_POP15P_CS6":"178","C12_POP15P_CS7":"238","C12_POP15P_CS8":"89","TxCS6":"22.361809"}
,{"CODGEO":"37025","REG":"24","DEP":"37","LIBGEO":"Berthenay","P12_POP":"739","C12_POP15P":"556","C12_POP15P_CS1":"4","C12_POP15P_CS2":"12","C12_POP15P_CS3":"48","C12_POP15P_CS4":"124","C12_POP15P_CS5":"100","C12_POP15P_CS6":"108","C12_POP15P_CS7":"100","C12_POP15P_CS8":"60","TxCS6":"19.424461"}
,{"CODGEO":"37026","REG":"24","DEP":"37","LIBGEO":"Betz-le-Château","P12_POP":"572","C12_POP15P":"491","C12_POP15P_CS1":"55","C12_POP15P_CS2":"16","C12_POP15P_CS3":"24","C12_POP15P_CS4":"51","C12_POP15P_CS5":"55","C12_POP15P_CS6":"75","C12_POP15P_CS7":"185","C12_POP15P_CS8":"31","TxCS6":"15.274949"}
,{"CODGEO":"37027","REG":"24","DEP":"37","LIBGEO":"Bléré","P12_POP":"5250","C12_POP15P":"4361","C12_POP15P_CS1":"53","C12_POP15P_CS2":"117","C12_POP15P_CS3":"185","C12_POP15P_CS4":"556","C12_POP15P_CS5":"753","C12_POP15P_CS6":"609","C12_POP15P_CS7":"1595","C12_POP15P_CS8":"493","TxCS6":"13.964687"}
,{"CODGEO":"37028","REG":"24","DEP":"37","LIBGEO":"Bossay-sur-Claise","P12_POP":"796","C12_POP15P":"669","C12_POP15P_CS1":"49","C12_POP15P_CS2":"33","C12_POP15P_CS3":"16","C12_POP15P_CS4":"20","C12_POP15P_CS5":"98","C12_POP15P_CS6":"90","C12_POP15P_CS7":"322","C12_POP15P_CS8":"41","TxCS6":"13.452914"}
,{"CODGEO":"37029","REG":"24","DEP":"37","LIBGEO":"Bossée","P12_POP":"336","C12_POP15P":"291","C12_POP15P_CS1":"25","C12_POP15P_CS2":"20","C12_POP15P_CS3":"43","C12_POP15P_CS4":"15","C12_POP15P_CS5":"30","C12_POP15P_CS6":"54","C12_POP15P_CS7":"70","C12_POP15P_CS8":"33","TxCS6":"18.5567"}
,{"CODGEO":"37030","REG":"24","DEP":"37","LIBGEO":"Le Boulay","P12_POP":"769","C12_POP15P":"607","C12_POP15P_CS1":"8","C12_POP15P_CS2":"27","C12_POP15P_CS3":"31","C12_POP15P_CS4":"123","C12_POP15P_CS5":"100","C12_POP15P_CS6":"123","C12_POP15P_CS7":"127","C12_POP15P_CS8":"70","TxCS6":"20.263592"}
,{"CODGEO":"37031","REG":"24","DEP":"37","LIBGEO":"Bourgueil","P12_POP":"3884","C12_POP15P":"3256","C12_POP15P_CS1":"52","C12_POP15P_CS2":"84","C12_POP15P_CS3":"188","C12_POP15P_CS4":"458","C12_POP15P_CS5":"369","C12_POP15P_CS6":"353","C12_POP15P_CS7":"1188","C12_POP15P_CS8":"564","TxCS6":"10.841523"}
,{"CODGEO":"37032","REG":"24","DEP":"37","LIBGEO":"Bournan","P12_POP":"270","C12_POP15P":"192","C12_POP15P_CS1":"15","C12_POP15P_CS2":"0","C12_POP15P_CS3":"0","C12_POP15P_CS4":"30","C12_POP15P_CS5":"30","C12_POP15P_CS6":"25","C12_POP15P_CS7":"74","C12_POP15P_CS8":"20","TxCS6":"13.020833"}
,{"CODGEO":"37033","REG":"24","DEP":"37","LIBGEO":"Boussay","P12_POP":"262","C12_POP15P":"220","C12_POP15P_CS1":"16","C12_POP15P_CS2":"20","C12_POP15P_CS3":"16","C12_POP15P_CS4":"16","C12_POP15P_CS5":"20","C12_POP15P_CS6":"12","C12_POP15P_CS7":"84","C12_POP15P_CS8":"36","TxCS6":"5.4545455"}
,{"CODGEO":"37034","REG":"24","DEP":"37","LIBGEO":"Braslou","P12_POP":"302","C12_POP15P":"258","C12_POP15P_CS1":"12","C12_POP15P_CS2":"8","C12_POP15P_CS3":"8","C12_POP15P_CS4":"28","C12_POP15P_CS5":"24","C12_POP15P_CS6":"64","C12_POP15P_CS7":"83","C12_POP15P_CS8":"32","TxCS6":"24.806202"}
,{"CODGEO":"37035","REG":"24","DEP":"37","LIBGEO":"Braye-sous-Faye","P12_POP":"328","C12_POP15P":"279","C12_POP15P_CS1":"20","C12_POP15P_CS2":"8","C12_POP15P_CS3":"0","C12_POP15P_CS4":"12","C12_POP15P_CS5":"44","C12_POP15P_CS6":"64","C12_POP15P_CS7":"96","C12_POP15P_CS8":"36","TxCS6":"22.939068"}
,{"CODGEO":"37036","REG":"24","DEP":"37","LIBGEO":"Braye-sur-Maulne","P12_POP":"216","C12_POP15P":"188","C12_POP15P_CS1":"20","C12_POP15P_CS2":"4","C12_POP15P_CS3":"0","C12_POP15P_CS4":"12","C12_POP15P_CS5":"16","C12_POP15P_CS6":"24","C12_POP15P_CS7":"56","C12_POP15P_CS8":"56","TxCS6":"12.765958"}
,{"CODGEO":"37037","REG":"24","DEP":"37","LIBGEO":"Brèches","P12_POP":"293","C12_POP15P":"232","C12_POP15P_CS1":"12","C12_POP15P_CS2":"4","C12_POP15P_CS3":"8","C12_POP15P_CS4":"39","C12_POP15P_CS5":"24","C12_POP15P_CS6":"71","C12_POP15P_CS7":"55","C12_POP15P_CS8":"20","TxCS6":"30.603447"}
,{"CODGEO":"37038","REG":"24","DEP":"37","LIBGEO":"Bréhémont","P12_POP":"785","C12_POP15P":"675","C12_POP15P_CS1":"5","C12_POP15P_CS2":"25","C12_POP15P_CS3":"66","C12_POP15P_CS4":"91","C12_POP15P_CS5":"101","C12_POP15P_CS6":"96","C12_POP15P_CS7":"212","C12_POP15P_CS8":"81","TxCS6":"14.222222"}
,{"CODGEO":"37039","REG":"24","DEP":"37","LIBGEO":"Bridoré","P12_POP":"538","C12_POP15P":"437","C12_POP15P_CS1":"31","C12_POP15P_CS2":"12","C12_POP15P_CS3":"4","C12_POP15P_CS4":"23","C12_POP15P_CS5":"70","C12_POP15P_CS6":"78","C12_POP15P_CS7":"163","C12_POP15P_CS8":"55","TxCS6":"17.84897"}
,{"CODGEO":"37040","REG":"24","DEP":"37","LIBGEO":"Brizay","P12_POP":"328","C12_POP15P":"271","C12_POP15P_CS1":"5","C12_POP15P_CS2":"5","C12_POP15P_CS3":"5","C12_POP15P_CS4":"38","C12_POP15P_CS5":"53","C12_POP15P_CS6":"60","C12_POP15P_CS7":"65","C12_POP15P_CS8":"38","TxCS6":"22.14022"}
,{"CODGEO":"37041","REG":"24","DEP":"37","LIBGEO":"Bueil-en-Touraine","P12_POP":"324","C12_POP15P":"249","C12_POP15P_CS1":"24","C12_POP15P_CS2":"8","C12_POP15P_CS3":"0","C12_POP15P_CS4":"32","C12_POP15P_CS5":"44","C12_POP15P_CS6":"24","C12_POP15P_CS7":"68","C12_POP15P_CS8":"48","TxCS6":"9.638554"}
,{"CODGEO":"37042","REG":"24","DEP":"37","LIBGEO":"Candes-Saint-Martin","P12_POP":"226","C12_POP15P":"189","C12_POP15P_CS1":"4","C12_POP15P_CS2":"24","C12_POP15P_CS3":"12","C12_POP15P_CS4":"20","C12_POP15P_CS5":"24","C12_POP15P_CS6":"32","C12_POP15P_CS7":"47","C12_POP15P_CS8":"28","TxCS6":"16.931217"}
,{"CODGEO":"37043","REG":"24","DEP":"37","LIBGEO":"Cangey","P12_POP":"1084","C12_POP15P":"890","C12_POP15P_CS1":"5","C12_POP15P_CS2":"25","C12_POP15P_CS3":"50","C12_POP15P_CS4":"166","C12_POP15P_CS5":"141","C12_POP15P_CS6":"150","C12_POP15P_CS7":"242","C12_POP15P_CS8":"110","TxCS6":"16.853933"}
,{"CODGEO":"37044","REG":"24","DEP":"37","LIBGEO":"La Celle-Guenand","P12_POP":"387","C12_POP15P":"366","C12_POP15P_CS1":"31","C12_POP15P_CS2":"0","C12_POP15P_CS3":"0","C12_POP15P_CS4":"10","C12_POP15P_CS5":"36","C12_POP15P_CS6":"77","C12_POP15P_CS7":"182","C12_POP15P_CS8":"30","TxCS6":"21.03825"}
,{"CODGEO":"37045","REG":"24","DEP":"37","LIBGEO":"La Celle-Saint-Avant","P12_POP":"1029","C12_POP15P":"860","C12_POP15P_CS1":"8","C12_POP15P_CS2":"28","C12_POP15P_CS3":"16","C12_POP15P_CS4":"95","C12_POP15P_CS5":"171","C12_POP15P_CS6":"174","C12_POP15P_CS7":"266","C12_POP15P_CS8":"103","TxCS6":"20.23256"}
,{"CODGEO":"37046","REG":"24","DEP":"37","LIBGEO":"Céré-la-Ronde","P12_POP":"454","C12_POP15P":"379","C12_POP15P_CS1":"20","C12_POP15P_CS2":"4","C12_POP15P_CS3":"16","C12_POP15P_CS4":"57","C12_POP15P_CS5":"65","C12_POP15P_CS6":"45","C12_POP15P_CS7":"134","C12_POP15P_CS8":"37","TxCS6":"11.873351"}
,{"CODGEO":"37047","REG":"24","DEP":"37","LIBGEO":"Cerelles","P12_POP":"1222","C12_POP15P":"926","C12_POP15P_CS1":"10","C12_POP15P_CS2":"15","C12_POP15P_CS3":"102","C12_POP15P_CS4":"218","C12_POP15P_CS5":"162","C12_POP15P_CS6":"116","C12_POP15P_CS7":"212","C12_POP15P_CS8":"91","TxCS6":"12.526998"}
,{"CODGEO":"37048","REG":"24","DEP":"37","LIBGEO":"Chambon","P12_POP":"318","C12_POP15P":"288","C12_POP15P_CS1":"4","C12_POP15P_CS2":"12","C12_POP15P_CS3":"12","C12_POP15P_CS4":"19","C12_POP15P_CS5":"35","C12_POP15P_CS6":"47","C12_POP15P_CS7":"128","C12_POP15P_CS8":"31","TxCS6":"16.319445"}
,{"CODGEO":"37049","REG":"24","DEP":"37","LIBGEO":"Chambourg-sur-Indre","P12_POP":"1344","C12_POP15P":"1081","C12_POP15P_CS1":"12","C12_POP15P_CS2":"35","C12_POP15P_CS3":"59","C12_POP15P_CS4":"145","C12_POP15P_CS5":"231","C12_POP15P_CS6":"164","C12_POP15P_CS7":"329","C12_POP15P_CS8":"106","TxCS6":"15.171138"}
,{"CODGEO":"37050","REG":"24","DEP":"37","LIBGEO":"Chambray-lès-Tours","P12_POP":"10779","C12_POP15P":"9202","C12_POP15P_CS1":"16","C12_POP15P_CS2":"192","C12_POP15P_CS3":"785","C12_POP15P_CS4":"1588","C12_POP15P_CS5":"1627","C12_POP15P_CS6":"891","C12_POP15P_CS7":"2744","C12_POP15P_CS8":"1359","TxCS6":"9.682677"}
,{"CODGEO":"37051","REG":"24","DEP":"37","LIBGEO":"Champigny-sur-Veude","P12_POP":"859","C12_POP15P":"695","C12_POP15P_CS1":"12","C12_POP15P_CS2":"24","C12_POP15P_CS3":"16","C12_POP15P_CS4":"79","C12_POP15P_CS5":"119","C12_POP15P_CS6":"107","C12_POP15P_CS7":"266","C12_POP15P_CS8":"72","TxCS6":"15.395683"}
,{"CODGEO":"37052","REG":"24","DEP":"37","LIBGEO":"Chançay","P12_POP":"1126","C12_POP15P":"868","C12_POP15P_CS1":"48","C12_POP15P_CS2":"20","C12_POP15P_CS3":"24","C12_POP15P_CS4":"170","C12_POP15P_CS5":"210","C12_POP15P_CS6":"133","C12_POP15P_CS7":"210","C12_POP15P_CS8":"52","TxCS6":"15.322581"}
,{"CODGEO":"37053","REG":"24","DEP":"37","LIBGEO":"Chanceaux-près-Loches","P12_POP":"143","C12_POP15P":"116","C12_POP15P_CS1":"0","C12_POP15P_CS2":"5","C12_POP15P_CS3":"15","C12_POP15P_CS4":"10","C12_POP15P_CS5":"30","C12_POP15P_CS6":"0","C12_POP15P_CS7":"50","C12_POP15P_CS8":"5","TxCS6":"0.0"}
,{"CODGEO":"37054","REG":"24","DEP":"37","LIBGEO":"Chanceaux-sur-Choisille","P12_POP":"3539","C12_POP15P":"2832","C12_POP15P_CS1":"0","C12_POP15P_CS2":"72","C12_POP15P_CS3":"248","C12_POP15P_CS4":"572","C12_POP15P_CS5":"556","C12_POP15P_CS6":"424","C12_POP15P_CS7":"604","C12_POP15P_CS8":"356","TxCS6":"14.971751"}
,{"CODGEO":"37055","REG":"24","DEP":"37","LIBGEO":"Channay-sur-Lathan","P12_POP":"832","C12_POP15P":"631","C12_POP15P_CS1":"12","C12_POP15P_CS2":"24","C12_POP15P_CS3":"37","C12_POP15P_CS4":"61","C12_POP15P_CS5":"86","C12_POP15P_CS6":"139","C12_POP15P_CS7":"179","C12_POP15P_CS8":"94","TxCS6":"22.028526"}
,{"CODGEO":"37056","REG":"24","DEP":"37","LIBGEO":"La Chapelle-aux-Naux","P12_POP":"568","C12_POP15P":"464","C12_POP15P_CS1":"4","C12_POP15P_CS2":"20","C12_POP15P_CS3":"16","C12_POP15P_CS4":"99","C12_POP15P_CS5":"91","C12_POP15P_CS6":"59","C12_POP15P_CS7":"107","C12_POP15P_CS8":"67","TxCS6":"12.715517"}
,{"CODGEO":"37057","REG":"24","DEP":"37","LIBGEO":"La Chapelle-Blanche-Saint-Martin","P12_POP":"683","C12_POP15P":"522","C12_POP15P_CS1":"30","C12_POP15P_CS2":"20","C12_POP15P_CS3":"25","C12_POP15P_CS4":"45","C12_POP15P_CS5":"65","C12_POP15P_CS6":"109","C12_POP15P_CS7":"174","C12_POP15P_CS8":"55","TxCS6":"20.881227"}
,{"CODGEO":"37058","REG":"24","DEP":"37","LIBGEO":"La Chapelle-sur-Loire","P12_POP":"1497","C12_POP15P":"1210","C12_POP15P_CS1":"0","C12_POP15P_CS2":"36","C12_POP15P_CS3":"41","C12_POP15P_CS4":"181","C12_POP15P_CS5":"165","C12_POP15P_CS6":"237","C12_POP15P_CS7":"380","C12_POP15P_CS8":"169","TxCS6":"19.586777"}
,{"CODGEO":"37059","REG":"24","DEP":"37","LIBGEO":"Charentilly","P12_POP":"1170","C12_POP15P":"935","C12_POP15P_CS1":"9","C12_POP15P_CS2":"70","C12_POP15P_CS3":"83","C12_POP15P_CS4":"184","C12_POP15P_CS5":"153","C12_POP15P_CS6":"108","C12_POP15P_CS7":"195","C12_POP15P_CS8":"132","TxCS6":"11.550802"}
,{"CODGEO":"37060","REG":"24","DEP":"37","LIBGEO":"Chargé","P12_POP":"1226","C12_POP15P":"935","C12_POP15P_CS1":"5","C12_POP15P_CS2":"53","C12_POP15P_CS3":"67","C12_POP15P_CS4":"134","C12_POP15P_CS5":"134","C12_POP15P_CS6":"153","C12_POP15P_CS7":"307","C12_POP15P_CS8":"82","TxCS6":"16.363636"}
,{"CODGEO":"37061","REG":"24","DEP":"37","LIBGEO":"Charnizay","P12_POP":"512","C12_POP15P":"419","C12_POP15P_CS1":"53","C12_POP15P_CS2":"20","C12_POP15P_CS3":"16","C12_POP15P_CS4":"41","C12_POP15P_CS5":"41","C12_POP15P_CS6":"41","C12_POP15P_CS7":"163","C12_POP15P_CS8":"45","TxCS6":"9.785203"}
,{"CODGEO":"37062","REG":"24","DEP":"37","LIBGEO":"Château-la-Vallière","P12_POP":"1674","C12_POP15P":"1404","C12_POP15P_CS1":"16","C12_POP15P_CS2":"66","C12_POP15P_CS3":"45","C12_POP15P_CS4":"132","C12_POP15P_CS5":"234","C12_POP15P_CS6":"193","C12_POP15P_CS7":"602","C12_POP15P_CS8":"115","TxCS6":"13.746439"}
,{"CODGEO":"37063","REG":"24","DEP":"37","LIBGEO":"Château-Renault","P12_POP":"5060","C12_POP15P":"4216","C12_POP15P_CS1":"12","C12_POP15P_CS2":"100","C12_POP15P_CS3":"80","C12_POP15P_CS4":"396","C12_POP15P_CS5":"740","C12_POP15P_CS6":"872","C12_POP15P_CS7":"1420","C12_POP15P_CS8":"596","TxCS6":"20.683111"}
,{"CODGEO":"37064","REG":"24","DEP":"37","LIBGEO":"Chaumussay","P12_POP":"246","C12_POP15P":"172","C12_POP15P_CS1":"8","C12_POP15P_CS2":"12","C12_POP15P_CS3":"20","C12_POP15P_CS4":"16","C12_POP15P_CS5":"20","C12_POP15P_CS6":"12","C12_POP15P_CS7":"52","C12_POP15P_CS8":"32","TxCS6":"6.9767447"}
,{"CODGEO":"37065","REG":"24","DEP":"37","LIBGEO":"Chaveignes","P12_POP":"570","C12_POP15P":"480","C12_POP15P_CS1":"15","C12_POP15P_CS2":"10","C12_POP15P_CS3":"10","C12_POP15P_CS4":"41","C12_POP15P_CS5":"77","C12_POP15P_CS6":"61","C12_POP15P_CS7":"230","C12_POP15P_CS8":"36","TxCS6":"12.708333"}
,{"CODGEO":"37066","REG":"24","DEP":"37","LIBGEO":"Chédigny","P12_POP":"561","C12_POP15P":"452","C12_POP15P_CS1":"24","C12_POP15P_CS2":"20","C12_POP15P_CS3":"20","C12_POP15P_CS4":"88","C12_POP15P_CS5":"76","C12_POP15P_CS6":"80","C12_POP15P_CS7":"120","C12_POP15P_CS8":"24","TxCS6":"17.699116"}
,{"CODGEO":"37067","REG":"24","DEP":"37","LIBGEO":"Cheillé","P12_POP":"1727","C12_POP15P":"1343","C12_POP15P_CS1":"16","C12_POP15P_CS2":"31","C12_POP15P_CS3":"110","C12_POP15P_CS4":"291","C12_POP15P_CS5":"247","C12_POP15P_CS6":"204","C12_POP15P_CS7":"338","C12_POP15P_CS8":"106","TxCS6":"15.189873"}
,{"CODGEO":"37068","REG":"24","DEP":"37","LIBGEO":"Chemillé-sur-Dême","P12_POP":"691","C12_POP15P":"561","C12_POP15P_CS1":"20","C12_POP15P_CS2":"12","C12_POP15P_CS3":"48","C12_POP15P_CS4":"93","C12_POP15P_CS5":"121","C12_POP15P_CS6":"48","C12_POP15P_CS7":"169","C12_POP15P_CS8":"48","TxCS6":"8.5561495"}
,{"CODGEO":"37069","REG":"24","DEP":"37","LIBGEO":"Chemillé-sur-Indrois","P12_POP":"217","C12_POP15P":"185","C12_POP15P_CS1":"12","C12_POP15P_CS2":"12","C12_POP15P_CS3":"12","C12_POP15P_CS4":"9","C12_POP15P_CS5":"33","C12_POP15P_CS6":"20","C12_POP15P_CS7":"70","C12_POP15P_CS8":"16","TxCS6":"10.810811"}
,{"CODGEO":"37070","REG":"24","DEP":"37","LIBGEO":"Chenonceaux","P12_POP":"360","C12_POP15P":"302","C12_POP15P_CS1":"0","C12_POP15P_CS2":"12","C12_POP15P_CS3":"12","C12_POP15P_CS4":"20","C12_POP15P_CS5":"68","C12_POP15P_CS6":"64","C12_POP15P_CS7":"97","C12_POP15P_CS8":"28","TxCS6":"21.192053"}
,{"CODGEO":"37071","REG":"24","DEP":"37","LIBGEO":"Chezelles","P12_POP":"132","C12_POP15P":"110","C12_POP15P_CS1":"12","C12_POP15P_CS2":"4","C12_POP15P_CS3":"0","C12_POP15P_CS4":"16","C12_POP15P_CS5":"16","C12_POP15P_CS6":"8","C12_POP15P_CS7":"39","C12_POP15P_CS8":"16","TxCS6":"7.272727"}
,{"CODGEO":"37072","REG":"24","DEP":"37","LIBGEO":"Chinon","P12_POP":"7928","C12_POP15P":"6870","C12_POP15P_CS1":"8","C12_POP15P_CS2":"240","C12_POP15P_CS3":"383","C12_POP15P_CS4":"834","C12_POP15P_CS5":"1056","C12_POP15P_CS6":"785","C12_POP15P_CS7":"2551","C12_POP15P_CS8":"1013","TxCS6":"11.426492"}
,{"CODGEO":"37073","REG":"24","DEP":"37","LIBGEO":"Chisseaux","P12_POP":"630","C12_POP15P":"520","C12_POP15P_CS1":"8","C12_POP15P_CS2":"36","C12_POP15P_CS3":"16","C12_POP15P_CS4":"72","C12_POP15P_CS5":"72","C12_POP15P_CS6":"40","C12_POP15P_CS7":"184","C12_POP15P_CS8":"92","TxCS6":"7.692308"}
,{"CODGEO":"37074","REG":"24","DEP":"37","LIBGEO":"Chouzé-sur-Loire","P12_POP":"2095","C12_POP15P":"1735","C12_POP15P_CS1":"56","C12_POP15P_CS2":"56","C12_POP15P_CS3":"52","C12_POP15P_CS4":"129","C12_POP15P_CS5":"238","C12_POP15P_CS6":"342","C12_POP15P_CS7":"596","C12_POP15P_CS8":"266","TxCS6":"19.711815"}
,{"CODGEO":"37075","REG":"24","DEP":"37","LIBGEO":"Cigogné","P12_POP":"373","C12_POP15P":"280","C12_POP15P_CS1":"4","C12_POP15P_CS2":"4","C12_POP15P_CS3":"16","C12_POP15P_CS4":"52","C12_POP15P_CS5":"52","C12_POP15P_CS6":"48","C12_POP15P_CS7":"72","C12_POP15P_CS8":"32","TxCS6":"17.142859"}
,{"CODGEO":"37076","REG":"24","DEP":"37","LIBGEO":"Cinais","P12_POP":"444","C12_POP15P":"354","C12_POP15P_CS1":"4","C12_POP15P_CS2":"32","C12_POP15P_CS3":"28","C12_POP15P_CS4":"52","C12_POP15P_CS5":"40","C12_POP15P_CS6":"44","C12_POP15P_CS7":"115","C12_POP15P_CS8":"40","TxCS6":"12.4293785"}
,{"CODGEO":"37077","REG":"24","DEP":"37","LIBGEO":"Cinq-Mars-la-Pile","P12_POP":"3404","C12_POP15P":"2616","C12_POP15P_CS1":"0","C12_POP15P_CS2":"87","C12_POP15P_CS3":"158","C12_POP15P_CS4":"418","C12_POP15P_CS5":"579","C12_POP15P_CS6":"433","C12_POP15P_CS7":"659","C12_POP15P_CS8":"282","TxCS6":"16.551989"}
,{"CODGEO":"37078","REG":"24","DEP":"37","LIBGEO":"Ciran","P12_POP":"440","C12_POP15P":"390","C12_POP15P_CS1":"16","C12_POP15P_CS2":"24","C12_POP15P_CS3":"16","C12_POP15P_CS4":"52","C12_POP15P_CS5":"72","C12_POP15P_CS6":"88","C12_POP15P_CS7":"84","C12_POP15P_CS8":"40","TxCS6":"22.564102"}
,{"CODGEO":"37079","REG":"24","DEP":"37","LIBGEO":"Civray-de-Touraine","P12_POP":"1827","C12_POP15P":"1453","C12_POP15P_CS1":"44","C12_POP15P_CS2":"72","C12_POP15P_CS3":"129","C12_POP15P_CS4":"230","C12_POP15P_CS5":"278","C12_POP15P_CS6":"185","C12_POP15P_CS7":"350","C12_POP15P_CS8":"165","TxCS6":"12.732278"}
,{"CODGEO":"37080","REG":"24","DEP":"37","LIBGEO":"Civray-sur-Esves","P12_POP":"217","C12_POP15P":"169","C12_POP15P_CS1":"0","C12_POP15P_CS2":"4","C12_POP15P_CS3":"16","C12_POP15P_CS4":"39","C12_POP15P_CS5":"27","C12_POP15P_CS6":"39","C12_POP15P_CS7":"35","C12_POP15P_CS8":"8","TxCS6":"23.076923"}
,{"CODGEO":"37081","REG":"24","DEP":"37","LIBGEO":"Cléré-les-Pins","P12_POP":"1380","C12_POP15P":"1064","C12_POP15P_CS1":"10","C12_POP15P_CS2":"63","C12_POP15P_CS3":"53","C12_POP15P_CS4":"165","C12_POP15P_CS5":"264","C12_POP15P_CS6":"213","C12_POP15P_CS7":"160","C12_POP15P_CS8":"136","TxCS6":"20.018797"}
,{"CODGEO":"37082","REG":"24","DEP":"37","LIBGEO":"Continvoir","P12_POP":"465","C12_POP15P":"394","C12_POP15P_CS1":"4","C12_POP15P_CS2":"8","C12_POP15P_CS3":"8","C12_POP15P_CS4":"24","C12_POP15P_CS5":"44","C12_POP15P_CS6":"88","C12_POP15P_CS7":"155","C12_POP15P_CS8":"64","TxCS6":"22.335026"}
,{"CODGEO":"37083","REG":"24","DEP":"37","LIBGEO":"Cormery","P12_POP":"1706","C12_POP15P":"1379","C12_POP15P_CS1":"0","C12_POP15P_CS2":"59","C12_POP15P_CS3":"106","C12_POP15P_CS4":"232","C12_POP15P_CS5":"244","C12_POP15P_CS6":"149","C12_POP15P_CS7":"400","C12_POP15P_CS8":"189","TxCS6":"10.804931"}
,{"CODGEO":"37084","REG":"24","DEP":"37","LIBGEO":"Couesmes","P12_POP":"529","C12_POP15P":"454","C12_POP15P_CS1":"15","C12_POP15P_CS2":"40","C12_POP15P_CS3":"10","C12_POP15P_CS4":"49","C12_POP15P_CS5":"75","C12_POP15P_CS6":"80","C12_POP15P_CS7":"90","C12_POP15P_CS8":"94","TxCS6":"17.621145"}
,{"CODGEO":"37085","REG":"24","DEP":"37","LIBGEO":"Courçay","P12_POP":"847","C12_POP15P":"674","C12_POP15P_CS1":"16","C12_POP15P_CS2":"24","C12_POP15P_CS3":"45","C12_POP15P_CS4":"138","C12_POP15P_CS5":"138","C12_POP15P_CS6":"85","C12_POP15P_CS7":"150","C12_POP15P_CS8":"77","TxCS6":"12.611276"}
,{"CODGEO":"37086","REG":"24","DEP":"37","LIBGEO":"Courcelles-de-Touraine","P12_POP":"511","C12_POP15P":"358","C12_POP15P_CS1":"0","C12_POP15P_CS2":"16","C12_POP15P_CS3":"24","C12_POP15P_CS4":"41","C12_POP15P_CS5":"118","C12_POP15P_CS6":"41","C12_POP15P_CS7":"94","C12_POP15P_CS8":"24","TxCS6":"11.452514"}
,{"CODGEO":"37087","REG":"24","DEP":"37","LIBGEO":"Courcoué","P12_POP":"263","C12_POP15P":"212","C12_POP15P_CS1":"0","C12_POP15P_CS2":"12","C12_POP15P_CS3":"4","C12_POP15P_CS4":"20","C12_POP15P_CS5":"28","C12_POP15P_CS6":"36","C12_POP15P_CS7":"80","C12_POP15P_CS8":"32","TxCS6":"16.981133"}
,{"CODGEO":"37088","REG":"24","DEP":"37","LIBGEO":"Couziers","P12_POP":"123","C12_POP15P":"108","C12_POP15P_CS1":"12","C12_POP15P_CS2":"0","C12_POP15P_CS3":"0","C12_POP15P_CS4":"16","C12_POP15P_CS5":"20","C12_POP15P_CS6":"20","C12_POP15P_CS7":"32","C12_POP15P_CS8":"8","TxCS6":"18.518518"}
,{"CODGEO":"37089","REG":"24","DEP":"37","LIBGEO":"Cravant-les-Côteaux","P12_POP":"730","C12_POP15P":"624","C12_POP15P_CS1":"48","C12_POP15P_CS2":"16","C12_POP15P_CS3":"12","C12_POP15P_CS4":"100","C12_POP15P_CS5":"92","C12_POP15P_CS6":"84","C12_POP15P_CS7":"220","C12_POP15P_CS8":"52","TxCS6":"13.461539"}
,{"CODGEO":"37090","REG":"24","DEP":"37","LIBGEO":"Crissay-sur-Manse","P12_POP":"114","C12_POP15P":"102","C12_POP15P_CS1":"23","C12_POP15P_CS2":"11","C12_POP15P_CS3":"11","C12_POP15P_CS4":"6","C12_POP15P_CS5":"6","C12_POP15P_CS6":"6","C12_POP15P_CS7":"28","C12_POP15P_CS8":"11","TxCS6":"5.882353"}
,{"CODGEO":"37091","REG":"24","DEP":"37","LIBGEO":"La Croix-en-Touraine","P12_POP":"2175","C12_POP15P":"1792","C12_POP15P_CS1":"0","C12_POP15P_CS2":"52","C12_POP15P_CS3":"161","C12_POP15P_CS4":"250","C12_POP15P_CS5":"319","C12_POP15P_CS6":"278","C12_POP15P_CS7":"561","C12_POP15P_CS8":"170","TxCS6":"15.513393"}
,{"CODGEO":"37092","REG":"24","DEP":"37","LIBGEO":"Crotelles","P12_POP":"644","C12_POP15P":"499","C12_POP15P_CS1":"8","C12_POP15P_CS2":"32","C12_POP15P_CS3":"24","C12_POP15P_CS4":"101","C12_POP15P_CS5":"68","C12_POP15P_CS6":"101","C12_POP15P_CS7":"117","C12_POP15P_CS8":"48","TxCS6":"20.24048"}
,{"CODGEO":"37093","REG":"24","DEP":"37","LIBGEO":"Crouzilles","P12_POP":"564","C12_POP15P":"469","C12_POP15P_CS1":"20","C12_POP15P_CS2":"12","C12_POP15P_CS3":"8","C12_POP15P_CS4":"48","C12_POP15P_CS5":"68","C12_POP15P_CS6":"96","C12_POP15P_CS7":"168","C12_POP15P_CS8":"48","TxCS6":"20.469084"}
,{"CODGEO":"37094","REG":"24","DEP":"37","LIBGEO":"Cussay","P12_POP":"580","C12_POP15P":"465","C12_POP15P_CS1":"28","C12_POP15P_CS2":"28","C12_POP15P_CS3":"24","C12_POP15P_CS4":"35","C12_POP15P_CS5":"95","C12_POP15P_CS6":"71","C12_POP15P_CS7":"138","C12_POP15P_CS8":"47","TxCS6":"15.268818"}
,{"CODGEO":"37095","REG":"24","DEP":"37","LIBGEO":"Dame-Marie-les-Bois","P12_POP":"322","C12_POP15P":"262","C12_POP15P_CS1":"0","C12_POP15P_CS2":"0","C12_POP15P_CS3":"28","C12_POP15P_CS4":"56","C12_POP15P_CS5":"14","C12_POP15P_CS6":"56","C12_POP15P_CS7":"64","C12_POP15P_CS8":"42","TxCS6":"21.374044"}
,{"CODGEO":"37096","REG":"24","DEP":"37","LIBGEO":"Dierre","P12_POP":"576","C12_POP15P":"442","C12_POP15P_CS1":"12","C12_POP15P_CS2":"20","C12_POP15P_CS3":"24","C12_POP15P_CS4":"60","C12_POP15P_CS5":"88","C12_POP15P_CS6":"96","C12_POP15P_CS7":"108","C12_POP15P_CS8":"36","TxCS6":"21.719458"}
,{"CODGEO":"37097","REG":"24","DEP":"37","LIBGEO":"Dolus-le-Sec","P12_POP":"675","C12_POP15P":"512","C12_POP15P_CS1":"16","C12_POP15P_CS2":"40","C12_POP15P_CS3":"32","C12_POP15P_CS4":"112","C12_POP15P_CS5":"64","C12_POP15P_CS6":"76","C12_POP15P_CS7":"92","C12_POP15P_CS8":"80","TxCS6":"14.84375"}
,{"CODGEO":"37098","REG":"24","DEP":"37","LIBGEO":"Draché","P12_POP":"719","C12_POP15P":"557","C12_POP15P_CS1":"12","C12_POP15P_CS2":"44","C12_POP15P_CS3":"56","C12_POP15P_CS4":"76","C12_POP15P_CS5":"88","C12_POP15P_CS6":"92","C12_POP15P_CS7":"156","C12_POP15P_CS8":"32","TxCS6":"16.517056"}
,{"CODGEO":"37099","REG":"24","DEP":"37","LIBGEO":"Druye","P12_POP":"948","C12_POP15P":"704","C12_POP15P_CS1":"4","C12_POP15P_CS2":"31","C12_POP15P_CS3":"54","C12_POP15P_CS4":"144","C12_POP15P_CS5":"120","C12_POP15P_CS6":"74","C12_POP15P_CS7":"226","C12_POP15P_CS8":"51","TxCS6":"10.511363"}
,{"CODGEO":"37100","REG":"24","DEP":"37","LIBGEO":"Épeigné-les-Bois","P12_POP":"436","C12_POP15P":"322","C12_POP15P_CS1":"12","C12_POP15P_CS2":"12","C12_POP15P_CS3":"12","C12_POP15P_CS4":"56","C12_POP15P_CS5":"44","C12_POP15P_CS6":"36","C12_POP15P_CS7":"122","C12_POP15P_CS8":"28","TxCS6":"11.180124"}
,{"CODGEO":"37101","REG":"24","DEP":"37","LIBGEO":"Épeigné-sur-Dême","P12_POP":"166","C12_POP15P":"124","C12_POP15P_CS1":"16","C12_POP15P_CS2":"4","C12_POP15P_CS3":"4","C12_POP15P_CS4":"20","C12_POP15P_CS5":"16","C12_POP15P_CS6":"28","C12_POP15P_CS7":"24","C12_POP15P_CS8":"12","TxCS6":"22.580645"}
,{"CODGEO":"37102","REG":"24","DEP":"37","LIBGEO":"Les Essards","P12_POP":"152","C12_POP15P":"114","C12_POP15P_CS1":"0","C12_POP15P_CS2":"0","C12_POP15P_CS3":"12","C12_POP15P_CS4":"4","C12_POP15P_CS5":"20","C12_POP15P_CS6":"28","C12_POP15P_CS7":"24","C12_POP15P_CS8":"28","TxCS6":"24.561403"}
,{"CODGEO":"37103","REG":"24","DEP":"37","LIBGEO":"Esves-le-Moutier","P12_POP":"156","C12_POP15P":"132","C12_POP15P_CS1":"4","C12_POP15P_CS2":"8","C12_POP15P_CS3":"0","C12_POP15P_CS4":"8","C12_POP15P_CS5":"20","C12_POP15P_CS6":"16","C12_POP15P_CS7":"64","C12_POP15P_CS8":"12","TxCS6":"12.121212"}
,{"CODGEO":"37104","REG":"24","DEP":"37","LIBGEO":"Esvres","P12_POP":"4922","C12_POP15P":"4021","C12_POP15P_CS1":"31","C12_POP15P_CS2":"182","C12_POP15P_CS3":"370","C12_POP15P_CS4":"810","C12_POP15P_CS5":"615","C12_POP15P_CS6":"470","C12_POP15P_CS7":"1081","C12_POP15P_CS8":"461","TxCS6":"11.688635"}
,{"CODGEO":"37105","REG":"24","DEP":"37","LIBGEO":"Faye-la-Vineuse","P12_POP":"286","C12_POP15P":"224","C12_POP15P_CS1":"20","C12_POP15P_CS2":"8","C12_POP15P_CS3":"12","C12_POP15P_CS4":"24","C12_POP15P_CS5":"24","C12_POP15P_CS6":"24","C12_POP15P_CS7":"92","C12_POP15P_CS8":"20","TxCS6":"10.714286"}
,{"CODGEO":"37106","REG":"24","DEP":"37","LIBGEO":"La Ferrière","P12_POP":"296","C12_POP15P":"228","C12_POP15P_CS1":"0","C12_POP15P_CS2":"16","C12_POP15P_CS3":"12","C12_POP15P_CS4":"52","C12_POP15P_CS5":"40","C12_POP15P_CS6":"36","C12_POP15P_CS7":"56","C12_POP15P_CS8":"16","TxCS6":"15.789473"}
,{"CODGEO":"37107","REG":"24","DEP":"37","LIBGEO":"Ferrière-Larçon","P12_POP":"261","C12_POP15P":"232","C12_POP15P_CS1":"16","C12_POP15P_CS2":"4","C12_POP15P_CS3":"8","C12_POP15P_CS4":"20","C12_POP15P_CS5":"40","C12_POP15P_CS6":"32","C12_POP15P_CS7":"92","C12_POP15P_CS8":"20","TxCS6":"13.793103"}
,{"CODGEO":"37108","REG":"24","DEP":"37","LIBGEO":"Ferrière-sur-Beaulieu","P12_POP":"741","C12_POP15P":"581","C12_POP15P_CS1":"4","C12_POP15P_CS2":"8","C12_POP15P_CS3":"20","C12_POP15P_CS4":"77","C12_POP15P_CS5":"133","C12_POP15P_CS6":"97","C12_POP15P_CS7":"202","C12_POP15P_CS8":"40","TxCS6":"16.695353"}
,{"CODGEO":"37109","REG":"24","DEP":"37","LIBGEO":"Fondettes","P12_POP":"10235","C12_POP15P":"8314","C12_POP15P_CS1":"10","C12_POP15P_CS2":"273","C12_POP15P_CS3":"1102","C12_POP15P_CS4":"1353","C12_POP15P_CS5":"1109","C12_POP15P_CS6":"645","C12_POP15P_CS7":"2556","C12_POP15P_CS8":"1267","TxCS6":"7.7579985"}
,{"CODGEO":"37110","REG":"24","DEP":"37","LIBGEO":"Francueil","P12_POP":"1311","C12_POP15P":"1015","C12_POP15P_CS1":"12","C12_POP15P_CS2":"53","C12_POP15P_CS3":"73","C12_POP15P_CS4":"154","C12_POP15P_CS5":"158","C12_POP15P_CS6":"166","C12_POP15P_CS7":"327","C12_POP15P_CS8":"73","TxCS6":"16.35468"}
,{"CODGEO":"37111","REG":"24","DEP":"37","LIBGEO":"Genillé","P12_POP":"1624","C12_POP15P":"1330","C12_POP15P_CS1":"33","C12_POP15P_CS2":"57","C12_POP15P_CS3":"49","C12_POP15P_CS4":"148","C12_POP15P_CS5":"209","C12_POP15P_CS6":"185","C12_POP15P_CS7":"480","C12_POP15P_CS8":"168","TxCS6":"13.909775"}
,{"CODGEO":"37112","REG":"24","DEP":"37","LIBGEO":"Gizeux","P12_POP":"422","C12_POP15P":"393","C12_POP15P_CS1":"8","C12_POP15P_CS2":"29","C12_POP15P_CS3":"17","C12_POP15P_CS4":"29","C12_POP15P_CS5":"50","C12_POP15P_CS6":"54","C12_POP15P_CS7":"165","C12_POP15P_CS8":"41","TxCS6":"13.740458"}
,{"CODGEO":"37113","REG":"24","DEP":"37","LIBGEO":"Le Grand-Pressigny","P12_POP":"974","C12_POP15P":"849","C12_POP15P_CS1":"10","C12_POP15P_CS2":"77","C12_POP15P_CS3":"52","C12_POP15P_CS4":"62","C12_POP15P_CS5":"112","C12_POP15P_CS6":"129","C12_POP15P_CS7":"309","C12_POP15P_CS8":"98","TxCS6":"15.194346"}
,{"CODGEO":"37114","REG":"24","DEP":"37","LIBGEO":"La Guerche","P12_POP":"189","C12_POP15P":"168","C12_POP15P_CS1":"4","C12_POP15P_CS2":"8","C12_POP15P_CS3":"0","C12_POP15P_CS4":"12","C12_POP15P_CS5":"20","C12_POP15P_CS6":"39","C12_POP15P_CS7":"59","C12_POP15P_CS8":"27","TxCS6":"23.214285"}
,{"CODGEO":"37115","REG":"24","DEP":"37","LIBGEO":"Descartes","P12_POP":"3754","C12_POP15P":"3234","C12_POP15P_CS1":"10","C12_POP15P_CS2":"93","C12_POP15P_CS3":"57","C12_POP15P_CS4":"305","C12_POP15P_CS5":"500","C12_POP15P_CS6":"568","C12_POP15P_CS7":"1341","C12_POP15P_CS8":"359","TxCS6":"17.563389"}
,{"CODGEO":"37116","REG":"24","DEP":"37","LIBGEO":"Les Hermites","P12_POP":"590","C12_POP15P":"484","C12_POP15P_CS1":"20","C12_POP15P_CS2":"4","C12_POP15P_CS3":"16","C12_POP15P_CS4":"68","C12_POP15P_CS5":"64","C12_POP15P_CS6":"96","C12_POP15P_CS7":"136","C12_POP15P_CS8":"80","TxCS6":"19.834711"}
,{"CODGEO":"37117","REG":"24","DEP":"37","LIBGEO":"Hommes","P12_POP":"907","C12_POP15P":"707","C12_POP15P_CS1":"21","C12_POP15P_CS2":"36","C12_POP15P_CS3":"21","C12_POP15P_CS4":"101","C12_POP15P_CS5":"122","C12_POP15P_CS6":"148","C12_POP15P_CS7":"157","C12_POP15P_CS8":"103","TxCS6":"20.933523"}
,{"CODGEO":"37118","REG":"24","DEP":"37","LIBGEO":"Huismes","P12_POP":"1545","C12_POP15P":"1208","C12_POP15P_CS1":"36","C12_POP15P_CS2":"32","C12_POP15P_CS3":"64","C12_POP15P_CS4":"211","C12_POP15P_CS5":"199","C12_POP15P_CS6":"175","C12_POP15P_CS7":"347","C12_POP15P_CS8":"144","TxCS6":"14.486755"}
,{"CODGEO":"37119","REG":"24","DEP":"37","LIBGEO":"L'Île-Bouchard","P12_POP":"1655","C12_POP15P":"1432","C12_POP15P_CS1":"8","C12_POP15P_CS2":"44","C12_POP15P_CS3":"48","C12_POP15P_CS4":"120","C12_POP15P_CS5":"204","C12_POP15P_CS6":"216","C12_POP15P_CS7":"636","C12_POP15P_CS8":"156","TxCS6":"15.083798"}
,{"CODGEO":"37120","REG":"24","DEP":"37","LIBGEO":"Ingrandes-de-Touraine","P12_POP":"523","C12_POP15P":"432","C12_POP15P_CS1":"19","C12_POP15P_CS2":"28","C12_POP15P_CS3":"9","C12_POP15P_CS4":"43","C12_POP15P_CS5":"85","C12_POP15P_CS6":"71","C12_POP15P_CS7":"133","C12_POP15P_CS8":"43","TxCS6":"16.435184"}
,{"CODGEO":"37121","REG":"24","DEP":"37","LIBGEO":"Jaulnay","P12_POP":"257","C12_POP15P":"218","C12_POP15P_CS1":"5","C12_POP15P_CS2":"15","C12_POP15P_CS3":"10","C12_POP15P_CS4":"6","C12_POP15P_CS5":"55","C12_POP15P_CS6":"40","C12_POP15P_CS7":"55","C12_POP15P_CS8":"30","TxCS6":"18.348623"}
,{"CODGEO":"37122","REG":"24","DEP":"37","LIBGEO":"Joué-lès-Tours","P12_POP":"37196","C12_POP15P":"30710","C12_POP15P_CS1":"20","C12_POP15P_CS2":"594","C12_POP15P_CS3":"1896","C12_POP15P_CS4":"4503","C12_POP15P_CS5":"5485","C12_POP15P_CS6":"4117","C12_POP15P_CS7":"9552","C12_POP15P_CS8":"4543","TxCS6":"13.406056"}
,{"CODGEO":"37123","REG":"24","DEP":"37","LIBGEO":"Langeais","P12_POP":"4157","C12_POP15P":"3463","C12_POP15P_CS1":"4","C12_POP15P_CS2":"83","C12_POP15P_CS3":"144","C12_POP15P_CS4":"453","C12_POP15P_CS5":"648","C12_POP15P_CS6":"633","C12_POP15P_CS7":"1107","C12_POP15P_CS8":"390","TxCS6":"18.27895"}
,{"CODGEO":"37124","REG":"24","DEP":"37","LIBGEO":"Larçay","P12_POP":"2417","C12_POP15P":"1926","C12_POP15P_CS1":"4","C12_POP15P_CS2":"60","C12_POP15P_CS3":"259","C12_POP15P_CS4":"346","C12_POP15P_CS5":"314","C12_POP15P_CS6":"195","C12_POP15P_CS7":"545","C12_POP15P_CS8":"203","TxCS6":"10.12461"}
,{"CODGEO":"37125","REG":"24","DEP":"37","LIBGEO":"Lémeré","P12_POP":"475","C12_POP15P":"386","C12_POP15P_CS1":"8","C12_POP15P_CS2":"16","C12_POP15P_CS3":"0","C12_POP15P_CS4":"33","C12_POP15P_CS5":"45","C12_POP15P_CS6":"98","C12_POP15P_CS7":"148","C12_POP15P_CS8":"37","TxCS6":"25.388601"}
,{"CODGEO":"37126","REG":"24","DEP":"37","LIBGEO":"Lerné","P12_POP":"318","C12_POP15P":"255","C12_POP15P_CS1":"8","C12_POP15P_CS2":"4","C12_POP15P_CS3":"12","C12_POP15P_CS4":"52","C12_POP15P_CS5":"24","C12_POP15P_CS6":"60","C12_POP15P_CS7":"64","C12_POP15P_CS8":"32","TxCS6":"23.529411"}
,{"CODGEO":"37127","REG":"24","DEP":"37","LIBGEO":"Le Liège","P12_POP":"340","C12_POP15P":"260","C12_POP15P_CS1":"12","C12_POP15P_CS2":"8","C12_POP15P_CS3":"0","C12_POP15P_CS4":"32","C12_POP15P_CS5":"51","C12_POP15P_CS6":"39","C12_POP15P_CS7":"95","C12_POP15P_CS8":"24","TxCS6":"15.000001"}
,{"CODGEO":"37128","REG":"24","DEP":"37","LIBGEO":"Lignières-de-Touraine","P12_POP":"1236","C12_POP15P":"1002","C12_POP15P_CS1":"48","C12_POP15P_CS2":"39","C12_POP15P_CS3":"31","C12_POP15P_CS4":"140","C12_POP15P_CS5":"109","C12_POP15P_CS6":"236","C12_POP15P_CS7":"289","C12_POP15P_CS8":"109","TxCS6":"23.552895"}
,{"CODGEO":"37129","REG":"24","DEP":"37","LIBGEO":"Ligré","P12_POP":"1052","C12_POP15P":"914","C12_POP15P_CS1":"12","C12_POP15P_CS2":"51","C12_POP15P_CS3":"40","C12_POP15P_CS4":"107","C12_POP15P_CS5":"142","C12_POP15P_CS6":"186","C12_POP15P_CS7":"289","C12_POP15P_CS8":"87","TxCS6":"20.35011"}
,{"CODGEO":"37130","REG":"24","DEP":"37","LIBGEO":"Ligueil","P12_POP":"2246","C12_POP15P":"1939","C12_POP15P_CS1":"45","C12_POP15P_CS2":"75","C12_POP15P_CS3":"84","C12_POP15P_CS4":"149","C12_POP15P_CS5":"282","C12_POP15P_CS6":"206","C12_POP15P_CS7":"848","C12_POP15P_CS8":"250","TxCS6":"10.624033"}
,{"CODGEO":"37131","REG":"24","DEP":"37","LIBGEO":"Limeray","P12_POP":"1229","C12_POP15P":"964","C12_POP15P_CS1":"17","C12_POP15P_CS2":"38","C12_POP15P_CS3":"50","C12_POP15P_CS4":"126","C12_POP15P_CS5":"159","C12_POP15P_CS6":"189","C12_POP15P_CS7":"298","C12_POP15P_CS8":"88","TxCS6":"19.60581"}
,{"CODGEO":"37132","REG":"24","DEP":"37","LIBGEO":"Loches","P12_POP":"6400","C12_POP15P":"5627","C12_POP15P_CS1":"36","C12_POP15P_CS2":"205","C12_POP15P_CS3":"228","C12_POP15P_CS4":"533","C12_POP15P_CS5":"719","C12_POP15P_CS6":"856","C12_POP15P_CS7":"2283","C12_POP15P_CS8":"767","TxCS6":"15.212369"}
,{"CODGEO":"37133","REG":"24","DEP":"37","LIBGEO":"Loché-sur-Indrois","P12_POP":"535","C12_POP15P":"432","C12_POP15P_CS1":"54","C12_POP15P_CS2":"19","C12_POP15P_CS3":"4","C12_POP15P_CS4":"35","C12_POP15P_CS5":"39","C12_POP15P_CS6":"70","C12_POP15P_CS7":"160","C12_POP15P_CS8":"51","TxCS6":"16.203703"}
,{"CODGEO":"37134","REG":"24","DEP":"37","LIBGEO":"Louans","P12_POP":"614","C12_POP15P":"480","C12_POP15P_CS1":"5","C12_POP15P_CS2":"0","C12_POP15P_CS3":"24","C12_POP15P_CS4":"82","C12_POP15P_CS5":"101","C12_POP15P_CS6":"111","C12_POP15P_CS7":"125","C12_POP15P_CS8":"34","TxCS6":"23.125"}
,{"CODGEO":"37135","REG":"24","DEP":"37","LIBGEO":"Louestault","P12_POP":"371","C12_POP15P":"304","C12_POP15P_CS1":"8","C12_POP15P_CS2":"4","C12_POP15P_CS3":"20","C12_POP15P_CS4":"36","C12_POP15P_CS5":"69","C12_POP15P_CS6":"81","C12_POP15P_CS7":"53","C12_POP15P_CS8":"33","TxCS6":"26.644737"}
,{"CODGEO":"37136","REG":"24","DEP":"37","LIBGEO":"Le Louroux","P12_POP":"487","C12_POP15P":"388","C12_POP15P_CS1":"28","C12_POP15P_CS2":"24","C12_POP15P_CS3":"20","C12_POP15P_CS4":"60","C12_POP15P_CS5":"80","C12_POP15P_CS6":"68","C12_POP15P_CS7":"64","C12_POP15P_CS8":"44","TxCS6":"17.525772"}
,{"CODGEO":"37137","REG":"24","DEP":"37","LIBGEO":"Lublé","P12_POP":"142","C12_POP15P":"120","C12_POP15P_CS1":"8","C12_POP15P_CS2":"16","C12_POP15P_CS3":"4","C12_POP15P_CS4":"20","C12_POP15P_CS5":"8","C12_POP15P_CS6":"20","C12_POP15P_CS7":"32","C12_POP15P_CS8":"12","TxCS6":"16.666668"}
,{"CODGEO":"37138","REG":"24","DEP":"37","LIBGEO":"Lussault-sur-Loire","P12_POP":"722","C12_POP15P":"612","C12_POP15P_CS1":"0","C12_POP15P_CS2":"35","C12_POP15P_CS3":"59","C12_POP15P_CS4":"74","C12_POP15P_CS5":"69","C12_POP15P_CS6":"140","C12_POP15P_CS7":"176","C12_POP15P_CS8":"58","TxCS6":"22.875816"}
,{"CODGEO":"37139","REG":"24","DEP":"37","LIBGEO":"Luynes","P12_POP":"5259","C12_POP15P":"4286","C12_POP15P_CS1":"31","C12_POP15P_CS2":"118","C12_POP15P_CS3":"390","C12_POP15P_CS4":"780","C12_POP15P_CS5":"749","C12_POP15P_CS6":"428","C12_POP15P_CS7":"1206","C12_POP15P_CS8":"583","TxCS6":"9.986001"}
,{"CODGEO":"37140","REG":"24","DEP":"37","LIBGEO":"Luzé","P12_POP":"268","C12_POP15P":"214","C12_POP15P_CS1":"21","C12_POP15P_CS2":"17","C12_POP15P_CS3":"0","C12_POP15P_CS4":"12","C12_POP15P_CS5":"17","C12_POP15P_CS6":"37","C12_POP15P_CS7":"78","C12_POP15P_CS8":"33","TxCS6":"17.289719"}
,{"CODGEO":"37141","REG":"24","DEP":"37","LIBGEO":"Luzillé","P12_POP":"894","C12_POP15P":"692","C12_POP15P_CS1":"28","C12_POP15P_CS2":"44","C12_POP15P_CS3":"32","C12_POP15P_CS4":"80","C12_POP15P_CS5":"132","C12_POP15P_CS6":"156","C12_POP15P_CS7":"168","C12_POP15P_CS8":"52","TxCS6":"22.543352"}
,{"CODGEO":"37142","REG":"24","DEP":"37","LIBGEO":"Maillé","P12_POP":"594","C12_POP15P":"512","C12_POP15P_CS1":"8","C12_POP15P_CS2":"16","C12_POP15P_CS3":"16","C12_POP15P_CS4":"64","C12_POP15P_CS5":"100","C12_POP15P_CS6":"132","C12_POP15P_CS7":"112","C12_POP15P_CS8":"64","TxCS6":"25.78125"}
,{"CODGEO":"37143","REG":"24","DEP":"37","LIBGEO":"Manthelan","P12_POP":"1399","C12_POP15P":"1082","C12_POP15P_CS1":"20","C12_POP15P_CS2":"76","C12_POP15P_CS3":"36","C12_POP15P_CS4":"137","C12_POP15P_CS5":"193","C12_POP15P_CS6":"165","C12_POP15P_CS7":"386","C12_POP15P_CS8":"68","TxCS6":"15.249538"}
,{"CODGEO":"37144","REG":"24","DEP":"37","LIBGEO":"Marçay","P12_POP":"478","C12_POP15P":"396","C12_POP15P_CS1":"20","C12_POP15P_CS2":"8","C12_POP15P_CS3":"12","C12_POP15P_CS4":"40","C12_POP15P_CS5":"76","C12_POP15P_CS6":"88","C12_POP15P_CS7":"120","C12_POP15P_CS8":"32","TxCS6":"22.222223"}
,{"CODGEO":"37145","REG":"24","DEP":"37","LIBGEO":"Marcé-sur-Esves","P12_POP":"239","C12_POP15P":"195","C12_POP15P_CS1":"5","C12_POP15P_CS2":"5","C12_POP15P_CS3":"15","C12_POP15P_CS4":"39","C12_POP15P_CS5":"20","C12_POP15P_CS6":"10","C12_POP15P_CS7":"78","C12_POP15P_CS8":"24","TxCS6":"5.1282053"}
,{"CODGEO":"37146","REG":"24","DEP":"37","LIBGEO":"Marcilly-sur-Maulne","P12_POP":"226","C12_POP15P":"180","C12_POP15P_CS1":"19","C12_POP15P_CS2":"10","C12_POP15P_CS3":"27","C12_POP15P_CS4":"5","C12_POP15P_CS5":"29","C12_POP15P_CS6":"5","C12_POP15P_CS7":"62","C12_POP15P_CS8":"24","TxCS6":"2.777778"}
,{"CODGEO":"37147","REG":"24","DEP":"37","LIBGEO":"Marcilly-sur-Vienne","P12_POP":"548","C12_POP15P":"429","C12_POP15P_CS1":"8","C12_POP15P_CS2":"28","C12_POP15P_CS3":"0","C12_POP15P_CS4":"57","C12_POP15P_CS5":"28","C12_POP15P_CS6":"85","C12_POP15P_CS7":"162","C12_POP15P_CS8":"61","TxCS6":"19.81352"}
,{"CODGEO":"37148","REG":"24","DEP":"37","LIBGEO":"Marigny-Marmande","P12_POP":"586","C12_POP15P":"476","C12_POP15P_CS1":"16","C12_POP15P_CS2":"36","C12_POP15P_CS3":"32","C12_POP15P_CS4":"52","C12_POP15P_CS5":"64","C12_POP15P_CS6":"88","C12_POP15P_CS7":"132","C12_POP15P_CS8":"56","TxCS6":"18.487396"}
,{"CODGEO":"37149","REG":"24","DEP":"37","LIBGEO":"Marray","P12_POP":"426","C12_POP15P":"314","C12_POP15P_CS1":"8","C12_POP15P_CS2":"8","C12_POP15P_CS3":"31","C12_POP15P_CS4":"47","C12_POP15P_CS5":"71","C12_POP15P_CS6":"55","C12_POP15P_CS7":"47","C12_POP15P_CS8":"47","TxCS6":"17.515923"}
,{"CODGEO":"37150","REG":"24","DEP":"37","LIBGEO":"Mazières-de-Touraine","P12_POP":"1323","C12_POP15P":"999","C12_POP15P_CS1":"8","C12_POP15P_CS2":"37","C12_POP15P_CS3":"53","C12_POP15P_CS4":"187","C12_POP15P_CS5":"162","C12_POP15P_CS6":"219","C12_POP15P_CS7":"211","C12_POP15P_CS8":"122","TxCS6":"21.921923"}
,{"CODGEO":"37151","REG":"24","DEP":"37","LIBGEO":"La Membrolle-sur-Choisille","P12_POP":"3031","C12_POP15P":"2578","C12_POP15P_CS1":"10","C12_POP15P_CS2":"73","C12_POP15P_CS3":"215","C12_POP15P_CS4":"476","C12_POP15P_CS5":"297","C12_POP15P_CS6":"211","C12_POP15P_CS7":"895","C12_POP15P_CS8":"401","TxCS6":"8.184639"}
,{"CODGEO":"37152","REG":"24","DEP":"37","LIBGEO":"Mettray","P12_POP":"2088","C12_POP15P":"1668","C12_POP15P_CS1":"10","C12_POP15P_CS2":"69","C12_POP15P_CS3":"173","C12_POP15P_CS4":"355","C12_POP15P_CS5":"244","C12_POP15P_CS6":"198","C12_POP15P_CS7":"438","C12_POP15P_CS8":"181","TxCS6":"11.870503"}
,{"CODGEO":"37153","REG":"24","DEP":"37","LIBGEO":"Monnaie","P12_POP":"4166","C12_POP15P":"3176","C12_POP15P_CS1":"8","C12_POP15P_CS2":"116","C12_POP15P_CS3":"276","C12_POP15P_CS4":"588","C12_POP15P_CS5":"644","C12_POP15P_CS6":"508","C12_POP15P_CS7":"684","C12_POP15P_CS8":"352","TxCS6":"15.994962"}
,{"CODGEO":"37154","REG":"24","DEP":"37","LIBGEO":"Montbazon","P12_POP":"4022","C12_POP15P":"3223","C12_POP15P_CS1":"5","C12_POP15P_CS2":"126","C12_POP15P_CS3":"305","C12_POP15P_CS4":"590","C12_POP15P_CS5":"559","C12_POP15P_CS6":"379","C12_POP15P_CS7":"876","C12_POP15P_CS8":"383","TxCS6":"11.759231"}
,{"CODGEO":"37155","REG":"24","DEP":"37","LIBGEO":"Monthodon","P12_POP":"608","C12_POP15P":"488","C12_POP15P_CS1":"16","C12_POP15P_CS2":"20","C12_POP15P_CS3":"64","C12_POP15P_CS4":"80","C12_POP15P_CS5":"76","C12_POP15P_CS6":"80","C12_POP15P_CS7":"116","C12_POP15P_CS8":"36","TxCS6":"16.393442"}
,{"CODGEO":"37156","REG":"24","DEP":"37","LIBGEO":"Montlouis-sur-Loire","P12_POP":"10643","C12_POP15P":"8472","C12_POP15P_CS1":"58","C12_POP15P_CS2":"283","C12_POP15P_CS3":"743","C12_POP15P_CS4":"1280","C12_POP15P_CS5":"1446","C12_POP15P_CS6":"1098","C12_POP15P_CS7":"2555","C12_POP15P_CS8":"1009","TxCS6":"12.9603405"}
,{"CODGEO":"37157","REG":"24","DEP":"37","LIBGEO":"Montrésor","P12_POP":"341","C12_POP15P":"290","C12_POP15P_CS1":"5","C12_POP15P_CS2":"5","C12_POP15P_CS3":"10","C12_POP15P_CS4":"53","C12_POP15P_CS5":"29","C12_POP15P_CS6":"33","C12_POP15P_CS7":"112","C12_POP15P_CS8":"44","TxCS6":"11.379311"}
,{"CODGEO":"37158","REG":"24","DEP":"37","LIBGEO":"Montreuil-en-Touraine","P12_POP":"772","C12_POP15P":"579","C12_POP15P_CS1":"12","C12_POP15P_CS2":"24","C12_POP15P_CS3":"16","C12_POP15P_CS4":"68","C12_POP15P_CS5":"145","C12_POP15P_CS6":"137","C12_POP15P_CS7":"125","C12_POP15P_CS8":"52","TxCS6":"23.661486"}
,{"CODGEO":"37159","REG":"24","DEP":"37","LIBGEO":"Monts","P12_POP":"7246","C12_POP15P":"5702","C12_POP15P_CS1":"18","C12_POP15P_CS2":"118","C12_POP15P_CS3":"462","C12_POP15P_CS4":"1242","C12_POP15P_CS5":"1032","C12_POP15P_CS6":"732","C12_POP15P_CS7":"1481","C12_POP15P_CS8":"617","TxCS6":"12.837601"}
,{"CODGEO":"37160","REG":"24","DEP":"37","LIBGEO":"Morand","P12_POP":"345","C12_POP15P":"254","C12_POP15P_CS1":"0","C12_POP15P_CS2":"0","C12_POP15P_CS3":"31","C12_POP15P_CS4":"59","C12_POP15P_CS5":"59","C12_POP15P_CS6":"31","C12_POP15P_CS7":"39","C12_POP15P_CS8":"35","TxCS6":"12.204724"}
,{"CODGEO":"37161","REG":"24","DEP":"37","LIBGEO":"Mosnes","P12_POP":"740","C12_POP15P":"595","C12_POP15P_CS1":"8","C12_POP15P_CS2":"36","C12_POP15P_CS3":"32","C12_POP15P_CS4":"48","C12_POP15P_CS5":"104","C12_POP15P_CS6":"124","C12_POP15P_CS7":"192","C12_POP15P_CS8":"52","TxCS6":"20.840336"}
,{"CODGEO":"37162","REG":"24","DEP":"37","LIBGEO":"Mouzay","P12_POP":"489","C12_POP15P":"367","C12_POP15P_CS1":"12","C12_POP15P_CS2":"12","C12_POP15P_CS3":"32","C12_POP15P_CS4":"36","C12_POP15P_CS5":"68","C12_POP15P_CS6":"52","C12_POP15P_CS7":"112","C12_POP15P_CS8":"44","TxCS6":"14.168938"}
,{"CODGEO":"37163","REG":"24","DEP":"37","LIBGEO":"Nazelles-Négron","P12_POP":"3568","C12_POP15P":"2974","C12_POP15P_CS1":"36","C12_POP15P_CS2":"116","C12_POP15P_CS3":"104","C12_POP15P_CS4":"315","C12_POP15P_CS5":"455","C12_POP15P_CS6":"411","C12_POP15P_CS7":"1210","C12_POP15P_CS8":"327","TxCS6":"13.819772"}
,{"CODGEO":"37165","REG":"24","DEP":"37","LIBGEO":"Neuil","P12_POP":"441","C12_POP15P":"331","C12_POP15P_CS1":"8","C12_POP15P_CS2":"20","C12_POP15P_CS3":"16","C12_POP15P_CS4":"40","C12_POP15P_CS5":"68","C12_POP15P_CS6":"56","C12_POP15P_CS7":"92","C12_POP15P_CS8":"32","TxCS6":"16.91843"}
,{"CODGEO":"37166","REG":"24","DEP":"37","LIBGEO":"Neuillé-le-Lierre","P12_POP":"809","C12_POP15P":"576","C12_POP15P_CS1":"12","C12_POP15P_CS2":"16","C12_POP15P_CS3":"48","C12_POP15P_CS4":"84","C12_POP15P_CS5":"112","C12_POP15P_CS6":"124","C12_POP15P_CS7":"124","C12_POP15P_CS8":"56","TxCS6":"21.527777"}
,{"CODGEO":"37167","REG":"24","DEP":"37","LIBGEO":"Neuillé-Pont-Pierre","P12_POP":"1917","C12_POP15P":"1510","C12_POP15P_CS1":"16","C12_POP15P_CS2":"59","C12_POP15P_CS3":"52","C12_POP15P_CS4":"238","C12_POP15P_CS5":"309","C12_POP15P_CS6":"281","C12_POP15P_CS7":"400","C12_POP15P_CS8":"155","TxCS6":"18.609272"}
,{"CODGEO":"37168","REG":"24","DEP":"37","LIBGEO":"Neuilly-le-Brignon","P12_POP":"307","C12_POP15P":"236","C12_POP15P_CS1":"15","C12_POP15P_CS2":"5","C12_POP15P_CS3":"5","C12_POP15P_CS4":"60","C12_POP15P_CS5":"46","C12_POP15P_CS6":"35","C12_POP15P_CS7":"65","C12_POP15P_CS8":"5","TxCS6":"14.830509"}
,{"CODGEO":"37169","REG":"24","DEP":"37","LIBGEO":"Neuville-sur-Brenne","P12_POP":"875","C12_POP15P":"708","C12_POP15P_CS1":"4","C12_POP15P_CS2":"16","C12_POP15P_CS3":"60","C12_POP15P_CS4":"80","C12_POP15P_CS5":"80","C12_POP15P_CS6":"144","C12_POP15P_CS7":"204","C12_POP15P_CS8":"120","TxCS6":"20.338982"}
,{"CODGEO":"37170","REG":"24","DEP":"37","LIBGEO":"Neuvy-le-Roi","P12_POP":"1130","C12_POP15P":"813","C12_POP15P_CS1":"35","C12_POP15P_CS2":"35","C12_POP15P_CS3":"47","C12_POP15P_CS4":"129","C12_POP15P_CS5":"149","C12_POP15P_CS6":"121","C12_POP15P_CS7":"231","C12_POP15P_CS8":"67","TxCS6":"14.883148"}
,{"CODGEO":"37171","REG":"24","DEP":"37","LIBGEO":"Noizay","P12_POP":"1148","C12_POP15P":"981","C12_POP15P_CS1":"15","C12_POP15P_CS2":"95","C12_POP15P_CS3":"65","C12_POP15P_CS4":"125","C12_POP15P_CS5":"140","C12_POP15P_CS6":"125","C12_POP15P_CS7":"279","C12_POP15P_CS8":"139","TxCS6":"12.742099"}
,{"CODGEO":"37172","REG":"24","DEP":"37","LIBGEO":"Notre-Dame-d'Oé","P12_POP":"3948","C12_POP15P":"3268","C12_POP15P_CS1":"0","C12_POP15P_CS2":"96","C12_POP15P_CS3":"233","C12_POP15P_CS4":"551","C12_POP15P_CS5":"647","C12_POP15P_CS6":"422","C12_POP15P_CS7":"916","C12_POP15P_CS8":"402","TxCS6":"12.913095"}
,{"CODGEO":"37173","REG":"24","DEP":"37","LIBGEO":"Nouans-les-Fontaines","P12_POP":"791","C12_POP15P":"682","C12_POP15P_CS1":"20","C12_POP15P_CS2":"20","C12_POP15P_CS3":"16","C12_POP15P_CS4":"64","C12_POP15P_CS5":"92","C12_POP15P_CS6":"144","C12_POP15P_CS7":"275","C12_POP15P_CS8":"52","TxCS6":"21.11437"}
,{"CODGEO":"37174","REG":"24","DEP":"37","LIBGEO":"Nouâtre","P12_POP":"869","C12_POP15P":"718","C12_POP15P_CS1":"0","C12_POP15P_CS2":"26","C12_POP15P_CS3":"5","C12_POP15P_CS4":"53","C12_POP15P_CS5":"90","C12_POP15P_CS6":"183","C12_POP15P_CS7":"277","C12_POP15P_CS8":"84","TxCS6":"25.487465"}
,{"CODGEO":"37175","REG":"24","DEP":"37","LIBGEO":"Nouzilly","P12_POP":"1257","C12_POP15P":"944","C12_POP15P_CS1":"16","C12_POP15P_CS2":"24","C12_POP15P_CS3":"112","C12_POP15P_CS4":"224","C12_POP15P_CS5":"156","C12_POP15P_CS6":"160","C12_POP15P_CS7":"180","C12_POP15P_CS8":"72","TxCS6":"16.949154"}
,{"CODGEO":"37176","REG":"24","DEP":"37","LIBGEO":"Noyant-de-Touraine","P12_POP":"1079","C12_POP15P":"807","C12_POP15P_CS1":"18","C12_POP15P_CS2":"23","C12_POP15P_CS3":"41","C12_POP15P_CS4":"115","C12_POP15P_CS5":"194","C12_POP15P_CS6":"143","C12_POP15P_CS7":"184","C12_POP15P_CS8":"88","TxCS6":"17.71995"}
,{"CODGEO":"37177","REG":"24","DEP":"37","LIBGEO":"Orbigny","P12_POP":"755","C12_POP15P":"623","C12_POP15P_CS1":"56","C12_POP15P_CS2":"36","C12_POP15P_CS3":"12","C12_POP15P_CS4":"32","C12_POP15P_CS5":"112","C12_POP15P_CS6":"96","C12_POP15P_CS7":"220","C12_POP15P_CS8":"60","TxCS6":"15.40931"}
,{"CODGEO":"37178","REG":"24","DEP":"37","LIBGEO":"Panzoult","P12_POP":"549","C12_POP15P":"468","C12_POP15P_CS1":"32","C12_POP15P_CS2":"28","C12_POP15P_CS3":"16","C12_POP15P_CS4":"44","C12_POP15P_CS5":"72","C12_POP15P_CS6":"68","C12_POP15P_CS7":"164","C12_POP15P_CS8":"44","TxCS6":"14.529915"}
,{"CODGEO":"37179","REG":"24","DEP":"37","LIBGEO":"Parçay-Meslay","P12_POP":"2301","C12_POP15P":"1872","C12_POP15P_CS1":"14","C12_POP15P_CS2":"60","C12_POP15P_CS3":"171","C12_POP15P_CS4":"336","C12_POP15P_CS5":"349","C12_POP15P_CS6":"261","C12_POP15P_CS7":"485","C12_POP15P_CS8":"196","TxCS6":"13.942307"}
,{"CODGEO":"37180","REG":"24","DEP":"37","LIBGEO":"Parçay-sur-Vienne","P12_POP":"647","C12_POP15P":"516","C12_POP15P_CS1":"4","C12_POP15P_CS2":"32","C12_POP15P_CS3":"12","C12_POP15P_CS4":"44","C12_POP15P_CS5":"116","C12_POP15P_CS6":"96","C12_POP15P_CS7":"168","C12_POP15P_CS8":"44","TxCS6":"18.60465"}
,{"CODGEO":"37181","REG":"24","DEP":"37","LIBGEO":"Paulmy","P12_POP":"233","C12_POP15P":"189","C12_POP15P_CS1":"20","C12_POP15P_CS2":"8","C12_POP15P_CS3":"0","C12_POP15P_CS4":"16","C12_POP15P_CS5":"28","C12_POP15P_CS6":"20","C12_POP15P_CS7":"79","C12_POP15P_CS8":"20","TxCS6":"10.58201"}
,{"CODGEO":"37182","REG":"24","DEP":"37","LIBGEO":"Pernay","P12_POP":"1132","C12_POP15P":"880","C12_POP15P_CS1":"16","C12_POP15P_CS2":"36","C12_POP15P_CS3":"52","C12_POP15P_CS4":"156","C12_POP15P_CS5":"148","C12_POP15P_CS6":"164","C12_POP15P_CS7":"188","C12_POP15P_CS8":"120","TxCS6":"18.636364"}
,{"CODGEO":"37183","REG":"24","DEP":"37","LIBGEO":"Perrusson","P12_POP":"1548","C12_POP15P":"1260","C12_POP15P_CS1":"24","C12_POP15P_CS2":"68","C12_POP15P_CS3":"72","C12_POP15P_CS4":"132","C12_POP15P_CS5":"152","C12_POP15P_CS6":"216","C12_POP15P_CS7":"432","C12_POP15P_CS8":"164","TxCS6":"17.142859"}
,{"CODGEO":"37184","REG":"24","DEP":"37","LIBGEO":"Le Petit-Pressigny","P12_POP":"328","C12_POP15P":"298","C12_POP15P_CS1":"20","C12_POP15P_CS2":"8","C12_POP15P_CS3":"0","C12_POP15P_CS4":"40","C12_POP15P_CS5":"32","C12_POP15P_CS6":"52","C12_POP15P_CS7":"105","C12_POP15P_CS8":"40","TxCS6":"17.449665"}
,{"CODGEO":"37185","REG":"24","DEP":"37","LIBGEO":"Pocé-sur-Cisse","P12_POP":"1627","C12_POP15P":"1322","C12_POP15P_CS1":"10","C12_POP15P_CS2":"30","C12_POP15P_CS3":"91","C12_POP15P_CS4":"206","C12_POP15P_CS5":"292","C12_POP15P_CS6":"242","C12_POP15P_CS7":"321","C12_POP15P_CS8":"130","TxCS6":"18.305597"}
,{"CODGEO":"37186","REG":"24","DEP":"37","LIBGEO":"Pont-de-Ruan","P12_POP":"939","C12_POP15P":"688","C12_POP15P_CS1":"0","C12_POP15P_CS2":"8","C12_POP15P_CS3":"80","C12_POP15P_CS4":"144","C12_POP15P_CS5":"140","C12_POP15P_CS6":"132","C12_POP15P_CS7":"124","C12_POP15P_CS8":"60","TxCS6":"19.186047"}
,{"CODGEO":"37187","REG":"24","DEP":"37","LIBGEO":"Ports","P12_POP":"358","C12_POP15P":"294","C12_POP15P_CS1":"4","C12_POP15P_CS2":"12","C12_POP15P_CS3":"8","C12_POP15P_CS4":"24","C12_POP15P_CS5":"36","C12_POP15P_CS6":"56","C12_POP15P_CS7":"133","C12_POP15P_CS8":"20","TxCS6":"19.047619"}
,{"CODGEO":"37188","REG":"24","DEP":"37","LIBGEO":"Pouzay","P12_POP":"833","C12_POP15P":"682","C12_POP15P_CS1":"8","C12_POP15P_CS2":"28","C12_POP15P_CS3":"36","C12_POP15P_CS4":"88","C12_POP15P_CS5":"120","C12_POP15P_CS6":"140","C12_POP15P_CS7":"176","C12_POP15P_CS8":"88","TxCS6":"20.527859"}
,{"CODGEO":"37189","REG":"24","DEP":"37","LIBGEO":"Preuilly-sur-Claise","P12_POP":"1048","C12_POP15P":"969","C12_POP15P_CS1":"10","C12_POP15P_CS2":"21","C12_POP15P_CS3":"47","C12_POP15P_CS4":"47","C12_POP15P_CS5":"123","C12_POP15P_CS6":"52","C12_POP15P_CS7":"592","C12_POP15P_CS8":"78","TxCS6":"5.366357"}
,{"CODGEO":"37190","REG":"24","DEP":"37","LIBGEO":"Pussigny","P12_POP":"183","C12_POP15P":"162","C12_POP15P_CS1":"4","C12_POP15P_CS2":"4","C12_POP15P_CS3":"0","C12_POP15P_CS4":"32","C12_POP15P_CS5":"16","C12_POP15P_CS6":"40","C12_POP15P_CS7":"40","C12_POP15P_CS8":"28","TxCS6":"24.691359"}
,{"CODGEO":"37191","REG":"24","DEP":"37","LIBGEO":"Razines","P12_POP":"243","C12_POP15P":"195","C12_POP15P_CS1":"4","C12_POP15P_CS2":"8","C12_POP15P_CS3":"4","C12_POP15P_CS4":"16","C12_POP15P_CS5":"28","C12_POP15P_CS6":"36","C12_POP15P_CS7":"76","C12_POP15P_CS8":"24","TxCS6":"18.461538"}
,{"CODGEO":"37192","REG":"24","DEP":"37","LIBGEO":"Reignac-sur-Indre","P12_POP":"1194","C12_POP15P":"958","C12_POP15P_CS1":"20","C12_POP15P_CS2":"49","C12_POP15P_CS3":"41","C12_POP15P_CS4":"150","C12_POP15P_CS5":"191","C12_POP15P_CS6":"167","C12_POP15P_CS7":"260","C12_POP15P_CS8":"81","TxCS6":"17.43215"}
,{"CODGEO":"37193","REG":"24","DEP":"37","LIBGEO":"Restigné","P12_POP":"1192","C12_POP15P":"968","C12_POP15P_CS1":"49","C12_POP15P_CS2":"33","C12_POP15P_CS3":"49","C12_POP15P_CS4":"117","C12_POP15P_CS5":"156","C12_POP15P_CS6":"150","C12_POP15P_CS7":"324","C12_POP15P_CS8":"91","TxCS6":"15.495868"}
,{"CODGEO":"37194","REG":"24","DEP":"37","LIBGEO":"Reugny","P12_POP":"1602","C12_POP15P":"1252","C12_POP15P_CS1":"28","C12_POP15P_CS2":"68","C12_POP15P_CS3":"121","C12_POP15P_CS4":"205","C12_POP15P_CS5":"173","C12_POP15P_CS6":"181","C12_POP15P_CS7":"290","C12_POP15P_CS8":"185","TxCS6":"14.45687"}
,{"CODGEO":"37195","REG":"24","DEP":"37","LIBGEO":"La Riche","P12_POP":"10207","C12_POP15P":"8538","C12_POP15P_CS1":"4","C12_POP15P_CS2":"232","C12_POP15P_CS3":"944","C12_POP15P_CS4":"1439","C12_POP15P_CS5":"1573","C12_POP15P_CS6":"1086","C12_POP15P_CS7":"1963","C12_POP15P_CS8":"1298","TxCS6":"12.719605"}
,{"CODGEO":"37196","REG":"24","DEP":"37","LIBGEO":"Richelieu","P12_POP":"1848","C12_POP15P":"1632","C12_POP15P_CS1":"0","C12_POP15P_CS2":"53","C12_POP15P_CS3":"45","C12_POP15P_CS4":"90","C12_POP15P_CS5":"238","C12_POP15P_CS6":"201","C12_POP15P_CS7":"789","C12_POP15P_CS8":"217","TxCS6":"12.316176"}
,{"CODGEO":"37197","REG":"24","DEP":"37","LIBGEO":"Rigny-Ussé","P12_POP":"521","C12_POP15P":"393","C12_POP15P_CS1":"0","C12_POP15P_CS2":"19","C12_POP15P_CS3":"15","C12_POP15P_CS4":"47","C12_POP15P_CS5":"42","C12_POP15P_CS6":"52","C12_POP15P_CS7":"171","C12_POP15P_CS8":"47","TxCS6":"13.231552"}
,{"CODGEO":"37198","REG":"24","DEP":"37","LIBGEO":"Rillé","P12_POP":"318","C12_POP15P":"257","C12_POP15P_CS1":"8","C12_POP15P_CS2":"8","C12_POP15P_CS3":"21","C12_POP15P_CS4":"37","C12_POP15P_CS5":"25","C12_POP15P_CS6":"33","C12_POP15P_CS7":"87","C12_POP15P_CS8":"37","TxCS6":"12.8404665"}
,{"CODGEO":"37199","REG":"24","DEP":"37","LIBGEO":"Rilly-sur-Vienne","P12_POP":"452","C12_POP15P":"373","C12_POP15P_CS1":"12","C12_POP15P_CS2":"16","C12_POP15P_CS3":"19","C12_POP15P_CS4":"27","C12_POP15P_CS5":"66","C12_POP15P_CS6":"58","C12_POP15P_CS7":"144","C12_POP15P_CS8":"31","TxCS6":"15.549597"}
,{"CODGEO":"37200","REG":"24","DEP":"37","LIBGEO":"Rivarennes","P12_POP":"1030","C12_POP15P":"806","C12_POP15P_CS1":"15","C12_POP15P_CS2":"25","C12_POP15P_CS3":"20","C12_POP15P_CS4":"96","C12_POP15P_CS5":"147","C12_POP15P_CS6":"140","C12_POP15P_CS7":"243","C12_POP15P_CS8":"118","TxCS6":"17.369728"}
,{"CODGEO":"37201","REG":"24","DEP":"37","LIBGEO":"Rivière","P12_POP":"746","C12_POP15P":"612","C12_POP15P_CS1":"16","C12_POP15P_CS2":"32","C12_POP15P_CS3":"20","C12_POP15P_CS4":"88","C12_POP15P_CS5":"112","C12_POP15P_CS6":"92","C12_POP15P_CS7":"192","C12_POP15P_CS8":"60","TxCS6":"15.0326805"}
,{"CODGEO":"37202","REG":"24","DEP":"37","LIBGEO":"La Roche-Clermault","P12_POP":"495","C12_POP15P":"407","C12_POP15P_CS1":"10","C12_POP15P_CS2":"10","C12_POP15P_CS3":"5","C12_POP15P_CS4":"43","C12_POP15P_CS5":"67","C12_POP15P_CS6":"53","C12_POP15P_CS7":"182","C12_POP15P_CS8":"38","TxCS6":"13.022113"}
,{"CODGEO":"37203","REG":"24","DEP":"37","LIBGEO":"Rochecorbon","P12_POP":"3232","C12_POP15P":"2632","C12_POP15P_CS1":"12","C12_POP15P_CS2":"105","C12_POP15P_CS3":"332","C12_POP15P_CS4":"461","C12_POP15P_CS5":"275","C12_POP15P_CS6":"268","C12_POP15P_CS7":"825","C12_POP15P_CS8":"353","TxCS6":"10.182371"}
,{"CODGEO":"37204","REG":"24","DEP":"37","LIBGEO":"Rouziers-de-Touraine","P12_POP":"1216","C12_POP15P":"956","C12_POP15P_CS1":"12","C12_POP15P_CS2":"68","C12_POP15P_CS3":"108","C12_POP15P_CS4":"172","C12_POP15P_CS5":"176","C12_POP15P_CS6":"132","C12_POP15P_CS7":"188","C12_POP15P_CS8":"100","TxCS6":"13.80753"}
,{"CODGEO":"37205","REG":"24","DEP":"37","LIBGEO":"Saché","P12_POP":"1309","C12_POP15P":"1041","C12_POP15P_CS1":"16","C12_POP15P_CS2":"41","C12_POP15P_CS3":"74","C12_POP15P_CS4":"193","C12_POP15P_CS5":"172","C12_POP15P_CS6":"180","C12_POP15P_CS7":"266","C12_POP15P_CS8":"98","TxCS6":"17.291065"}
,{"CODGEO":"37206","REG":"24","DEP":"37","LIBGEO":"Saint-Antoine-du-Rocher","P12_POP":"1533","C12_POP15P":"1164","C12_POP15P_CS1":"9","C12_POP15P_CS2":"32","C12_POP15P_CS3":"174","C12_POP15P_CS4":"298","C12_POP15P_CS5":"216","C12_POP15P_CS6":"110","C12_POP15P_CS7":"255","C12_POP15P_CS8":"69","TxCS6":"9.450171"}
,{"CODGEO":"37207","REG":"24","DEP":"37","LIBGEO":"Saint-Aubin-le-Dépeint","P12_POP":"316","C12_POP15P":"220","C12_POP15P_CS1":"5","C12_POP15P_CS2":"10","C12_POP15P_CS3":"0","C12_POP15P_CS4":"15","C12_POP15P_CS5":"56","C12_POP15P_CS6":"56","C12_POP15P_CS7":"61","C12_POP15P_CS8":"15","TxCS6":"25.454544"}
,{"CODGEO":"37208","REG":"24","DEP":"37","LIBGEO":"Saint-Avertin","P12_POP":"14856","C12_POP15P":"12314","C12_POP15P_CS1":"13","C12_POP15P_CS2":"331","C12_POP15P_CS3":"1709","C12_POP15P_CS4":"2107","C12_POP15P_CS5":"1724","C12_POP15P_CS6":"987","C12_POP15P_CS7":"3699","C12_POP15P_CS8":"1744","TxCS6":"8.015266"}
,{"CODGEO":"37209","REG":"24","DEP":"37","LIBGEO":"Saint-Bauld","P12_POP":"199","C12_POP15P":"160","C12_POP15P_CS1":"0","C12_POP15P_CS2":"4","C12_POP15P_CS3":"16","C12_POP15P_CS4":"36","C12_POP15P_CS5":"40","C12_POP15P_CS6":"16","C12_POP15P_CS7":"32","C12_POP15P_CS8":"16","TxCS6":"10.0"}
,{"CODGEO":"37210","REG":"24","DEP":"37","LIBGEO":"Saint-Benoît-la-Forêt","P12_POP":"888","C12_POP15P":"734","C12_POP15P_CS1":"5","C12_POP15P_CS2":"26","C12_POP15P_CS3":"52","C12_POP15P_CS4":"99","C12_POP15P_CS5":"83","C12_POP15P_CS6":"57","C12_POP15P_CS7":"341","C12_POP15P_CS8":"71","TxCS6":"7.765668"}
,{"CODGEO":"37211","REG":"24","DEP":"37","LIBGEO":"Saint-Branchs","P12_POP":"2540","C12_POP15P":"2014","C12_POP15P_CS1":"24","C12_POP15P_CS2":"110","C12_POP15P_CS3":"153","C12_POP15P_CS4":"349","C12_POP15P_CS5":"385","C12_POP15P_CS6":"342","C12_POP15P_CS7":"471","C12_POP15P_CS8":"181","TxCS6":"16.981133"}
,{"CODGEO":"37212","REG":"24","DEP":"37","LIBGEO":"Sainte-Catherine-de-Fierbois","P12_POP":"700","C12_POP15P":"592","C12_POP15P_CS1":"8","C12_POP15P_CS2":"31","C12_POP15P_CS3":"31","C12_POP15P_CS4":"81","C12_POP15P_CS5":"70","C12_POP15P_CS6":"108","C12_POP15P_CS7":"178","C12_POP15P_CS8":"85","TxCS6":"18.243242"}
,{"CODGEO":"37213","REG":"24","DEP":"37","LIBGEO":"Saint-Christophe-sur-le-Nais","P12_POP":"1080","C12_POP15P":"882","C12_POP15P_CS1":"32","C12_POP15P_CS2":"32","C12_POP15P_CS3":"32","C12_POP15P_CS4":"60","C12_POP15P_CS5":"139","C12_POP15P_CS6":"218","C12_POP15P_CS7":"263","C12_POP15P_CS8":"107","TxCS6":"24.716553"}
,{"CODGEO":"37214","REG":"24","DEP":"37","LIBGEO":"Saint-Cyr-sur-Loire","P12_POP":"16133","C12_POP15P":"13915","C12_POP15P_CS1":"11","C12_POP15P_CS2":"375","C12_POP15P_CS3":"1716","C12_POP15P_CS4":"2345","C12_POP15P_CS5":"1909","C12_POP15P_CS6":"881","C12_POP15P_CS7":"4814","C12_POP15P_CS8":"1865","TxCS6":"6.331297"}
,{"CODGEO":"37216","REG":"24","DEP":"37","LIBGEO":"Saint-Épain","P12_POP":"1552","C12_POP15P":"1235","C12_POP15P_CS1":"76","C12_POP15P_CS2":"40","C12_POP15P_CS3":"40","C12_POP15P_CS4":"156","C12_POP15P_CS5":"201","C12_POP15P_CS6":"225","C12_POP15P_CS7":"381","C12_POP15P_CS8":"116","TxCS6":"18.218622"}
,{"CODGEO":"37217","REG":"24","DEP":"37","LIBGEO":"Saint-Étienne-de-Chigny","P12_POP":"1442","C12_POP15P":"1134","C12_POP15P_CS1":"0","C12_POP15P_CS2":"48","C12_POP15P_CS3":"91","C12_POP15P_CS4":"182","C12_POP15P_CS5":"262","C12_POP15P_CS6":"226","C12_POP15P_CS7":"190","C12_POP15P_CS8":"135","TxCS6":"19.929453"}
,{"CODGEO":"37218","REG":"24","DEP":"37","LIBGEO":"Saint-Flovier","P12_POP":"598","C12_POP15P":"512","C12_POP15P_CS1":"16","C12_POP15P_CS2":"40","C12_POP15P_CS3":"16","C12_POP15P_CS4":"28","C12_POP15P_CS5":"52","C12_POP15P_CS6":"75","C12_POP15P_CS7":"218","C12_POP15P_CS8":"67","TxCS6":"14.6484375"}
,{"CODGEO":"37219","REG":"24","DEP":"37","LIBGEO":"Saint-Genouph","P12_POP":"1039","C12_POP15P":"838","C12_POP15P_CS1":"12","C12_POP15P_CS2":"40","C12_POP15P_CS3":"36","C12_POP15P_CS4":"193","C12_POP15P_CS5":"145","C12_POP15P_CS6":"117","C12_POP15P_CS7":"173","C12_POP15P_CS8":"121","TxCS6":"13.961814"}
,{"CODGEO":"37220","REG":"24","DEP":"37","LIBGEO":"Saint-Germain-sur-Vienne","P12_POP":"382","C12_POP15P":"318","C12_POP15P_CS1":"5","C12_POP15P_CS2":"25","C12_POP15P_CS3":"10","C12_POP15P_CS4":"49","C12_POP15P_CS5":"44","C12_POP15P_CS6":"25","C12_POP15P_CS7":"122","C12_POP15P_CS8":"39","TxCS6":"7.861635"}
,{"CODGEO":"37221","REG":"24","DEP":"37","LIBGEO":"Saint-Hippolyte","P12_POP":"607","C12_POP15P":"515","C12_POP15P_CS1":"5","C12_POP15P_CS2":"34","C12_POP15P_CS3":"5","C12_POP15P_CS4":"34","C12_POP15P_CS5":"77","C12_POP15P_CS6":"96","C12_POP15P_CS7":"216","C12_POP15P_CS8":"48","TxCS6":"18.640776"}
,{"CODGEO":"37222","REG":"24","DEP":"37","LIBGEO":"Saint-Jean-Saint-Germain","P12_POP":"733","C12_POP15P":"593","C12_POP15P_CS1":"20","C12_POP15P_CS2":"32","C12_POP15P_CS3":"4","C12_POP15P_CS4":"80","C12_POP15P_CS5":"96","C12_POP15P_CS6":"96","C12_POP15P_CS7":"236","C12_POP15P_CS8":"28","TxCS6":"16.18887"}
,{"CODGEO":"37223","REG":"24","DEP":"37","LIBGEO":"Saint-Laurent-de-Lin","P12_POP":"330","C12_POP15P":"253","C12_POP15P_CS1":"21","C12_POP15P_CS2":"17","C12_POP15P_CS3":"8","C12_POP15P_CS4":"29","C12_POP15P_CS5":"29","C12_POP15P_CS6":"21","C12_POP15P_CS7":"112","C12_POP15P_CS8":"17","TxCS6":"8.300395"}
,{"CODGEO":"37224","REG":"24","DEP":"37","LIBGEO":"Saint-Laurent-en-Gâtines","P12_POP":"949","C12_POP15P":"732","C12_POP15P_CS1":"8","C12_POP15P_CS2":"36","C12_POP15P_CS3":"36","C12_POP15P_CS4":"104","C12_POP15P_CS5":"160","C12_POP15P_CS6":"168","C12_POP15P_CS7":"148","C12_POP15P_CS8":"72","TxCS6":"22.950819"}
,{"CODGEO":"37225","REG":"24","DEP":"37","LIBGEO":"Saint-Martin-le-Beau","P12_POP":"3101","C12_POP15P":"2447","C12_POP15P_CS1":"33","C12_POP15P_CS2":"58","C12_POP15P_CS3":"162","C12_POP15P_CS4":"420","C12_POP15P_CS5":"449","C12_POP15P_CS6":"354","C12_POP15P_CS7":"627","C12_POP15P_CS8":"344","TxCS6":"14.466694"}
,{"CODGEO":"37226","REG":"24","DEP":"37","LIBGEO":"Sainte-Maure-de-Touraine","P12_POP":"4222","C12_POP15P":"3441","C12_POP15P_CS1":"28","C12_POP15P_CS2":"118","C12_POP15P_CS3":"114","C12_POP15P_CS4":"354","C12_POP15P_CS5":"472","C12_POP15P_CS6":"567","C12_POP15P_CS7":"1477","C12_POP15P_CS8":"311","TxCS6":"16.477768"}
,{"CODGEO":"37227","REG":"24","DEP":"37","LIBGEO":"Saint-Michel-sur-Loire","P12_POP":"652","C12_POP15P":"526","C12_POP15P_CS1":"0","C12_POP15P_CS2":"19","C12_POP15P_CS3":"14","C12_POP15P_CS4":"72","C12_POP15P_CS5":"96","C12_POP15P_CS6":"130","C12_POP15P_CS7":"157","C12_POP15P_CS8":"38","TxCS6":"24.714828"}
,{"CODGEO":"37228","REG":"24","DEP":"37","LIBGEO":"Saint-Nicolas-de-Bourgueil","P12_POP":"1145","C12_POP15P":"933","C12_POP15P_CS1":"115","C12_POP15P_CS2":"36","C12_POP15P_CS3":"43","C12_POP15P_CS4":"59","C12_POP15P_CS5":"130","C12_POP15P_CS6":"138","C12_POP15P_CS7":"320","C12_POP15P_CS8":"91","TxCS6":"14.790997"}
,{"CODGEO":"37229","REG":"24","DEP":"37","LIBGEO":"Saint-Nicolas-des-Motets","P12_POP":"268","C12_POP15P":"206","C12_POP15P_CS1":"5","C12_POP15P_CS2":"15","C12_POP15P_CS3":"10","C12_POP15P_CS4":"20","C12_POP15P_CS5":"40","C12_POP15P_CS6":"45","C12_POP15P_CS7":"45","C12_POP15P_CS8":"25","TxCS6":"21.84466"}
,{"CODGEO":"37230","REG":"24","DEP":"37","LIBGEO":"Saint-Ouen-les-Vignes","P12_POP":"1022","C12_POP15P":"773","C12_POP15P_CS1":"12","C12_POP15P_CS2":"44","C12_POP15P_CS3":"44","C12_POP15P_CS4":"131","C12_POP15P_CS5":"119","C12_POP15P_CS6":"159","C12_POP15P_CS7":"186","C12_POP15P_CS8":"79","TxCS6":"20.569212"}
,{"CODGEO":"37231","REG":"24","DEP":"37","LIBGEO":"Saint-Paterne-Racan","P12_POP":"1637","C12_POP15P":"1344","C12_POP15P_CS1":"52","C12_POP15P_CS2":"56","C12_POP15P_CS3":"76","C12_POP15P_CS4":"148","C12_POP15P_CS5":"208","C12_POP15P_CS6":"216","C12_POP15P_CS7":"432","C12_POP15P_CS8":"156","TxCS6":"16.071428"}
,{"CODGEO":"37232","REG":"24","DEP":"37","LIBGEO":"Saint-Patrice","P12_POP":"660","C12_POP15P":"552","C12_POP15P_CS1":"16","C12_POP15P_CS2":"20","C12_POP15P_CS3":"56","C12_POP15P_CS4":"80","C12_POP15P_CS5":"104","C12_POP15P_CS6":"68","C12_POP15P_CS7":"172","C12_POP15P_CS8":"36","TxCS6":"12.318841"}
,{"CODGEO":"37233","REG":"24","DEP":"37","LIBGEO":"Saint-Pierre-des-Corps","P12_POP":"15224","C12_POP15P":"12342","C12_POP15P_CS1":"6","C12_POP15P_CS2":"208","C12_POP15P_CS3":"584","C12_POP15P_CS4":"1553","C12_POP15P_CS5":"2172","C12_POP15P_CS6":"2062","C12_POP15P_CS7":"3888","C12_POP15P_CS8":"1870","TxCS6":"16.707178"}
,{"CODGEO":"37234","REG":"24","DEP":"37","LIBGEO":"Saint-Quentin-sur-Indrois","P12_POP":"512","C12_POP15P":"399","C12_POP15P_CS1":"21","C12_POP15P_CS2":"4","C12_POP15P_CS3":"25","C12_POP15P_CS4":"71","C12_POP15P_CS5":"63","C12_POP15P_CS6":"58","C12_POP15P_CS7":"125","C12_POP15P_CS8":"33","TxCS6":"14.536341"}
,{"CODGEO":"37236","REG":"24","DEP":"37","LIBGEO":"Saint-Règle","P12_POP":"520","C12_POP15P":"423","C12_POP15P_CS1":"5","C12_POP15P_CS2":"37","C12_POP15P_CS3":"33","C12_POP15P_CS4":"60","C12_POP15P_CS5":"60","C12_POP15P_CS6":"56","C12_POP15P_CS7":"125","C12_POP15P_CS8":"46","TxCS6":"13.238771"}
,{"CODGEO":"37237","REG":"24","DEP":"37","LIBGEO":"Saint-Roch","P12_POP":"1226","C12_POP15P":"920","C12_POP15P_CS1":"12","C12_POP15P_CS2":"43","C12_POP15P_CS3":"63","C12_POP15P_CS4":"181","C12_POP15P_CS5":"193","C12_POP15P_CS6":"157","C12_POP15P_CS7":"157","C12_POP15P_CS8":"114","TxCS6":"17.065218"}
,{"CODGEO":"37238","REG":"24","DEP":"37","LIBGEO":"Saint-Senoch","P12_POP":"513","C12_POP15P":"394","C12_POP15P_CS1":"8","C12_POP15P_CS2":"29","C12_POP15P_CS3":"4","C12_POP15P_CS4":"62","C12_POP15P_CS5":"53","C12_POP15P_CS6":"70","C12_POP15P_CS7":"148","C12_POP15P_CS8":"21","TxCS6":"17.766499"}
,{"CODGEO":"37240","REG":"24","DEP":"37","LIBGEO":"Saunay","P12_POP":"661","C12_POP15P":"500","C12_POP15P_CS1":"4","C12_POP15P_CS2":"16","C12_POP15P_CS3":"24","C12_POP15P_CS4":"84","C12_POP15P_CS5":"76","C12_POP15P_CS6":"96","C12_POP15P_CS7":"148","C12_POP15P_CS8":"52","TxCS6":"19.2"}
,{"CODGEO":"37241","REG":"24","DEP":"37","LIBGEO":"Savigné-sur-Lathan","P12_POP":"1360","C12_POP15P":"1071","C12_POP15P_CS1":"8","C12_POP15P_CS2":"52","C12_POP15P_CS3":"28","C12_POP15P_CS4":"100","C12_POP15P_CS5":"139","C12_POP15P_CS6":"199","C12_POP15P_CS7":"414","C12_POP15P_CS8":"131","TxCS6":"18.580767"}
,{"CODGEO":"37242","REG":"24","DEP":"37","LIBGEO":"Savigny-en-Véron","P12_POP":"1481","C12_POP15P":"1180","C12_POP15P_CS1":"12","C12_POP15P_CS2":"48","C12_POP15P_CS3":"44","C12_POP15P_CS4":"160","C12_POP15P_CS5":"196","C12_POP15P_CS6":"212","C12_POP15P_CS7":"340","C12_POP15P_CS8":"168","TxCS6":"17.966103"}
,{"CODGEO":"37243","REG":"24","DEP":"37","LIBGEO":"Savonnières","P12_POP":"3132","C12_POP15P":"2489","C12_POP15P_CS1":"12","C12_POP15P_CS2":"136","C12_POP15P_CS3":"375","C12_POP15P_CS4":"459","C12_POP15P_CS5":"355","C12_POP15P_CS6":"239","C12_POP15P_CS7":"622","C12_POP15P_CS8":"291","TxCS6":"9.60225"}
,{"CODGEO":"37244","REG":"24","DEP":"37","LIBGEO":"Sazilly","P12_POP":"255","C12_POP15P":"221","C12_POP15P_CS1":"4","C12_POP15P_CS2":"8","C12_POP15P_CS3":"0","C12_POP15P_CS4":"16","C12_POP15P_CS5":"28","C12_POP15P_CS6":"20","C12_POP15P_CS7":"100","C12_POP15P_CS8":"44","TxCS6":"9.049774"}
,{"CODGEO":"37245","REG":"24","DEP":"37","LIBGEO":"Semblançay","P12_POP":"2112","C12_POP15P":"1717","C12_POP15P_CS1":"5","C12_POP15P_CS2":"107","C12_POP15P_CS3":"146","C12_POP15P_CS4":"290","C12_POP15P_CS5":"306","C12_POP15P_CS6":"270","C12_POP15P_CS7":"389","C12_POP15P_CS8":"204","TxCS6":"15.725101"}
,{"CODGEO":"37246","REG":"24","DEP":"37","LIBGEO":"Sennevières","P12_POP":"219","C12_POP15P":"200","C12_POP15P_CS1":"4","C12_POP15P_CS2":"8","C12_POP15P_CS3":"4","C12_POP15P_CS4":"24","C12_POP15P_CS5":"48","C12_POP15P_CS6":"44","C12_POP15P_CS7":"56","C12_POP15P_CS8":"12","TxCS6":"22.0"}
,{"CODGEO":"37247","REG":"24","DEP":"37","LIBGEO":"Sepmes","P12_POP":"670","C12_POP15P":"571","C12_POP15P_CS1":"45","C12_POP15P_CS2":"5","C12_POP15P_CS3":"20","C12_POP15P_CS4":"50","C12_POP15P_CS5":"80","C12_POP15P_CS6":"137","C12_POP15P_CS7":"150","C12_POP15P_CS8":"85","TxCS6":"23.992994"}
,{"CODGEO":"37248","REG":"24","DEP":"37","LIBGEO":"Seuilly","P12_POP":"346","C12_POP15P":"284","C12_POP15P_CS1":"5","C12_POP15P_CS2":"10","C12_POP15P_CS3":"20","C12_POP15P_CS4":"25","C12_POP15P_CS5":"49","C12_POP15P_CS6":"29","C12_POP15P_CS7":"108","C12_POP15P_CS8":"39","TxCS6":"10.211267"}
,{"CODGEO":"37249","REG":"24","DEP":"37","LIBGEO":"Sonzay","P12_POP":"1352","C12_POP15P":"1042","C12_POP15P_CS1":"31","C12_POP15P_CS2":"74","C12_POP15P_CS3":"51","C12_POP15P_CS4":"180","C12_POP15P_CS5":"192","C12_POP15P_CS6":"145","C12_POP15P_CS7":"294","C12_POP15P_CS8":"74","TxCS6":"13.915547"}
,{"CODGEO":"37250","REG":"24","DEP":"37","LIBGEO":"Sorigny","P12_POP":"2354","C12_POP15P":"1872","C12_POP15P_CS1":"36","C12_POP15P_CS2":"48","C12_POP15P_CS3":"136","C12_POP15P_CS4":"320","C12_POP15P_CS5":"324","C12_POP15P_CS6":"400","C12_POP15P_CS7":"420","C12_POP15P_CS8":"188","TxCS6":"21.367521"}
,{"CODGEO":"37251","REG":"24","DEP":"37","LIBGEO":"Souvigné","P12_POP":"789","C12_POP15P":"566","C12_POP15P_CS1":"16","C12_POP15P_CS2":"8","C12_POP15P_CS3":"32","C12_POP15P_CS4":"71","C12_POP15P_CS5":"123","C12_POP15P_CS6":"147","C12_POP15P_CS7":"131","C12_POP15P_CS8":"40","TxCS6":"25.971731"}
,{"CODGEO":"37252","REG":"24","DEP":"37","LIBGEO":"Souvigny-de-Touraine","P12_POP":"372","C12_POP15P":"288","C12_POP15P_CS1":"0","C12_POP15P_CS2":"8","C12_POP15P_CS3":"20","C12_POP15P_CS4":"84","C12_POP15P_CS5":"40","C12_POP15P_CS6":"72","C12_POP15P_CS7":"36","C12_POP15P_CS8":"28","TxCS6":"25.0"}
,{"CODGEO":"37253","REG":"24","DEP":"37","LIBGEO":"Sublaines","P12_POP":"191","C12_POP15P":"140","C12_POP15P_CS1":"27","C12_POP15P_CS2":"4","C12_POP15P_CS3":"4","C12_POP15P_CS4":"4","C12_POP15P_CS5":"23","C12_POP15P_CS6":"35","C12_POP15P_CS7":"23","C12_POP15P_CS8":"19","TxCS6":"25.0"}
,{"CODGEO":"37254","REG":"24","DEP":"37","LIBGEO":"Tauxigny","P12_POP":"1261","C12_POP15P":"1006","C12_POP15P_CS1":"28","C12_POP15P_CS2":"101","C12_POP15P_CS3":"69","C12_POP15P_CS4":"166","C12_POP15P_CS5":"150","C12_POP15P_CS6":"195","C12_POP15P_CS7":"215","C12_POP15P_CS8":"81","TxCS6":"19.383698"}
,{"CODGEO":"37255","REG":"24","DEP":"37","LIBGEO":"Tavant","P12_POP":"259","C12_POP15P":"214","C12_POP15P_CS1":"0","C12_POP15P_CS2":"0","C12_POP15P_CS3":"0","C12_POP15P_CS4":"20","C12_POP15P_CS5":"47","C12_POP15P_CS6":"43","C12_POP15P_CS7":"83","C12_POP15P_CS8":"20","TxCS6":"20.093458"}
,{"CODGEO":"37256","REG":"24","DEP":"37","LIBGEO":"Theneuil","P12_POP":"320","C12_POP15P":"257","C12_POP15P_CS1":"0","C12_POP15P_CS2":"8","C12_POP15P_CS3":"4","C12_POP15P_CS4":"37","C12_POP15P_CS5":"41","C12_POP15P_CS6":"61","C12_POP15P_CS7":"69","C12_POP15P_CS8":"37","TxCS6":"23.735409"}
,{"CODGEO":"37257","REG":"24","DEP":"37","LIBGEO":"Thilouze","P12_POP":"1628","C12_POP15P":"1235","C12_POP15P_CS1":"40","C12_POP15P_CS2":"56","C12_POP15P_CS3":"88","C12_POP15P_CS4":"207","C12_POP15P_CS5":"239","C12_POP15P_CS6":"247","C12_POP15P_CS7":"255","C12_POP15P_CS8":"105","TxCS6":"20.0"}
,{"CODGEO":"37258","REG":"24","DEP":"37","LIBGEO":"Thizay","P12_POP":"283","C12_POP15P":"244","C12_POP15P_CS1":"0","C12_POP15P_CS2":"12","C12_POP15P_CS3":"12","C12_POP15P_CS4":"40","C12_POP15P_CS5":"28","C12_POP15P_CS6":"56","C12_POP15P_CS7":"72","C12_POP15P_CS8":"24","TxCS6":"22.950819"}
,{"CODGEO":"37259","REG":"24","DEP":"37","LIBGEO":"Tournon-Saint-Pierre","P12_POP":"459","C12_POP15P":"380","C12_POP15P_CS1":"4","C12_POP15P_CS2":"8","C12_POP15P_CS3":"20","C12_POP15P_CS4":"20","C12_POP15P_CS5":"72","C12_POP15P_CS6":"56","C12_POP15P_CS7":"172","C12_POP15P_CS8":"28","TxCS6":"14.736841"}
,{"CODGEO":"37260","REG":"24","DEP":"37","LIBGEO":"La Tour-Saint-Gelin","P12_POP":"546","C12_POP15P":"433","C12_POP15P_CS1":"44","C12_POP15P_CS2":"32","C12_POP15P_CS3":"12","C12_POP15P_CS4":"28","C12_POP15P_CS5":"60","C12_POP15P_CS6":"52","C12_POP15P_CS7":"164","C12_POP15P_CS8":"40","TxCS6":"12.009237"}
,{"CODGEO":"37261","REG":"24","DEP":"37","LIBGEO":"Tours","P12_POP":"134978","C12_POP15P":"115725","C12_POP15P_CS1":"24","C12_POP15P_CS2":"2458","C12_POP15P_CS3":"12037","C12_POP15P_CS4":"16652","C12_POP15P_CS5":"18810","C12_POP15P_CS6":"12395","C12_POP15P_CS7":"27432","C12_POP15P_CS8":"25917","TxCS6":"10.710736"}
,{"CODGEO":"37262","REG":"24","DEP":"37","LIBGEO":"Trogues","P12_POP":"331","C12_POP15P":"282","C12_POP15P_CS1":"5","C12_POP15P_CS2":"15","C12_POP15P_CS3":"0","C12_POP15P_CS4":"31","C12_POP15P_CS5":"67","C12_POP15P_CS6":"61","C12_POP15P_CS7":"67","C12_POP15P_CS8":"36","TxCS6":"21.631205"}
,{"CODGEO":"37263","REG":"24","DEP":"37","LIBGEO":"Truyes","P12_POP":"2111","C12_POP15P":"1702","C12_POP15P_CS1":"20","C12_POP15P_CS2":"72","C12_POP15P_CS3":"116","C12_POP15P_CS4":"328","C12_POP15P_CS5":"304","C12_POP15P_CS6":"280","C12_POP15P_CS7":"392","C12_POP15P_CS8":"188","TxCS6":"16.451233"}
,{"CODGEO":"37264","REG":"24","DEP":"37","LIBGEO":"Vallères","P12_POP":"1126","C12_POP15P":"882","C12_POP15P_CS1":"20","C12_POP15P_CS2":"32","C12_POP15P_CS3":"40","C12_POP15P_CS4":"156","C12_POP15P_CS5":"200","C12_POP15P_CS6":"164","C12_POP15P_CS7":"184","C12_POP15P_CS8":"88","TxCS6":"18.594105"}
,{"CODGEO":"37265","REG":"24","DEP":"37","LIBGEO":"Varennes","P12_POP":"242","C12_POP15P":"184","C12_POP15P_CS1":"4","C12_POP15P_CS2":"16","C12_POP15P_CS3":"28","C12_POP15P_CS4":"16","C12_POP15P_CS5":"24","C12_POP15P_CS6":"28","C12_POP15P_CS7":"44","C12_POP15P_CS8":"24","TxCS6":"15.217391"}
,{"CODGEO":"37266","REG":"24","DEP":"37","LIBGEO":"Veigné","P12_POP":"6088","C12_POP15P":"4965","C12_POP15P_CS1":"4","C12_POP15P_CS2":"211","C12_POP15P_CS3":"507","C12_POP15P_CS4":"928","C12_POP15P_CS5":"823","C12_POP15P_CS6":"436","C12_POP15P_CS7":"1493","C12_POP15P_CS8":"564","TxCS6":"8.78147"}
,{"CODGEO":"37267","REG":"24","DEP":"37","LIBGEO":"Véretz","P12_POP":"4303","C12_POP15P":"3255","C12_POP15P_CS1":"4","C12_POP15P_CS2":"90","C12_POP15P_CS3":"416","C12_POP15P_CS4":"652","C12_POP15P_CS5":"620","C12_POP15P_CS6":"408","C12_POP15P_CS7":"746","C12_POP15P_CS8":"318","TxCS6":"12.534562"}
,{"CODGEO":"37268","REG":"24","DEP":"37","LIBGEO":"Verneuil-le-Château","P12_POP":"144","C12_POP15P":"116","C12_POP15P_CS1":"17","C12_POP15P_CS2":"0","C12_POP15P_CS3":"6","C12_POP15P_CS4":"0","C12_POP15P_CS5":"22","C12_POP15P_CS6":"22","C12_POP15P_CS7":"39","C12_POP15P_CS8":"11","TxCS6":"18.965517"}
,{"CODGEO":"37269","REG":"24","DEP":"37","LIBGEO":"Verneuil-sur-Indre","P12_POP":"516","C12_POP15P":"441","C12_POP15P_CS1":"12","C12_POP15P_CS2":"24","C12_POP15P_CS3":"12","C12_POP15P_CS4":"40","C12_POP15P_CS5":"64","C12_POP15P_CS6":"75","C12_POP15P_CS7":"143","C12_POP15P_CS8":"71","TxCS6":"17.006802"}
,{"CODGEO":"37270","REG":"24","DEP":"37","LIBGEO":"Vernou-sur-Brenne","P12_POP":"2651","C12_POP15P":"2147","C12_POP15P_CS1":"64","C12_POP15P_CS2":"169","C12_POP15P_CS3":"172","C12_POP15P_CS4":"269","C12_POP15P_CS5":"289","C12_POP15P_CS6":"265","C12_POP15P_CS7":"610","C12_POP15P_CS8":"308","TxCS6":"12.342804"}
,{"CODGEO":"37271","REG":"24","DEP":"37","LIBGEO":"Villaines-les-Rochers","P12_POP":"1006","C12_POP15P":"833","C12_POP15P_CS1":"29","C12_POP15P_CS2":"25","C12_POP15P_CS3":"29","C12_POP15P_CS4":"115","C12_POP15P_CS5":"139","C12_POP15P_CS6":"156","C12_POP15P_CS7":"250","C12_POP15P_CS8":"90","TxCS6":"18.72749"}
,{"CODGEO":"37272","REG":"24","DEP":"37","LIBGEO":"Villandry","P12_POP":"1072","C12_POP15P":"804","C12_POP15P_CS1":"0","C12_POP15P_CS2":"25","C12_POP15P_CS3":"74","C12_POP15P_CS4":"191","C12_POP15P_CS5":"151","C12_POP15P_CS6":"108","C12_POP15P_CS7":"186","C12_POP15P_CS8":"69","TxCS6":"13.432837"}
,{"CODGEO":"37273","REG":"24","DEP":"37","LIBGEO":"La Ville-aux-Dames","P12_POP":"5021","C12_POP15P":"4132","C12_POP15P_CS1":"16","C12_POP15P_CS2":"96","C12_POP15P_CS3":"215","C12_POP15P_CS4":"668","C12_POP15P_CS5":"693","C12_POP15P_CS6":"552","C12_POP15P_CS7":"1410","C12_POP15P_CS8":"483","TxCS6":"13.359149"}
,{"CODGEO":"37274","REG":"24","DEP":"37","LIBGEO":"Villebourg","P12_POP":"289","C12_POP15P":"236","C12_POP15P_CS1":"12","C12_POP15P_CS2":"8","C12_POP15P_CS3":"12","C12_POP15P_CS4":"28","C12_POP15P_CS5":"24","C12_POP15P_CS6":"72","C12_POP15P_CS7":"60","C12_POP15P_CS8":"20","TxCS6":"30.508474"}
,{"CODGEO":"37275","REG":"24","DEP":"37","LIBGEO":"Villedômain","P12_POP":"131","C12_POP15P":"120","C12_POP15P_CS1":"8","C12_POP15P_CS2":"16","C12_POP15P_CS3":"8","C12_POP15P_CS4":"4","C12_POP15P_CS5":"16","C12_POP15P_CS6":"24","C12_POP15P_CS7":"28","C12_POP15P_CS8":"16","TxCS6":"20.0"}
,{"CODGEO":"37276","REG":"24","DEP":"37","LIBGEO":"Villedômer","P12_POP":"1378","C12_POP15P":"1084","C12_POP15P_CS1":"28","C12_POP15P_CS2":"32","C12_POP15P_CS3":"79","C12_POP15P_CS4":"177","C12_POP15P_CS5":"169","C12_POP15P_CS6":"126","C12_POP15P_CS7":"280","C12_POP15P_CS8":"194","TxCS6":"11.623616"}
,{"CODGEO":"37277","REG":"24","DEP":"37","LIBGEO":"Villeloin-Coulangé","P12_POP":"643","C12_POP15P":"528","C12_POP15P_CS1":"40","C12_POP15P_CS2":"20","C12_POP15P_CS3":"8","C12_POP15P_CS4":"52","C12_POP15P_CS5":"64","C12_POP15P_CS6":"44","C12_POP15P_CS7":"256","C12_POP15P_CS8":"44","TxCS6":"8.333334"}
,{"CODGEO":"37278","REG":"24","DEP":"37","LIBGEO":"Villeperdue","P12_POP":"988","C12_POP15P":"740","C12_POP15P_CS1":"12","C12_POP15P_CS2":"40","C12_POP15P_CS3":"32","C12_POP15P_CS4":"124","C12_POP15P_CS5":"168","C12_POP15P_CS6":"160","C12_POP15P_CS7":"132","C12_POP15P_CS8":"72","TxCS6":"21.621622"}
,{"CODGEO":"37279","REG":"24","DEP":"37","LIBGEO":"Villiers-au-Bouin","P12_POP":"780","C12_POP15P":"600","C12_POP15P_CS1":"20","C12_POP15P_CS2":"45","C12_POP15P_CS3":"16","C12_POP15P_CS4":"61","C12_POP15P_CS5":"109","C12_POP15P_CS6":"126","C12_POP15P_CS7":"154","C12_POP15P_CS8":"69","TxCS6":"21.0"}
,{"CODGEO":"37280","REG":"24","DEP":"37","LIBGEO":"Vou","P12_POP":"234","C12_POP15P":"192","C12_POP15P_CS1":"0","C12_POP15P_CS2":"29","C12_POP15P_CS3":"4","C12_POP15P_CS4":"50","C12_POP15P_CS5":"13","C12_POP15P_CS6":"8","C12_POP15P_CS7":"67","C12_POP15P_CS8":"21","TxCS6":"4.166667"}
,{"CODGEO":"37281","REG":"24","DEP":"37","LIBGEO":"Vouvray","P12_POP":"3046","C12_POP15P":"2502","C12_POP15P_CS1":"52","C12_POP15P_CS2":"80","C12_POP15P_CS3":"285","C12_POP15P_CS4":"458","C12_POP15P_CS5":"303","C12_POP15P_CS6":"286","C12_POP15P_CS7":"639","C12_POP15P_CS8":"400","TxCS6":"11.430855"}
,{"CODGEO":"37282","REG":"24","DEP":"37","LIBGEO":"Yzeures-sur-Creuse","P12_POP":"1436","C12_POP15P":"1228","C12_POP15P_CS1":"44","C12_POP15P_CS2":"44","C12_POP15P_CS3":"52","C12_POP15P_CS4":"92","C12_POP15P_CS5":"196","C12_POP15P_CS6":"132","C12_POP15P_CS7":"548","C12_POP15P_CS8":"120","TxCS6":"10.749186"}
]}
