{"status":"success","data":[{"CODGEO":"44001","REG":"52","DEP":"44","LIBGEO":"Abbaretz","P12_POP":"1956","C12_POP15P":"1450","C12_POP15P_CS1":"106","C12_POP15P_CS2":"49","C12_POP15P_CS3":"78","C12_POP15P_CS4":"155","C12_POP15P_CS5":"208","C12_POP15P_CS6":"282","C12_POP15P_CS7":"408","C12_POP15P_CS8":"163","TxCS6":"19.448277"}
,{"CODGEO":"44002","REG":"52","DEP":"44","LIBGEO":"Aigrefeuille-sur-Maine","P12_POP":"3414","C12_POP15P":"2481","C12_POP15P_CS1":"37","C12_POP15P_CS2":"95","C12_POP15P_CS3":"152","C12_POP15P_CS4":"518","C12_POP15P_CS5":"510","C12_POP15P_CS6":"448","C12_POP15P_CS7":"511","C12_POP15P_CS8":"210","TxCS6":"18.057234"}
,{"CODGEO":"44003","REG":"52","DEP":"44","LIBGEO":"Ancenis","P12_POP":"7504","C12_POP15P":"6014","C12_POP15P_CS1":"8","C12_POP15P_CS2":"109","C12_POP15P_CS3":"475","C12_POP15P_CS4":"852","C12_POP15P_CS5":"921","C12_POP15P_CS6":"861","C12_POP15P_CS7":"1971","C12_POP15P_CS8":"818","TxCS6":"14.316595"}
,{"CODGEO":"44004","REG":"52","DEP":"44","LIBGEO":"Anetz","P12_POP":"1982","C12_POP15P":"1478","C12_POP15P_CS1":"14","C12_POP15P_CS2":"39","C12_POP15P_CS3":"72","C12_POP15P_CS4":"299","C12_POP15P_CS5":"217","C12_POP15P_CS6":"318","C12_POP15P_CS7":"384","C12_POP15P_CS8":"135","TxCS6":"21.515562"}
,{"CODGEO":"44005","REG":"52","DEP":"44","LIBGEO":"Arthon-en-Retz","P12_POP":"3986","C12_POP15P":"2996","C12_POP15P_CS1":"72","C12_POP15P_CS2":"93","C12_POP15P_CS3":"119","C12_POP15P_CS4":"357","C12_POP15P_CS5":"577","C12_POP15P_CS6":"734","C12_POP15P_CS7":"781","C12_POP15P_CS8":"262","TxCS6":"24.499332"}
,{"CODGEO":"44006","REG":"52","DEP":"44","LIBGEO":"Assérac","P12_POP":"1795","C12_POP15P":"1405","C12_POP15P_CS1":"64","C12_POP15P_CS2":"76","C12_POP15P_CS3":"44","C12_POP15P_CS4":"193","C12_POP15P_CS5":"229","C12_POP15P_CS6":"269","C12_POP15P_CS7":"401","C12_POP15P_CS8":"128","TxCS6":"19.145908"}
,{"CODGEO":"44007","REG":"52","DEP":"44","LIBGEO":"Avessac","P12_POP":"2494","C12_POP15P":"1976","C12_POP15P_CS1":"120","C12_POP15P_CS2":"72","C12_POP15P_CS3":"36","C12_POP15P_CS4":"228","C12_POP15P_CS5":"256","C12_POP15P_CS6":"368","C12_POP15P_CS7":"648","C12_POP15P_CS8":"248","TxCS6":"18.623482"}
,{"CODGEO":"44008","REG":"52","DEP":"44","LIBGEO":"Barbechat","P12_POP":"1320","C12_POP15P":"1033","C12_POP15P_CS1":"0","C12_POP15P_CS2":"55","C12_POP15P_CS3":"47","C12_POP15P_CS4":"162","C12_POP15P_CS5":"213","C12_POP15P_CS6":"256","C12_POP15P_CS7":"193","C12_POP15P_CS8":"106","TxCS6":"24.782188"}
,{"CODGEO":"44009","REG":"52","DEP":"44","LIBGEO":"Basse-Goulaine","P12_POP":"8244","C12_POP15P":"6740","C12_POP15P_CS1":"12","C12_POP15P_CS2":"240","C12_POP15P_CS3":"940","C12_POP15P_CS4":"1244","C12_POP15P_CS5":"952","C12_POP15P_CS6":"604","C12_POP15P_CS7":"1604","C12_POP15P_CS8":"1144","TxCS6":"8.961424"}
,{"CODGEO":"44010","REG":"52","DEP":"44","LIBGEO":"Batz-sur-Mer","P12_POP":"3030","C12_POP15P":"2595","C12_POP15P_CS1":"56","C12_POP15P_CS2":"156","C12_POP15P_CS3":"121","C12_POP15P_CS4":"279","C12_POP15P_CS5":"409","C12_POP15P_CS6":"311","C12_POP15P_CS7":"1012","C12_POP15P_CS8":"252","TxCS6":"11.984586"}
,{"CODGEO":"44011","REG":"52","DEP":"44","LIBGEO":"Belligné","P12_POP":"1786","C12_POP15P":"1410","C12_POP15P_CS1":"44","C12_POP15P_CS2":"58","C12_POP15P_CS3":"44","C12_POP15P_CS4":"150","C12_POP15P_CS5":"207","C12_POP15P_CS6":"280","C12_POP15P_CS7":"433","C12_POP15P_CS8":"194","TxCS6":"19.858156"}
,{"CODGEO":"44012","REG":"52","DEP":"44","LIBGEO":"La Bernerie-en-Retz","P12_POP":"2603","C12_POP15P":"2250","C12_POP15P_CS1":"8","C12_POP15P_CS2":"128","C12_POP15P_CS3":"96","C12_POP15P_CS4":"237","C12_POP15P_CS5":"264","C12_POP15P_CS6":"189","C12_POP15P_CS7":"1152","C12_POP15P_CS8":"176","TxCS6":"8.4"}
,{"CODGEO":"44013","REG":"52","DEP":"44","LIBGEO":"Besné","P12_POP":"2750","C12_POP15P":"2043","C12_POP15P_CS1":"21","C12_POP15P_CS2":"75","C12_POP15P_CS3":"66","C12_POP15P_CS4":"301","C12_POP15P_CS5":"374","C12_POP15P_CS6":"486","C12_POP15P_CS7":"471","C12_POP15P_CS8":"248","TxCS6":"23.788546"}
,{"CODGEO":"44014","REG":"52","DEP":"44","LIBGEO":"Le Bignon","P12_POP":"3454","C12_POP15P":"2600","C12_POP15P_CS1":"20","C12_POP15P_CS2":"88","C12_POP15P_CS3":"224","C12_POP15P_CS4":"484","C12_POP15P_CS5":"500","C12_POP15P_CS6":"432","C12_POP15P_CS7":"636","C12_POP15P_CS8":"216","TxCS6":"16.615385"}
,{"CODGEO":"44015","REG":"52","DEP":"44","LIBGEO":"Blain","P12_POP":"9491","C12_POP15P":"7426","C12_POP15P_CS1":"89","C12_POP15P_CS2":"270","C12_POP15P_CS3":"403","C12_POP15P_CS4":"1095","C12_POP15P_CS5":"1339","C12_POP15P_CS6":"1263","C12_POP15P_CS7":"2124","C12_POP15P_CS8":"844","TxCS6":"17.00781"}
,{"CODGEO":"44016","REG":"52","DEP":"44","LIBGEO":"La Boissière-du-Doré","P12_POP":"958","C12_POP15P":"735","C12_POP15P_CS1":"18","C12_POP15P_CS2":"14","C12_POP15P_CS3":"28","C12_POP15P_CS4":"97","C12_POP15P_CS5":"211","C12_POP15P_CS6":"230","C12_POP15P_CS7":"100","C12_POP15P_CS8":"37","TxCS6":"31.292517"}
,{"CODGEO":"44017","REG":"52","DEP":"44","LIBGEO":"Bonnoeuvre","P12_POP":"558","C12_POP15P":"441","C12_POP15P_CS1":"20","C12_POP15P_CS2":"16","C12_POP15P_CS3":"16","C12_POP15P_CS4":"40","C12_POP15P_CS5":"60","C12_POP15P_CS6":"115","C12_POP15P_CS7":"131","C12_POP15P_CS8":"44","TxCS6":"26.077097"}
,{"CODGEO":"44018","REG":"52","DEP":"44","LIBGEO":"Bouaye","P12_POP":"6160","C12_POP15P":"4950","C12_POP15P_CS1":"16","C12_POP15P_CS2":"165","C12_POP15P_CS3":"503","C12_POP15P_CS4":"960","C12_POP15P_CS5":"860","C12_POP15P_CS6":"508","C12_POP15P_CS7":"1268","C12_POP15P_CS8":"669","TxCS6":"10.262627"}
,{"CODGEO":"44019","REG":"52","DEP":"44","LIBGEO":"Bouée","P12_POP":"892","C12_POP15P":"670","C12_POP15P_CS1":"16","C12_POP15P_CS2":"28","C12_POP15P_CS3":"65","C12_POP15P_CS4":"97","C12_POP15P_CS5":"110","C12_POP15P_CS6":"110","C12_POP15P_CS7":"146","C12_POP15P_CS8":"97","TxCS6":"16.41791"}
,{"CODGEO":"44020","REG":"52","DEP":"44","LIBGEO":"Bouguenais","P12_POP":"18382","C12_POP15P":"14705","C12_POP15P_CS1":"35","C12_POP15P_CS2":"385","C12_POP15P_CS3":"1206","C12_POP15P_CS4":"2519","C12_POP15P_CS5":"2566","C12_POP15P_CS6":"2021","C12_POP15P_CS7":"3831","C12_POP15P_CS8":"2142","TxCS6":"13.743624"}
,{"CODGEO":"44021","REG":"52","DEP":"44","LIBGEO":"Bourgneuf-en-Retz","P12_POP":"3504","C12_POP15P":"2677","C12_POP15P_CS1":"62","C12_POP15P_CS2":"119","C12_POP15P_CS3":"99","C12_POP15P_CS4":"325","C12_POP15P_CS5":"425","C12_POP15P_CS6":"514","C12_POP15P_CS7":"877","C12_POP15P_CS8":"256","TxCS6":"19.200598"}
,{"CODGEO":"44022","REG":"52","DEP":"44","LIBGEO":"Boussay","P12_POP":"2692","C12_POP15P":"2131","C12_POP15P_CS1":"24","C12_POP15P_CS2":"56","C12_POP15P_CS3":"68","C12_POP15P_CS4":"225","C12_POP15P_CS5":"345","C12_POP15P_CS6":"582","C12_POP15P_CS7":"643","C12_POP15P_CS8":"187","TxCS6":"27.311123"}
,{"CODGEO":"44023","REG":"52","DEP":"44","LIBGEO":"Bouvron","P12_POP":"2961","C12_POP15P":"2196","C12_POP15P_CS1":"48","C12_POP15P_CS2":"102","C12_POP15P_CS3":"179","C12_POP15P_CS4":"368","C12_POP15P_CS5":"319","C12_POP15P_CS6":"416","C12_POP15P_CS7":"572","C12_POP15P_CS8":"192","TxCS6":"18.943533"}
,{"CODGEO":"44024","REG":"52","DEP":"44","LIBGEO":"Brains","P12_POP":"2587","C12_POP15P":"1960","C12_POP15P_CS1":"12","C12_POP15P_CS2":"56","C12_POP15P_CS3":"192","C12_POP15P_CS4":"412","C12_POP15P_CS5":"376","C12_POP15P_CS6":"256","C12_POP15P_CS7":"408","C12_POP15P_CS8":"248","TxCS6":"13.061224"}
,{"CODGEO":"44025","REG":"52","DEP":"44","LIBGEO":"Campbon","P12_POP":"3866","C12_POP15P":"2913","C12_POP15P_CS1":"54","C12_POP15P_CS2":"83","C12_POP15P_CS3":"201","C12_POP15P_CS4":"436","C12_POP15P_CS5":"485","C12_POP15P_CS6":"581","C12_POP15P_CS7":"753","C12_POP15P_CS8":"319","TxCS6":"19.945072"}
,{"CODGEO":"44026","REG":"52","DEP":"44","LIBGEO":"Carquefou","P12_POP":"18398","C12_POP15P":"14880","C12_POP15P_CS1":"87","C12_POP15P_CS2":"455","C12_POP15P_CS3":"2436","C12_POP15P_CS4":"2537","C12_POP15P_CS5":"2097","C12_POP15P_CS6":"1244","C12_POP15P_CS7":"3176","C12_POP15P_CS8":"2847","TxCS6":"8.360215"}
,{"CODGEO":"44027","REG":"52","DEP":"44","LIBGEO":"Casson","P12_POP":"2101","C12_POP15P":"1465","C12_POP15P_CS1":"20","C12_POP15P_CS2":"52","C12_POP15P_CS3":"207","C12_POP15P_CS4":"283","C12_POP15P_CS5":"287","C12_POP15P_CS6":"235","C12_POP15P_CS7":"239","C12_POP15P_CS8":"143","TxCS6":"16.040955"}
,{"CODGEO":"44028","REG":"52","DEP":"44","LIBGEO":"Le Cellier","P12_POP":"3726","C12_POP15P":"2962","C12_POP15P_CS1":"25","C12_POP15P_CS2":"161","C12_POP15P_CS3":"334","C12_POP15P_CS4":"512","C12_POP15P_CS5":"454","C12_POP15P_CS6":"335","C12_POP15P_CS7":"838","C12_POP15P_CS8":"303","TxCS6":"11.309925"}
,{"CODGEO":"44029","REG":"52","DEP":"44","LIBGEO":"La Chapelle-Basse-Mer","P12_POP":"5221","C12_POP15P":"4060","C12_POP15P_CS1":"56","C12_POP15P_CS2":"161","C12_POP15P_CS3":"290","C12_POP15P_CS4":"628","C12_POP15P_CS5":"726","C12_POP15P_CS6":"803","C12_POP15P_CS7":"1008","C12_POP15P_CS8":"388","TxCS6":"19.778324"}
,{"CODGEO":"44030","REG":"52","DEP":"44","LIBGEO":"La Chapelle-des-Marais","P12_POP":"3901","C12_POP15P":"3009","C12_POP15P_CS1":"5","C12_POP15P_CS2":"93","C12_POP15P_CS3":"101","C12_POP15P_CS4":"424","C12_POP15P_CS5":"529","C12_POP15P_CS6":"576","C12_POP15P_CS7":"939","C12_POP15P_CS8":"344","TxCS6":"19.142572"}
,{"CODGEO":"44031","REG":"52","DEP":"44","LIBGEO":"La Chapelle-Glain","P12_POP":"826","C12_POP15P":"646","C12_POP15P_CS1":"48","C12_POP15P_CS2":"36","C12_POP15P_CS3":"8","C12_POP15P_CS4":"36","C12_POP15P_CS5":"76","C12_POP15P_CS6":"124","C12_POP15P_CS7":"265","C12_POP15P_CS8":"52","TxCS6":"19.195047"}
,{"CODGEO":"44032","REG":"52","DEP":"44","LIBGEO":"La Chapelle-Heulin","P12_POP":"3209","C12_POP15P":"2268","C12_POP15P_CS1":"8","C12_POP15P_CS2":"104","C12_POP15P_CS3":"180","C12_POP15P_CS4":"504","C12_POP15P_CS5":"392","C12_POP15P_CS6":"352","C12_POP15P_CS7":"556","C12_POP15P_CS8":"172","TxCS6":"15.520282"}
,{"CODGEO":"44033","REG":"52","DEP":"44","LIBGEO":"La Chapelle-Launay","P12_POP":"2803","C12_POP15P":"2152","C12_POP15P_CS1":"32","C12_POP15P_CS2":"56","C12_POP15P_CS3":"172","C12_POP15P_CS4":"372","C12_POP15P_CS5":"420","C12_POP15P_CS6":"356","C12_POP15P_CS7":"520","C12_POP15P_CS8":"224","TxCS6":"16.542751"}
,{"CODGEO":"44034","REG":"52","DEP":"44","LIBGEO":"La Chapelle-Saint-Sauveur","P12_POP":"794","C12_POP15P":"587","C12_POP15P_CS1":"36","C12_POP15P_CS2":"32","C12_POP15P_CS3":"20","C12_POP15P_CS4":"72","C12_POP15P_CS5":"92","C12_POP15P_CS6":"145","C12_POP15P_CS7":"133","C12_POP15P_CS8":"56","TxCS6":"24.701874"}
,{"CODGEO":"44035","REG":"52","DEP":"44","LIBGEO":"La Chapelle-sur-Erdre","P12_POP":"17709","C12_POP15P":"14181","C12_POP15P_CS1":"24","C12_POP15P_CS2":"441","C12_POP15P_CS3":"2406","C12_POP15P_CS4":"2616","C12_POP15P_CS5":"1957","C12_POP15P_CS6":"967","C12_POP15P_CS7":"3802","C12_POP15P_CS8":"1968","TxCS6":"6.818983"}
,{"CODGEO":"44036","REG":"52","DEP":"44","LIBGEO":"Châteaubriant","P12_POP":"11905","C12_POP15P":"9803","C12_POP15P_CS1":"61","C12_POP15P_CS2":"299","C12_POP15P_CS3":"493","C12_POP15P_CS4":"1084","C12_POP15P_CS5":"1471","C12_POP15P_CS6":"1485","C12_POP15P_CS7":"3336","C12_POP15P_CS8":"1574","TxCS6":"15.148423"}
,{"CODGEO":"44037","REG":"52","DEP":"44","LIBGEO":"Château-Thébaud","P12_POP":"2926","C12_POP15P":"2298","C12_POP15P_CS1":"28","C12_POP15P_CS2":"101","C12_POP15P_CS3":"230","C12_POP15P_CS4":"441","C12_POP15P_CS5":"389","C12_POP15P_CS6":"300","C12_POP15P_CS7":"542","C12_POP15P_CS8":"266","TxCS6":"13.05483"}
,{"CODGEO":"44038","REG":"52","DEP":"44","LIBGEO":"Chauvé","P12_POP":"2604","C12_POP15P":"2012","C12_POP15P_CS1":"8","C12_POP15P_CS2":"100","C12_POP15P_CS3":"100","C12_POP15P_CS4":"260","C12_POP15P_CS5":"312","C12_POP15P_CS6":"452","C12_POP15P_CS7":"520","C12_POP15P_CS8":"260","TxCS6":"22.465208"}
,{"CODGEO":"44039","REG":"52","DEP":"44","LIBGEO":"Cheix-en-Retz","P12_POP":"913","C12_POP15P":"640","C12_POP15P_CS1":"8","C12_POP15P_CS2":"48","C12_POP15P_CS3":"44","C12_POP15P_CS4":"104","C12_POP15P_CS5":"104","C12_POP15P_CS6":"128","C12_POP15P_CS7":"136","C12_POP15P_CS8":"68","TxCS6":"20.0"}
,{"CODGEO":"44040","REG":"52","DEP":"44","LIBGEO":"Chéméré","P12_POP":"2436","C12_POP15P":"1852","C12_POP15P_CS1":"36","C12_POP15P_CS2":"68","C12_POP15P_CS3":"124","C12_POP15P_CS4":"324","C12_POP15P_CS5":"316","C12_POP15P_CS6":"388","C12_POP15P_CS7":"416","C12_POP15P_CS8":"180","TxCS6":"20.950323"}
,{"CODGEO":"44041","REG":"52","DEP":"44","LIBGEO":"La Chevrolière","P12_POP":"5164","C12_POP15P":"4168","C12_POP15P_CS1":"59","C12_POP15P_CS2":"193","C12_POP15P_CS3":"311","C12_POP15P_CS4":"776","C12_POP15P_CS5":"697","C12_POP15P_CS6":"709","C12_POP15P_CS7":"948","C12_POP15P_CS8":"476","TxCS6":"17.010555"}
,{"CODGEO":"44043","REG":"52","DEP":"44","LIBGEO":"Clisson","P12_POP":"6633","C12_POP15P":"5472","C12_POP15P_CS1":"12","C12_POP15P_CS2":"224","C12_POP15P_CS3":"560","C12_POP15P_CS4":"840","C12_POP15P_CS5":"868","C12_POP15P_CS6":"676","C12_POP15P_CS7":"1552","C12_POP15P_CS8":"740","TxCS6":"12.353801"}
,{"CODGEO":"44044","REG":"52","DEP":"44","LIBGEO":"Conquereuil","P12_POP":"1061","C12_POP15P":"811","C12_POP15P_CS1":"41","C12_POP15P_CS2":"20","C12_POP15P_CS3":"28","C12_POP15P_CS4":"81","C12_POP15P_CS5":"174","C12_POP15P_CS6":"191","C12_POP15P_CS7":"199","C12_POP15P_CS8":"77","TxCS6":"23.551172"}
,{"CODGEO":"44045","REG":"52","DEP":"44","LIBGEO":"Cordemais","P12_POP":"3294","C12_POP15P":"2482","C12_POP15P_CS1":"32","C12_POP15P_CS2":"110","C12_POP15P_CS3":"156","C12_POP15P_CS4":"451","C12_POP15P_CS5":"504","C12_POP15P_CS6":"454","C12_POP15P_CS7":"471","C12_POP15P_CS8":"304","TxCS6":"18.2917"}
,{"CODGEO":"44046","REG":"52","DEP":"44","LIBGEO":"Corsept","P12_POP":"2721","C12_POP15P":"1992","C12_POP15P_CS1":"20","C12_POP15P_CS2":"80","C12_POP15P_CS3":"76","C12_POP15P_CS4":"325","C12_POP15P_CS5":"454","C12_POP15P_CS6":"446","C12_POP15P_CS7":"394","C12_POP15P_CS8":"197","TxCS6":"22.389559"}
,{"CODGEO":"44047","REG":"52","DEP":"44","LIBGEO":"Couëron","P12_POP":"19765","C12_POP15P":"15723","C12_POP15P_CS1":"41","C12_POP15P_CS2":"542","C12_POP15P_CS3":"1355","C12_POP15P_CS4":"2610","C12_POP15P_CS5":"2684","C12_POP15P_CS6":"2161","C12_POP15P_CS7":"4228","C12_POP15P_CS8":"2103","TxCS6":"13.744196"}
,{"CODGEO":"44048","REG":"52","DEP":"44","LIBGEO":"Couffé","P12_POP":"2330","C12_POP15P":"1730","C12_POP15P_CS1":"41","C12_POP15P_CS2":"73","C12_POP15P_CS3":"114","C12_POP15P_CS4":"334","C12_POP15P_CS5":"370","C12_POP15P_CS6":"317","C12_POP15P_CS7":"346","C12_POP15P_CS8":"134","TxCS6":"18.3237"}
,{"CODGEO":"44049","REG":"52","DEP":"44","LIBGEO":"Le Croisic","P12_POP":"4040","C12_POP15P":"3682","C12_POP15P_CS1":"16","C12_POP15P_CS2":"88","C12_POP15P_CS3":"145","C12_POP15P_CS4":"257","C12_POP15P_CS5":"526","C12_POP15P_CS6":"321","C12_POP15P_CS7":"1956","C12_POP15P_CS8":"372","TxCS6":"8.718088"}
,{"CODGEO":"44050","REG":"52","DEP":"44","LIBGEO":"Crossac","P12_POP":"2808","C12_POP15P":"2112","C12_POP15P_CS1":"4","C12_POP15P_CS2":"56","C12_POP15P_CS3":"80","C12_POP15P_CS4":"328","C12_POP15P_CS5":"352","C12_POP15P_CS6":"512","C12_POP15P_CS7":"568","C12_POP15P_CS8":"212","TxCS6":"24.242424"}
,{"CODGEO":"44051","REG":"52","DEP":"44","LIBGEO":"Derval","P12_POP":"3422","C12_POP15P":"2644","C12_POP15P_CS1":"108","C12_POP15P_CS2":"56","C12_POP15P_CS3":"100","C12_POP15P_CS4":"304","C12_POP15P_CS5":"420","C12_POP15P_CS6":"532","C12_POP15P_CS7":"732","C12_POP15P_CS8":"392","TxCS6":"20.121029"}
,{"CODGEO":"44052","REG":"52","DEP":"44","LIBGEO":"Donges","P12_POP":"7092","C12_POP15P":"5504","C12_POP15P_CS1":"29","C12_POP15P_CS2":"136","C12_POP15P_CS3":"107","C12_POP15P_CS4":"718","C12_POP15P_CS5":"1015","C12_POP15P_CS6":"1246","C12_POP15P_CS7":"1518","C12_POP15P_CS8":"734","TxCS6":"22.63808"}
,{"CODGEO":"44053","REG":"52","DEP":"44","LIBGEO":"Drefféac","P12_POP":"2031","C12_POP15P":"1560","C12_POP15P_CS1":"8","C12_POP15P_CS2":"40","C12_POP15P_CS3":"52","C12_POP15P_CS4":"240","C12_POP15P_CS5":"304","C12_POP15P_CS6":"368","C12_POP15P_CS7":"348","C12_POP15P_CS8":"200","TxCS6":"23.589745"}
,{"CODGEO":"44054","REG":"52","DEP":"44","LIBGEO":"Erbray","P12_POP":"2945","C12_POP15P":"2226","C12_POP15P_CS1":"52","C12_POP15P_CS2":"48","C12_POP15P_CS3":"140","C12_POP15P_CS4":"300","C12_POP15P_CS5":"396","C12_POP15P_CS6":"468","C12_POP15P_CS7":"559","C12_POP15P_CS8":"264","TxCS6":"21.024258"}
,{"CODGEO":"44055","REG":"52","DEP":"44","LIBGEO":"La Baule-Escoublac","P12_POP":"15474","C12_POP15P":"13707","C12_POP15P_CS1":"8","C12_POP15P_CS2":"708","C12_POP15P_CS3":"1192","C12_POP15P_CS4":"1582","C12_POP15P_CS5":"1524","C12_POP15P_CS6":"747","C12_POP15P_CS7":"6345","C12_POP15P_CS8":"1600","TxCS6":"5.44977"}
,{"CODGEO":"44056","REG":"52","DEP":"44","LIBGEO":"Fay-de-Bretagne","P12_POP":"3386","C12_POP15P":"2592","C12_POP15P_CS1":"105","C12_POP15P_CS2":"84","C12_POP15P_CS3":"176","C12_POP15P_CS4":"407","C12_POP15P_CS5":"537","C12_POP15P_CS6":"431","C12_POP15P_CS7":"624","C12_POP15P_CS8":"228","TxCS6":"16.628086"}
,{"CODGEO":"44057","REG":"52","DEP":"44","LIBGEO":"Fégréac","P12_POP":"2317","C12_POP15P":"1765","C12_POP15P_CS1":"41","C12_POP15P_CS2":"33","C12_POP15P_CS3":"85","C12_POP15P_CS4":"212","C12_POP15P_CS5":"309","C12_POP15P_CS6":"318","C12_POP15P_CS7":"593","C12_POP15P_CS8":"175","TxCS6":"18.016996"}
,{"CODGEO":"44058","REG":"52","DEP":"44","LIBGEO":"Fercé","P12_POP":"501","C12_POP15P":"412","C12_POP15P_CS1":"28","C12_POP15P_CS2":"4","C12_POP15P_CS3":"20","C12_POP15P_CS4":"24","C12_POP15P_CS5":"60","C12_POP15P_CS6":"116","C12_POP15P_CS7":"100","C12_POP15P_CS8":"60","TxCS6":"28.155338"}
,{"CODGEO":"44059","REG":"52","DEP":"44","LIBGEO":"Fresnay-en-Retz","P12_POP":"1249","C12_POP15P":"928","C12_POP15P_CS1":"28","C12_POP15P_CS2":"40","C12_POP15P_CS3":"24","C12_POP15P_CS4":"129","C12_POP15P_CS5":"174","C12_POP15P_CS6":"178","C12_POP15P_CS7":"265","C12_POP15P_CS8":"89","TxCS6":"19.181034"}
,{"CODGEO":"44060","REG":"52","DEP":"44","LIBGEO":"Le Fresne-sur-Loire","P12_POP":"977","C12_POP15P":"740","C12_POP15P_CS1":"4","C12_POP15P_CS2":"32","C12_POP15P_CS3":"20","C12_POP15P_CS4":"127","C12_POP15P_CS5":"123","C12_POP15P_CS6":"119","C12_POP15P_CS7":"263","C12_POP15P_CS8":"52","TxCS6":"16.081081"}
,{"CODGEO":"44061","REG":"52","DEP":"44","LIBGEO":"Frossay","P12_POP":"3078","C12_POP15P":"2343","C12_POP15P_CS1":"19","C12_POP15P_CS2":"78","C12_POP15P_CS3":"97","C12_POP15P_CS4":"359","C12_POP15P_CS5":"415","C12_POP15P_CS6":"600","C12_POP15P_CS7":"543","C12_POP15P_CS8":"232","TxCS6":"25.608194"}
,{"CODGEO":"44062","REG":"52","DEP":"44","LIBGEO":"Le Gâvre","P12_POP":"1677","C12_POP15P":"1196","C12_POP15P_CS1":"0","C12_POP15P_CS2":"45","C12_POP15P_CS3":"57","C12_POP15P_CS4":"176","C12_POP15P_CS5":"245","C12_POP15P_CS6":"261","C12_POP15P_CS7":"278","C12_POP15P_CS8":"134","TxCS6":"21.822742"}
,{"CODGEO":"44063","REG":"52","DEP":"44","LIBGEO":"Gétigné","P12_POP":"3499","C12_POP15P":"2776","C12_POP15P_CS1":"37","C12_POP15P_CS2":"60","C12_POP15P_CS3":"156","C12_POP15P_CS4":"412","C12_POP15P_CS5":"452","C12_POP15P_CS6":"661","C12_POP15P_CS7":"690","C12_POP15P_CS8":"307","TxCS6":"23.81124"}
,{"CODGEO":"44064","REG":"52","DEP":"44","LIBGEO":"Gorges","P12_POP":"4404","C12_POP15P":"3334","C12_POP15P_CS1":"46","C12_POP15P_CS2":"105","C12_POP15P_CS3":"265","C12_POP15P_CS4":"644","C12_POP15P_CS5":"585","C12_POP15P_CS6":"567","C12_POP15P_CS7":"716","C12_POP15P_CS8":"404","TxCS6":"17.006598"}
,{"CODGEO":"44065","REG":"52","DEP":"44","LIBGEO":"Grand-Auverné","P12_POP":"823","C12_POP15P":"638","C12_POP15P_CS1":"70","C12_POP15P_CS2":"12","C12_POP15P_CS3":"20","C12_POP15P_CS4":"74","C12_POP15P_CS5":"70","C12_POP15P_CS6":"131","C12_POP15P_CS7":"172","C12_POP15P_CS8":"90","TxCS6":"20.532915"}
,{"CODGEO":"44066","REG":"52","DEP":"44","LIBGEO":"Grandchamps-des-Fontaines","P12_POP":"5156","C12_POP15P":"3720","C12_POP15P_CS1":"36","C12_POP15P_CS2":"196","C12_POP15P_CS3":"464","C12_POP15P_CS4":"884","C12_POP15P_CS5":"676","C12_POP15P_CS6":"384","C12_POP15P_CS7":"584","C12_POP15P_CS8":"496","TxCS6":"10.32258"}
,{"CODGEO":"44067","REG":"52","DEP":"44","LIBGEO":"Guémené-Penfao","P12_POP":"5209","C12_POP15P":"4116","C12_POP15P_CS1":"124","C12_POP15P_CS2":"156","C12_POP15P_CS3":"168","C12_POP15P_CS4":"452","C12_POP15P_CS5":"532","C12_POP15P_CS6":"640","C12_POP15P_CS7":"1492","C12_POP15P_CS8":"552","TxCS6":"15.549077"}
,{"CODGEO":"44068","REG":"52","DEP":"44","LIBGEO":"Guenrouet","P12_POP":"3222","C12_POP15P":"2452","C12_POP15P_CS1":"116","C12_POP15P_CS2":"104","C12_POP15P_CS3":"96","C12_POP15P_CS4":"320","C12_POP15P_CS5":"428","C12_POP15P_CS6":"496","C12_POP15P_CS7":"664","C12_POP15P_CS8":"228","TxCS6":"20.228384"}
,{"CODGEO":"44069","REG":"52","DEP":"44","LIBGEO":"Guérande","P12_POP":"15722","C12_POP15P":"12792","C12_POP15P_CS1":"122","C12_POP15P_CS2":"651","C12_POP15P_CS3":"999","C12_POP15P_CS4":"1923","C12_POP15P_CS5":"2121","C12_POP15P_CS6":"1465","C12_POP15P_CS7":"3861","C12_POP15P_CS8":"1651","TxCS6":"11.45247"}
,{"CODGEO":"44070","REG":"52","DEP":"44","LIBGEO":"La Haie-Fouassière","P12_POP":"4399","C12_POP15P":"3462","C12_POP15P_CS1":"29","C12_POP15P_CS2":"200","C12_POP15P_CS3":"341","C12_POP15P_CS4":"792","C12_POP15P_CS5":"507","C12_POP15P_CS6":"380","C12_POP15P_CS7":"829","C12_POP15P_CS8":"383","TxCS6":"10.976315"}
,{"CODGEO":"44071","REG":"52","DEP":"44","LIBGEO":"Haute-Goulaine","P12_POP":"5539","C12_POP15P":"4302","C12_POP15P_CS1":"28","C12_POP15P_CS2":"119","C12_POP15P_CS3":"513","C12_POP15P_CS4":"743","C12_POP15P_CS5":"701","C12_POP15P_CS6":"418","C12_POP15P_CS7":"1025","C12_POP15P_CS8":"755","TxCS6":"9.716411"}
,{"CODGEO":"44072","REG":"52","DEP":"44","LIBGEO":"Herbignac","P12_POP":"6175","C12_POP15P":"4801","C12_POP15P_CS1":"98","C12_POP15P_CS2":"221","C12_POP15P_CS3":"177","C12_POP15P_CS4":"657","C12_POP15P_CS5":"936","C12_POP15P_CS6":"886","C12_POP15P_CS7":"1244","C12_POP15P_CS8":"583","TxCS6":"18.454489"}
,{"CODGEO":"44073","REG":"52","DEP":"44","LIBGEO":"Héric","P12_POP":"5606","C12_POP15P":"4205","C12_POP15P_CS1":"60","C12_POP15P_CS2":"157","C12_POP15P_CS3":"332","C12_POP15P_CS4":"698","C12_POP15P_CS5":"851","C12_POP15P_CS6":"711","C12_POP15P_CS7":"990","C12_POP15P_CS8":"407","TxCS6":"16.908443"}
,{"CODGEO":"44074","REG":"52","DEP":"44","LIBGEO":"Indre","P12_POP":"4032","C12_POP15P":"3136","C12_POP15P_CS1":"4","C12_POP15P_CS2":"108","C12_POP15P_CS3":"388","C12_POP15P_CS4":"605","C12_POP15P_CS5":"545","C12_POP15P_CS6":"421","C12_POP15P_CS7":"712","C12_POP15P_CS8":"352","TxCS6":"13.424746"}
,{"CODGEO":"44075","REG":"52","DEP":"44","LIBGEO":"Issé","P12_POP":"1846","C12_POP15P":"1441","C12_POP15P_CS1":"32","C12_POP15P_CS2":"48","C12_POP15P_CS3":"44","C12_POP15P_CS4":"96","C12_POP15P_CS5":"247","C12_POP15P_CS6":"338","C12_POP15P_CS7":"458","C12_POP15P_CS8":"179","TxCS6":"23.455933"}
,{"CODGEO":"44076","REG":"52","DEP":"44","LIBGEO":"Jans","P12_POP":"1226","C12_POP15P":"916","C12_POP15P_CS1":"52","C12_POP15P_CS2":"40","C12_POP15P_CS3":"56","C12_POP15P_CS4":"108","C12_POP15P_CS5":"144","C12_POP15P_CS6":"192","C12_POP15P_CS7":"260","C12_POP15P_CS8":"64","TxCS6":"20.9607"}
,{"CODGEO":"44077","REG":"52","DEP":"44","LIBGEO":"Joué-sur-Erdre","P12_POP":"2275","C12_POP15P":"1729","C12_POP15P_CS1":"65","C12_POP15P_CS2":"89","C12_POP15P_CS3":"77","C12_POP15P_CS4":"263","C12_POP15P_CS5":"267","C12_POP15P_CS6":"356","C12_POP15P_CS7":"476","C12_POP15P_CS8":"137","TxCS6":"20.589935"}
,{"CODGEO":"44078","REG":"52","DEP":"44","LIBGEO":"Juigné-des-Moutiers","P12_POP":"351","C12_POP15P":"283","C12_POP15P_CS1":"10","C12_POP15P_CS2":"20","C12_POP15P_CS3":"10","C12_POP15P_CS4":"10","C12_POP15P_CS5":"35","C12_POP15P_CS6":"74","C12_POP15P_CS7":"94","C12_POP15P_CS8":"30","TxCS6":"26.148409"}
,{"CODGEO":"44079","REG":"52","DEP":"44","LIBGEO":"Le Landreau","P12_POP":"2883","C12_POP15P":"2188","C12_POP15P_CS1":"44","C12_POP15P_CS2":"76","C12_POP15P_CS3":"200","C12_POP15P_CS4":"384","C12_POP15P_CS5":"392","C12_POP15P_CS6":"480","C12_POP15P_CS7":"400","C12_POP15P_CS8":"212","TxCS6":"21.937843"}
,{"CODGEO":"44080","REG":"52","DEP":"44","LIBGEO":"Lavau-sur-Loire","P12_POP":"750","C12_POP15P":"584","C12_POP15P_CS1":"12","C12_POP15P_CS2":"36","C12_POP15P_CS3":"56","C12_POP15P_CS4":"79","C12_POP15P_CS5":"91","C12_POP15P_CS6":"107","C12_POP15P_CS7":"143","C12_POP15P_CS8":"60","TxCS6":"18.321918"}
,{"CODGEO":"44081","REG":"52","DEP":"44","LIBGEO":"Legé","P12_POP":"4350","C12_POP15P":"3517","C12_POP15P_CS1":"108","C12_POP15P_CS2":"136","C12_POP15P_CS3":"144","C12_POP15P_CS4":"368","C12_POP15P_CS5":"544","C12_POP15P_CS6":"808","C12_POP15P_CS7":"1042","C12_POP15P_CS8":"367","TxCS6":"22.974127"}
,{"CODGEO":"44082","REG":"52","DEP":"44","LIBGEO":"Ligné","P12_POP":"4713","C12_POP15P":"3350","C12_POP15P_CS1":"41","C12_POP15P_CS2":"94","C12_POP15P_CS3":"295","C12_POP15P_CS4":"604","C12_POP15P_CS5":"633","C12_POP15P_CS6":"616","C12_POP15P_CS7":"739","C12_POP15P_CS8":"329","TxCS6":"18.38806"}
,{"CODGEO":"44083","REG":"52","DEP":"44","LIBGEO":"La Limouzinière","P12_POP":"2231","C12_POP15P":"1652","C12_POP15P_CS1":"48","C12_POP15P_CS2":"84","C12_POP15P_CS3":"112","C12_POP15P_CS4":"228","C12_POP15P_CS5":"288","C12_POP15P_CS6":"376","C12_POP15P_CS7":"336","C12_POP15P_CS8":"180","TxCS6":"22.76029"}
,{"CODGEO":"44084","REG":"52","DEP":"44","LIBGEO":"Le Loroux-Bottereau","P12_POP":"7609","C12_POP15P":"5869","C12_POP15P_CS1":"104","C12_POP15P_CS2":"181","C12_POP15P_CS3":"513","C12_POP15P_CS4":"942","C12_POP15P_CS5":"1138","C12_POP15P_CS6":"977","C12_POP15P_CS7":"1377","C12_POP15P_CS8":"635","TxCS6":"16.646788"}
,{"CODGEO":"44085","REG":"52","DEP":"44","LIBGEO":"Louisfert","P12_POP":"918","C12_POP15P":"720","C12_POP15P_CS1":"16","C12_POP15P_CS2":"16","C12_POP15P_CS3":"12","C12_POP15P_CS4":"82","C12_POP15P_CS5":"147","C12_POP15P_CS6":"155","C12_POP15P_CS7":"209","C12_POP15P_CS8":"82","TxCS6":"21.527777"}
,{"CODGEO":"44086","REG":"52","DEP":"44","LIBGEO":"Lusanger","P12_POP":"1023","C12_POP15P":"806","C12_POP15P_CS1":"48","C12_POP15P_CS2":"12","C12_POP15P_CS3":"28","C12_POP15P_CS4":"96","C12_POP15P_CS5":"108","C12_POP15P_CS6":"223","C12_POP15P_CS7":"195","C12_POP15P_CS8":"96","TxCS6":"27.667492"}
,{"CODGEO":"44087","REG":"52","DEP":"44","LIBGEO":"Machecoul","P12_POP":"6013","C12_POP15P":"4878","C12_POP15P_CS1":"83","C12_POP15P_CS2":"139","C12_POP15P_CS3":"203","C12_POP15P_CS4":"627","C12_POP15P_CS5":"687","C12_POP15P_CS6":"929","C12_POP15P_CS7":"1737","C12_POP15P_CS8":"473","TxCS6":"19.04469"}
,{"CODGEO":"44088","REG":"52","DEP":"44","LIBGEO":"Maisdon-sur-Sèvre","P12_POP":"2809","C12_POP15P":"2052","C12_POP15P_CS1":"20","C12_POP15P_CS2":"88","C12_POP15P_CS3":"124","C12_POP15P_CS4":"380","C12_POP15P_CS5":"452","C12_POP15P_CS6":"396","C12_POP15P_CS7":"400","C12_POP15P_CS8":"192","TxCS6":"19.298244"}
,{"CODGEO":"44089","REG":"52","DEP":"44","LIBGEO":"Malville","P12_POP":"3252","C12_POP15P":"2432","C12_POP15P_CS1":"8","C12_POP15P_CS2":"92","C12_POP15P_CS3":"196","C12_POP15P_CS4":"488","C12_POP15P_CS5":"440","C12_POP15P_CS6":"420","C12_POP15P_CS7":"500","C12_POP15P_CS8":"288","TxCS6":"17.269737"}
,{"CODGEO":"44090","REG":"52","DEP":"44","LIBGEO":"La Marne","P12_POP":"1367","C12_POP15P":"1037","C12_POP15P_CS1":"28","C12_POP15P_CS2":"24","C12_POP15P_CS3":"56","C12_POP15P_CS4":"157","C12_POP15P_CS5":"217","C12_POP15P_CS6":"241","C12_POP15P_CS7":"229","C12_POP15P_CS8":"84","TxCS6":"23.240116"}
,{"CODGEO":"44091","REG":"52","DEP":"44","LIBGEO":"Marsac-sur-Don","P12_POP":"1475","C12_POP15P":"1110","C12_POP15P_CS1":"56","C12_POP15P_CS2":"36","C12_POP15P_CS3":"68","C12_POP15P_CS4":"152","C12_POP15P_CS5":"188","C12_POP15P_CS6":"212","C12_POP15P_CS7":"284","C12_POP15P_CS8":"116","TxCS6":"19.099098"}
,{"CODGEO":"44092","REG":"52","DEP":"44","LIBGEO":"Massérac","P12_POP":"687","C12_POP15P":"544","C12_POP15P_CS1":"4","C12_POP15P_CS2":"12","C12_POP15P_CS3":"8","C12_POP15P_CS4":"66","C12_POP15P_CS5":"87","C12_POP15P_CS6":"128","C12_POP15P_CS7":"152","C12_POP15P_CS8":"87","TxCS6":"23.529411"}
,{"CODGEO":"44093","REG":"52","DEP":"44","LIBGEO":"Maumusson","P12_POP":"1025","C12_POP15P":"771","C12_POP15P_CS1":"56","C12_POP15P_CS2":"24","C12_POP15P_CS3":"24","C12_POP15P_CS4":"91","C12_POP15P_CS5":"143","C12_POP15P_CS6":"179","C12_POP15P_CS7":"195","C12_POP15P_CS8":"60","TxCS6":"23.216602"}
,{"CODGEO":"44094","REG":"52","DEP":"44","LIBGEO":"Mauves-sur-Loire","P12_POP":"3106","C12_POP15P":"2405","C12_POP15P_CS1":"21","C12_POP15P_CS2":"57","C12_POP15P_CS3":"311","C12_POP15P_CS4":"415","C12_POP15P_CS5":"447","C12_POP15P_CS6":"251","C12_POP15P_CS7":"643","C12_POP15P_CS8":"261","TxCS6":"10.436591"}
,{"CODGEO":"44095","REG":"52","DEP":"44","LIBGEO":"La Meilleraye-de-Bretagne","P12_POP":"1447","C12_POP15P":"1092","C12_POP15P_CS1":"32","C12_POP15P_CS2":"24","C12_POP15P_CS3":"24","C12_POP15P_CS4":"112","C12_POP15P_CS5":"212","C12_POP15P_CS6":"280","C12_POP15P_CS7":"276","C12_POP15P_CS8":"132","TxCS6":"25.641027"}
,{"CODGEO":"44096","REG":"52","DEP":"44","LIBGEO":"Mésanger","P12_POP":"4571","C12_POP15P":"3350","C12_POP15P_CS1":"29","C12_POP15P_CS2":"130","C12_POP15P_CS3":"203","C12_POP15P_CS4":"557","C12_POP15P_CS5":"678","C12_POP15P_CS6":"747","C12_POP15P_CS7":"684","C12_POP15P_CS8":"321","TxCS6":"22.298508"}
,{"CODGEO":"44097","REG":"52","DEP":"44","LIBGEO":"Mesquer","P12_POP":"1759","C12_POP15P":"1528","C12_POP15P_CS1":"45","C12_POP15P_CS2":"77","C12_POP15P_CS3":"45","C12_POP15P_CS4":"130","C12_POP15P_CS5":"249","C12_POP15P_CS6":"171","C12_POP15P_CS7":"644","C12_POP15P_CS8":"167","TxCS6":"11.191099"}
,{"CODGEO":"44098","REG":"52","DEP":"44","LIBGEO":"Missillac","P12_POP":"5016","C12_POP15P":"3904","C12_POP15P_CS1":"40","C12_POP15P_CS2":"92","C12_POP15P_CS3":"140","C12_POP15P_CS4":"508","C12_POP15P_CS5":"716","C12_POP15P_CS6":"876","C12_POP15P_CS7":"1032","C12_POP15P_CS8":"500","TxCS6":"22.438524"}
,{"CODGEO":"44099","REG":"52","DEP":"44","LIBGEO":"Moisdon-la-Rivière","P12_POP":"1945","C12_POP15P":"1471","C12_POP15P_CS1":"80","C12_POP15P_CS2":"35","C12_POP15P_CS3":"40","C12_POP15P_CS4":"130","C12_POP15P_CS5":"200","C12_POP15P_CS6":"280","C12_POP15P_CS7":"514","C12_POP15P_CS8":"190","TxCS6":"19.03467"}
,{"CODGEO":"44100","REG":"52","DEP":"44","LIBGEO":"Monnières","P12_POP":"1933","C12_POP15P":"1489","C12_POP15P_CS1":"16","C12_POP15P_CS2":"64","C12_POP15P_CS3":"116","C12_POP15P_CS4":"300","C12_POP15P_CS5":"252","C12_POP15P_CS6":"296","C12_POP15P_CS7":"312","C12_POP15P_CS8":"132","TxCS6":"19.879112"}
,{"CODGEO":"44101","REG":"52","DEP":"44","LIBGEO":"La Montagne","P12_POP":"5981","C12_POP15P":"4613","C12_POP15P_CS1":"0","C12_POP15P_CS2":"145","C12_POP15P_CS3":"453","C12_POP15P_CS4":"869","C12_POP15P_CS5":"732","C12_POP15P_CS6":"542","C12_POP15P_CS7":"1309","C12_POP15P_CS8":"563","TxCS6":"11.749404"}
,{"CODGEO":"44102","REG":"52","DEP":"44","LIBGEO":"Montbert","P12_POP":"2986","C12_POP15P":"2301","C12_POP15P_CS1":"59","C12_POP15P_CS2":"67","C12_POP15P_CS3":"143","C12_POP15P_CS4":"460","C12_POP15P_CS5":"416","C12_POP15P_CS6":"379","C12_POP15P_CS7":"522","C12_POP15P_CS8":"255","TxCS6":"16.4711"}
,{"CODGEO":"44103","REG":"52","DEP":"44","LIBGEO":"Montoir-de-Bretagne","P12_POP":"6950","C12_POP15P":"5479","C12_POP15P_CS1":"8","C12_POP15P_CS2":"96","C12_POP15P_CS3":"137","C12_POP15P_CS4":"542","C12_POP15P_CS5":"1113","C12_POP15P_CS6":"1338","C12_POP15P_CS7":"1426","C12_POP15P_CS8":"819","TxCS6":"24.420515"}
,{"CODGEO":"44104","REG":"52","DEP":"44","LIBGEO":"Montrelais","P12_POP":"850","C12_POP15P":"626","C12_POP15P_CS1":"16","C12_POP15P_CS2":"20","C12_POP15P_CS3":"35","C12_POP15P_CS4":"87","C12_POP15P_CS5":"146","C12_POP15P_CS6":"150","C12_POP15P_CS7":"118","C12_POP15P_CS8":"55","TxCS6":"23.961662"}
,{"CODGEO":"44105","REG":"52","DEP":"44","LIBGEO":"Mouais","P12_POP":"394","C12_POP15P":"297","C12_POP15P_CS1":"8","C12_POP15P_CS2":"4","C12_POP15P_CS3":"12","C12_POP15P_CS4":"41","C12_POP15P_CS5":"69","C12_POP15P_CS6":"65","C12_POP15P_CS7":"65","C12_POP15P_CS8":"32","TxCS6":"21.88552"}
,{"CODGEO":"44106","REG":"52","DEP":"44","LIBGEO":"Les Moutiers-en-Retz","P12_POP":"1421","C12_POP15P":"1223","C12_POP15P_CS1":"32","C12_POP15P_CS2":"77","C12_POP15P_CS3":"59","C12_POP15P_CS4":"126","C12_POP15P_CS5":"185","C12_POP15P_CS6":"159","C12_POP15P_CS7":"504","C12_POP15P_CS8":"82","TxCS6":"13.000817"}
,{"CODGEO":"44107","REG":"52","DEP":"44","LIBGEO":"Mouzeil","P12_POP":"1857","C12_POP15P":"1296","C12_POP15P_CS1":"16","C12_POP15P_CS2":"49","C12_POP15P_CS3":"90","C12_POP15P_CS4":"213","C12_POP15P_CS5":"278","C12_POP15P_CS6":"277","C12_POP15P_CS7":"212","C12_POP15P_CS8":"163","TxCS6":"21.373457"}
,{"CODGEO":"44108","REG":"52","DEP":"44","LIBGEO":"Mouzillon","P12_POP":"2676","C12_POP15P":"2061","C12_POP15P_CS1":"68","C12_POP15P_CS2":"93","C12_POP15P_CS3":"98","C12_POP15P_CS4":"375","C12_POP15P_CS5":"403","C12_POP15P_CS6":"388","C12_POP15P_CS7":"437","C12_POP15P_CS8":"200","TxCS6":"18.825813"}
,{"CODGEO":"44109","REG":"52","DEP":"44","LIBGEO":"Nantes","P12_POP":"291604","C12_POP15P":"245896","C12_POP15P_CS1":"107","C12_POP15P_CS2":"6430","C12_POP15P_CS3":"35897","C12_POP15P_CS4":"41315","C12_POP15P_CS5":"37883","C12_POP15P_CS6":"23434","C12_POP15P_CS7":"47905","C12_POP15P_CS8":"52925","TxCS6":"9.5300455"}
,{"CODGEO":"44110","REG":"52","DEP":"44","LIBGEO":"Nort-sur-Erdre","P12_POP":"8160","C12_POP15P":"6260","C12_POP15P_CS1":"88","C12_POP15P_CS2":"240","C12_POP15P_CS3":"424","C12_POP15P_CS4":"1124","C12_POP15P_CS5":"1148","C12_POP15P_CS6":"980","C12_POP15P_CS7":"1516","C12_POP15P_CS8":"740","TxCS6":"15.654951"}
,{"CODGEO":"44111","REG":"52","DEP":"44","LIBGEO":"Notre-Dame-des-Landes","P12_POP":"2008","C12_POP15P":"1557","C12_POP15P_CS1":"60","C12_POP15P_CS2":"56","C12_POP15P_CS3":"104","C12_POP15P_CS4":"244","C12_POP15P_CS5":"360","C12_POP15P_CS6":"256","C12_POP15P_CS7":"308","C12_POP15P_CS8":"168","TxCS6":"16.441875"}
,{"CODGEO":"44112","REG":"52","DEP":"44","LIBGEO":"Noyal-sur-Brutz","P12_POP":"585","C12_POP15P":"461","C12_POP15P_CS1":"20","C12_POP15P_CS2":"20","C12_POP15P_CS3":"15","C12_POP15P_CS4":"75","C12_POP15P_CS5":"80","C12_POP15P_CS6":"135","C12_POP15P_CS7":"70","C12_POP15P_CS8":"45","TxCS6":"29.284164"}
,{"CODGEO":"44113","REG":"52","DEP":"44","LIBGEO":"Nozay","P12_POP":"3894","C12_POP15P":"3064","C12_POP15P_CS1":"73","C12_POP15P_CS2":"130","C12_POP15P_CS3":"191","C12_POP15P_CS4":"354","C12_POP15P_CS5":"496","C12_POP15P_CS6":"556","C12_POP15P_CS7":"894","C12_POP15P_CS8":"370","TxCS6":"18.146214"}
,{"CODGEO":"44114","REG":"52","DEP":"44","LIBGEO":"Orvault","P12_POP":"24761","C12_POP15P":"20507","C12_POP15P_CS1":"31","C12_POP15P_CS2":"581","C12_POP15P_CS3":"2999","C12_POP15P_CS4":"3396","C12_POP15P_CS5":"2725","C12_POP15P_CS6":"1432","C12_POP15P_CS7":"6236","C12_POP15P_CS8":"3106","TxCS6":"6.982981"}
,{"CODGEO":"44115","REG":"52","DEP":"44","LIBGEO":"Oudon","P12_POP":"3558","C12_POP15P":"2752","C12_POP15P_CS1":"8","C12_POP15P_CS2":"112","C12_POP15P_CS3":"288","C12_POP15P_CS4":"596","C12_POP15P_CS5":"392","C12_POP15P_CS6":"376","C12_POP15P_CS7":"684","C12_POP15P_CS8":"296","TxCS6":"13.662791"}
,{"CODGEO":"44116","REG":"52","DEP":"44","LIBGEO":"Paimboeuf","P12_POP":"3228","C12_POP15P":"2562","C12_POP15P_CS1":"4","C12_POP15P_CS2":"40","C12_POP15P_CS3":"72","C12_POP15P_CS4":"288","C12_POP15P_CS5":"488","C12_POP15P_CS6":"494","C12_POP15P_CS7":"848","C12_POP15P_CS8":"328","TxCS6":"19.28181"}
,{"CODGEO":"44117","REG":"52","DEP":"44","LIBGEO":"Le Pallet","P12_POP":"3111","C12_POP15P":"2324","C12_POP15P_CS1":"24","C12_POP15P_CS2":"76","C12_POP15P_CS3":"192","C12_POP15P_CS4":"420","C12_POP15P_CS5":"472","C12_POP15P_CS6":"380","C12_POP15P_CS7":"504","C12_POP15P_CS8":"256","TxCS6":"16.351118"}
,{"CODGEO":"44118","REG":"52","DEP":"44","LIBGEO":"Pannecé","P12_POP":"1357","C12_POP15P":"1025","C12_POP15P_CS1":"66","C12_POP15P_CS2":"51","C12_POP15P_CS3":"51","C12_POP15P_CS4":"152","C12_POP15P_CS5":"152","C12_POP15P_CS6":"244","C12_POP15P_CS7":"187","C12_POP15P_CS8":"122","TxCS6":"23.804878"}
,{"CODGEO":"44119","REG":"52","DEP":"44","LIBGEO":"Paulx","P12_POP":"1938","C12_POP15P":"1405","C12_POP15P_CS1":"56","C12_POP15P_CS2":"60","C12_POP15P_CS3":"68","C12_POP15P_CS4":"140","C12_POP15P_CS5":"308","C12_POP15P_CS6":"332","C12_POP15P_CS7":"300","C12_POP15P_CS8":"140","TxCS6":"23.629894"}
,{"CODGEO":"44120","REG":"52","DEP":"44","LIBGEO":"Le Pellerin","P12_POP":"4607","C12_POP15P":"3602","C12_POP15P_CS1":"9","C12_POP15P_CS2":"114","C12_POP15P_CS3":"198","C12_POP15P_CS4":"576","C12_POP15P_CS5":"721","C12_POP15P_CS6":"507","C12_POP15P_CS7":"969","C12_POP15P_CS8":"509","TxCS6":"14.075513"}
,{"CODGEO":"44121","REG":"52","DEP":"44","LIBGEO":"Petit-Auverné","P12_POP":"427","C12_POP15P":"353","C12_POP15P_CS1":"15","C12_POP15P_CS2":"15","C12_POP15P_CS3":"15","C12_POP15P_CS4":"30","C12_POP15P_CS5":"25","C12_POP15P_CS6":"91","C12_POP15P_CS7":"106","C12_POP15P_CS8":"56","TxCS6":"25.779036"}
,{"CODGEO":"44122","REG":"52","DEP":"44","LIBGEO":"Petit-Mars","P12_POP":"3520","C12_POP15P":"2524","C12_POP15P_CS1":"16","C12_POP15P_CS2":"104","C12_POP15P_CS3":"336","C12_POP15P_CS4":"444","C12_POP15P_CS5":"472","C12_POP15P_CS6":"368","C12_POP15P_CS7":"544","C12_POP15P_CS8":"240","TxCS6":"14.580032"}
,{"CODGEO":"44123","REG":"52","DEP":"44","LIBGEO":"Pierric","P12_POP":"980","C12_POP15P":"752","C12_POP15P_CS1":"36","C12_POP15P_CS2":"24","C12_POP15P_CS3":"20","C12_POP15P_CS4":"89","C12_POP15P_CS5":"121","C12_POP15P_CS6":"174","C12_POP15P_CS7":"222","C12_POP15P_CS8":"65","TxCS6":"23.138298"}
,{"CODGEO":"44124","REG":"52","DEP":"44","LIBGEO":"Le Pin","P12_POP":"792","C12_POP15P":"604","C12_POP15P_CS1":"32","C12_POP15P_CS2":"24","C12_POP15P_CS3":"32","C12_POP15P_CS4":"64","C12_POP15P_CS5":"92","C12_POP15P_CS6":"128","C12_POP15P_CS7":"148","C12_POP15P_CS8":"84","TxCS6":"21.192053"}
,{"CODGEO":"44125","REG":"52","DEP":"44","LIBGEO":"Piriac-sur-Mer","P12_POP":"2173","C12_POP15P":"1884","C12_POP15P_CS1":"20","C12_POP15P_CS2":"80","C12_POP15P_CS3":"76","C12_POP15P_CS4":"156","C12_POP15P_CS5":"224","C12_POP15P_CS6":"176","C12_POP15P_CS7":"944","C12_POP15P_CS8":"208","TxCS6":"9.3418255"}
,{"CODGEO":"44126","REG":"52","DEP":"44","LIBGEO":"La Plaine-sur-Mer","P12_POP":"3929","C12_POP15P":"3292","C12_POP15P_CS1":"12","C12_POP15P_CS2":"115","C12_POP15P_CS3":"126","C12_POP15P_CS4":"399","C12_POP15P_CS5":"427","C12_POP15P_CS6":"435","C12_POP15P_CS7":"1483","C12_POP15P_CS8":"296","TxCS6":"13.213852"}
,{"CODGEO":"44127","REG":"52","DEP":"44","LIBGEO":"La Planche","P12_POP":"2452","C12_POP15P":"1882","C12_POP15P_CS1":"59","C12_POP15P_CS2":"79","C12_POP15P_CS3":"79","C12_POP15P_CS4":"280","C12_POP15P_CS5":"327","C12_POP15P_CS6":"470","C12_POP15P_CS7":"446","C12_POP15P_CS8":"142","TxCS6":"24.973433"}
,{"CODGEO":"44128","REG":"52","DEP":"44","LIBGEO":"Plessé","P12_POP":"4895","C12_POP15P":"3759","C12_POP15P_CS1":"71","C12_POP15P_CS2":"181","C12_POP15P_CS3":"147","C12_POP15P_CS4":"551","C12_POP15P_CS5":"603","C12_POP15P_CS6":"793","C12_POP15P_CS7":"955","C12_POP15P_CS8":"458","TxCS6":"21.096035"}
,{"CODGEO":"44129","REG":"52","DEP":"44","LIBGEO":"Pontchâteau","P12_POP":"9982","C12_POP15P":"8017","C12_POP15P_CS1":"46","C12_POP15P_CS2":"232","C12_POP15P_CS3":"309","C12_POP15P_CS4":"1299","C12_POP15P_CS5":"1274","C12_POP15P_CS6":"1605","C12_POP15P_CS7":"2179","C12_POP15P_CS8":"1071","TxCS6":"20.019957"}
,{"CODGEO":"44130","REG":"52","DEP":"44","LIBGEO":"Pont-Saint-Martin","P12_POP":"5658","C12_POP15P":"4410","C12_POP15P_CS1":"28","C12_POP15P_CS2":"157","C12_POP15P_CS3":"446","C12_POP15P_CS4":"819","C12_POP15P_CS5":"751","C12_POP15P_CS6":"590","C12_POP15P_CS7":"1194","C12_POP15P_CS8":"425","TxCS6":"13.378684"}
,{"CODGEO":"44131","REG":"52","DEP":"44","LIBGEO":"Pornic","P12_POP":"13937","C12_POP15P":"11749","C12_POP15P_CS1":"111","C12_POP15P_CS2":"555","C12_POP15P_CS3":"1007","C12_POP15P_CS4":"1285","C12_POP15P_CS5":"1484","C12_POP15P_CS6":"1103","C12_POP15P_CS7":"4823","C12_POP15P_CS8":"1381","TxCS6":"9.388033"}
,{"CODGEO":"44132","REG":"52","DEP":"44","LIBGEO":"Pornichet","P12_POP":"10323","C12_POP15P":"8821","C12_POP15P_CS1":"9","C12_POP15P_CS2":"431","C12_POP15P_CS3":"773","C12_POP15P_CS4":"1262","C12_POP15P_CS5":"1243","C12_POP15P_CS6":"639","C12_POP15P_CS7":"3376","C12_POP15P_CS8":"1088","TxCS6":"7.2440767"}
,{"CODGEO":"44133","REG":"52","DEP":"44","LIBGEO":"Port-Saint-Père","P12_POP":"2820","C12_POP15P":"2124","C12_POP15P_CS1":"44","C12_POP15P_CS2":"105","C12_POP15P_CS3":"179","C12_POP15P_CS4":"385","C12_POP15P_CS5":"461","C12_POP15P_CS6":"349","C12_POP15P_CS7":"430","C12_POP15P_CS8":"169","TxCS6":"16.431261"}
,{"CODGEO":"44134","REG":"52","DEP":"44","LIBGEO":"Pouillé-les-Côteaux","P12_POP":"951","C12_POP15P":"696","C12_POP15P_CS1":"12","C12_POP15P_CS2":"32","C12_POP15P_CS3":"56","C12_POP15P_CS4":"60","C12_POP15P_CS5":"104","C12_POP15P_CS6":"228","C12_POP15P_CS7":"152","C12_POP15P_CS8":"52","TxCS6":"32.75862"}
,{"CODGEO":"44135","REG":"52","DEP":"44","LIBGEO":"Le Pouliguen","P12_POP":"4810","C12_POP15P":"4313","C12_POP15P_CS1":"43","C12_POP15P_CS2":"182","C12_POP15P_CS3":"172","C12_POP15P_CS4":"370","C12_POP15P_CS5":"539","C12_POP15P_CS6":"262","C12_POP15P_CS7":"2274","C12_POP15P_CS8":"470","TxCS6":"6.074658"}
,{"CODGEO":"44136","REG":"52","DEP":"44","LIBGEO":"Préfailles","P12_POP":"1236","C12_POP15P":"1127","C12_POP15P_CS1":"0","C12_POP15P_CS2":"104","C12_POP15P_CS3":"51","C12_POP15P_CS4":"76","C12_POP15P_CS5":"92","C12_POP15P_CS6":"56","C12_POP15P_CS7":"601","C12_POP15P_CS8":"147","TxCS6":"4.968944"}
,{"CODGEO":"44137","REG":"52","DEP":"44","LIBGEO":"Prinquiau","P12_POP":"3289","C12_POP15P":"2334","C12_POP15P_CS1":"4","C12_POP15P_CS2":"62","C12_POP15P_CS3":"152","C12_POP15P_CS4":"494","C12_POP15P_CS5":"494","C12_POP15P_CS6":"409","C12_POP15P_CS7":"502","C12_POP15P_CS8":"218","TxCS6":"17.523565"}
,{"CODGEO":"44138","REG":"52","DEP":"44","LIBGEO":"Puceul","P12_POP":"1026","C12_POP15P":"764","C12_POP15P_CS1":"42","C12_POP15P_CS2":"25","C12_POP15P_CS3":"34","C12_POP15P_CS4":"117","C12_POP15P_CS5":"176","C12_POP15P_CS6":"180","C12_POP15P_CS7":"126","C12_POP15P_CS8":"63","TxCS6":"23.56021"}
,{"CODGEO":"44139","REG":"52","DEP":"44","LIBGEO":"Quilly","P12_POP":"1334","C12_POP15P":"968","C12_POP15P_CS1":"41","C12_POP15P_CS2":"24","C12_POP15P_CS3":"49","C12_POP15P_CS4":"175","C12_POP15P_CS5":"159","C12_POP15P_CS6":"236","C12_POP15P_CS7":"155","C12_POP15P_CS8":"130","TxCS6":"24.380165"}
,{"CODGEO":"44140","REG":"52","DEP":"44","LIBGEO":"La Regrippière","P12_POP":"1534","C12_POP15P":"1151","C12_POP15P_CS1":"28","C12_POP15P_CS2":"28","C12_POP15P_CS3":"56","C12_POP15P_CS4":"153","C12_POP15P_CS5":"237","C12_POP15P_CS6":"302","C12_POP15P_CS7":"201","C12_POP15P_CS8":"145","TxCS6":"26.238054"}
,{"CODGEO":"44141","REG":"52","DEP":"44","LIBGEO":"La Remaudière","P12_POP":"1219","C12_POP15P":"893","C12_POP15P_CS1":"24","C12_POP15P_CS2":"29","C12_POP15P_CS3":"24","C12_POP15P_CS4":"101","C12_POP15P_CS5":"198","C12_POP15P_CS6":"241","C12_POP15P_CS7":"207","C12_POP15P_CS8":"68","TxCS6":"26.98768"}
,{"CODGEO":"44142","REG":"52","DEP":"44","LIBGEO":"Remouillé","P12_POP":"1740","C12_POP15P":"1297","C12_POP15P_CS1":"12","C12_POP15P_CS2":"53","C12_POP15P_CS3":"81","C12_POP15P_CS4":"203","C12_POP15P_CS5":"231","C12_POP15P_CS6":"276","C12_POP15P_CS7":"328","C12_POP15P_CS8":"114","TxCS6":"21.279877"}
,{"CODGEO":"44143","REG":"52","DEP":"44","LIBGEO":"Rezé","P12_POP":"39377","C12_POP15P":"32153","C12_POP15P_CS1":"34","C12_POP15P_CS2":"775","C12_POP15P_CS3":"3249","C12_POP15P_CS4":"5880","C12_POP15P_CS5":"5340","C12_POP15P_CS6":"3717","C12_POP15P_CS7":"8827","C12_POP15P_CS8":"4331","TxCS6":"11.560352"}
,{"CODGEO":"44144","REG":"52","DEP":"44","LIBGEO":"Riaillé","P12_POP":"2201","C12_POP15P":"1723","C12_POP15P_CS1":"32","C12_POP15P_CS2":"77","C12_POP15P_CS3":"117","C12_POP15P_CS4":"239","C12_POP15P_CS5":"291","C12_POP15P_CS6":"344","C12_POP15P_CS7":"456","C12_POP15P_CS8":"166","TxCS6":"19.965176"}
,{"CODGEO":"44145","REG":"52","DEP":"44","LIBGEO":"Rouans","P12_POP":"2734","C12_POP15P":"2075","C12_POP15P_CS1":"56","C12_POP15P_CS2":"80","C12_POP15P_CS3":"145","C12_POP15P_CS4":"322","C12_POP15P_CS5":"366","C12_POP15P_CS6":"382","C12_POP15P_CS7":"511","C12_POP15P_CS8":"213","TxCS6":"18.409637"}
,{"CODGEO":"44146","REG":"52","DEP":"44","LIBGEO":"Rougé","P12_POP":"2232","C12_POP15P":"1781","C12_POP15P_CS1":"83","C12_POP15P_CS2":"35","C12_POP15P_CS3":"61","C12_POP15P_CS4":"211","C12_POP15P_CS5":"242","C12_POP15P_CS6":"423","C12_POP15P_CS7":"526","C12_POP15P_CS8":"201","TxCS6":"23.750702"}
,{"CODGEO":"44147","REG":"52","DEP":"44","LIBGEO":"La Rouxière","P12_POP":"1061","C12_POP15P":"742","C12_POP15P_CS1":"33","C12_POP15P_CS2":"29","C12_POP15P_CS3":"48","C12_POP15P_CS4":"91","C12_POP15P_CS5":"129","C12_POP15P_CS6":"156","C12_POP15P_CS7":"148","C12_POP15P_CS8":"109","TxCS6":"21.024258"}
,{"CODGEO":"44148","REG":"52","DEP":"44","LIBGEO":"Ruffigné","P12_POP":"712","C12_POP15P":"517","C12_POP15P_CS1":"28","C12_POP15P_CS2":"16","C12_POP15P_CS3":"16","C12_POP15P_CS4":"56","C12_POP15P_CS5":"80","C12_POP15P_CS6":"124","C12_POP15P_CS7":"144","C12_POP15P_CS8":"52","TxCS6":"23.984526"}
,{"CODGEO":"44149","REG":"52","DEP":"44","LIBGEO":"Saffré","P12_POP":"3680","C12_POP15P":"2752","C12_POP15P_CS1":"72","C12_POP15P_CS2":"96","C12_POP15P_CS3":"144","C12_POP15P_CS4":"416","C12_POP15P_CS5":"536","C12_POP15P_CS6":"560","C12_POP15P_CS7":"668","C12_POP15P_CS8":"260","TxCS6":"20.348837"}
,{"CODGEO":"44150","REG":"52","DEP":"44","LIBGEO":"Saint-Aignan-Grandlieu","P12_POP":"3590","C12_POP15P":"2860","C12_POP15P_CS1":"4","C12_POP15P_CS2":"112","C12_POP15P_CS3":"224","C12_POP15P_CS4":"560","C12_POP15P_CS5":"468","C12_POP15P_CS6":"464","C12_POP15P_CS7":"656","C12_POP15P_CS8":"372","TxCS6":"16.223776"}
,{"CODGEO":"44151","REG":"52","DEP":"44","LIBGEO":"Saint-André-des-Eaux","P12_POP":"5607","C12_POP15P":"4260","C12_POP15P_CS1":"29","C12_POP15P_CS2":"150","C12_POP15P_CS3":"304","C12_POP15P_CS4":"668","C12_POP15P_CS5":"828","C12_POP15P_CS6":"633","C12_POP15P_CS7":"1092","C12_POP15P_CS8":"556","TxCS6":"14.859155"}
,{"CODGEO":"44152","REG":"52","DEP":"44","LIBGEO":"Sainte-Anne-sur-Brivet","P12_POP":"2724","C12_POP15P":"1976","C12_POP15P_CS1":"29","C12_POP15P_CS2":"81","C12_POP15P_CS3":"90","C12_POP15P_CS4":"328","C12_POP15P_CS5":"361","C12_POP15P_CS6":"380","C12_POP15P_CS7":"479","C12_POP15P_CS8":"228","TxCS6":"19.23077"}
,{"CODGEO":"44153","REG":"52","DEP":"44","LIBGEO":"Saint-Aubin-des-Châteaux","P12_POP":"1649","C12_POP15P":"1274","C12_POP15P_CS1":"65","C12_POP15P_CS2":"33","C12_POP15P_CS3":"25","C12_POP15P_CS4":"131","C12_POP15P_CS5":"225","C12_POP15P_CS6":"319","C12_POP15P_CS7":"372","C12_POP15P_CS8":"106","TxCS6":"25.039248"}
,{"CODGEO":"44154","REG":"52","DEP":"44","LIBGEO":"Saint-Brevin-les-Pins","P12_POP":"13088","C12_POP15P":"11087","C12_POP15P_CS1":"4","C12_POP15P_CS2":"418","C12_POP15P_CS3":"637","C12_POP15P_CS4":"1395","C12_POP15P_CS5":"1573","C12_POP15P_CS6":"1189","C12_POP15P_CS7":"4077","C12_POP15P_CS8":"1793","TxCS6":"10.724272"}
,{"CODGEO":"44155","REG":"52","DEP":"44","LIBGEO":"Saint-Colomban","P12_POP":"3191","C12_POP15P":"2321","C12_POP15P_CS1":"44","C12_POP15P_CS2":"176","C12_POP15P_CS3":"156","C12_POP15P_CS4":"361","C12_POP15P_CS5":"512","C12_POP15P_CS6":"434","C12_POP15P_CS7":"438","C12_POP15P_CS8":"200","TxCS6":"18.698837"}
,{"CODGEO":"44156","REG":"52","DEP":"44","LIBGEO":"Corcoué-sur-Logne","P12_POP":"2664","C12_POP15P":"2060","C12_POP15P_CS1":"50","C12_POP15P_CS2":"74","C12_POP15P_CS3":"109","C12_POP15P_CS4":"311","C12_POP15P_CS5":"353","C12_POP15P_CS6":"435","C12_POP15P_CS7":"535","C12_POP15P_CS8":"193","TxCS6":"21.116505"}
,{"CODGEO":"44157","REG":"52","DEP":"44","LIBGEO":"Saint-Étienne-de-Mer-Morte","P12_POP":"1590","C12_POP15P":"1197","C12_POP15P_CS1":"47","C12_POP15P_CS2":"94","C12_POP15P_CS3":"30","C12_POP15P_CS4":"154","C12_POP15P_CS5":"223","C12_POP15P_CS6":"279","C12_POP15P_CS7":"262","C12_POP15P_CS8":"107","TxCS6":"23.308271"}
,{"CODGEO":"44158","REG":"52","DEP":"44","LIBGEO":"Saint-Étienne-de-Montluc","P12_POP":"6635","C12_POP15P":"5209","C12_POP15P_CS1":"44","C12_POP15P_CS2":"221","C12_POP15P_CS3":"569","C12_POP15P_CS4":"914","C12_POP15P_CS5":"791","C12_POP15P_CS6":"630","C12_POP15P_CS7":"1442","C12_POP15P_CS8":"597","TxCS6":"12.094452"}
,{"CODGEO":"44159","REG":"52","DEP":"44","LIBGEO":"Saint-Fiacre-sur-Maine","P12_POP":"1165","C12_POP15P":"896","C12_POP15P_CS1":"28","C12_POP15P_CS2":"24","C12_POP15P_CS3":"96","C12_POP15P_CS4":"192","C12_POP15P_CS5":"136","C12_POP15P_CS6":"104","C12_POP15P_CS7":"216","C12_POP15P_CS8":"100","TxCS6":"11.607142"}
,{"CODGEO":"44160","REG":"52","DEP":"44","LIBGEO":"Saint-Géréon","P12_POP":"2779","C12_POP15P":"2264","C12_POP15P_CS1":"4","C12_POP15P_CS2":"49","C12_POP15P_CS3":"192","C12_POP15P_CS4":"323","C12_POP15P_CS5":"323","C12_POP15P_CS6":"335","C12_POP15P_CS7":"798","C12_POP15P_CS8":"240","TxCS6":"14.796821"}
,{"CODGEO":"44161","REG":"52","DEP":"44","LIBGEO":"Saint-Gildas-des-Bois","P12_POP":"3534","C12_POP15P":"2773","C12_POP15P_CS1":"61","C12_POP15P_CS2":"51","C12_POP15P_CS3":"67","C12_POP15P_CS4":"287","C12_POP15P_CS5":"493","C12_POP15P_CS6":"538","C12_POP15P_CS7":"940","C12_POP15P_CS8":"336","TxCS6":"19.40137"}
,{"CODGEO":"44162","REG":"52","DEP":"44","LIBGEO":"Saint-Herblain","P12_POP":"43287","C12_POP15P":"35237","C12_POP15P_CS1":"5","C12_POP15P_CS2":"794","C12_POP15P_CS3":"3339","C12_POP15P_CS4":"5927","C12_POP15P_CS5":"6222","C12_POP15P_CS6":"4110","C12_POP15P_CS7":"9706","C12_POP15P_CS8":"5135","TxCS6":"11.663876"}
,{"CODGEO":"44163","REG":"52","DEP":"44","LIBGEO":"Saint-Herblon","P12_POP":"2458","C12_POP15P":"1839","C12_POP15P_CS1":"35","C12_POP15P_CS2":"89","C12_POP15P_CS3":"129","C12_POP15P_CS4":"316","C12_POP15P_CS5":"272","C12_POP15P_CS6":"336","C12_POP15P_CS7":"480","C12_POP15P_CS8":"183","TxCS6":"18.2708"}
,{"CODGEO":"44164","REG":"52","DEP":"44","LIBGEO":"Saint-Hilaire-de-Chaléons","P12_POP":"2075","C12_POP15P":"1511","C12_POP15P_CS1":"28","C12_POP15P_CS2":"52","C12_POP15P_CS3":"62","C12_POP15P_CS4":"269","C12_POP15P_CS5":"297","C12_POP15P_CS6":"326","C12_POP15P_CS7":"364","C12_POP15P_CS8":"114","TxCS6":"21.575115"}
,{"CODGEO":"44165","REG":"52","DEP":"44","LIBGEO":"Saint-Hilaire-de-Clisson","P12_POP":"2112","C12_POP15P":"1555","C12_POP15P_CS1":"24","C12_POP15P_CS2":"34","C12_POP15P_CS3":"92","C12_POP15P_CS4":"316","C12_POP15P_CS5":"277","C12_POP15P_CS6":"320","C12_POP15P_CS7":"296","C12_POP15P_CS8":"195","TxCS6":"20.578777"}
,{"CODGEO":"44166","REG":"52","DEP":"44","LIBGEO":"Saint-Jean-de-Boiseau","P12_POP":"5344","C12_POP15P":"4048","C12_POP15P_CS1":"4","C12_POP15P_CS2":"106","C12_POP15P_CS3":"329","C12_POP15P_CS4":"749","C12_POP15P_CS5":"679","C12_POP15P_CS6":"588","C12_POP15P_CS7":"1079","C12_POP15P_CS8":"514","TxCS6":"14.525692"}
,{"CODGEO":"44168","REG":"52","DEP":"44","LIBGEO":"Saint-Joachim","P12_POP":"3960","C12_POP15P":"3291","C12_POP15P_CS1":"0","C12_POP15P_CS2":"57","C12_POP15P_CS3":"97","C12_POP15P_CS4":"441","C12_POP15P_CS5":"518","C12_POP15P_CS6":"656","C12_POP15P_CS7":"1120","C12_POP15P_CS8":"401","TxCS6":"19.933151"}
,{"CODGEO":"44169","REG":"52","DEP":"44","LIBGEO":"Saint-Julien-de-Concelles","P12_POP":"6782","C12_POP15P":"5292","C12_POP15P_CS1":"88","C12_POP15P_CS2":"240","C12_POP15P_CS3":"468","C12_POP15P_CS4":"956","C12_POP15P_CS5":"784","C12_POP15P_CS6":"832","C12_POP15P_CS7":"1332","C12_POP15P_CS8":"592","TxCS6":"15.721844"}
,{"CODGEO":"44170","REG":"52","DEP":"44","LIBGEO":"Saint-Julien-de-Vouvantes","P12_POP":"920","C12_POP15P":"729","C12_POP15P_CS1":"64","C12_POP15P_CS2":"40","C12_POP15P_CS3":"12","C12_POP15P_CS4":"48","C12_POP15P_CS5":"88","C12_POP15P_CS6":"187","C12_POP15P_CS7":"235","C12_POP15P_CS8":"56","TxCS6":"25.651577"}
,{"CODGEO":"44171","REG":"52","DEP":"44","LIBGEO":"Saint-Léger-les-Vignes","P12_POP":"1540","C12_POP15P":"1204","C12_POP15P_CS1":"8","C12_POP15P_CS2":"32","C12_POP15P_CS3":"100","C12_POP15P_CS4":"284","C12_POP15P_CS5":"228","C12_POP15P_CS6":"128","C12_POP15P_CS7":"272","C12_POP15P_CS8":"152","TxCS6":"10.631229"}
,{"CODGEO":"44172","REG":"52","DEP":"44","LIBGEO":"Sainte-Luce-sur-Loire","P12_POP":"13452","C12_POP15P":"10747","C12_POP15P_CS1":"22","C12_POP15P_CS2":"270","C12_POP15P_CS3":"1378","C12_POP15P_CS4":"2093","C12_POP15P_CS5":"1717","C12_POP15P_CS6":"1094","C12_POP15P_CS7":"2685","C12_POP15P_CS8":"1488","TxCS6":"10.179585"}
,{"CODGEO":"44173","REG":"52","DEP":"44","LIBGEO":"Saint-Lumine-de-Clisson","P12_POP":"2033","C12_POP15P":"1507","C12_POP15P_CS1":"8","C12_POP15P_CS2":"39","C12_POP15P_CS3":"114","C12_POP15P_CS4":"338","C12_POP15P_CS5":"279","C12_POP15P_CS6":"311","C12_POP15P_CS7":"295","C12_POP15P_CS8":"122","TxCS6":"20.637028"}
,{"CODGEO":"44174","REG":"52","DEP":"44","LIBGEO":"Saint-Lumine-de-Coutais","P12_POP":"1969","C12_POP15P":"1469","C12_POP15P_CS1":"53","C12_POP15P_CS2":"24","C12_POP15P_CS3":"77","C12_POP15P_CS4":"273","C12_POP15P_CS5":"249","C12_POP15P_CS6":"340","C12_POP15P_CS7":"287","C12_POP15P_CS8":"167","TxCS6":"23.144997"}
,{"CODGEO":"44175","REG":"52","DEP":"44","LIBGEO":"Saint-Lyphard","P12_POP":"4401","C12_POP15P":"3391","C12_POP15P_CS1":"16","C12_POP15P_CS2":"132","C12_POP15P_CS3":"233","C12_POP15P_CS4":"506","C12_POP15P_CS5":"602","C12_POP15P_CS6":"581","C12_POP15P_CS7":"920","C12_POP15P_CS8":"400","TxCS6":"17.133589"}
,{"CODGEO":"44176","REG":"52","DEP":"44","LIBGEO":"Saint-Malo-de-Guersac","P12_POP":"3215","C12_POP15P":"2629","C12_POP15P_CS1":"8","C12_POP15P_CS2":"44","C12_POP15P_CS3":"52","C12_POP15P_CS4":"372","C12_POP15P_CS5":"512","C12_POP15P_CS6":"487","C12_POP15P_CS7":"729","C12_POP15P_CS8":"424","TxCS6":"18.524153"}
,{"CODGEO":"44178","REG":"52","DEP":"44","LIBGEO":"Saint-Mars-de-Coutais","P12_POP":"2558","C12_POP15P":"1899","C12_POP15P_CS1":"49","C12_POP15P_CS2":"98","C12_POP15P_CS3":"131","C12_POP15P_CS4":"252","C12_POP15P_CS5":"301","C12_POP15P_CS6":"376","C12_POP15P_CS7":"502","C12_POP15P_CS8":"191","TxCS6":"19.799894"}
,{"CODGEO":"44179","REG":"52","DEP":"44","LIBGEO":"Saint-Mars-du-Désert","P12_POP":"4221","C12_POP15P":"3284","C12_POP15P_CS1":"14","C12_POP15P_CS2":"105","C12_POP15P_CS3":"346","C12_POP15P_CS4":"567","C12_POP15P_CS5":"600","C12_POP15P_CS6":"480","C12_POP15P_CS7":"696","C12_POP15P_CS8":"475","TxCS6":"14.616321"}
,{"CODGEO":"44180","REG":"52","DEP":"44","LIBGEO":"Saint-Mars-la-Jaille","P12_POP":"2427","C12_POP15P":"1920","C12_POP15P_CS1":"20","C12_POP15P_CS2":"52","C12_POP15P_CS3":"40","C12_POP15P_CS4":"189","C12_POP15P_CS5":"305","C12_POP15P_CS6":"470","C12_POP15P_CS7":"614","C12_POP15P_CS8":"229","TxCS6":"24.479168"}
,{"CODGEO":"44181","REG":"52","DEP":"44","LIBGEO":"Saint-Même-le-Tenu","P12_POP":"1169","C12_POP15P":"881","C12_POP15P_CS1":"14","C12_POP15P_CS2":"24","C12_POP15P_CS3":"58","C12_POP15P_CS4":"150","C12_POP15P_CS5":"145","C12_POP15P_CS6":"173","C12_POP15P_CS7":"235","C12_POP15P_CS8":"82","TxCS6":"19.636778"}
,{"CODGEO":"44182","REG":"52","DEP":"44","LIBGEO":"Saint-Michel-Chef-Chef","P12_POP":"4503","C12_POP15P":"3726","C12_POP15P_CS1":"12","C12_POP15P_CS2":"163","C12_POP15P_CS3":"242","C12_POP15P_CS4":"552","C12_POP15P_CS5":"481","C12_POP15P_CS6":"497","C12_POP15P_CS7":"1426","C12_POP15P_CS8":"354","TxCS6":"13.338701"}
,{"CODGEO":"44183","REG":"52","DEP":"44","LIBGEO":"Saint-Molf","P12_POP":"2408","C12_POP15P":"1783","C12_POP15P_CS1":"47","C12_POP15P_CS2":"75","C12_POP15P_CS3":"126","C12_POP15P_CS4":"255","C12_POP15P_CS5":"412","C12_POP15P_CS6":"338","C12_POP15P_CS7":"326","C12_POP15P_CS8":"204","TxCS6":"18.956814"}
,{"CODGEO":"44184","REG":"52","DEP":"44","LIBGEO":"Saint-Nazaire","P12_POP":"67940","C12_POP15P":"56357","C12_POP15P_CS1":"34","C12_POP15P_CS2":"1295","C12_POP15P_CS3":"3309","C12_POP15P_CS4":"7236","C12_POP15P_CS5":"9281","C12_POP15P_CS6":"8306","C12_POP15P_CS7":"17791","C12_POP15P_CS8":"9106","TxCS6":"14.738187"}
,{"CODGEO":"44185","REG":"52","DEP":"44","LIBGEO":"Saint-Nicolas-de-Redon","P12_POP":"3146","C12_POP15P":"2608","C12_POP15P_CS1":"20","C12_POP15P_CS2":"93","C12_POP15P_CS3":"113","C12_POP15P_CS4":"283","C12_POP15P_CS5":"421","C12_POP15P_CS6":"442","C12_POP15P_CS7":"870","C12_POP15P_CS8":"366","TxCS6":"16.947851"}
,{"CODGEO":"44186","REG":"52","DEP":"44","LIBGEO":"Sainte-Pazanne","P12_POP":"5863","C12_POP15P":"4381","C12_POP15P_CS1":"58","C12_POP15P_CS2":"193","C12_POP15P_CS3":"317","C12_POP15P_CS4":"753","C12_POP15P_CS5":"788","C12_POP15P_CS6":"794","C12_POP15P_CS7":"977","C12_POP15P_CS8":"501","TxCS6":"18.123716"}
,{"CODGEO":"44187","REG":"52","DEP":"44","LIBGEO":"Saint-Père-en-Retz","P12_POP":"4197","C12_POP15P":"3307","C12_POP15P_CS1":"53","C12_POP15P_CS2":"130","C12_POP15P_CS3":"106","C12_POP15P_CS4":"408","C12_POP15P_CS5":"537","C12_POP15P_CS6":"763","C12_POP15P_CS7":"917","C12_POP15P_CS8":"393","TxCS6":"23.072271"}
,{"CODGEO":"44188","REG":"52","DEP":"44","LIBGEO":"Saint-Philbert-de-Grand-Lieu","P12_POP":"8434","C12_POP15P":"6433","C12_POP15P_CS1":"98","C12_POP15P_CS2":"255","C12_POP15P_CS3":"466","C12_POP15P_CS4":"1066","C12_POP15P_CS5":"1250","C12_POP15P_CS6":"1156","C12_POP15P_CS7":"1408","C12_POP15P_CS8":"736","TxCS6":"17.969843"}
,{"CODGEO":"44189","REG":"52","DEP":"44","LIBGEO":"Sainte-Reine-de-Bretagne","P12_POP":"2202","C12_POP15P":"1712","C12_POP15P_CS1":"8","C12_POP15P_CS2":"45","C12_POP15P_CS3":"33","C12_POP15P_CS4":"178","C12_POP15P_CS5":"347","C12_POP15P_CS6":"363","C12_POP15P_CS7":"494","C12_POP15P_CS8":"244","TxCS6":"21.20327"}
,{"CODGEO":"44190","REG":"52","DEP":"44","LIBGEO":"Saint-Sébastien-sur-Loire","P12_POP":"25655","C12_POP15P":"21364","C12_POP15P_CS1":"6","C12_POP15P_CS2":"584","C12_POP15P_CS3":"2356","C12_POP15P_CS4":"3745","C12_POP15P_CS5":"3410","C12_POP15P_CS6":"1973","C12_POP15P_CS7":"6237","C12_POP15P_CS8":"3052","TxCS6":"9.235163"}
,{"CODGEO":"44191","REG":"52","DEP":"44","LIBGEO":"Saint-Sulpice-des-Landes","P12_POP":"677","C12_POP15P":"540","C12_POP15P_CS1":"32","C12_POP15P_CS2":"12","C12_POP15P_CS3":"4","C12_POP15P_CS4":"36","C12_POP15P_CS5":"84","C12_POP15P_CS6":"132","C12_POP15P_CS7":"176","C12_POP15P_CS8":"64","TxCS6":"24.444445"}
,{"CODGEO":"44192","REG":"52","DEP":"44","LIBGEO":"Saint-Viaud","P12_POP":"2264","C12_POP15P":"1733","C12_POP15P_CS1":"16","C12_POP15P_CS2":"81","C12_POP15P_CS3":"39","C12_POP15P_CS4":"271","C12_POP15P_CS5":"295","C12_POP15P_CS6":"407","C12_POP15P_CS7":"423","C12_POP15P_CS8":"202","TxCS6":"23.485285"}
,{"CODGEO":"44193","REG":"52","DEP":"44","LIBGEO":"Saint-Vincent-des-Landes","P12_POP":"1508","C12_POP15P":"1187","C12_POP15P_CS1":"53","C12_POP15P_CS2":"37","C12_POP15P_CS3":"20","C12_POP15P_CS4":"126","C12_POP15P_CS5":"170","C12_POP15P_CS6":"239","C12_POP15P_CS7":"384","C12_POP15P_CS8":"158","TxCS6":"20.134792"}
,{"CODGEO":"44194","REG":"52","DEP":"44","LIBGEO":"Sautron","P12_POP":"6989","C12_POP15P":"5832","C12_POP15P_CS1":"20","C12_POP15P_CS2":"252","C12_POP15P_CS3":"956","C12_POP15P_CS4":"848","C12_POP15P_CS5":"720","C12_POP15P_CS6":"304","C12_POP15P_CS7":"1876","C12_POP15P_CS8":"856","TxCS6":"5.21262"}
,{"CODGEO":"44195","REG":"52","DEP":"44","LIBGEO":"Savenay","P12_POP":"7945","C12_POP15P":"6053","C12_POP15P_CS1":"18","C12_POP15P_CS2":"120","C12_POP15P_CS3":"579","C12_POP15P_CS4":"1275","C12_POP15P_CS5":"1079","C12_POP15P_CS6":"711","C12_POP15P_CS7":"1376","C12_POP15P_CS8":"896","TxCS6":"11.746242"}
,{"CODGEO":"44196","REG":"52","DEP":"44","LIBGEO":"Sévérac","P12_POP":"1627","C12_POP15P":"1316","C12_POP15P_CS1":"0","C12_POP15P_CS2":"24","C12_POP15P_CS3":"40","C12_POP15P_CS4":"194","C12_POP15P_CS5":"190","C12_POP15P_CS6":"270","C12_POP15P_CS7":"408","C12_POP15P_CS8":"190","TxCS6":"20.516718"}
,{"CODGEO":"44197","REG":"52","DEP":"44","LIBGEO":"Sion-les-Mines","P12_POP":"1710","C12_POP15P":"1353","C12_POP15P_CS1":"69","C12_POP15P_CS2":"53","C12_POP15P_CS3":"57","C12_POP15P_CS4":"102","C12_POP15P_CS5":"143","C12_POP15P_CS6":"224","C12_POP15P_CS7":"489","C12_POP15P_CS8":"216","TxCS6":"16.555803"}
,{"CODGEO":"44198","REG":"52","DEP":"44","LIBGEO":"Les Sorinières","P12_POP":"7648","C12_POP15P":"6158","C12_POP15P_CS1":"25","C12_POP15P_CS2":"190","C12_POP15P_CS3":"515","C12_POP15P_CS4":"1151","C12_POP15P_CS5":"1242","C12_POP15P_CS6":"724","C12_POP15P_CS7":"1583","C12_POP15P_CS8":"728","TxCS6":"11.757064"}
,{"CODGEO":"44199","REG":"52","DEP":"44","LIBGEO":"Soudan","P12_POP":"1991","C12_POP15P":"1608","C12_POP15P_CS1":"87","C12_POP15P_CS2":"68","C12_POP15P_CS3":"48","C12_POP15P_CS4":"159","C12_POP15P_CS5":"224","C12_POP15P_CS6":"390","C12_POP15P_CS7":"471","C12_POP15P_CS8":"162","TxCS6":"24.253733"}
,{"CODGEO":"44200","REG":"52","DEP":"44","LIBGEO":"Soulvache","P12_POP":"389","C12_POP15P":"306","C12_POP15P_CS1":"31","C12_POP15P_CS2":"24","C12_POP15P_CS3":"4","C12_POP15P_CS4":"16","C12_POP15P_CS5":"39","C12_POP15P_CS6":"59","C12_POP15P_CS7":"78","C12_POP15P_CS8":"55","TxCS6":"19.281046"}
,{"CODGEO":"44201","REG":"52","DEP":"44","LIBGEO":"Sucé-sur-Erdre","P12_POP":"6473","C12_POP15P":"5234","C12_POP15P_CS1":"31","C12_POP15P_CS2":"220","C12_POP15P_CS3":"947","C12_POP15P_CS4":"967","C12_POP15P_CS5":"593","C12_POP15P_CS6":"318","C12_POP15P_CS7":"1345","C12_POP15P_CS8":"812","TxCS6":"6.075659"}
,{"CODGEO":"44202","REG":"52","DEP":"44","LIBGEO":"Teillé","P12_POP":"1764","C12_POP15P":"1333","C12_POP15P_CS1":"28","C12_POP15P_CS2":"32","C12_POP15P_CS3":"71","C12_POP15P_CS4":"189","C12_POP15P_CS5":"253","C12_POP15P_CS6":"205","C12_POP15P_CS7":"433","C12_POP15P_CS8":"123","TxCS6":"15.378845"}
,{"CODGEO":"44203","REG":"52","DEP":"44","LIBGEO":"Le Temple-de-Bretagne","P12_POP":"1865","C12_POP15P":"1382","C12_POP15P_CS1":"8","C12_POP15P_CS2":"40","C12_POP15P_CS3":"104","C12_POP15P_CS4":"303","C12_POP15P_CS5":"263","C12_POP15P_CS6":"275","C12_POP15P_CS7":"235","C12_POP15P_CS8":"155","TxCS6":"19.898697"}
,{"CODGEO":"44204","REG":"52","DEP":"44","LIBGEO":"Thouaré-sur-Loire","P12_POP":"8398","C12_POP15P":"6595","C12_POP15P_CS1":"9","C12_POP15P_CS2":"200","C12_POP15P_CS3":"874","C12_POP15P_CS4":"1128","C12_POP15P_CS5":"1047","C12_POP15P_CS6":"721","C12_POP15P_CS7":"1675","C12_POP15P_CS8":"940","TxCS6":"10.932525"}
,{"CODGEO":"44205","REG":"52","DEP":"44","LIBGEO":"Les Touches","P12_POP":"2415","C12_POP15P":"1890","C12_POP15P_CS1":"46","C12_POP15P_CS2":"59","C12_POP15P_CS3":"101","C12_POP15P_CS4":"261","C12_POP15P_CS5":"362","C12_POP15P_CS6":"340","C12_POP15P_CS7":"496","C12_POP15P_CS8":"225","TxCS6":"17.989418"}
,{"CODGEO":"44206","REG":"52","DEP":"44","LIBGEO":"Touvois","P12_POP":"1713","C12_POP15P":"1350","C12_POP15P_CS1":"65","C12_POP15P_CS2":"36","C12_POP15P_CS3":"69","C12_POP15P_CS4":"133","C12_POP15P_CS5":"206","C12_POP15P_CS6":"255","C12_POP15P_CS7":"472","C12_POP15P_CS8":"113","TxCS6":"18.88889"}
,{"CODGEO":"44207","REG":"52","DEP":"44","LIBGEO":"Trans-sur-Erdre","P12_POP":"1014","C12_POP15P":"781","C12_POP15P_CS1":"8","C12_POP15P_CS2":"25","C12_POP15P_CS3":"29","C12_POP15P_CS4":"97","C12_POP15P_CS5":"134","C12_POP15P_CS6":"130","C12_POP15P_CS7":"265","C12_POP15P_CS8":"92","TxCS6":"16.645327"}
,{"CODGEO":"44208","REG":"52","DEP":"44","LIBGEO":"Treffieux","P12_POP":"824","C12_POP15P":"636","C12_POP15P_CS1":"12","C12_POP15P_CS2":"8","C12_POP15P_CS3":"36","C12_POP15P_CS4":"64","C12_POP15P_CS5":"104","C12_POP15P_CS6":"172","C12_POP15P_CS7":"144","C12_POP15P_CS8":"96","TxCS6":"27.044025"}
,{"CODGEO":"44209","REG":"52","DEP":"44","LIBGEO":"Treillières","P12_POP":"8136","C12_POP15P":"6330","C12_POP15P_CS1":"20","C12_POP15P_CS2":"261","C12_POP15P_CS3":"981","C12_POP15P_CS4":"1226","C12_POP15P_CS5":"1048","C12_POP15P_CS6":"633","C12_POP15P_CS7":"1291","C12_POP15P_CS8":"870","TxCS6":"10.0"}
,{"CODGEO":"44210","REG":"52","DEP":"44","LIBGEO":"Trignac","P12_POP":"7153","C12_POP15P":"5651","C12_POP15P_CS1":"19","C12_POP15P_CS2":"125","C12_POP15P_CS3":"186","C12_POP15P_CS4":"736","C12_POP15P_CS5":"1112","C12_POP15P_CS6":"1027","C12_POP15P_CS7":"1721","C12_POP15P_CS8":"725","TxCS6":"18.173775"}
,{"CODGEO":"44211","REG":"52","DEP":"44","LIBGEO":"La Turballe","P12_POP":"4554","C12_POP15P":"3919","C12_POP15P_CS1":"66","C12_POP15P_CS2":"154","C12_POP15P_CS3":"160","C12_POP15P_CS4":"335","C12_POP15P_CS5":"513","C12_POP15P_CS6":"501","C12_POP15P_CS7":"1691","C12_POP15P_CS8":"499","TxCS6":"12.783873"}
,{"CODGEO":"44212","REG":"52","DEP":"44","LIBGEO":"Vallet","P12_POP":"8579","C12_POP15P":"6561","C12_POP15P_CS1":"128","C12_POP15P_CS2":"233","C12_POP15P_CS3":"489","C12_POP15P_CS4":"1152","C12_POP15P_CS5":"1137","C12_POP15P_CS6":"1227","C12_POP15P_CS7":"1487","C12_POP15P_CS8":"709","TxCS6":"18.701418"}
,{"CODGEO":"44213","REG":"52","DEP":"44","LIBGEO":"Varades","P12_POP":"3563","C12_POP15P":"2851","C12_POP15P_CS1":"59","C12_POP15P_CS2":"83","C12_POP15P_CS3":"112","C12_POP15P_CS4":"370","C12_POP15P_CS5":"433","C12_POP15P_CS6":"603","C12_POP15P_CS7":"791","C12_POP15P_CS8":"400","TxCS6":"21.150475"}
,{"CODGEO":"44214","REG":"52","DEP":"44","LIBGEO":"Vay","P12_POP":"2012","C12_POP15P":"1459","C12_POP15P_CS1":"59","C12_POP15P_CS2":"63","C12_POP15P_CS3":"114","C12_POP15P_CS4":"259","C12_POP15P_CS5":"295","C12_POP15P_CS6":"271","C12_POP15P_CS7":"271","C12_POP15P_CS8":"126","TxCS6":"18.574366"}
,{"CODGEO":"44215","REG":"52","DEP":"44","LIBGEO":"Vertou","P12_POP":"22307","C12_POP15P":"18415","C12_POP15P_CS1":"33","C12_POP15P_CS2":"694","C12_POP15P_CS3":"2333","C12_POP15P_CS4":"3124","C12_POP15P_CS5":"2568","C12_POP15P_CS6":"1706","C12_POP15P_CS7":"5406","C12_POP15P_CS8":"2552","TxCS6":"9.264187"}
,{"CODGEO":"44216","REG":"52","DEP":"44","LIBGEO":"Vieillevigne","P12_POP":"3929","C12_POP15P":"3030","C12_POP15P_CS1":"104","C12_POP15P_CS2":"88","C12_POP15P_CS3":"156","C12_POP15P_CS4":"463","C12_POP15P_CS5":"491","C12_POP15P_CS6":"615","C12_POP15P_CS7":"823","C12_POP15P_CS8":"291","TxCS6":"20.29703"}
,{"CODGEO":"44217","REG":"52","DEP":"44","LIBGEO":"Vigneux-de-Bretagne","P12_POP":"5572","C12_POP15P":"4376","C12_POP15P_CS1":"24","C12_POP15P_CS2":"235","C12_POP15P_CS3":"610","C12_POP15P_CS4":"813","C12_POP15P_CS5":"705","C12_POP15P_CS6":"471","C12_POP15P_CS7":"952","C12_POP15P_CS8":"566","TxCS6":"10.763254"}
,{"CODGEO":"44218","REG":"52","DEP":"44","LIBGEO":"Villepot","P12_POP":"655","C12_POP15P":"552","C12_POP15P_CS1":"24","C12_POP15P_CS2":"24","C12_POP15P_CS3":"20","C12_POP15P_CS4":"68","C12_POP15P_CS5":"68","C12_POP15P_CS6":"102","C12_POP15P_CS7":"161","C12_POP15P_CS8":"83","TxCS6":"18.47826"}
,{"CODGEO":"44219","REG":"52","DEP":"44","LIBGEO":"Vritz","P12_POP":"765","C12_POP15P":"632","C12_POP15P_CS1":"43","C12_POP15P_CS2":"24","C12_POP15P_CS3":"12","C12_POP15P_CS4":"43","C12_POP15P_CS5":"122","C12_POP15P_CS6":"129","C12_POP15P_CS7":"192","C12_POP15P_CS8":"67","TxCS6":"20.411392"}
,{"CODGEO":"44220","REG":"52","DEP":"44","LIBGEO":"Vue","P12_POP":"1488","C12_POP15P":"1121","C12_POP15P_CS1":"5","C12_POP15P_CS2":"51","C12_POP15P_CS3":"47","C12_POP15P_CS4":"135","C12_POP15P_CS5":"265","C12_POP15P_CS6":"321","C12_POP15P_CS7":"182","C12_POP15P_CS8":"116","TxCS6":"28.635147"}
,{"CODGEO":"44221","REG":"52","DEP":"44","LIBGEO":"La Chevallerais","P12_POP":"1464","C12_POP15P":"975","C12_POP15P_CS1":"16","C12_POP15P_CS2":"35","C12_POP15P_CS3":"89","C12_POP15P_CS4":"214","C12_POP15P_CS5":"249","C12_POP15P_CS6":"148","C12_POP15P_CS7":"144","C12_POP15P_CS8":"82","TxCS6":"15.179486"}
,{"CODGEO":"44222","REG":"52","DEP":"44","LIBGEO":"La Roche-Blanche","P12_POP":"1142","C12_POP15P":"880","C12_POP15P_CS1":"4","C12_POP15P_CS2":"36","C12_POP15P_CS3":"40","C12_POP15P_CS4":"121","C12_POP15P_CS5":"218","C12_POP15P_CS6":"194","C12_POP15P_CS7":"178","C12_POP15P_CS8":"89","TxCS6":"22.045454"}
,{"CODGEO":"44223","REG":"52","DEP":"44","LIBGEO":"Geneston","P12_POP":"3592","C12_POP15P":"2660","C12_POP15P_CS1":"8","C12_POP15P_CS2":"136","C12_POP15P_CS3":"156","C12_POP15P_CS4":"492","C12_POP15P_CS5":"544","C12_POP15P_CS6":"516","C12_POP15P_CS7":"520","C12_POP15P_CS8":"288","TxCS6":"19.398495"}
,{"CODGEO":"44224","REG":"52","DEP":"44","LIBGEO":"La Grigonnais","P12_POP":"1587","C12_POP15P":"1149","C12_POP15P_CS1":"19","C12_POP15P_CS2":"44","C12_POP15P_CS3":"44","C12_POP15P_CS4":"244","C12_POP15P_CS5":"214","C12_POP15P_CS6":"204","C12_POP15P_CS7":"224","C12_POP15P_CS8":"156","TxCS6":"17.75457"}
]}
