{"status":"success","data":[{"CODGEO":"79001","REG":"54","DEP":"79","LIBGEO":"L'Absie","P12_POP":"1009","C12_POP15P":"859","C12_POP15P_CS1":"5","C12_POP15P_CS2":"27","C12_POP15P_CS3":"11","C12_POP15P_CS4":"85","C12_POP15P_CS5":"103","C12_POP15P_CS6":"150","C12_POP15P_CS7":"369","C12_POP15P_CS8":"110","TxCS6":"17.462166"}
,{"CODGEO":"79002","REG":"54","DEP":"79","LIBGEO":"Adilly","P12_POP":"304","C12_POP15P":"256","C12_POP15P_CS1":"20","C12_POP15P_CS2":"12","C12_POP15P_CS3":"12","C12_POP15P_CS4":"24","C12_POP15P_CS5":"44","C12_POP15P_CS6":"52","C12_POP15P_CS7":"76","C12_POP15P_CS8":"16","TxCS6":"20.3125"}
,{"CODGEO":"79003","REG":"54","DEP":"79","LIBGEO":"Aiffres","P12_POP":"5360","C12_POP15P":"4427","C12_POP15P_CS1":"21","C12_POP15P_CS2":"129","C12_POP15P_CS3":"404","C12_POP15P_CS4":"713","C12_POP15P_CS5":"723","C12_POP15P_CS6":"572","C12_POP15P_CS7":"1410","C12_POP15P_CS8":"456","TxCS6":"12.920713"}
,{"CODGEO":"79004","REG":"54","DEP":"79","LIBGEO":"Aigonnay","P12_POP":"631","C12_POP15P":"459","C12_POP15P_CS1":"12","C12_POP15P_CS2":"8","C12_POP15P_CS3":"46","C12_POP15P_CS4":"54","C12_POP15P_CS5":"95","C12_POP15P_CS6":"95","C12_POP15P_CS7":"112","C12_POP15P_CS8":"37","TxCS6":"20.697168"}
,{"CODGEO":"79005","REG":"54","DEP":"79","LIBGEO":"Airvault","P12_POP":"3047","C12_POP15P":"2559","C12_POP15P_CS1":"36","C12_POP15P_CS2":"80","C12_POP15P_CS3":"76","C12_POP15P_CS4":"239","C12_POP15P_CS5":"406","C12_POP15P_CS6":"485","C12_POP15P_CS7":"949","C12_POP15P_CS8":"289","TxCS6":"18.952715"}
,{"CODGEO":"79006","REG":"54","DEP":"79","LIBGEO":"Les Alleuds","P12_POP":"281","C12_POP15P":"247","C12_POP15P_CS1":"25","C12_POP15P_CS2":"25","C12_POP15P_CS3":"0","C12_POP15P_CS4":"4","C12_POP15P_CS5":"37","C12_POP15P_CS6":"41","C12_POP15P_CS7":"91","C12_POP15P_CS8":"25","TxCS6":"16.59919"}
,{"CODGEO":"79007","REG":"54","DEP":"79","LIBGEO":"Allonne","P12_POP":"663","C12_POP15P":"564","C12_POP15P_CS1":"40","C12_POP15P_CS2":"12","C12_POP15P_CS3":"4","C12_POP15P_CS4":"60","C12_POP15P_CS5":"97","C12_POP15P_CS6":"101","C12_POP15P_CS7":"189","C12_POP15P_CS8":"60","TxCS6":"17.9078"}
,{"CODGEO":"79008","REG":"54","DEP":"79","LIBGEO":"Amailloux","P12_POP":"868","C12_POP15P":"658","C12_POP15P_CS1":"48","C12_POP15P_CS2":"36","C12_POP15P_CS3":"16","C12_POP15P_CS4":"48","C12_POP15P_CS5":"112","C12_POP15P_CS6":"124","C12_POP15P_CS7":"229","C12_POP15P_CS8":"44","TxCS6":"18.844984"}
,{"CODGEO":"79009","REG":"54","DEP":"79","LIBGEO":"Amuré","P12_POP":"488","C12_POP15P":"361","C12_POP15P_CS1":"0","C12_POP15P_CS2":"13","C12_POP15P_CS3":"17","C12_POP15P_CS4":"68","C12_POP15P_CS5":"85","C12_POP15P_CS6":"51","C12_POP15P_CS7":"72","C12_POP15P_CS8":"55","TxCS6":"14.127424"}
,{"CODGEO":"79010","REG":"54","DEP":"79","LIBGEO":"Arçais","P12_POP":"606","C12_POP15P":"532","C12_POP15P_CS1":"5","C12_POP15P_CS2":"20","C12_POP15P_CS3":"50","C12_POP15P_CS4":"30","C12_POP15P_CS5":"69","C12_POP15P_CS6":"69","C12_POP15P_CS7":"199","C12_POP15P_CS8":"90","TxCS6":"12.969925"}
,{"CODGEO":"79011","REG":"54","DEP":"79","LIBGEO":"Ardilleux","P12_POP":"168","C12_POP15P":"132","C12_POP15P_CS1":"10","C12_POP15P_CS2":"5","C12_POP15P_CS3":"0","C12_POP15P_CS4":"5","C12_POP15P_CS5":"49","C12_POP15P_CS6":"24","C12_POP15P_CS7":"34","C12_POP15P_CS8":"5","TxCS6":"18.181818"}
,{"CODGEO":"79012","REG":"54","DEP":"79","LIBGEO":"Ardin","P12_POP":"1242","C12_POP15P":"967","C12_POP15P_CS1":"44","C12_POP15P_CS2":"40","C12_POP15P_CS3":"36","C12_POP15P_CS4":"135","C12_POP15P_CS5":"210","C12_POP15P_CS6":"174","C12_POP15P_CS7":"234","C12_POP15P_CS8":"95","TxCS6":"17.993795"}
,{"CODGEO":"79013","REG":"54","DEP":"79","LIBGEO":"Argenton-les-Vallées","P12_POP":"1627","C12_POP15P":"1354","C12_POP15P_CS1":"36","C12_POP15P_CS2":"36","C12_POP15P_CS3":"56","C12_POP15P_CS4":"121","C12_POP15P_CS5":"153","C12_POP15P_CS6":"234","C12_POP15P_CS7":"584","C12_POP15P_CS8":"133","TxCS6":"17.282127"}
,{"CODGEO":"79014","REG":"54","DEP":"79","LIBGEO":"Argenton-l'Église","P12_POP":"1632","C12_POP15P":"1312","C12_POP15P_CS1":"72","C12_POP15P_CS2":"36","C12_POP15P_CS3":"28","C12_POP15P_CS4":"92","C12_POP15P_CS5":"200","C12_POP15P_CS6":"316","C12_POP15P_CS7":"392","C12_POP15P_CS8":"176","TxCS6":"24.085365"}
,{"CODGEO":"79015","REG":"54","DEP":"79","LIBGEO":"Asnières-en-Poitou","P12_POP":"183","C12_POP15P":"148","C12_POP15P_CS1":"8","C12_POP15P_CS2":"4","C12_POP15P_CS3":"4","C12_POP15P_CS4":"15","C12_POP15P_CS5":"11","C12_POP15P_CS6":"30","C12_POP15P_CS7":"61","C12_POP15P_CS8":"15","TxCS6":"20.27027"}
,{"CODGEO":"79016","REG":"54","DEP":"79","LIBGEO":"Assais-les-Jumeaux","P12_POP":"778","C12_POP15P":"633","C12_POP15P_CS1":"64","C12_POP15P_CS2":"32","C12_POP15P_CS3":"8","C12_POP15P_CS4":"44","C12_POP15P_CS5":"96","C12_POP15P_CS6":"155","C12_POP15P_CS7":"171","C12_POP15P_CS8":"64","TxCS6":"24.486572"}
,{"CODGEO":"79018","REG":"54","DEP":"79","LIBGEO":"Aubigné","P12_POP":"210","C12_POP15P":"180","C12_POP15P_CS1":"16","C12_POP15P_CS2":"12","C12_POP15P_CS3":"0","C12_POP15P_CS4":"4","C12_POP15P_CS5":"16","C12_POP15P_CS6":"24","C12_POP15P_CS7":"84","C12_POP15P_CS8":"24","TxCS6":"13.333334"}
,{"CODGEO":"79019","REG":"54","DEP":"79","LIBGEO":"Aubigny","P12_POP":"175","C12_POP15P":"146","C12_POP15P_CS1":"4","C12_POP15P_CS2":"0","C12_POP15P_CS3":"0","C12_POP15P_CS4":"12","C12_POP15P_CS5":"24","C12_POP15P_CS6":"28","C12_POP15P_CS7":"61","C12_POP15P_CS8":"16","TxCS6":"19.178082"}
,{"CODGEO":"79020","REG":"54","DEP":"79","LIBGEO":"Augé","P12_POP":"934","C12_POP15P":"712","C12_POP15P_CS1":"48","C12_POP15P_CS2":"8","C12_POP15P_CS3":"32","C12_POP15P_CS4":"123","C12_POP15P_CS5":"95","C12_POP15P_CS6":"143","C12_POP15P_CS7":"195","C12_POP15P_CS8":"68","TxCS6":"20.084269"}
,{"CODGEO":"79022","REG":"54","DEP":"79","LIBGEO":"Availles-Thouarsais","P12_POP":"203","C12_POP15P":"168","C12_POP15P_CS1":"8","C12_POP15P_CS2":"16","C12_POP15P_CS3":"4","C12_POP15P_CS4":"4","C12_POP15P_CS5":"20","C12_POP15P_CS6":"28","C12_POP15P_CS7":"76","C12_POP15P_CS8":"12","TxCS6":"16.666668"}
,{"CODGEO":"79023","REG":"54","DEP":"79","LIBGEO":"Avon","P12_POP":"75","C12_POP15P":"57","C12_POP15P_CS1":"8","C12_POP15P_CS2":"0","C12_POP15P_CS3":"0","C12_POP15P_CS4":"0","C12_POP15P_CS5":"15","C12_POP15P_CS6":"8","C12_POP15P_CS7":"27","C12_POP15P_CS8":"0","TxCS6":"14.035088"}
,{"CODGEO":"79024","REG":"54","DEP":"79","LIBGEO":"Azay-le-Brûlé","P12_POP":"1852","C12_POP15P":"1468","C12_POP15P_CS1":"32","C12_POP15P_CS2":"44","C12_POP15P_CS3":"76","C12_POP15P_CS4":"288","C12_POP15P_CS5":"296","C12_POP15P_CS6":"240","C12_POP15P_CS7":"340","C12_POP15P_CS8":"152","TxCS6":"16.348774"}
,{"CODGEO":"79025","REG":"54","DEP":"79","LIBGEO":"Azay-sur-Thouet","P12_POP":"1129","C12_POP15P":"893","C12_POP15P_CS1":"8","C12_POP15P_CS2":"41","C12_POP15P_CS3":"21","C12_POP15P_CS4":"90","C12_POP15P_CS5":"165","C12_POP15P_CS6":"214","C12_POP15P_CS7":"284","C12_POP15P_CS8":"70","TxCS6":"23.964165"}
,{"CODGEO":"79027","REG":"54","DEP":"79","LIBGEO":"La Bataille","P12_POP":"76","C12_POP15P":"66","C12_POP15P_CS1":"5","C12_POP15P_CS2":"0","C12_POP15P_CS3":"0","C12_POP15P_CS4":"0","C12_POP15P_CS5":"23","C12_POP15P_CS6":"14","C12_POP15P_CS7":"19","C12_POP15P_CS8":"5","TxCS6":"21.212122"}
,{"CODGEO":"79029","REG":"54","DEP":"79","LIBGEO":"Beaulieu-sous-Parthenay","P12_POP":"670","C12_POP15P":"523","C12_POP15P_CS1":"28","C12_POP15P_CS2":"36","C12_POP15P_CS3":"40","C12_POP15P_CS4":"96","C12_POP15P_CS5":"52","C12_POP15P_CS6":"84","C12_POP15P_CS7":"140","C12_POP15P_CS8":"48","TxCS6":"16.061186"}
,{"CODGEO":"79030","REG":"54","DEP":"79","LIBGEO":"Beaussais-Vitré","P12_POP":"990","C12_POP15P":"779","C12_POP15P_CS1":"16","C12_POP15P_CS2":"24","C12_POP15P_CS3":"77","C12_POP15P_CS4":"105","C12_POP15P_CS5":"118","C12_POP15P_CS6":"146","C12_POP15P_CS7":"191","C12_POP15P_CS8":"102","TxCS6":"18.741978"}
,{"CODGEO":"79031","REG":"54","DEP":"79","LIBGEO":"Beauvoir-sur-Niort","P12_POP":"1766","C12_POP15P":"1432","C12_POP15P_CS1":"12","C12_POP15P_CS2":"49","C12_POP15P_CS3":"73","C12_POP15P_CS4":"180","C12_POP15P_CS5":"277","C12_POP15P_CS6":"138","C12_POP15P_CS7":"520","C12_POP15P_CS8":"183","TxCS6":"9.636871"}
,{"CODGEO":"79032","REG":"54","DEP":"79","LIBGEO":"Béceleuf","P12_POP":"734","C12_POP15P":"584","C12_POP15P_CS1":"12","C12_POP15P_CS2":"32","C12_POP15P_CS3":"24","C12_POP15P_CS4":"72","C12_POP15P_CS5":"68","C12_POP15P_CS6":"84","C12_POP15P_CS7":"244","C12_POP15P_CS8":"48","TxCS6":"14.383562"}
,{"CODGEO":"79033","REG":"54","DEP":"79","LIBGEO":"Belleville","P12_POP":"128","C12_POP15P":"107","C12_POP15P_CS1":"4","C12_POP15P_CS2":"0","C12_POP15P_CS3":"0","C12_POP15P_CS4":"9","C12_POP15P_CS5":"21","C12_POP15P_CS6":"17","C12_POP15P_CS7":"30","C12_POP15P_CS8":"26","TxCS6":"15.887851"}
,{"CODGEO":"79034","REG":"54","DEP":"79","LIBGEO":"Bessines","P12_POP":"1608","C12_POP15P":"1293","C12_POP15P_CS1":"12","C12_POP15P_CS2":"32","C12_POP15P_CS3":"186","C12_POP15P_CS4":"170","C12_POP15P_CS5":"202","C12_POP15P_CS6":"117","C12_POP15P_CS7":"392","C12_POP15P_CS8":"182","TxCS6":"9.048724"}
,{"CODGEO":"79035","REG":"54","DEP":"79","LIBGEO":"Le Beugnon","P12_POP":"308","C12_POP15P":"272","C12_POP15P_CS1":"44","C12_POP15P_CS2":"0","C12_POP15P_CS3":"4","C12_POP15P_CS4":"24","C12_POP15P_CS5":"12","C12_POP15P_CS6":"52","C12_POP15P_CS7":"116","C12_POP15P_CS8":"20","TxCS6":"19.117647"}
,{"CODGEO":"79038","REG":"54","DEP":"79","LIBGEO":"Boismé","P12_POP":"1171","C12_POP15P":"948","C12_POP15P_CS1":"36","C12_POP15P_CS2":"41","C12_POP15P_CS3":"16","C12_POP15P_CS4":"73","C12_POP15P_CS5":"186","C12_POP15P_CS6":"227","C12_POP15P_CS7":"308","C12_POP15P_CS8":"61","TxCS6":"23.945148"}
,{"CODGEO":"79039","REG":"54","DEP":"79","LIBGEO":"Boisserolles","P12_POP":"63","C12_POP15P":"49","C12_POP15P_CS1":"16","C12_POP15P_CS2":"0","C12_POP15P_CS3":"0","C12_POP15P_CS4":"8","C12_POP15P_CS5":"4","C12_POP15P_CS6":"4","C12_POP15P_CS7":"12","C12_POP15P_CS8":"4","TxCS6":"8.163265"}
,{"CODGEO":"79040","REG":"54","DEP":"79","LIBGEO":"La Boissière-en-Gâtine","P12_POP":"231","C12_POP15P":"198","C12_POP15P_CS1":"9","C12_POP15P_CS2":"14","C12_POP15P_CS3":"5","C12_POP15P_CS4":"9","C12_POP15P_CS5":"33","C12_POP15P_CS6":"14","C12_POP15P_CS7":"71","C12_POP15P_CS8":"42","TxCS6":"7.070707"}
,{"CODGEO":"79042","REG":"54","DEP":"79","LIBGEO":"Bougon","P12_POP":"177","C12_POP15P":"162","C12_POP15P_CS1":"8","C12_POP15P_CS2":"0","C12_POP15P_CS3":"0","C12_POP15P_CS4":"12","C12_POP15P_CS5":"31","C12_POP15P_CS6":"31","C12_POP15P_CS7":"65","C12_POP15P_CS8":"15","TxCS6":"19.135803"}
,{"CODGEO":"79043","REG":"54","DEP":"79","LIBGEO":"Bouillé-Loretz","P12_POP":"1057","C12_POP15P":"876","C12_POP15P_CS1":"40","C12_POP15P_CS2":"36","C12_POP15P_CS3":"32","C12_POP15P_CS4":"64","C12_POP15P_CS5":"147","C12_POP15P_CS6":"227","C12_POP15P_CS7":"231","C12_POP15P_CS8":"100","TxCS6":"25.913242"}
,{"CODGEO":"79044","REG":"54","DEP":"79","LIBGEO":"Bouillé-Saint-Paul","P12_POP":"433","C12_POP15P":"320","C12_POP15P_CS1":"25","C12_POP15P_CS2":"12","C12_POP15P_CS3":"4","C12_POP15P_CS4":"29","C12_POP15P_CS5":"45","C12_POP15P_CS6":"62","C12_POP15P_CS7":"107","C12_POP15P_CS8":"37","TxCS6":"19.375"}
,{"CODGEO":"79045","REG":"54","DEP":"79","LIBGEO":"Bouin","P12_POP":"146","C12_POP15P":"124","C12_POP15P_CS1":"0","C12_POP15P_CS2":"22","C12_POP15P_CS3":"0","C12_POP15P_CS4":"16","C12_POP15P_CS5":"16","C12_POP15P_CS6":"5","C12_POP15P_CS7":"49","C12_POP15P_CS8":"16","TxCS6":"4.032258"}
,{"CODGEO":"79046","REG":"54","DEP":"79","LIBGEO":"Le Bourdet","P12_POP":"558","C12_POP15P":"401","C12_POP15P_CS1":"5","C12_POP15P_CS2":"19","C12_POP15P_CS3":"39","C12_POP15P_CS4":"44","C12_POP15P_CS5":"77","C12_POP15P_CS6":"82","C12_POP15P_CS7":"87","C12_POP15P_CS8":"48","TxCS6":"20.44888"}
,{"CODGEO":"79047","REG":"54","DEP":"79","LIBGEO":"Boussais","P12_POP":"436","C12_POP15P":"352","C12_POP15P_CS1":"28","C12_POP15P_CS2":"16","C12_POP15P_CS3":"0","C12_POP15P_CS4":"20","C12_POP15P_CS5":"56","C12_POP15P_CS6":"68","C12_POP15P_CS7":"124","C12_POP15P_CS8":"40","TxCS6":"19.318182"}
,{"CODGEO":"79048","REG":"54","DEP":"79","LIBGEO":"La Crèche","P12_POP":"5475","C12_POP15P":"4468","C12_POP15P_CS1":"28","C12_POP15P_CS2":"113","C12_POP15P_CS3":"447","C12_POP15P_CS4":"649","C12_POP15P_CS5":"743","C12_POP15P_CS6":"588","C12_POP15P_CS7":"1392","C12_POP15P_CS8":"508","TxCS6":"13.160251"}
,{"CODGEO":"79049","REG":"54","DEP":"79","LIBGEO":"Bressuire","P12_POP":"18966","C12_POP15P":"15584","C12_POP15P_CS1":"269","C12_POP15P_CS2":"493","C12_POP15P_CS3":"852","C12_POP15P_CS4":"1862","C12_POP15P_CS5":"2241","C12_POP15P_CS6":"3160","C12_POP15P_CS7":"4705","C12_POP15P_CS8":"2002","TxCS6":"20.277208"}
,{"CODGEO":"79050","REG":"54","DEP":"79","LIBGEO":"Bretignolles","P12_POP":"645","C12_POP15P":"494","C12_POP15P_CS1":"24","C12_POP15P_CS2":"16","C12_POP15P_CS3":"28","C12_POP15P_CS4":"73","C12_POP15P_CS5":"49","C12_POP15P_CS6":"97","C12_POP15P_CS7":"142","C12_POP15P_CS8":"65","TxCS6":"19.635628"}
,{"CODGEO":"79051","REG":"54","DEP":"79","LIBGEO":"Le Breuil-Bernard","P12_POP":"490","C12_POP15P":"386","C12_POP15P_CS1":"17","C12_POP15P_CS2":"17","C12_POP15P_CS3":"8","C12_POP15P_CS4":"50","C12_POP15P_CS5":"75","C12_POP15P_CS6":"83","C12_POP15P_CS7":"116","C12_POP15P_CS8":"21","TxCS6":"21.50259"}
,{"CODGEO":"79053","REG":"54","DEP":"79","LIBGEO":"Le Breuil-sous-Argenton","P12_POP":"478","C12_POP15P":"382","C12_POP15P_CS1":"42","C12_POP15P_CS2":"8","C12_POP15P_CS3":"17","C12_POP15P_CS4":"25","C12_POP15P_CS5":"71","C12_POP15P_CS6":"67","C12_POP15P_CS7":"113","C12_POP15P_CS8":"38","TxCS6":"17.539267"}
,{"CODGEO":"79054","REG":"54","DEP":"79","LIBGEO":"Brie","P12_POP":"194","C12_POP15P":"177","C12_POP15P_CS1":"11","C12_POP15P_CS2":"0","C12_POP15P_CS3":"5","C12_POP15P_CS4":"26","C12_POP15P_CS5":"26","C12_POP15P_CS6":"27","C12_POP15P_CS7":"60","C12_POP15P_CS8":"22","TxCS6":"15.254237"}
,{"CODGEO":"79055","REG":"54","DEP":"79","LIBGEO":"Brieuil-sur-Chizé","P12_POP":"109","C12_POP15P":"100","C12_POP15P_CS1":"8","C12_POP15P_CS2":"0","C12_POP15P_CS3":"4","C12_POP15P_CS4":"8","C12_POP15P_CS5":"12","C12_POP15P_CS6":"4","C12_POP15P_CS7":"52","C12_POP15P_CS8":"12","TxCS6":"4.0"}
,{"CODGEO":"79056","REG":"54","DEP":"79","LIBGEO":"Brion-près-Thouet","P12_POP":"769","C12_POP15P":"616","C12_POP15P_CS1":"0","C12_POP15P_CS2":"52","C12_POP15P_CS3":"24","C12_POP15P_CS4":"68","C12_POP15P_CS5":"104","C12_POP15P_CS6":"148","C12_POP15P_CS7":"140","C12_POP15P_CS8":"80","TxCS6":"24.025974"}
,{"CODGEO":"79057","REG":"54","DEP":"79","LIBGEO":"Brioux-sur-Boutonne","P12_POP":"1517","C12_POP15P":"1264","C12_POP15P_CS1":"5","C12_POP15P_CS2":"73","C12_POP15P_CS3":"73","C12_POP15P_CS4":"112","C12_POP15P_CS5":"218","C12_POP15P_CS6":"163","C12_POP15P_CS7":"484","C12_POP15P_CS8":"135","TxCS6":"12.895569"}
,{"CODGEO":"79058","REG":"54","DEP":"79","LIBGEO":"Brûlain","P12_POP":"702","C12_POP15P":"564","C12_POP15P_CS1":"24","C12_POP15P_CS2":"28","C12_POP15P_CS3":"28","C12_POP15P_CS4":"60","C12_POP15P_CS5":"84","C12_POP15P_CS6":"132","C12_POP15P_CS7":"152","C12_POP15P_CS8":"56","TxCS6":"23.404255"}
,{"CODGEO":"79059","REG":"54","DEP":"79","LIBGEO":"Le Busseau","P12_POP":"768","C12_POP15P":"632","C12_POP15P_CS1":"21","C12_POP15P_CS2":"33","C12_POP15P_CS3":"12","C12_POP15P_CS4":"29","C12_POP15P_CS5":"111","C12_POP15P_CS6":"128","C12_POP15P_CS7":"231","C12_POP15P_CS8":"66","TxCS6":"20.253164"}
,{"CODGEO":"79060","REG":"54","DEP":"79","LIBGEO":"Caunay","P12_POP":"173","C12_POP15P":"149","C12_POP15P_CS1":"21","C12_POP15P_CS2":"0","C12_POP15P_CS3":"0","C12_POP15P_CS4":"4","C12_POP15P_CS5":"21","C12_POP15P_CS6":"33","C12_POP15P_CS7":"58","C12_POP15P_CS8":"12","TxCS6":"22.147652"}
,{"CODGEO":"79061","REG":"54","DEP":"79","LIBGEO":"Celles-sur-Belle","P12_POP":"3736","C12_POP15P":"3040","C12_POP15P_CS1":"40","C12_POP15P_CS2":"88","C12_POP15P_CS3":"152","C12_POP15P_CS4":"436","C12_POP15P_CS5":"544","C12_POP15P_CS6":"532","C12_POP15P_CS7":"892","C12_POP15P_CS8":"356","TxCS6":"17.5"}
,{"CODGEO":"79062","REG":"54","DEP":"79","LIBGEO":"Cerizay","P12_POP":"4734","C12_POP15P":"3832","C12_POP15P_CS1":"12","C12_POP15P_CS2":"88","C12_POP15P_CS3":"136","C12_POP15P_CS4":"340","C12_POP15P_CS5":"464","C12_POP15P_CS6":"1032","C12_POP15P_CS7":"1360","C12_POP15P_CS8":"400","TxCS6":"26.931107"}
,{"CODGEO":"79063","REG":"54","DEP":"79","LIBGEO":"Cersay","P12_POP":"1024","C12_POP15P":"804","C12_POP15P_CS1":"56","C12_POP15P_CS2":"36","C12_POP15P_CS3":"10","C12_POP15P_CS4":"51","C12_POP15P_CS5":"107","C12_POP15P_CS6":"143","C12_POP15P_CS7":"289","C12_POP15P_CS8":"111","TxCS6":"17.78607"}
,{"CODGEO":"79064","REG":"54","DEP":"79","LIBGEO":"Chail","P12_POP":"528","C12_POP15P":"431","C12_POP15P_CS1":"0","C12_POP15P_CS2":"20","C12_POP15P_CS3":"10","C12_POP15P_CS4":"41","C12_POP15P_CS5":"81","C12_POP15P_CS6":"71","C12_POP15P_CS7":"136","C12_POP15P_CS8":"71","TxCS6":"16.473316"}
,{"CODGEO":"79066","REG":"54","DEP":"79","LIBGEO":"Champdeniers-Saint-Denis","P12_POP":"1673","C12_POP15P":"1452","C12_POP15P_CS1":"10","C12_POP15P_CS2":"46","C12_POP15P_CS3":"57","C12_POP15P_CS4":"118","C12_POP15P_CS5":"216","C12_POP15P_CS6":"216","C12_POP15P_CS7":"654","C12_POP15P_CS8":"134","TxCS6":"14.876034"}
,{"CODGEO":"79068","REG":"54","DEP":"79","LIBGEO":"Chantecorps","P12_POP":"321","C12_POP15P":"252","C12_POP15P_CS1":"28","C12_POP15P_CS2":"4","C12_POP15P_CS3":"8","C12_POP15P_CS4":"32","C12_POP15P_CS5":"48","C12_POP15P_CS6":"48","C12_POP15P_CS7":"76","C12_POP15P_CS8":"8","TxCS6":"19.047619"}
,{"CODGEO":"79069","REG":"54","DEP":"79","LIBGEO":"Chanteloup","P12_POP":"1006","C12_POP15P":"793","C12_POP15P_CS1":"20","C12_POP15P_CS2":"40","C12_POP15P_CS3":"32","C12_POP15P_CS4":"97","C12_POP15P_CS5":"113","C12_POP15P_CS6":"198","C12_POP15P_CS7":"219","C12_POP15P_CS8":"73","TxCS6":"24.968473"}
,{"CODGEO":"79070","REG":"54","DEP":"79","LIBGEO":"La Chapelle-Bâton","P12_POP":"408","C12_POP15P":"307","C12_POP15P_CS1":"20","C12_POP15P_CS2":"8","C12_POP15P_CS3":"20","C12_POP15P_CS4":"94","C12_POP15P_CS5":"33","C12_POP15P_CS6":"41","C12_POP15P_CS7":"61","C12_POP15P_CS8":"29","TxCS6":"13.355049"}
,{"CODGEO":"79071","REG":"54","DEP":"79","LIBGEO":"La Chapelle-Bertrand","P12_POP":"500","C12_POP15P":"413","C12_POP15P_CS1":"21","C12_POP15P_CS2":"26","C12_POP15P_CS3":"5","C12_POP15P_CS4":"36","C12_POP15P_CS5":"83","C12_POP15P_CS6":"71","C12_POP15P_CS7":"109","C12_POP15P_CS8":"62","TxCS6":"17.191284"}
,{"CODGEO":"79072","REG":"54","DEP":"79","LIBGEO":"La Chapelle-Gaudin","P12_POP":"228","C12_POP15P":"178","C12_POP15P_CS1":"8","C12_POP15P_CS2":"15","C12_POP15P_CS3":"8","C12_POP15P_CS4":"8","C12_POP15P_CS5":"19","C12_POP15P_CS6":"35","C12_POP15P_CS7":"54","C12_POP15P_CS8":"31","TxCS6":"19.662922"}
,{"CODGEO":"79074","REG":"54","DEP":"79","LIBGEO":"La Chapelle-Pouilloux","P12_POP":"184","C12_POP15P":"153","C12_POP15P_CS1":"0","C12_POP15P_CS2":"8","C12_POP15P_CS3":"0","C12_POP15P_CS4":"16","C12_POP15P_CS5":"20","C12_POP15P_CS6":"24","C12_POP15P_CS7":"67","C12_POP15P_CS8":"20","TxCS6":"15.6862755"}
,{"CODGEO":"79075","REG":"54","DEP":"79","LIBGEO":"La Chapelle-Saint-Étienne","P12_POP":"322","C12_POP15P":"289","C12_POP15P_CS1":"35","C12_POP15P_CS2":"20","C12_POP15P_CS3":"0","C12_POP15P_CS4":"40","C12_POP15P_CS5":"20","C12_POP15P_CS6":"65","C12_POP15P_CS7":"75","C12_POP15P_CS8":"35","TxCS6":"22.49135"}
,{"CODGEO":"79076","REG":"54","DEP":"79","LIBGEO":"La Chapelle-Saint-Laurent","P12_POP":"1900","C12_POP15P":"1552","C12_POP15P_CS1":"63","C12_POP15P_CS2":"49","C12_POP15P_CS3":"78","C12_POP15P_CS4":"146","C12_POP15P_CS5":"243","C12_POP15P_CS6":"297","C12_POP15P_CS7":"576","C12_POP15P_CS8":"101","TxCS6":"19.136597"}
,{"CODGEO":"79077","REG":"54","DEP":"79","LIBGEO":"La Chapelle-Thireuil","P12_POP":"439","C12_POP15P":"350","C12_POP15P_CS1":"28","C12_POP15P_CS2":"12","C12_POP15P_CS3":"8","C12_POP15P_CS4":"20","C12_POP15P_CS5":"32","C12_POP15P_CS6":"52","C12_POP15P_CS7":"145","C12_POP15P_CS8":"52","TxCS6":"14.857143"}
,{"CODGEO":"79078","REG":"54","DEP":"79","LIBGEO":"Prissé-la-Charrière","P12_POP":"648","C12_POP15P":"520","C12_POP15P_CS1":"28","C12_POP15P_CS2":"16","C12_POP15P_CS3":"24","C12_POP15P_CS4":"96","C12_POP15P_CS5":"104","C12_POP15P_CS6":"96","C12_POP15P_CS7":"108","C12_POP15P_CS8":"48","TxCS6":"18.461538"}
,{"CODGEO":"79079","REG":"54","DEP":"79","LIBGEO":"Mauléon","P12_POP":"8354","C12_POP15P":"6484","C12_POP15P_CS1":"260","C12_POP15P_CS2":"212","C12_POP15P_CS3":"244","C12_POP15P_CS4":"864","C12_POP15P_CS5":"956","C12_POP15P_CS6":"1432","C12_POP15P_CS7":"1832","C12_POP15P_CS8":"684","TxCS6":"22.085133"}
,{"CODGEO":"79080","REG":"54","DEP":"79","LIBGEO":"Châtillon-sur-Thouet","P12_POP":"2764","C12_POP15P":"2381","C12_POP15P_CS1":"15","C12_POP15P_CS2":"86","C12_POP15P_CS3":"61","C12_POP15P_CS4":"214","C12_POP15P_CS5":"275","C12_POP15P_CS6":"385","C12_POP15P_CS7":"916","C12_POP15P_CS8":"430","TxCS6":"16.169676"}
,{"CODGEO":"79081","REG":"54","DEP":"79","LIBGEO":"Chauray","P12_POP":"6483","C12_POP15P":"5230","C12_POP15P_CS1":"0","C12_POP15P_CS2":"139","C12_POP15P_CS3":"572","C12_POP15P_CS4":"896","C12_POP15P_CS5":"989","C12_POP15P_CS6":"626","C12_POP15P_CS7":"1459","C12_POP15P_CS8":"551","TxCS6":"11.969407"}
,{"CODGEO":"79083","REG":"54","DEP":"79","LIBGEO":"Chef-Boutonne","P12_POP":"2097","C12_POP15P":"1811","C12_POP15P_CS1":"27","C12_POP15P_CS2":"65","C12_POP15P_CS3":"48","C12_POP15P_CS4":"97","C12_POP15P_CS5":"245","C12_POP15P_CS6":"225","C12_POP15P_CS7":"852","C12_POP15P_CS8":"252","TxCS6":"12.424075"}
,{"CODGEO":"79084","REG":"54","DEP":"79","LIBGEO":"Chenay","P12_POP":"499","C12_POP15P":"416","C12_POP15P_CS1":"0","C12_POP15P_CS2":"20","C12_POP15P_CS3":"12","C12_POP15P_CS4":"28","C12_POP15P_CS5":"60","C12_POP15P_CS6":"100","C12_POP15P_CS7":"144","C12_POP15P_CS8":"52","TxCS6":"24.038462"}
,{"CODGEO":"79085","REG":"54","DEP":"79","LIBGEO":"Chérigné","P12_POP":"152","C12_POP15P":"138","C12_POP15P_CS1":"4","C12_POP15P_CS2":"0","C12_POP15P_CS3":"0","C12_POP15P_CS4":"15","C12_POP15P_CS5":"30","C12_POP15P_CS6":"37","C12_POP15P_CS7":"45","C12_POP15P_CS8":"7","TxCS6":"26.811594"}
,{"CODGEO":"79086","REG":"54","DEP":"79","LIBGEO":"Cherveux","P12_POP":"1711","C12_POP15P":"1325","C12_POP15P_CS1":"8","C12_POP15P_CS2":"33","C12_POP15P_CS3":"139","C12_POP15P_CS4":"281","C12_POP15P_CS5":"245","C12_POP15P_CS6":"224","C12_POP15P_CS7":"313","C12_POP15P_CS8":"82","TxCS6":"16.90566"}
,{"CODGEO":"79087","REG":"54","DEP":"79","LIBGEO":"Chey","P12_POP":"623","C12_POP15P":"485","C12_POP15P_CS1":"28","C12_POP15P_CS2":"28","C12_POP15P_CS3":"20","C12_POP15P_CS4":"53","C12_POP15P_CS5":"73","C12_POP15P_CS6":"65","C12_POP15P_CS7":"162","C12_POP15P_CS8":"57","TxCS6":"13.402061"}
,{"CODGEO":"79088","REG":"54","DEP":"79","LIBGEO":"Chiché","P12_POP":"1656","C12_POP15P":"1341","C12_POP15P_CS1":"49","C12_POP15P_CS2":"74","C12_POP15P_CS3":"49","C12_POP15P_CS4":"132","C12_POP15P_CS5":"192","C12_POP15P_CS6":"320","C12_POP15P_CS7":"432","C12_POP15P_CS8":"93","TxCS6":"23.86279"}
,{"CODGEO":"79089","REG":"54","DEP":"79","LIBGEO":"Le Chillou","P12_POP":"179","C12_POP15P":"156","C12_POP15P_CS1":"16","C12_POP15P_CS2":"0","C12_POP15P_CS3":"0","C12_POP15P_CS4":"16","C12_POP15P_CS5":"32","C12_POP15P_CS6":"32","C12_POP15P_CS7":"40","C12_POP15P_CS8":"20","TxCS6":"20.512821"}
,{"CODGEO":"79090","REG":"54","DEP":"79","LIBGEO":"Chizé","P12_POP":"891","C12_POP15P":"774","C12_POP15P_CS1":"15","C12_POP15P_CS2":"31","C12_POP15P_CS3":"56","C12_POP15P_CS4":"87","C12_POP15P_CS5":"92","C12_POP15P_CS6":"101","C12_POP15P_CS7":"290","C12_POP15P_CS8":"102","TxCS6":"13.049096"}
,{"CODGEO":"79091","REG":"54","DEP":"79","LIBGEO":"Cirières","P12_POP":"982","C12_POP15P":"764","C12_POP15P_CS1":"20","C12_POP15P_CS2":"24","C12_POP15P_CS3":"36","C12_POP15P_CS4":"120","C12_POP15P_CS5":"120","C12_POP15P_CS6":"156","C12_POP15P_CS7":"212","C12_POP15P_CS8":"76","TxCS6":"20.418848"}
,{"CODGEO":"79092","REG":"54","DEP":"79","LIBGEO":"Clavé","P12_POP":"355","C12_POP15P":"280","C12_POP15P_CS1":"16","C12_POP15P_CS2":"12","C12_POP15P_CS3":"24","C12_POP15P_CS4":"24","C12_POP15P_CS5":"24","C12_POP15P_CS6":"60","C12_POP15P_CS7":"88","C12_POP15P_CS8":"32","TxCS6":"21.428572"}
,{"CODGEO":"79094","REG":"54","DEP":"79","LIBGEO":"Clessé","P12_POP":"955","C12_POP15P":"772","C12_POP15P_CS1":"65","C12_POP15P_CS2":"16","C12_POP15P_CS3":"28","C12_POP15P_CS4":"61","C12_POP15P_CS5":"69","C12_POP15P_CS6":"167","C12_POP15P_CS7":"309","C12_POP15P_CS8":"57","TxCS6":"21.632124"}
,{"CODGEO":"79095","REG":"54","DEP":"79","LIBGEO":"Clussais-la-Pommeraie","P12_POP":"590","C12_POP15P":"515","C12_POP15P_CS1":"31","C12_POP15P_CS2":"39","C12_POP15P_CS3":"4","C12_POP15P_CS4":"31","C12_POP15P_CS5":"47","C12_POP15P_CS6":"75","C12_POP15P_CS7":"224","C12_POP15P_CS8":"63","TxCS6":"14.5631075"}
,{"CODGEO":"79096","REG":"54","DEP":"79","LIBGEO":"Combrand","P12_POP":"1164","C12_POP15P":"932","C12_POP15P_CS1":"16","C12_POP15P_CS2":"56","C12_POP15P_CS3":"32","C12_POP15P_CS4":"116","C12_POP15P_CS5":"108","C12_POP15P_CS6":"220","C12_POP15P_CS7":"276","C12_POP15P_CS8":"108","TxCS6":"23.60515"}
,{"CODGEO":"79098","REG":"54","DEP":"79","LIBGEO":"La Couarde","P12_POP":"261","C12_POP15P":"212","C12_POP15P_CS1":"20","C12_POP15P_CS2":"8","C12_POP15P_CS3":"16","C12_POP15P_CS4":"24","C12_POP15P_CS5":"44","C12_POP15P_CS6":"48","C12_POP15P_CS7":"40","C12_POP15P_CS8":"12","TxCS6":"22.64151"}
,{"CODGEO":"79099","REG":"54","DEP":"79","LIBGEO":"La Coudre","P12_POP":"244","C12_POP15P":"190","C12_POP15P_CS1":"8","C12_POP15P_CS2":"8","C12_POP15P_CS3":"4","C12_POP15P_CS4":"12","C12_POP15P_CS5":"36","C12_POP15P_CS6":"52","C12_POP15P_CS7":"36","C12_POP15P_CS8":"32","TxCS6":"27.36842"}
,{"CODGEO":"79100","REG":"54","DEP":"79","LIBGEO":"Coulon","P12_POP":"2238","C12_POP15P":"1843","C12_POP15P_CS1":"15","C12_POP15P_CS2":"94","C12_POP15P_CS3":"203","C12_POP15P_CS4":"287","C12_POP15P_CS5":"270","C12_POP15P_CS6":"192","C12_POP15P_CS7":"573","C12_POP15P_CS8":"209","TxCS6":"10.417797"}
,{"CODGEO":"79101","REG":"54","DEP":"79","LIBGEO":"Coulonges-sur-l'Autize","P12_POP":"2365","C12_POP15P":"1983","C12_POP15P_CS1":"8","C12_POP15P_CS2":"123","C12_POP15P_CS3":"76","C12_POP15P_CS4":"215","C12_POP15P_CS5":"331","C12_POP15P_CS6":"266","C12_POP15P_CS7":"718","C12_POP15P_CS8":"246","TxCS6":"13.41402"}
,{"CODGEO":"79102","REG":"54","DEP":"79","LIBGEO":"Coulonges-Thouarsais","P12_POP":"453","C12_POP15P":"353","C12_POP15P_CS1":"24","C12_POP15P_CS2":"20","C12_POP15P_CS3":"4","C12_POP15P_CS4":"36","C12_POP15P_CS5":"53","C12_POP15P_CS6":"122","C12_POP15P_CS7":"57","C12_POP15P_CS8":"36","TxCS6":"34.560905"}
,{"CODGEO":"79103","REG":"54","DEP":"79","LIBGEO":"Courlay","P12_POP":"2427","C12_POP15P":"1959","C12_POP15P_CS1":"64","C12_POP15P_CS2":"54","C12_POP15P_CS3":"15","C12_POP15P_CS4":"246","C12_POP15P_CS5":"266","C12_POP15P_CS6":"550","C12_POP15P_CS7":"632","C12_POP15P_CS8":"132","TxCS6":"28.075548"}
,{"CODGEO":"79104","REG":"54","DEP":"79","LIBGEO":"Cours","P12_POP":"541","C12_POP15P":"424","C12_POP15P_CS1":"28","C12_POP15P_CS2":"8","C12_POP15P_CS3":"36","C12_POP15P_CS4":"92","C12_POP15P_CS5":"60","C12_POP15P_CS6":"56","C12_POP15P_CS7":"112","C12_POP15P_CS8":"32","TxCS6":"13.207547"}
,{"CODGEO":"79105","REG":"54","DEP":"79","LIBGEO":"Coutières","P12_POP":"167","C12_POP15P":"108","C12_POP15P_CS1":"4","C12_POP15P_CS2":"4","C12_POP15P_CS3":"12","C12_POP15P_CS4":"12","C12_POP15P_CS5":"12","C12_POP15P_CS6":"27","C12_POP15P_CS7":"35","C12_POP15P_CS8":"4","TxCS6":"25.0"}
,{"CODGEO":"79106","REG":"54","DEP":"79","LIBGEO":"Couture-d'Argenson","P12_POP":"399","C12_POP15P":"380","C12_POP15P_CS1":"5","C12_POP15P_CS2":"31","C12_POP15P_CS3":"10","C12_POP15P_CS4":"16","C12_POP15P_CS5":"32","C12_POP15P_CS6":"59","C12_POP15P_CS7":"160","C12_POP15P_CS8":"67","TxCS6":"15.526316"}
,{"CODGEO":"79107","REG":"54","DEP":"79","LIBGEO":"Crézières","P12_POP":"51","C12_POP15P":"55","C12_POP15P_CS1":"0","C12_POP15P_CS2":"9","C12_POP15P_CS3":"4","C12_POP15P_CS4":"0","C12_POP15P_CS5":"9","C12_POP15P_CS6":"9","C12_POP15P_CS7":"17","C12_POP15P_CS8":"9","TxCS6":"16.363636"}
,{"CODGEO":"79108","REG":"54","DEP":"79","LIBGEO":"Doux","P12_POP":"225","C12_POP15P":"176","C12_POP15P_CS1":"16","C12_POP15P_CS2":"4","C12_POP15P_CS3":"12","C12_POP15P_CS4":"20","C12_POP15P_CS5":"20","C12_POP15P_CS6":"20","C12_POP15P_CS7":"72","C12_POP15P_CS8":"12","TxCS6":"11.363637"}
,{"CODGEO":"79109","REG":"54","DEP":"79","LIBGEO":"Échiré","P12_POP":"3282","C12_POP15P":"2630","C12_POP15P_CS1":"16","C12_POP15P_CS2":"76","C12_POP15P_CS3":"253","C12_POP15P_CS4":"434","C12_POP15P_CS5":"386","C12_POP15P_CS6":"277","C12_POP15P_CS7":"976","C12_POP15P_CS8":"213","TxCS6":"10.53232"}
,{"CODGEO":"79111","REG":"54","DEP":"79","LIBGEO":"Ensigné","P12_POP":"293","C12_POP15P":"248","C12_POP15P_CS1":"12","C12_POP15P_CS2":"8","C12_POP15P_CS3":"8","C12_POP15P_CS4":"28","C12_POP15P_CS5":"44","C12_POP15P_CS6":"48","C12_POP15P_CS7":"80","C12_POP15P_CS8":"20","TxCS6":"19.354837"}
,{"CODGEO":"79112","REG":"54","DEP":"79","LIBGEO":"Épannes","P12_POP":"771","C12_POP15P":"621","C12_POP15P_CS1":"16","C12_POP15P_CS2":"20","C12_POP15P_CS3":"40","C12_POP15P_CS4":"84","C12_POP15P_CS5":"175","C12_POP15P_CS6":"111","C12_POP15P_CS7":"135","C12_POP15P_CS8":"40","TxCS6":"17.874395"}
,{"CODGEO":"79113","REG":"54","DEP":"79","LIBGEO":"Étusson","P12_POP":"358","C12_POP15P":"281","C12_POP15P_CS1":"34","C12_POP15P_CS2":"0","C12_POP15P_CS3":"0","C12_POP15P_CS4":"13","C12_POP15P_CS5":"34","C12_POP15P_CS6":"71","C12_POP15P_CS7":"105","C12_POP15P_CS8":"25","TxCS6":"25.266903"}
,{"CODGEO":"79114","REG":"54","DEP":"79","LIBGEO":"Exireuil","P12_POP":"1558","C12_POP15P":"1241","C12_POP15P_CS1":"20","C12_POP15P_CS2":"29","C12_POP15P_CS3":"58","C12_POP15P_CS4":"128","C12_POP15P_CS5":"210","C12_POP15P_CS6":"274","C12_POP15P_CS7":"399","C12_POP15P_CS8":"123","TxCS6":"22.078968"}
,{"CODGEO":"79115","REG":"54","DEP":"79","LIBGEO":"Exoudun","P12_POP":"621","C12_POP15P":"500","C12_POP15P_CS1":"56","C12_POP15P_CS2":"32","C12_POP15P_CS3":"24","C12_POP15P_CS4":"40","C12_POP15P_CS5":"56","C12_POP15P_CS6":"92","C12_POP15P_CS7":"152","C12_POP15P_CS8":"48","TxCS6":"18.4"}
,{"CODGEO":"79116","REG":"54","DEP":"79","LIBGEO":"Faye-l'Abbesse","P12_POP":"1040","C12_POP15P":"854","C12_POP15P_CS1":"15","C12_POP15P_CS2":"35","C12_POP15P_CS3":"5","C12_POP15P_CS4":"75","C12_POP15P_CS5":"156","C12_POP15P_CS6":"171","C12_POP15P_CS7":"327","C12_POP15P_CS8":"70","TxCS6":"20.023418"}
,{"CODGEO":"79117","REG":"54","DEP":"79","LIBGEO":"Faye-sur-Ardin","P12_POP":"631","C12_POP15P":"457","C12_POP15P_CS1":"26","C12_POP15P_CS2":"10","C12_POP15P_CS3":"10","C12_POP15P_CS4":"92","C12_POP15P_CS5":"113","C12_POP15P_CS6":"92","C12_POP15P_CS7":"82","C12_POP15P_CS8":"31","TxCS6":"20.131292"}
,{"CODGEO":"79118","REG":"54","DEP":"79","LIBGEO":"Fénery","P12_POP":"301","C12_POP15P":"234","C12_POP15P_CS1":"10","C12_POP15P_CS2":"15","C12_POP15P_CS3":"5","C12_POP15P_CS4":"35","C12_POP15P_CS5":"55","C12_POP15P_CS6":"20","C12_POP15P_CS7":"90","C12_POP15P_CS8":"5","TxCS6":"8.5470085"}
,{"CODGEO":"79119","REG":"54","DEP":"79","LIBGEO":"Fenioux","P12_POP":"670","C12_POP15P":"581","C12_POP15P_CS1":"32","C12_POP15P_CS2":"8","C12_POP15P_CS3":"8","C12_POP15P_CS4":"68","C12_POP15P_CS5":"60","C12_POP15P_CS6":"132","C12_POP15P_CS7":"216","C12_POP15P_CS8":"56","TxCS6":"22.719448"}
,{"CODGEO":"79120","REG":"54","DEP":"79","LIBGEO":"La Ferrière-en-Parthenay","P12_POP":"812","C12_POP15P":"638","C12_POP15P_CS1":"32","C12_POP15P_CS2":"32","C12_POP15P_CS3":"12","C12_POP15P_CS4":"80","C12_POP15P_CS5":"124","C12_POP15P_CS6":"135","C12_POP15P_CS7":"147","C12_POP15P_CS8":"76","TxCS6":"21.159874"}
,{"CODGEO":"79121","REG":"54","DEP":"79","LIBGEO":"Fomperron","P12_POP":"433","C12_POP15P":"316","C12_POP15P_CS1":"20","C12_POP15P_CS2":"0","C12_POP15P_CS3":"10","C12_POP15P_CS4":"46","C12_POP15P_CS5":"67","C12_POP15P_CS6":"77","C12_POP15P_CS7":"67","C12_POP15P_CS8":"30","TxCS6":"24.367088"}
,{"CODGEO":"79122","REG":"54","DEP":"79","LIBGEO":"Fontenille-Saint-Martin-d'Entraigu","P12_POP":"603","C12_POP15P":"497","C12_POP15P_CS1":"8","C12_POP15P_CS2":"24","C12_POP15P_CS3":"4","C12_POP15P_CS4":"20","C12_POP15P_CS5":"93","C12_POP15P_CS6":"158","C12_POP15P_CS7":"158","C12_POP15P_CS8":"32","TxCS6":"31.790745"}
,{"CODGEO":"79123","REG":"54","DEP":"79","LIBGEO":"La Forêt-sur-Sèvre","P12_POP":"2297","C12_POP15P":"1859","C12_POP15P_CS1":"115","C12_POP15P_CS2":"51","C12_POP15P_CS3":"32","C12_POP15P_CS4":"156","C12_POP15P_CS5":"224","C12_POP15P_CS6":"465","C12_POP15P_CS7":"652","C12_POP15P_CS8":"165","TxCS6":"25.013447"}
,{"CODGEO":"79124","REG":"54","DEP":"79","LIBGEO":"Les Forges","P12_POP":"130","C12_POP15P":"104","C12_POP15P_CS1":"9","C12_POP15P_CS2":"9","C12_POP15P_CS3":"0","C12_POP15P_CS4":"14","C12_POP15P_CS5":"9","C12_POP15P_CS6":"14","C12_POP15P_CS7":"42","C12_POP15P_CS8":"5","TxCS6":"13.461539"}
,{"CODGEO":"79125","REG":"54","DEP":"79","LIBGEO":"Fors","P12_POP":"1745","C12_POP15P":"1314","C12_POP15P_CS1":"8","C12_POP15P_CS2":"35","C12_POP15P_CS3":"130","C12_POP15P_CS4":"271","C12_POP15P_CS5":"268","C12_POP15P_CS6":"165","C12_POP15P_CS7":"307","C12_POP15P_CS8":"130","TxCS6":"12.557077"}
,{"CODGEO":"79126","REG":"54","DEP":"79","LIBGEO":"Les Fosses","P12_POP":"442","C12_POP15P":"369","C12_POP15P_CS1":"16","C12_POP15P_CS2":"16","C12_POP15P_CS3":"16","C12_POP15P_CS4":"44","C12_POP15P_CS5":"95","C12_POP15P_CS6":"87","C12_POP15P_CS7":"75","C12_POP15P_CS8":"20","TxCS6":"23.577236"}
,{"CODGEO":"79127","REG":"54","DEP":"79","LIBGEO":"La Foye-Monjault","P12_POP":"783","C12_POP15P":"621","C12_POP15P_CS1":"16","C12_POP15P_CS2":"16","C12_POP15P_CS3":"52","C12_POP15P_CS4":"113","C12_POP15P_CS5":"113","C12_POP15P_CS6":"77","C12_POP15P_CS7":"177","C12_POP15P_CS8":"56","TxCS6":"12.399356"}
,{"CODGEO":"79128","REG":"54","DEP":"79","LIBGEO":"François","P12_POP":"954","C12_POP15P":"756","C12_POP15P_CS1":"0","C12_POP15P_CS2":"32","C12_POP15P_CS3":"110","C12_POP15P_CS4":"138","C12_POP15P_CS5":"150","C12_POP15P_CS6":"98","C12_POP15P_CS7":"177","C12_POP15P_CS8":"51","TxCS6":"12.962963"}
,{"CODGEO":"79129","REG":"54","DEP":"79","LIBGEO":"Fressines","P12_POP":"1516","C12_POP15P":"1156","C12_POP15P_CS1":"4","C12_POP15P_CS2":"46","C12_POP15P_CS3":"144","C12_POP15P_CS4":"225","C12_POP15P_CS5":"197","C12_POP15P_CS6":"168","C12_POP15P_CS7":"281","C12_POP15P_CS8":"91","TxCS6":"14.532871"}
,{"CODGEO":"79130","REG":"54","DEP":"79","LIBGEO":"Frontenay-Rohan-Rohan","P12_POP":"2954","C12_POP15P":"2391","C12_POP15P_CS1":"20","C12_POP15P_CS2":"60","C12_POP15P_CS3":"255","C12_POP15P_CS4":"400","C12_POP15P_CS5":"418","C12_POP15P_CS6":"292","C12_POP15P_CS7":"648","C12_POP15P_CS8":"298","TxCS6":"12.212463"}
,{"CODGEO":"79131","REG":"54","DEP":"79","LIBGEO":"Geay","P12_POP":"345","C12_POP15P":"288","C12_POP15P_CS1":"37","C12_POP15P_CS2":"4","C12_POP15P_CS3":"8","C12_POP15P_CS4":"16","C12_POP15P_CS5":"45","C12_POP15P_CS6":"77","C12_POP15P_CS7":"73","C12_POP15P_CS8":"28","TxCS6":"26.73611"}
,{"CODGEO":"79132","REG":"54","DEP":"79","LIBGEO":"Genneton","P12_POP":"337","C12_POP15P":"252","C12_POP15P_CS1":"24","C12_POP15P_CS2":"8","C12_POP15P_CS3":"16","C12_POP15P_CS4":"24","C12_POP15P_CS5":"8","C12_POP15P_CS6":"52","C12_POP15P_CS7":"100","C12_POP15P_CS8":"20","TxCS6":"20.63492"}
,{"CODGEO":"79133","REG":"54","DEP":"79","LIBGEO":"Germond-Rouvre","P12_POP":"1164","C12_POP15P":"923","C12_POP15P_CS1":"48","C12_POP15P_CS2":"20","C12_POP15P_CS3":"103","C12_POP15P_CS4":"147","C12_POP15P_CS5":"163","C12_POP15P_CS6":"131","C12_POP15P_CS7":"215","C12_POP15P_CS8":"96","TxCS6":"14.192849"}
,{"CODGEO":"79134","REG":"54","DEP":"79","LIBGEO":"Glénay","P12_POP":"561","C12_POP15P":"456","C12_POP15P_CS1":"12","C12_POP15P_CS2":"8","C12_POP15P_CS3":"12","C12_POP15P_CS4":"60","C12_POP15P_CS5":"72","C12_POP15P_CS6":"88","C12_POP15P_CS7":"156","C12_POP15P_CS8":"48","TxCS6":"19.298244"}
,{"CODGEO":"79135","REG":"54","DEP":"79","LIBGEO":"Gourgé","P12_POP":"945","C12_POP15P":"809","C12_POP15P_CS1":"32","C12_POP15P_CS2":"56","C12_POP15P_CS3":"48","C12_POP15P_CS4":"84","C12_POP15P_CS5":"108","C12_POP15P_CS6":"147","C12_POP15P_CS7":"235","C12_POP15P_CS8":"100","TxCS6":"18.17058"}
,{"CODGEO":"79136","REG":"54","DEP":"79","LIBGEO":"Gournay-Loizé","P12_POP":"610","C12_POP15P":"509","C12_POP15P_CS1":"48","C12_POP15P_CS2":"24","C12_POP15P_CS3":"20","C12_POP15P_CS4":"36","C12_POP15P_CS5":"48","C12_POP15P_CS6":"76","C12_POP15P_CS7":"179","C12_POP15P_CS8":"79","TxCS6":"14.931238"}
,{"CODGEO":"79137","REG":"54","DEP":"79","LIBGEO":"Granzay-Gript","P12_POP":"910","C12_POP15P":"722","C12_POP15P_CS1":"16","C12_POP15P_CS2":"28","C12_POP15P_CS3":"65","C12_POP15P_CS4":"121","C12_POP15P_CS5":"137","C12_POP15P_CS6":"149","C12_POP15P_CS7":"117","C12_POP15P_CS8":"89","TxCS6":"20.63712"}
,{"CODGEO":"79139","REG":"54","DEP":"79","LIBGEO":"Les Groseillers","P12_POP":"56","C12_POP15P":"52","C12_POP15P_CS1":"16","C12_POP15P_CS2":"4","C12_POP15P_CS3":"4","C12_POP15P_CS4":"0","C12_POP15P_CS5":"8","C12_POP15P_CS6":"8","C12_POP15P_CS7":"8","C12_POP15P_CS8":"4","TxCS6":"15.384616"}
,{"CODGEO":"79140","REG":"54","DEP":"79","LIBGEO":"Hanc","P12_POP":"254","C12_POP15P":"219","C12_POP15P_CS1":"5","C12_POP15P_CS2":"20","C12_POP15P_CS3":"0","C12_POP15P_CS4":"5","C12_POP15P_CS5":"25","C12_POP15P_CS6":"45","C12_POP15P_CS7":"95","C12_POP15P_CS8":"25","TxCS6":"20.547945"}
,{"CODGEO":"79141","REG":"54","DEP":"79","LIBGEO":"Irais","P12_POP":"198","C12_POP15P":"171","C12_POP15P_CS1":"24","C12_POP15P_CS2":"10","C12_POP15P_CS3":"0","C12_POP15P_CS4":"5","C12_POP15P_CS5":"34","C12_POP15P_CS6":"24","C12_POP15P_CS7":"39","C12_POP15P_CS8":"34","TxCS6":"14.035088"}
,{"CODGEO":"79142","REG":"54","DEP":"79","LIBGEO":"Juillé","P12_POP":"107","C12_POP15P":"99","C12_POP15P_CS1":"0","C12_POP15P_CS2":"0","C12_POP15P_CS3":"10","C12_POP15P_CS4":"16","C12_POP15P_CS5":"21","C12_POP15P_CS6":"21","C12_POP15P_CS7":"21","C12_POP15P_CS8":"10","TxCS6":"21.212122"}
,{"CODGEO":"79144","REG":"54","DEP":"79","LIBGEO":"Juscorps","P12_POP":"384","C12_POP15P":"293","C12_POP15P_CS1":"8","C12_POP15P_CS2":"17","C12_POP15P_CS3":"4","C12_POP15P_CS4":"25","C12_POP15P_CS5":"87","C12_POP15P_CS6":"70","C12_POP15P_CS7":"45","C12_POP15P_CS8":"37","TxCS6":"23.890785"}
,{"CODGEO":"79145","REG":"54","DEP":"79","LIBGEO":"Lageon","P12_POP":"359","C12_POP15P":"279","C12_POP15P_CS1":"16","C12_POP15P_CS2":"8","C12_POP15P_CS3":"0","C12_POP15P_CS4":"36","C12_POP15P_CS5":"49","C12_POP15P_CS6":"73","C12_POP15P_CS7":"73","C12_POP15P_CS8":"24","TxCS6":"26.164875"}
,{"CODGEO":"79147","REG":"54","DEP":"79","LIBGEO":"Largeasse","P12_POP":"740","C12_POP15P":"628","C12_POP15P_CS1":"68","C12_POP15P_CS2":"16","C12_POP15P_CS3":"20","C12_POP15P_CS4":"32","C12_POP15P_CS5":"104","C12_POP15P_CS6":"104","C12_POP15P_CS7":"224","C12_POP15P_CS8":"60","TxCS6":"16.56051"}
,{"CODGEO":"79148","REG":"54","DEP":"79","LIBGEO":"Lezay","P12_POP":"2087","C12_POP15P":"1828","C12_POP15P_CS1":"48","C12_POP15P_CS2":"64","C12_POP15P_CS3":"36","C12_POP15P_CS4":"104","C12_POP15P_CS5":"244","C12_POP15P_CS6":"232","C12_POP15P_CS7":"948","C12_POP15P_CS8":"152","TxCS6":"12.691466"}
,{"CODGEO":"79149","REG":"54","DEP":"79","LIBGEO":"Lhoumois","P12_POP":"150","C12_POP15P":"120","C12_POP15P_CS1":"35","C12_POP15P_CS2":"0","C12_POP15P_CS3":"0","C12_POP15P_CS4":"8","C12_POP15P_CS5":"19","C12_POP15P_CS6":"31","C12_POP15P_CS7":"27","C12_POP15P_CS8":"0","TxCS6":"25.833332"}
,{"CODGEO":"79150","REG":"54","DEP":"79","LIBGEO":"Limalonges","P12_POP":"867","C12_POP15P":"739","C12_POP15P_CS1":"16","C12_POP15P_CS2":"44","C12_POP15P_CS3":"16","C12_POP15P_CS4":"91","C12_POP15P_CS5":"67","C12_POP15P_CS6":"103","C12_POP15P_CS7":"314","C12_POP15P_CS8":"87","TxCS6":"13.937754"}
,{"CODGEO":"79152","REG":"54","DEP":"79","LIBGEO":"Lorigné","P12_POP":"284","C12_POP15P":"265","C12_POP15P_CS1":"16","C12_POP15P_CS2":"8","C12_POP15P_CS3":"0","C12_POP15P_CS4":"16","C12_POP15P_CS5":"29","C12_POP15P_CS6":"20","C12_POP15P_CS7":"134","C12_POP15P_CS8":"41","TxCS6":"7.5471697"}
,{"CODGEO":"79153","REG":"54","DEP":"79","LIBGEO":"Loubigné","P12_POP":"160","C12_POP15P":"130","C12_POP15P_CS1":"12","C12_POP15P_CS2":"0","C12_POP15P_CS3":"0","C12_POP15P_CS4":"0","C12_POP15P_CS5":"12","C12_POP15P_CS6":"32","C12_POP15P_CS7":"71","C12_POP15P_CS8":"4","TxCS6":"24.615385"}
,{"CODGEO":"79154","REG":"54","DEP":"79","LIBGEO":"Loubillé","P12_POP":"379","C12_POP15P":"326","C12_POP15P_CS1":"4","C12_POP15P_CS2":"20","C12_POP15P_CS3":"4","C12_POP15P_CS4":"12","C12_POP15P_CS5":"28","C12_POP15P_CS6":"60","C12_POP15P_CS7":"151","C12_POP15P_CS8":"48","TxCS6":"18.40491"}
,{"CODGEO":"79156","REG":"54","DEP":"79","LIBGEO":"Louin","P12_POP":"738","C12_POP15P":"626","C12_POP15P_CS1":"27","C12_POP15P_CS2":"5","C12_POP15P_CS3":"62","C12_POP15P_CS4":"84","C12_POP15P_CS5":"100","C12_POP15P_CS6":"64","C12_POP15P_CS7":"254","C12_POP15P_CS8":"31","TxCS6":"10.223642"}
,{"CODGEO":"79157","REG":"54","DEP":"79","LIBGEO":"Louzy","P12_POP":"1285","C12_POP15P":"994","C12_POP15P_CS1":"28","C12_POP15P_CS2":"32","C12_POP15P_CS3":"52","C12_POP15P_CS4":"136","C12_POP15P_CS5":"196","C12_POP15P_CS6":"236","C12_POP15P_CS7":"224","C12_POP15P_CS8":"92","TxCS6":"23.742455"}
,{"CODGEO":"79158","REG":"54","DEP":"79","LIBGEO":"Luché-sur-Brioux","P12_POP":"138","C12_POP15P":"108","C12_POP15P_CS1":"4","C12_POP15P_CS2":"0","C12_POP15P_CS3":"0","C12_POP15P_CS4":"15","C12_POP15P_CS5":"39","C12_POP15P_CS6":"23","C12_POP15P_CS7":"23","C12_POP15P_CS8":"4","TxCS6":"21.296297"}
,{"CODGEO":"79159","REG":"54","DEP":"79","LIBGEO":"Luché-Thouarsais","P12_POP":"494","C12_POP15P":"356","C12_POP15P_CS1":"16","C12_POP15P_CS2":"12","C12_POP15P_CS3":"4","C12_POP15P_CS4":"60","C12_POP15P_CS5":"60","C12_POP15P_CS6":"72","C12_POP15P_CS7":"96","C12_POP15P_CS8":"36","TxCS6":"20.224718"}
,{"CODGEO":"79160","REG":"54","DEP":"79","LIBGEO":"Lusseray","P12_POP":"159","C12_POP15P":"144","C12_POP15P_CS1":"15","C12_POP15P_CS2":"0","C12_POP15P_CS3":"0","C12_POP15P_CS4":"15","C12_POP15P_CS5":"26","C12_POP15P_CS6":"26","C12_POP15P_CS7":"62","C12_POP15P_CS8":"0","TxCS6":"18.055555"}
,{"CODGEO":"79161","REG":"54","DEP":"79","LIBGEO":"Luzay","P12_POP":"586","C12_POP15P":"479","C12_POP15P_CS1":"0","C12_POP15P_CS2":"12","C12_POP15P_CS3":"24","C12_POP15P_CS4":"53","C12_POP15P_CS5":"81","C12_POP15P_CS6":"130","C12_POP15P_CS7":"142","C12_POP15P_CS8":"37","TxCS6":"27.139875"}
,{"CODGEO":"79162","REG":"54","DEP":"79","LIBGEO":"Magné","P12_POP":"2727","C12_POP15P":"2357","C12_POP15P_CS1":"16","C12_POP15P_CS2":"77","C12_POP15P_CS3":"224","C12_POP15P_CS4":"403","C12_POP15P_CS5":"391","C12_POP15P_CS6":"204","C12_POP15P_CS7":"863","C12_POP15P_CS8":"179","TxCS6":"8.655069"}
,{"CODGEO":"79163","REG":"54","DEP":"79","LIBGEO":"Mairé-Levescault","P12_POP":"571","C12_POP15P":"492","C12_POP15P_CS1":"12","C12_POP15P_CS2":"28","C12_POP15P_CS3":"8","C12_POP15P_CS4":"40","C12_POP15P_CS5":"88","C12_POP15P_CS6":"80","C12_POP15P_CS7":"184","C12_POP15P_CS8":"52","TxCS6":"16.260162"}
,{"CODGEO":"79164","REG":"54","DEP":"79","LIBGEO":"Maisonnay","P12_POP":"252","C12_POP15P":"200","C12_POP15P_CS1":"4","C12_POP15P_CS2":"12","C12_POP15P_CS3":"0","C12_POP15P_CS4":"24","C12_POP15P_CS5":"59","C12_POP15P_CS6":"55","C12_POP15P_CS7":"31","C12_POP15P_CS8":"16","TxCS6":"27.5"}
,{"CODGEO":"79165","REG":"54","DEP":"79","LIBGEO":"Maisontiers","P12_POP":"179","C12_POP15P":"165","C12_POP15P_CS1":"22","C12_POP15P_CS2":"5","C12_POP15P_CS3":"0","C12_POP15P_CS4":"16","C12_POP15P_CS5":"22","C12_POP15P_CS6":"16","C12_POP15P_CS7":"62","C12_POP15P_CS8":"22","TxCS6":"9.696969"}
,{"CODGEO":"79166","REG":"54","DEP":"79","LIBGEO":"Marigny","P12_POP":"880","C12_POP15P":"715","C12_POP15P_CS1":"24","C12_POP15P_CS2":"28","C12_POP15P_CS3":"28","C12_POP15P_CS4":"87","C12_POP15P_CS5":"131","C12_POP15P_CS6":"135","C12_POP15P_CS7":"195","C12_POP15P_CS8":"87","TxCS6":"18.881119"}
,{"CODGEO":"79167","REG":"54","DEP":"79","LIBGEO":"Marnes","P12_POP":"245","C12_POP15P":"216","C12_POP15P_CS1":"12","C12_POP15P_CS2":"4","C12_POP15P_CS3":"4","C12_POP15P_CS4":"4","C12_POP15P_CS5":"16","C12_POP15P_CS6":"57","C12_POP15P_CS7":"102","C12_POP15P_CS8":"16","TxCS6":"26.38889"}
,{"CODGEO":"79168","REG":"54","DEP":"79","LIBGEO":"Massais","P12_POP":"578","C12_POP15P":"432","C12_POP15P_CS1":"40","C12_POP15P_CS2":"12","C12_POP15P_CS3":"8","C12_POP15P_CS4":"44","C12_POP15P_CS5":"61","C12_POP15P_CS6":"101","C12_POP15P_CS7":"129","C12_POP15P_CS8":"36","TxCS6":"23.37963"}
,{"CODGEO":"79170","REG":"54","DEP":"79","LIBGEO":"Mauzé-sur-le-Mignon","P12_POP":"2772","C12_POP15P":"2302","C12_POP15P_CS1":"36","C12_POP15P_CS2":"73","C12_POP15P_CS3":"153","C12_POP15P_CS4":"375","C12_POP15P_CS5":"306","C12_POP15P_CS6":"258","C12_POP15P_CS7":"816","C12_POP15P_CS8":"285","TxCS6":"11.207645"}
,{"CODGEO":"79171","REG":"54","DEP":"79","LIBGEO":"Mauzé-Thouarsais","P12_POP":"2144","C12_POP15P":"1687","C12_POP15P_CS1":"24","C12_POP15P_CS2":"55","C12_POP15P_CS3":"63","C12_POP15P_CS4":"243","C12_POP15P_CS5":"267","C12_POP15P_CS6":"388","C12_POP15P_CS7":"475","C12_POP15P_CS8":"173","TxCS6":"22.999407"}
,{"CODGEO":"79172","REG":"54","DEP":"79","LIBGEO":"Mazières-en-Gâtine","P12_POP":"996","C12_POP15P":"824","C12_POP15P_CS1":"30","C12_POP15P_CS2":"45","C12_POP15P_CS3":"15","C12_POP15P_CS4":"86","C12_POP15P_CS5":"171","C12_POP15P_CS6":"126","C12_POP15P_CS7":"256","C12_POP15P_CS8":"96","TxCS6":"15.291262"}
,{"CODGEO":"79173","REG":"54","DEP":"79","LIBGEO":"Mazières-sur-Béronne","P12_POP":"408","C12_POP15P":"327","C12_POP15P_CS1":"20","C12_POP15P_CS2":"8","C12_POP15P_CS3":"12","C12_POP15P_CS4":"65","C12_POP15P_CS5":"32","C12_POP15P_CS6":"28","C12_POP15P_CS7":"105","C12_POP15P_CS8":"57","TxCS6":"8.562691"}
,{"CODGEO":"79174","REG":"54","DEP":"79","LIBGEO":"Melle","P12_POP":"3673","C12_POP15P":"3201","C12_POP15P_CS1":"4","C12_POP15P_CS2":"56","C12_POP15P_CS3":"92","C12_POP15P_CS4":"329","C12_POP15P_CS5":"448","C12_POP15P_CS6":"416","C12_POP15P_CS7":"1242","C12_POP15P_CS8":"613","TxCS6":"12.995939"}
,{"CODGEO":"79175","REG":"54","DEP":"79","LIBGEO":"Melleran","P12_POP":"519","C12_POP15P":"448","C12_POP15P_CS1":"40","C12_POP15P_CS2":"25","C12_POP15P_CS3":"0","C12_POP15P_CS4":"44","C12_POP15P_CS5":"45","C12_POP15P_CS6":"78","C12_POP15P_CS7":"168","C12_POP15P_CS8":"49","TxCS6":"17.410715"}
,{"CODGEO":"79176","REG":"54","DEP":"79","LIBGEO":"Ménigoute","P12_POP":"872","C12_POP15P":"762","C12_POP15P_CS1":"12","C12_POP15P_CS2":"32","C12_POP15P_CS3":"24","C12_POP15P_CS4":"80","C12_POP15P_CS5":"108","C12_POP15P_CS6":"96","C12_POP15P_CS7":"362","C12_POP15P_CS8":"48","TxCS6":"12.598425"}
,{"CODGEO":"79177","REG":"54","DEP":"79","LIBGEO":"Messé","P12_POP":"186","C12_POP15P":"172","C12_POP15P_CS1":"4","C12_POP15P_CS2":"0","C12_POP15P_CS3":"8","C12_POP15P_CS4":"24","C12_POP15P_CS5":"40","C12_POP15P_CS6":"12","C12_POP15P_CS7":"72","C12_POP15P_CS8":"12","TxCS6":"6.9767447"}
,{"CODGEO":"79178","REG":"54","DEP":"79","LIBGEO":"Missé","P12_POP":"860","C12_POP15P":"720","C12_POP15P_CS1":"20","C12_POP15P_CS2":"16","C12_POP15P_CS3":"24","C12_POP15P_CS4":"105","C12_POP15P_CS5":"109","C12_POP15P_CS6":"121","C12_POP15P_CS7":"245","C12_POP15P_CS8":"80","TxCS6":"16.805555"}
,{"CODGEO":"79179","REG":"54","DEP":"79","LIBGEO":"Moncoutant","P12_POP":"3168","C12_POP15P":"2565","C12_POP15P_CS1":"65","C12_POP15P_CS2":"85","C12_POP15P_CS3":"85","C12_POP15P_CS4":"299","C12_POP15P_CS5":"436","C12_POP15P_CS6":"502","C12_POP15P_CS7":"835","C12_POP15P_CS8":"256","TxCS6":"19.571152"}
,{"CODGEO":"79180","REG":"54","DEP":"79","LIBGEO":"Montalembert","P12_POP":"267","C12_POP15P":"248","C12_POP15P_CS1":"4","C12_POP15P_CS2":"24","C12_POP15P_CS3":"0","C12_POP15P_CS4":"20","C12_POP15P_CS5":"16","C12_POP15P_CS6":"44","C12_POP15P_CS7":"120","C12_POP15P_CS8":"20","TxCS6":"17.741936"}
,{"CODGEO":"79183","REG":"54","DEP":"79","LIBGEO":"Montravers","P12_POP":"376","C12_POP15P":"278","C12_POP15P_CS1":"8","C12_POP15P_CS2":"8","C12_POP15P_CS3":"12","C12_POP15P_CS4":"48","C12_POP15P_CS5":"44","C12_POP15P_CS6":"52","C12_POP15P_CS7":"91","C12_POP15P_CS8":"16","TxCS6":"18.705036"}
,{"CODGEO":"79184","REG":"54","DEP":"79","LIBGEO":"La Mothe-Saint-Héray","P12_POP":"1774","C12_POP15P":"1442","C12_POP15P_CS1":"24","C12_POP15P_CS2":"83","C12_POP15P_CS3":"79","C12_POP15P_CS4":"114","C12_POP15P_CS5":"240","C12_POP15P_CS6":"205","C12_POP15P_CS7":"549","C12_POP15P_CS8":"150","TxCS6":"14.216367"}
,{"CODGEO":"79185","REG":"54","DEP":"79","LIBGEO":"Mougon","P12_POP":"2081","C12_POP15P":"1580","C12_POP15P_CS1":"5","C12_POP15P_CS2":"29","C12_POP15P_CS3":"211","C12_POP15P_CS4":"226","C12_POP15P_CS5":"329","C12_POP15P_CS6":"246","C12_POP15P_CS7":"401","C12_POP15P_CS8":"133","TxCS6":"15.56962"}
,{"CODGEO":"79187","REG":"54","DEP":"79","LIBGEO":"Moutiers-sous-Argenton","P12_POP":"618","C12_POP15P":"504","C12_POP15P_CS1":"45","C12_POP15P_CS2":"8","C12_POP15P_CS3":"24","C12_POP15P_CS4":"33","C12_POP15P_CS5":"28","C12_POP15P_CS6":"110","C12_POP15P_CS7":"191","C12_POP15P_CS8":"65","TxCS6":"21.825397"}
,{"CODGEO":"79188","REG":"54","DEP":"79","LIBGEO":"Moutiers-sous-Chantemerle","P12_POP":"604","C12_POP15P":"498","C12_POP15P_CS1":"24","C12_POP15P_CS2":"16","C12_POP15P_CS3":"16","C12_POP15P_CS4":"44","C12_POP15P_CS5":"60","C12_POP15P_CS6":"100","C12_POP15P_CS7":"217","C12_POP15P_CS8":"20","TxCS6":"20.080322"}
,{"CODGEO":"79189","REG":"54","DEP":"79","LIBGEO":"Nanteuil","P12_POP":"1674","C12_POP15P":"1273","C12_POP15P_CS1":"30","C12_POP15P_CS2":"75","C12_POP15P_CS3":"75","C12_POP15P_CS4":"194","C12_POP15P_CS5":"224","C12_POP15P_CS6":"184","C12_POP15P_CS7":"383","C12_POP15P_CS8":"109","TxCS6":"14.454046"}
,{"CODGEO":"79190","REG":"54","DEP":"79","LIBGEO":"Neuvy-Bouin","P12_POP":"486","C12_POP15P":"412","C12_POP15P_CS1":"44","C12_POP15P_CS2":"32","C12_POP15P_CS3":"16","C12_POP15P_CS4":"28","C12_POP15P_CS5":"52","C12_POP15P_CS6":"68","C12_POP15P_CS7":"140","C12_POP15P_CS8":"32","TxCS6":"16.504854"}
,{"CODGEO":"79191","REG":"54","DEP":"79","LIBGEO":"Niort","P12_POP":"57607","C12_POP15P":"48627","C12_POP15P_CS1":"60","C12_POP15P_CS2":"1248","C12_POP15P_CS3":"4982","C12_POP15P_CS4":"7470","C12_POP15P_CS5":"7982","C12_POP15P_CS6":"5625","C12_POP15P_CS7":"14158","C12_POP15P_CS8":"7103","TxCS6":"11.567648"}
,{"CODGEO":"79195","REG":"54","DEP":"79","LIBGEO":"Nueil-les-Aubiers","P12_POP":"5569","C12_POP15P":"4389","C12_POP15P_CS1":"123","C12_POP15P_CS2":"139","C12_POP15P_CS3":"123","C12_POP15P_CS4":"460","C12_POP15P_CS5":"543","C12_POP15P_CS6":"1145","C12_POP15P_CS7":"1302","C12_POP15P_CS8":"555","TxCS6":"26.087946"}
,{"CODGEO":"79196","REG":"54","DEP":"79","LIBGEO":"Oiron","P12_POP":"936","C12_POP15P":"784","C12_POP15P_CS1":"28","C12_POP15P_CS2":"24","C12_POP15P_CS3":"33","C12_POP15P_CS4":"53","C12_POP15P_CS5":"81","C12_POP15P_CS6":"130","C12_POP15P_CS7":"373","C12_POP15P_CS8":"61","TxCS6":"16.581633"}
,{"CODGEO":"79197","REG":"54","DEP":"79","LIBGEO":"Oroux","P12_POP":"109","C12_POP15P":"93","C12_POP15P_CS1":"0","C12_POP15P_CS2":"0","C12_POP15P_CS3":"0","C12_POP15P_CS4":"12","C12_POP15P_CS5":"20","C12_POP15P_CS6":"28","C12_POP15P_CS7":"28","C12_POP15P_CS8":"4","TxCS6":"30.107529"}
,{"CODGEO":"79198","REG":"54","DEP":"79","LIBGEO":"Paizay-le-Chapt","P12_POP":"265","C12_POP15P":"204","C12_POP15P_CS1":"25","C12_POP15P_CS2":"20","C12_POP15P_CS3":"5","C12_POP15P_CS4":"15","C12_POP15P_CS5":"10","C12_POP15P_CS6":"31","C12_POP15P_CS7":"76","C12_POP15P_CS8":"20","TxCS6":"15.196079"}
,{"CODGEO":"79199","REG":"54","DEP":"79","LIBGEO":"Paizay-le-Tort","P12_POP":"482","C12_POP15P":"394","C12_POP15P_CS1":"20","C12_POP15P_CS2":"32","C12_POP15P_CS3":"8","C12_POP15P_CS4":"40","C12_POP15P_CS5":"60","C12_POP15P_CS6":"48","C12_POP15P_CS7":"119","C12_POP15P_CS8":"68","TxCS6":"12.182741"}
,{"CODGEO":"79200","REG":"54","DEP":"79","LIBGEO":"Pamplie","P12_POP":"272","C12_POP15P":"221","C12_POP15P_CS1":"15","C12_POP15P_CS2":"20","C12_POP15P_CS3":"5","C12_POP15P_CS4":"10","C12_POP15P_CS5":"20","C12_POP15P_CS6":"30","C12_POP15P_CS7":"107","C12_POP15P_CS8":"15","TxCS6":"13.574661"}
,{"CODGEO":"79201","REG":"54","DEP":"79","LIBGEO":"Pamproux","P12_POP":"1681","C12_POP15P":"1447","C12_POP15P_CS1":"48","C12_POP15P_CS2":"12","C12_POP15P_CS3":"32","C12_POP15P_CS4":"100","C12_POP15P_CS5":"232","C12_POP15P_CS6":"256","C12_POP15P_CS7":"617","C12_POP15P_CS8":"148","TxCS6":"17.691776"}
,{"CODGEO":"79202","REG":"54","DEP":"79","LIBGEO":"Parthenay","P12_POP":"10300","C12_POP15P":"8866","C12_POP15P_CS1":"8","C12_POP15P_CS2":"267","C12_POP15P_CS3":"454","C12_POP15P_CS4":"1025","C12_POP15P_CS5":"1421","C12_POP15P_CS6":"1404","C12_POP15P_CS7":"3145","C12_POP15P_CS8":"1142","TxCS6":"15.835777"}
,{"CODGEO":"79203","REG":"54","DEP":"79","LIBGEO":"Pas-de-Jeu","P12_POP":"412","C12_POP15P":"319","C12_POP15P_CS1":"8","C12_POP15P_CS2":"0","C12_POP15P_CS3":"0","C12_POP15P_CS4":"29","C12_POP15P_CS5":"57","C12_POP15P_CS6":"86","C12_POP15P_CS7":"98","C12_POP15P_CS8":"41","TxCS6":"26.959246"}
,{"CODGEO":"79204","REG":"54","DEP":"79","LIBGEO":"Périgné","P12_POP":"1009","C12_POP15P":"792","C12_POP15P_CS1":"36","C12_POP15P_CS2":"36","C12_POP15P_CS3":"44","C12_POP15P_CS4":"76","C12_POP15P_CS5":"128","C12_POP15P_CS6":"88","C12_POP15P_CS7":"288","C12_POP15P_CS8":"96","TxCS6":"11.111112"}
,{"CODGEO":"79205","REG":"54","DEP":"79","LIBGEO":"Pers","P12_POP":"72","C12_POP15P":"70","C12_POP15P_CS1":"4","C12_POP15P_CS2":"16","C12_POP15P_CS3":"0","C12_POP15P_CS4":"0","C12_POP15P_CS5":"0","C12_POP15P_CS6":"4","C12_POP15P_CS7":"33","C12_POP15P_CS8":"12","TxCS6":"5.714286"}
,{"CODGEO":"79207","REG":"54","DEP":"79","LIBGEO":"La Petite-Boissière","P12_POP":"652","C12_POP15P":"507","C12_POP15P_CS1":"24","C12_POP15P_CS2":"12","C12_POP15P_CS3":"28","C12_POP15P_CS4":"48","C12_POP15P_CS5":"68","C12_POP15P_CS6":"164","C12_POP15P_CS7":"132","C12_POP15P_CS8":"32","TxCS6":"32.34714"}
,{"CODGEO":"79208","REG":"54","DEP":"79","LIBGEO":"La Peyratte","P12_POP":"1124","C12_POP15P":"919","C12_POP15P_CS1":"47","C12_POP15P_CS2":"27","C12_POP15P_CS3":"43","C12_POP15P_CS4":"82","C12_POP15P_CS5":"141","C12_POP15P_CS6":"129","C12_POP15P_CS7":"338","C12_POP15P_CS8":"110","TxCS6":"14.036997"}
,{"CODGEO":"79209","REG":"54","DEP":"79","LIBGEO":"Pierrefitte","P12_POP":"332","C12_POP15P":"236","C12_POP15P_CS1":"16","C12_POP15P_CS2":"16","C12_POP15P_CS3":"4","C12_POP15P_CS4":"28","C12_POP15P_CS5":"24","C12_POP15P_CS6":"44","C12_POP15P_CS7":"84","C12_POP15P_CS8":"20","TxCS6":"18.644068"}
,{"CODGEO":"79210","REG":"54","DEP":"79","LIBGEO":"Le Pin","P12_POP":"1059","C12_POP15P":"843","C12_POP15P_CS1":"28","C12_POP15P_CS2":"12","C12_POP15P_CS3":"40","C12_POP15P_CS4":"108","C12_POP15P_CS5":"146","C12_POP15P_CS6":"212","C12_POP15P_CS7":"215","C12_POP15P_CS8":"81","TxCS6":"25.14828"}
,{"CODGEO":"79211","REG":"54","DEP":"79","LIBGEO":"Pioussay","P12_POP":"316","C12_POP15P":"260","C12_POP15P_CS1":"12","C12_POP15P_CS2":"4","C12_POP15P_CS3":"4","C12_POP15P_CS4":"12","C12_POP15P_CS5":"16","C12_POP15P_CS6":"37","C12_POP15P_CS7":"150","C12_POP15P_CS8":"24","TxCS6":"14.23077"}
,{"CODGEO":"79212","REG":"54","DEP":"79","LIBGEO":"Pliboux","P12_POP":"208","C12_POP15P":"188","C12_POP15P_CS1":"4","C12_POP15P_CS2":"8","C12_POP15P_CS3":"8","C12_POP15P_CS4":"20","C12_POP15P_CS5":"20","C12_POP15P_CS6":"24","C12_POP15P_CS7":"84","C12_POP15P_CS8":"20","TxCS6":"12.765958"}
,{"CODGEO":"79213","REG":"54","DEP":"79","LIBGEO":"Pompaire","P12_POP":"1979","C12_POP15P":"1629","C12_POP15P_CS1":"8","C12_POP15P_CS2":"64","C12_POP15P_CS3":"72","C12_POP15P_CS4":"197","C12_POP15P_CS5":"290","C12_POP15P_CS6":"217","C12_POP15P_CS7":"636","C12_POP15P_CS8":"145","TxCS6":"13.321055"}
,{"CODGEO":"79214","REG":"54","DEP":"79","LIBGEO":"Pouffonds","P12_POP":"392","C12_POP15P":"312","C12_POP15P_CS1":"14","C12_POP15P_CS2":"10","C12_POP15P_CS3":"0","C12_POP15P_CS4":"24","C12_POP15P_CS5":"63","C12_POP15P_CS6":"53","C12_POP15P_CS7":"101","C12_POP15P_CS8":"47","TxCS6":"16.987179"}
,{"CODGEO":"79215","REG":"54","DEP":"79","LIBGEO":"Pougne-Hérisson","P12_POP":"373","C12_POP15P":"287","C12_POP15P_CS1":"32","C12_POP15P_CS2":"4","C12_POP15P_CS3":"8","C12_POP15P_CS4":"32","C12_POP15P_CS5":"24","C12_POP15P_CS6":"52","C12_POP15P_CS7":"108","C12_POP15P_CS8":"28","TxCS6":"18.118467"}
,{"CODGEO":"79216","REG":"54","DEP":"79","LIBGEO":"Prahecq","P12_POP":"2043","C12_POP15P":"1636","C12_POP15P_CS1":"20","C12_POP15P_CS2":"72","C12_POP15P_CS3":"92","C12_POP15P_CS4":"228","C12_POP15P_CS5":"308","C12_POP15P_CS6":"224","C12_POP15P_CS7":"508","C12_POP15P_CS8":"184","TxCS6":"13.691932"}
,{"CODGEO":"79217","REG":"54","DEP":"79","LIBGEO":"Prailles","P12_POP":"678","C12_POP15P":"527","C12_POP15P_CS1":"37","C12_POP15P_CS2":"4","C12_POP15P_CS3":"45","C12_POP15P_CS4":"78","C12_POP15P_CS5":"78","C12_POP15P_CS6":"78","C12_POP15P_CS7":"144","C12_POP15P_CS8":"62","TxCS6":"14.800758"}
,{"CODGEO":"79218","REG":"54","DEP":"79","LIBGEO":"Pressigny","P12_POP":"201","C12_POP15P":"172","C12_POP15P_CS1":"5","C12_POP15P_CS2":"11","C12_POP15P_CS3":"11","C12_POP15P_CS4":"27","C12_POP15P_CS5":"21","C12_POP15P_CS6":"21","C12_POP15P_CS7":"64","C12_POP15P_CS8":"11","TxCS6":"12.209302"}
,{"CODGEO":"79219","REG":"54","DEP":"79","LIBGEO":"Priaires","P12_POP":"122","C12_POP15P":"110","C12_POP15P_CS1":"4","C12_POP15P_CS2":"0","C12_POP15P_CS3":"4","C12_POP15P_CS4":"12","C12_POP15P_CS5":"4","C12_POP15P_CS6":"33","C12_POP15P_CS7":"49","C12_POP15P_CS8":"4","TxCS6":"30.000002"}
,{"CODGEO":"79220","REG":"54","DEP":"79","LIBGEO":"Prin-Deyrançon","P12_POP":"626","C12_POP15P":"458","C12_POP15P_CS1":"12","C12_POP15P_CS2":"12","C12_POP15P_CS3":"24","C12_POP15P_CS4":"49","C12_POP15P_CS5":"101","C12_POP15P_CS6":"81","C12_POP15P_CS7":"126","C12_POP15P_CS8":"53","TxCS6":"17.685589"}
,{"CODGEO":"79222","REG":"54","DEP":"79","LIBGEO":"Pugny","P12_POP":"231","C12_POP15P":"183","C12_POP15P_CS1":"11","C12_POP15P_CS2":"15","C12_POP15P_CS3":"4","C12_POP15P_CS4":"19","C12_POP15P_CS5":"19","C12_POP15P_CS6":"34","C12_POP15P_CS7":"61","C12_POP15P_CS8":"19","TxCS6":"18.579235"}
,{"CODGEO":"79223","REG":"54","DEP":"79","LIBGEO":"Puihardy","P12_POP":"73","C12_POP15P":"45","C12_POP15P_CS1":"0","C12_POP15P_CS2":"0","C12_POP15P_CS3":"6","C12_POP15P_CS4":"6","C12_POP15P_CS5":"0","C12_POP15P_CS6":"6","C12_POP15P_CS7":"19","C12_POP15P_CS8":"6","TxCS6":"13.333334"}
,{"CODGEO":"79225","REG":"54","DEP":"79","LIBGEO":"Reffannes","P12_POP":"366","C12_POP15P":"274","C12_POP15P_CS1":"8","C12_POP15P_CS2":"4","C12_POP15P_CS3":"12","C12_POP15P_CS4":"53","C12_POP15P_CS5":"41","C12_POP15P_CS6":"28","C12_POP15P_CS7":"80","C12_POP15P_CS8":"48","TxCS6":"10.218978"}
,{"CODGEO":"79226","REG":"54","DEP":"79","LIBGEO":"Le Retail","P12_POP":"278","C12_POP15P":"232","C12_POP15P_CS1":"0","C12_POP15P_CS2":"0","C12_POP15P_CS3":"0","C12_POP15P_CS4":"28","C12_POP15P_CS5":"36","C12_POP15P_CS6":"48","C12_POP15P_CS7":"88","C12_POP15P_CS8":"32","TxCS6":"20.689655"}
,{"CODGEO":"79229","REG":"54","DEP":"79","LIBGEO":"La Rochénard","P12_POP":"594","C12_POP15P":"452","C12_POP15P_CS1":"4","C12_POP15P_CS2":"26","C12_POP15P_CS3":"56","C12_POP15P_CS4":"47","C12_POP15P_CS5":"64","C12_POP15P_CS6":"64","C12_POP15P_CS7":"145","C12_POP15P_CS8":"46","TxCS6":"14.159292"}
,{"CODGEO":"79230","REG":"54","DEP":"79","LIBGEO":"Rom","P12_POP":"896","C12_POP15P":"745","C12_POP15P_CS1":"41","C12_POP15P_CS2":"45","C12_POP15P_CS3":"12","C12_POP15P_CS4":"37","C12_POP15P_CS5":"114","C12_POP15P_CS6":"102","C12_POP15P_CS7":"293","C12_POP15P_CS8":"102","TxCS6":"13.691275"}
,{"CODGEO":"79231","REG":"54","DEP":"79","LIBGEO":"Romans","P12_POP":"726","C12_POP15P":"553","C12_POP15P_CS1":"12","C12_POP15P_CS2":"32","C12_POP15P_CS3":"61","C12_POP15P_CS4":"117","C12_POP15P_CS5":"97","C12_POP15P_CS6":"81","C12_POP15P_CS7":"89","C12_POP15P_CS8":"65","TxCS6":"14.647378"}
,{"CODGEO":"79235","REG":"54","DEP":"79","LIBGEO":"Saint-Amand-sur-Sèvre","P12_POP":"1306","C12_POP15P":"1072","C12_POP15P_CS1":"81","C12_POP15P_CS2":"49","C12_POP15P_CS3":"24","C12_POP15P_CS4":"114","C12_POP15P_CS5":"138","C12_POP15P_CS6":"252","C12_POP15P_CS7":"296","C12_POP15P_CS8":"118","TxCS6":"23.507462"}
,{"CODGEO":"79236","REG":"54","DEP":"79","LIBGEO":"Saint-André-sur-Sèvre","P12_POP":"633","C12_POP15P":"528","C12_POP15P_CS1":"24","C12_POP15P_CS2":"12","C12_POP15P_CS3":"8","C12_POP15P_CS4":"60","C12_POP15P_CS5":"91","C12_POP15P_CS6":"131","C12_POP15P_CS7":"155","C12_POP15P_CS8":"48","TxCS6":"24.810606"}
,{"CODGEO":"79238","REG":"54","DEP":"79","LIBGEO":"Saint-Aubin-du-Plain","P12_POP":"572","C12_POP15P":"449","C12_POP15P_CS1":"16","C12_POP15P_CS2":"8","C12_POP15P_CS3":"12","C12_POP15P_CS4":"77","C12_POP15P_CS5":"45","C12_POP15P_CS6":"122","C12_POP15P_CS7":"135","C12_POP15P_CS8":"33","TxCS6":"27.171494"}
,{"CODGEO":"79239","REG":"54","DEP":"79","LIBGEO":"Saint-Aubin-le-Cloud","P12_POP":"1741","C12_POP15P":"1444","C12_POP15P_CS1":"28","C12_POP15P_CS2":"40","C12_POP15P_CS3":"55","C12_POP15P_CS4":"162","C12_POP15P_CS5":"237","C12_POP15P_CS6":"273","C12_POP15P_CS7":"491","C12_POP15P_CS8":"158","TxCS6":"18.905817"}
,{"CODGEO":"79240","REG":"54","DEP":"79","LIBGEO":"Sainte-Blandine","P12_POP":"705","C12_POP15P":"541","C12_POP15P_CS1":"8","C12_POP15P_CS2":"40","C12_POP15P_CS3":"24","C12_POP15P_CS4":"107","C12_POP15P_CS5":"99","C12_POP15P_CS6":"107","C12_POP15P_CS7":"80","C12_POP15P_CS8":"76","TxCS6":"19.778189"}
,{"CODGEO":"79241","REG":"54","DEP":"79","LIBGEO":"Saint-Christophe-sur-Roc","P12_POP":"565","C12_POP15P":"437","C12_POP15P_CS1":"16","C12_POP15P_CS2":"25","C12_POP15P_CS3":"8","C12_POP15P_CS4":"78","C12_POP15P_CS5":"82","C12_POP15P_CS6":"74","C12_POP15P_CS7":"127","C12_POP15P_CS8":"29","TxCS6":"16.933638"}
,{"CODGEO":"79242","REG":"54","DEP":"79","LIBGEO":"Voulmentin","P12_POP":"1090","C12_POP15P":"866","C12_POP15P_CS1":"24","C12_POP15P_CS2":"32","C12_POP15P_CS3":"44","C12_POP15P_CS4":"105","C12_POP15P_CS5":"121","C12_POP15P_CS6":"237","C12_POP15P_CS7":"209","C12_POP15P_CS8":"93","TxCS6":"27.367205"}
,{"CODGEO":"79243","REG":"54","DEP":"79","LIBGEO":"Saint-Coutant","P12_POP":"277","C12_POP15P":"237","C12_POP15P_CS1":"12","C12_POP15P_CS2":"27","C12_POP15P_CS3":"8","C12_POP15P_CS4":"8","C12_POP15P_CS5":"23","C12_POP15P_CS6":"23","C12_POP15P_CS7":"97","C12_POP15P_CS8":"39","TxCS6":"9.704641"}
,{"CODGEO":"79244","REG":"54","DEP":"79","LIBGEO":"Saint-Cyr-la-Lande","P12_POP":"356","C12_POP15P":"270","C12_POP15P_CS1":"28","C12_POP15P_CS2":"8","C12_POP15P_CS3":"12","C12_POP15P_CS4":"24","C12_POP15P_CS5":"59","C12_POP15P_CS6":"44","C12_POP15P_CS7":"56","C12_POP15P_CS8":"40","TxCS6":"16.296295"}
,{"CODGEO":"79246","REG":"54","DEP":"79","LIBGEO":"Sainte-Eanne","P12_POP":"651","C12_POP15P":"540","C12_POP15P_CS1":"4","C12_POP15P_CS2":"41","C12_POP15P_CS3":"16","C12_POP15P_CS4":"65","C12_POP15P_CS5":"93","C12_POP15P_CS6":"134","C12_POP15P_CS7":"122","C12_POP15P_CS8":"65","TxCS6":"24.814814"}
,{"CODGEO":"79247","REG":"54","DEP":"79","LIBGEO":"Saint-Étienne-la-Cigogne","P12_POP":"145","C12_POP15P":"112","C12_POP15P_CS1":"17","C12_POP15P_CS2":"0","C12_POP15P_CS3":"4","C12_POP15P_CS4":"13","C12_POP15P_CS5":"26","C12_POP15P_CS6":"21","C12_POP15P_CS7":"30","C12_POP15P_CS8":"0","TxCS6":"18.75"}
,{"CODGEO":"79249","REG":"54","DEP":"79","LIBGEO":"Saint-Gelais","P12_POP":"1856","C12_POP15P":"1465","C12_POP15P_CS1":"39","C12_POP15P_CS2":"50","C12_POP15P_CS3":"213","C12_POP15P_CS4":"240","C12_POP15P_CS5":"263","C12_POP15P_CS6":"116","C12_POP15P_CS7":"402","C12_POP15P_CS8":"143","TxCS6":"7.918089"}
,{"CODGEO":"79250","REG":"54","DEP":"79","LIBGEO":"Sainte-Gemme","P12_POP":"387","C12_POP15P":"285","C12_POP15P_CS1":"0","C12_POP15P_CS2":"8","C12_POP15P_CS3":"12","C12_POP15P_CS4":"36","C12_POP15P_CS5":"51","C12_POP15P_CS6":"71","C12_POP15P_CS7":"71","C12_POP15P_CS8":"36","TxCS6":"24.912281"}
,{"CODGEO":"79251","REG":"54","DEP":"79","LIBGEO":"Saint-Génard","P12_POP":"366","C12_POP15P":"262","C12_POP15P_CS1":"21","C12_POP15P_CS2":"0","C12_POP15P_CS3":"21","C12_POP15P_CS4":"26","C12_POP15P_CS5":"52","C12_POP15P_CS6":"31","C12_POP15P_CS7":"89","C12_POP15P_CS8":"21","TxCS6":"11.832062"}
,{"CODGEO":"79252","REG":"54","DEP":"79","LIBGEO":"Saint-Généroux","P12_POP":"373","C12_POP15P":"309","C12_POP15P_CS1":"5","C12_POP15P_CS2":"5","C12_POP15P_CS3":"21","C12_POP15P_CS4":"36","C12_POP15P_CS5":"46","C12_POP15P_CS6":"88","C12_POP15P_CS7":"82","C12_POP15P_CS8":"26","TxCS6":"28.478966"}
,{"CODGEO":"79253","REG":"54","DEP":"79","LIBGEO":"Saint-Georges-de-Noisné","P12_POP":"713","C12_POP15P":"572","C12_POP15P_CS1":"32","C12_POP15P_CS2":"28","C12_POP15P_CS3":"20","C12_POP15P_CS4":"28","C12_POP15P_CS5":"100","C12_POP15P_CS6":"136","C12_POP15P_CS7":"196","C12_POP15P_CS8":"32","TxCS6":"23.776224"}
,{"CODGEO":"79254","REG":"54","DEP":"79","LIBGEO":"Saint-Georges-de-Rex","P12_POP":"421","C12_POP15P":"371","C12_POP15P_CS1":"4","C12_POP15P_CS2":"16","C12_POP15P_CS3":"20","C12_POP15P_CS4":"48","C12_POP15P_CS5":"53","C12_POP15P_CS6":"44","C12_POP15P_CS7":"133","C12_POP15P_CS8":"52","TxCS6":"11.859838"}
,{"CODGEO":"79255","REG":"54","DEP":"79","LIBGEO":"Saint-Germain-de-Longue-Chaume","P12_POP":"414","C12_POP15P":"344","C12_POP15P_CS1":"24","C12_POP15P_CS2":"16","C12_POP15P_CS3":"4","C12_POP15P_CS4":"40","C12_POP15P_CS5":"52","C12_POP15P_CS6":"56","C12_POP15P_CS7":"112","C12_POP15P_CS8":"40","TxCS6":"16.27907"}
,{"CODGEO":"79256","REG":"54","DEP":"79","LIBGEO":"Saint-Germier","P12_POP":"212","C12_POP15P":"170","C12_POP15P_CS1":"4","C12_POP15P_CS2":"0","C12_POP15P_CS3":"4","C12_POP15P_CS4":"24","C12_POP15P_CS5":"20","C12_POP15P_CS6":"36","C12_POP15P_CS7":"73","C12_POP15P_CS8":"8","TxCS6":"21.176472"}
,{"CODGEO":"79257","REG":"54","DEP":"79","LIBGEO":"Saint-Hilaire-la-Palud","P12_POP":"1584","C12_POP15P":"1316","C12_POP15P_CS1":"24","C12_POP15P_CS2":"64","C12_POP15P_CS3":"48","C12_POP15P_CS4":"92","C12_POP15P_CS5":"216","C12_POP15P_CS6":"268","C12_POP15P_CS7":"480","C12_POP15P_CS8":"124","TxCS6":"20.364742"}
,{"CODGEO":"79258","REG":"54","DEP":"79","LIBGEO":"Saint-Jacques-de-Thouars","P12_POP":"466","C12_POP15P":"368","C12_POP15P_CS1":"8","C12_POP15P_CS2":"8","C12_POP15P_CS3":"52","C12_POP15P_CS4":"36","C12_POP15P_CS5":"72","C12_POP15P_CS6":"64","C12_POP15P_CS7":"88","C12_POP15P_CS8":"40","TxCS6":"17.391304"}
,{"CODGEO":"79259","REG":"54","DEP":"79","LIBGEO":"Saint-Jean-de-Thouars","P12_POP":"1333","C12_POP15P":"1062","C12_POP15P_CS1":"4","C12_POP15P_CS2":"48","C12_POP15P_CS3":"76","C12_POP15P_CS4":"144","C12_POP15P_CS5":"164","C12_POP15P_CS6":"144","C12_POP15P_CS7":"399","C12_POP15P_CS8":"84","TxCS6":"13.559322"}
,{"CODGEO":"79260","REG":"54","DEP":"79","LIBGEO":"Saint-Jouin-de-Marnes","P12_POP":"589","C12_POP15P":"487","C12_POP15P_CS1":"36","C12_POP15P_CS2":"28","C12_POP15P_CS3":"8","C12_POP15P_CS4":"36","C12_POP15P_CS5":"48","C12_POP15P_CS6":"85","C12_POP15P_CS7":"213","C12_POP15P_CS8":"32","TxCS6":"17.453798"}
,{"CODGEO":"79261","REG":"54","DEP":"79","LIBGEO":"Saint-Jouin-de-Milly","P12_POP":"203","C12_POP15P":"156","C12_POP15P_CS1":"32","C12_POP15P_CS2":"5","C12_POP15P_CS3":"5","C12_POP15P_CS4":"16","C12_POP15P_CS5":"16","C12_POP15P_CS6":"38","C12_POP15P_CS7":"43","C12_POP15P_CS8":"0","TxCS6":"24.358974"}
,{"CODGEO":"79263","REG":"54","DEP":"79","LIBGEO":"Saint-Laurs","P12_POP":"539","C12_POP15P":"457","C12_POP15P_CS1":"0","C12_POP15P_CS2":"32","C12_POP15P_CS3":"12","C12_POP15P_CS4":"49","C12_POP15P_CS5":"61","C12_POP15P_CS6":"69","C12_POP15P_CS7":"150","C12_POP15P_CS8":"85","TxCS6":"15.098469"}
,{"CODGEO":"79264","REG":"54","DEP":"79","LIBGEO":"Saint-Léger-de-la-Martinière","P12_POP":"1015","C12_POP15P":"900","C12_POP15P_CS1":"36","C12_POP15P_CS2":"32","C12_POP15P_CS3":"40","C12_POP15P_CS4":"120","C12_POP15P_CS5":"88","C12_POP15P_CS6":"84","C12_POP15P_CS7":"404","C12_POP15P_CS8":"96","TxCS6":"9.333333"}
,{"CODGEO":"79265","REG":"54","DEP":"79","LIBGEO":"Saint-Léger-de-Montbrun","P12_POP":"1234","C12_POP15P":"953","C12_POP15P_CS1":"19","C12_POP15P_CS2":"39","C12_POP15P_CS3":"0","C12_POP15P_CS4":"136","C12_POP15P_CS5":"204","C12_POP15P_CS6":"297","C12_POP15P_CS7":"219","C12_POP15P_CS8":"39","TxCS6":"31.164742"}
,{"CODGEO":"79267","REG":"54","DEP":"79","LIBGEO":"Saint-Lin","P12_POP":"359","C12_POP15P":"288","C12_POP15P_CS1":"11","C12_POP15P_CS2":"37","C12_POP15P_CS3":"11","C12_POP15P_CS4":"11","C12_POP15P_CS5":"63","C12_POP15P_CS6":"52","C12_POP15P_CS7":"84","C12_POP15P_CS8":"21","TxCS6":"18.055555"}
,{"CODGEO":"79268","REG":"54","DEP":"79","LIBGEO":"Saint-Loup-Lamairé","P12_POP":"926","C12_POP15P":"804","C12_POP15P_CS1":"16","C12_POP15P_CS2":"16","C12_POP15P_CS3":"24","C12_POP15P_CS4":"72","C12_POP15P_CS5":"84","C12_POP15P_CS6":"120","C12_POP15P_CS7":"412","C12_POP15P_CS8":"60","TxCS6":"14.925373"}
,{"CODGEO":"79269","REG":"54","DEP":"79","LIBGEO":"Saint-Maixent-de-Beugné","P12_POP":"361","C12_POP15P":"264","C12_POP15P_CS1":"20","C12_POP15P_CS2":"12","C12_POP15P_CS3":"8","C12_POP15P_CS4":"32","C12_POP15P_CS5":"49","C12_POP15P_CS6":"53","C12_POP15P_CS7":"65","C12_POP15P_CS8":"24","TxCS6":"20.075758"}
,{"CODGEO":"79270","REG":"54","DEP":"79","LIBGEO":"Saint-Maixent-l'École","P12_POP":"6852","C12_POP15P":"5681","C12_POP15P_CS1":"0","C12_POP15P_CS2":"105","C12_POP15P_CS3":"252","C12_POP15P_CS4":"538","C12_POP15P_CS5":"1340","C12_POP15P_CS6":"829","C12_POP15P_CS7":"1899","C12_POP15P_CS8":"717","TxCS6":"14.592502"}
,{"CODGEO":"79271","REG":"54","DEP":"79","LIBGEO":"Saint-Marc-la-Lande","P12_POP":"357","C12_POP15P":"313","C12_POP15P_CS1":"20","C12_POP15P_CS2":"0","C12_POP15P_CS3":"8","C12_POP15P_CS4":"20","C12_POP15P_CS5":"40","C12_POP15P_CS6":"36","C12_POP15P_CS7":"165","C12_POP15P_CS8":"24","TxCS6":"11.501597"}
,{"CODGEO":"79273","REG":"54","DEP":"79","LIBGEO":"Saint-Martin-de-Bernegoue","P12_POP":"805","C12_POP15P":"654","C12_POP15P_CS1":"20","C12_POP15P_CS2":"8","C12_POP15P_CS3":"32","C12_POP15P_CS4":"77","C12_POP15P_CS5":"166","C12_POP15P_CS6":"138","C12_POP15P_CS7":"138","C12_POP15P_CS8":"73","TxCS6":"21.100918"}
,{"CODGEO":"79274","REG":"54","DEP":"79","LIBGEO":"Saint-Martin-de-Mâcon","P12_POP":"340","C12_POP15P":"274","C12_POP15P_CS1":"24","C12_POP15P_CS2":"0","C12_POP15P_CS3":"8","C12_POP15P_CS4":"28","C12_POP15P_CS5":"28","C12_POP15P_CS6":"56","C12_POP15P_CS7":"93","C12_POP15P_CS8":"36","TxCS6":"20.437956"}
,{"CODGEO":"79276","REG":"54","DEP":"79","LIBGEO":"Saint-Martin-de-Saint-Maixent","P12_POP":"1118","C12_POP15P":"872","C12_POP15P_CS1":"20","C12_POP15P_CS2":"28","C12_POP15P_CS3":"32","C12_POP15P_CS4":"84","C12_POP15P_CS5":"257","C12_POP15P_CS6":"177","C12_POP15P_CS7":"157","C12_POP15P_CS8":"117","TxCS6":"20.298164"}
,{"CODGEO":"79277","REG":"54","DEP":"79","LIBGEO":"Saint-Martin-de-Sanzay","P12_POP":"1006","C12_POP15P":"781","C12_POP15P_CS1":"28","C12_POP15P_CS2":"28","C12_POP15P_CS3":"20","C12_POP15P_CS4":"76","C12_POP15P_CS5":"101","C12_POP15P_CS6":"137","C12_POP15P_CS7":"314","C12_POP15P_CS8":"76","TxCS6":"17.541613"}
,{"CODGEO":"79278","REG":"54","DEP":"79","LIBGEO":"Saint-Martin-du-Fouilloux","P12_POP":"216","C12_POP15P":"187","C12_POP15P_CS1":"12","C12_POP15P_CS2":"4","C12_POP15P_CS3":"8","C12_POP15P_CS4":"24","C12_POP15P_CS5":"20","C12_POP15P_CS6":"20","C12_POP15P_CS7":"68","C12_POP15P_CS8":"32","TxCS6":"10.695187"}
,{"CODGEO":"79279","REG":"54","DEP":"79","LIBGEO":"Saint-Martin-lès-Melle","P12_POP":"875","C12_POP15P":"747","C12_POP15P_CS1":"0","C12_POP15P_CS2":"24","C12_POP15P_CS3":"20","C12_POP15P_CS4":"64","C12_POP15P_CS5":"111","C12_POP15P_CS6":"115","C12_POP15P_CS7":"329","C12_POP15P_CS8":"84","TxCS6":"15.394913"}
,{"CODGEO":"79280","REG":"54","DEP":"79","LIBGEO":"Saint-Maurice-la-Fougereuse","P12_POP":"538","C12_POP15P":"428","C12_POP15P_CS1":"44","C12_POP15P_CS2":"40","C12_POP15P_CS3":"4","C12_POP15P_CS4":"16","C12_POP15P_CS5":"56","C12_POP15P_CS6":"72","C12_POP15P_CS7":"168","C12_POP15P_CS8":"28","TxCS6":"16.82243"}
,{"CODGEO":"79281","REG":"54","DEP":"79","LIBGEO":"Saint-Maxire","P12_POP":"1142","C12_POP15P":"945","C12_POP15P_CS1":"8","C12_POP15P_CS2":"28","C12_POP15P_CS3":"93","C12_POP15P_CS4":"194","C12_POP15P_CS5":"178","C12_POP15P_CS6":"93","C12_POP15P_CS7":"250","C12_POP15P_CS8":"101","TxCS6":"9.84127"}
,{"CODGEO":"79282","REG":"54","DEP":"79","LIBGEO":"Saint-Médard","P12_POP":"111","C12_POP15P":"94","C12_POP15P_CS1":"10","C12_POP15P_CS2":"0","C12_POP15P_CS3":"5","C12_POP15P_CS4":"16","C12_POP15P_CS5":"10","C12_POP15P_CS6":"16","C12_POP15P_CS7":"37","C12_POP15P_CS8":"0","TxCS6":"17.021276"}
,{"CODGEO":"79283","REG":"54","DEP":"79","LIBGEO":"Sainte-Néomaye","P12_POP":"1362","C12_POP15P":"960","C12_POP15P_CS1":"0","C12_POP15P_CS2":"53","C12_POP15P_CS3":"57","C12_POP15P_CS4":"159","C12_POP15P_CS5":"248","C12_POP15P_CS6":"171","C12_POP15P_CS7":"179","C12_POP15P_CS8":"94","TxCS6":"17.8125"}
,{"CODGEO":"79284","REG":"54","DEP":"79","LIBGEO":"Sainte-Ouenne","P12_POP":"806","C12_POP15P":"596","C12_POP15P_CS1":"10","C12_POP15P_CS2":"40","C12_POP15P_CS3":"45","C12_POP15P_CS4":"99","C12_POP15P_CS5":"109","C12_POP15P_CS6":"129","C12_POP15P_CS7":"104","C12_POP15P_CS8":"60","TxCS6":"21.644297"}
,{"CODGEO":"79285","REG":"54","DEP":"79","LIBGEO":"Saint-Pardoux","P12_POP":"1608","C12_POP15P":"1316","C12_POP15P_CS1":"37","C12_POP15P_CS2":"37","C12_POP15P_CS3":"16","C12_POP15P_CS4":"171","C12_POP15P_CS5":"233","C12_POP15P_CS6":"241","C12_POP15P_CS7":"423","C12_POP15P_CS8":"159","TxCS6":"18.31307"}
,{"CODGEO":"79286","REG":"54","DEP":"79","LIBGEO":"Saint-Paul-en-Gâtine","P12_POP":"461","C12_POP15P":"393","C12_POP15P_CS1":"57","C12_POP15P_CS2":"8","C12_POP15P_CS3":"0","C12_POP15P_CS4":"28","C12_POP15P_CS5":"45","C12_POP15P_CS6":"57","C12_POP15P_CS7":"158","C12_POP15P_CS8":"41","TxCS6":"14.503818"}
,{"CODGEO":"79289","REG":"54","DEP":"79","LIBGEO":"Saint-Pierre-des-Échaubrognes","P12_POP":"1380","C12_POP15P":"1074","C12_POP15P_CS1":"40","C12_POP15P_CS2":"44","C12_POP15P_CS3":"32","C12_POP15P_CS4":"157","C12_POP15P_CS5":"157","C12_POP15P_CS6":"331","C12_POP15P_CS7":"254","C12_POP15P_CS8":"57","TxCS6":"30.819365"}
,{"CODGEO":"79290","REG":"54","DEP":"79","LIBGEO":"Saint-Pompain","P12_POP":"963","C12_POP15P":"739","C12_POP15P_CS1":"28","C12_POP15P_CS2":"16","C12_POP15P_CS3":"52","C12_POP15P_CS4":"84","C12_POP15P_CS5":"112","C12_POP15P_CS6":"129","C12_POP15P_CS7":"241","C12_POP15P_CS8":"76","TxCS6":"17.456022"}
,{"CODGEO":"79292","REG":"54","DEP":"79","LIBGEO":"Sainte-Radegonde","P12_POP":"1919","C12_POP15P":"1619","C12_POP15P_CS1":"10","C12_POP15P_CS2":"41","C12_POP15P_CS3":"71","C12_POP15P_CS4":"168","C12_POP15P_CS5":"199","C12_POP15P_CS6":"335","C12_POP15P_CS7":"662","C12_POP15P_CS8":"133","TxCS6":"20.691786"}
,{"CODGEO":"79293","REG":"54","DEP":"79","LIBGEO":"Saint-Rémy","P12_POP":"1023","C12_POP15P":"831","C12_POP15P_CS1":"4","C12_POP15P_CS2":"28","C12_POP15P_CS3":"73","C12_POP15P_CS4":"130","C12_POP15P_CS5":"186","C12_POP15P_CS6":"117","C12_POP15P_CS7":"219","C12_POP15P_CS8":"73","TxCS6":"14.079422"}
,{"CODGEO":"79294","REG":"54","DEP":"79","LIBGEO":"Saint-Romans-des-Champs","P12_POP":"180","C12_POP15P":"135","C12_POP15P_CS1":"16","C12_POP15P_CS2":"4","C12_POP15P_CS3":"4","C12_POP15P_CS4":"24","C12_POP15P_CS5":"36","C12_POP15P_CS6":"16","C12_POP15P_CS7":"24","C12_POP15P_CS8":"12","TxCS6":"11.851851"}
,{"CODGEO":"79295","REG":"54","DEP":"79","LIBGEO":"Saint-Romans-lès-Melle","P12_POP":"703","C12_POP15P":"591","C12_POP15P_CS1":"8","C12_POP15P_CS2":"24","C12_POP15P_CS3":"20","C12_POP15P_CS4":"59","C12_POP15P_CS5":"91","C12_POP15P_CS6":"130","C12_POP15P_CS7":"202","C12_POP15P_CS8":"59","TxCS6":"21.996616"}
,{"CODGEO":"79297","REG":"54","DEP":"79","LIBGEO":"Sainte-Soline","P12_POP":"337","C12_POP15P":"287","C12_POP15P_CS1":"19","C12_POP15P_CS2":"8","C12_POP15P_CS3":"15","C12_POP15P_CS4":"31","C12_POP15P_CS5":"39","C12_POP15P_CS6":"43","C12_POP15P_CS7":"97","C12_POP15P_CS8":"35","TxCS6":"14.982578"}
,{"CODGEO":"79298","REG":"54","DEP":"79","LIBGEO":"Saint-Symphorien","P12_POP":"1851","C12_POP15P":"1488","C12_POP15P_CS1":"32","C12_POP15P_CS2":"28","C12_POP15P_CS3":"138","C12_POP15P_CS4":"249","C12_POP15P_CS5":"272","C12_POP15P_CS6":"193","C12_POP15P_CS7":"446","C12_POP15P_CS8":"130","TxCS6":"12.970429"}
,{"CODGEO":"79299","REG":"54","DEP":"79","LIBGEO":"Saint-Varent","P12_POP":"2508","C12_POP15P":"2083","C12_POP15P_CS1":"16","C12_POP15P_CS2":"81","C12_POP15P_CS3":"32","C12_POP15P_CS4":"181","C12_POP15P_CS5":"334","C12_POP15P_CS6":"409","C12_POP15P_CS7":"809","C12_POP15P_CS8":"223","TxCS6":"19.635141"}
,{"CODGEO":"79300","REG":"54","DEP":"79","LIBGEO":"Sainte-Verge","P12_POP":"1418","C12_POP15P":"1174","C12_POP15P_CS1":"12","C12_POP15P_CS2":"32","C12_POP15P_CS3":"68","C12_POP15P_CS4":"148","C12_POP15P_CS5":"196","C12_POP15P_CS6":"220","C12_POP15P_CS7":"351","C12_POP15P_CS8":"148","TxCS6":"18.739353"}
,{"CODGEO":"79301","REG":"54","DEP":"79","LIBGEO":"Saint-Vincent-la-Châtre","P12_POP":"667","C12_POP15P":"536","C12_POP15P_CS1":"36","C12_POP15P_CS2":"16","C12_POP15P_CS3":"8","C12_POP15P_CS4":"64","C12_POP15P_CS5":"80","C12_POP15P_CS6":"88","C12_POP15P_CS7":"176","C12_POP15P_CS8":"68","TxCS6":"16.41791"}
,{"CODGEO":"79302","REG":"54","DEP":"79","LIBGEO":"Saivres","P12_POP":"1417","C12_POP15P":"1103","C12_POP15P_CS1":"49","C12_POP15P_CS2":"28","C12_POP15P_CS3":"61","C12_POP15P_CS4":"142","C12_POP15P_CS5":"224","C12_POP15P_CS6":"155","C12_POP15P_CS7":"338","C12_POP15P_CS8":"106","TxCS6":"14.052584"}
,{"CODGEO":"79303","REG":"54","DEP":"79","LIBGEO":"Salles","P12_POP":"348","C12_POP15P":"305","C12_POP15P_CS1":"8","C12_POP15P_CS2":"0","C12_POP15P_CS3":"4","C12_POP15P_CS4":"24","C12_POP15P_CS5":"85","C12_POP15P_CS6":"73","C12_POP15P_CS7":"77","C12_POP15P_CS8":"33","TxCS6":"23.934427"}
,{"CODGEO":"79304","REG":"54","DEP":"79","LIBGEO":"Sansais","P12_POP":"771","C12_POP15P":"600","C12_POP15P_CS1":"10","C12_POP15P_CS2":"47","C12_POP15P_CS3":"79","C12_POP15P_CS4":"79","C12_POP15P_CS5":"109","C12_POP15P_CS6":"89","C12_POP15P_CS7":"150","C12_POP15P_CS8":"37","TxCS6":"14.833333"}
,{"CODGEO":"79306","REG":"54","DEP":"79","LIBGEO":"Saurais","P12_POP":"199","C12_POP15P":"144","C12_POP15P_CS1":"8","C12_POP15P_CS2":"0","C12_POP15P_CS3":"8","C12_POP15P_CS4":"20","C12_POP15P_CS5":"28","C12_POP15P_CS6":"28","C12_POP15P_CS7":"40","C12_POP15P_CS8":"12","TxCS6":"19.444445"}
,{"CODGEO":"79307","REG":"54","DEP":"79","LIBGEO":"Sauzé-Vaussais","P12_POP":"1607","C12_POP15P":"1391","C12_POP15P_CS1":"30","C12_POP15P_CS2":"48","C12_POP15P_CS3":"25","C12_POP15P_CS4":"73","C12_POP15P_CS5":"209","C12_POP15P_CS6":"194","C12_POP15P_CS7":"606","C12_POP15P_CS8":"209","TxCS6":"13.946801"}
,{"CODGEO":"79308","REG":"54","DEP":"79","LIBGEO":"Sciecq","P12_POP":"601","C12_POP15P":"463","C12_POP15P_CS1":"5","C12_POP15P_CS2":"24","C12_POP15P_CS3":"38","C12_POP15P_CS4":"67","C12_POP15P_CS5":"76","C12_POP15P_CS6":"29","C12_POP15P_CS7":"186","C12_POP15P_CS8":"38","TxCS6":"6.263499"}
,{"CODGEO":"79309","REG":"54","DEP":"79","LIBGEO":"Scillé","P12_POP":"382","C12_POP15P":"336","C12_POP15P_CS1":"0","C12_POP15P_CS2":"20","C12_POP15P_CS3":"4","C12_POP15P_CS4":"24","C12_POP15P_CS5":"32","C12_POP15P_CS6":"60","C12_POP15P_CS7":"144","C12_POP15P_CS8":"52","TxCS6":"17.857143"}
,{"CODGEO":"79310","REG":"54","DEP":"79","LIBGEO":"Secondigné-sur-Belle","P12_POP":"533","C12_POP15P":"441","C12_POP15P_CS1":"20","C12_POP15P_CS2":"12","C12_POP15P_CS3":"28","C12_POP15P_CS4":"65","C12_POP15P_CS5":"65","C12_POP15P_CS6":"61","C12_POP15P_CS7":"134","C12_POP15P_CS8":"57","TxCS6":"13.832199"}
,{"CODGEO":"79311","REG":"54","DEP":"79","LIBGEO":"Secondigny","P12_POP":"1816","C12_POP15P":"1527","C12_POP15P_CS1":"75","C12_POP15P_CS2":"70","C12_POP15P_CS3":"20","C12_POP15P_CS4":"129","C12_POP15P_CS5":"183","C12_POP15P_CS6":"173","C12_POP15P_CS7":"725","C12_POP15P_CS8":"152","TxCS6":"11.329404"}
,{"CODGEO":"79312","REG":"54","DEP":"79","LIBGEO":"Séligné","P12_POP":"119","C12_POP15P":"100","C12_POP15P_CS1":"4","C12_POP15P_CS2":"8","C12_POP15P_CS3":"4","C12_POP15P_CS4":"8","C12_POP15P_CS5":"20","C12_POP15P_CS6":"12","C12_POP15P_CS7":"40","C12_POP15P_CS8":"4","TxCS6":"12.0"}
,{"CODGEO":"79313","REG":"54","DEP":"79","LIBGEO":"Sepvret","P12_POP":"598","C12_POP15P":"454","C12_POP15P_CS1":"10","C12_POP15P_CS2":"25","C12_POP15P_CS3":"25","C12_POP15P_CS4":"69","C12_POP15P_CS5":"74","C12_POP15P_CS6":"64","C12_POP15P_CS7":"128","C12_POP15P_CS8":"59","TxCS6":"14.096916"}
,{"CODGEO":"79314","REG":"54","DEP":"79","LIBGEO":"Sompt","P12_POP":"322","C12_POP15P":"273","C12_POP15P_CS1":"17","C12_POP15P_CS2":"17","C12_POP15P_CS3":"0","C12_POP15P_CS4":"12","C12_POP15P_CS5":"29","C12_POP15P_CS6":"66","C12_POP15P_CS7":"95","C12_POP15P_CS8":"37","TxCS6":"24.175825"}
,{"CODGEO":"79316","REG":"54","DEP":"79","LIBGEO":"Soudan","P12_POP":"482","C12_POP15P":"392","C12_POP15P_CS1":"21","C12_POP15P_CS2":"0","C12_POP15P_CS3":"17","C12_POP15P_CS4":"55","C12_POP15P_CS5":"51","C12_POP15P_CS6":"81","C12_POP15P_CS7":"107","C12_POP15P_CS8":"60","TxCS6":"20.663265"}
,{"CODGEO":"79318","REG":"54","DEP":"79","LIBGEO":"Soutiers","P12_POP":"269","C12_POP15P":"191","C12_POP15P_CS1":"0","C12_POP15P_CS2":"0","C12_POP15P_CS3":"5","C12_POP15P_CS4":"39","C12_POP15P_CS5":"49","C12_POP15P_CS6":"39","C12_POP15P_CS7":"38","C12_POP15P_CS8":"20","TxCS6":"20.418848"}
,{"CODGEO":"79319","REG":"54","DEP":"79","LIBGEO":"Souvigné","P12_POP":"878","C12_POP15P":"696","C12_POP15P_CS1":"20","C12_POP15P_CS2":"30","C12_POP15P_CS3":"49","C12_POP15P_CS4":"114","C12_POP15P_CS5":"119","C12_POP15P_CS6":"99","C12_POP15P_CS7":"198","C12_POP15P_CS8":"69","TxCS6":"14.224137"}
,{"CODGEO":"79320","REG":"54","DEP":"79","LIBGEO":"Surin","P12_POP":"639","C12_POP15P":"481","C12_POP15P_CS1":"20","C12_POP15P_CS2":"16","C12_POP15P_CS3":"31","C12_POP15P_CS4":"86","C12_POP15P_CS5":"86","C12_POP15P_CS6":"113","C12_POP15P_CS7":"98","C12_POP15P_CS8":"31","TxCS6":"23.492723"}
,{"CODGEO":"79321","REG":"54","DEP":"79","LIBGEO":"Taizé","P12_POP":"769","C12_POP15P":"625","C12_POP15P_CS1":"48","C12_POP15P_CS2":"32","C12_POP15P_CS3":"36","C12_POP15P_CS4":"63","C12_POP15P_CS5":"99","C12_POP15P_CS6":"146","C12_POP15P_CS7":"115","C12_POP15P_CS8":"87","TxCS6":"23.36"}
,{"CODGEO":"79322","REG":"54","DEP":"79","LIBGEO":"Le Tallud","P12_POP":"2081","C12_POP15P":"1722","C12_POP15P_CS1":"21","C12_POP15P_CS2":"78","C12_POP15P_CS3":"49","C12_POP15P_CS4":"205","C12_POP15P_CS5":"279","C12_POP15P_CS6":"283","C12_POP15P_CS7":"594","C12_POP15P_CS8":"212","TxCS6":"16.43438"}
,{"CODGEO":"79325","REG":"54","DEP":"79","LIBGEO":"Tessonnière","P12_POP":"319","C12_POP15P":"247","C12_POP15P_CS1":"20","C12_POP15P_CS2":"4","C12_POP15P_CS3":"4","C12_POP15P_CS4":"36","C12_POP15P_CS5":"40","C12_POP15P_CS6":"48","C12_POP15P_CS7":"76","C12_POP15P_CS8":"20","TxCS6":"19.433199"}
,{"CODGEO":"79326","REG":"54","DEP":"79","LIBGEO":"Thénezay","P12_POP":"1433","C12_POP15P":"1194","C12_POP15P_CS1":"41","C12_POP15P_CS2":"57","C12_POP15P_CS3":"12","C12_POP15P_CS4":"118","C12_POP15P_CS5":"118","C12_POP15P_CS6":"191","C12_POP15P_CS7":"492","C12_POP15P_CS8":"167","TxCS6":"15.99665"}
,{"CODGEO":"79327","REG":"54","DEP":"79","LIBGEO":"Thorigné","P12_POP":"1290","C12_POP15P":"977","C12_POP15P_CS1":"24","C12_POP15P_CS2":"61","C12_POP15P_CS3":"57","C12_POP15P_CS4":"130","C12_POP15P_CS5":"236","C12_POP15P_CS6":"155","C12_POP15P_CS7":"216","C12_POP15P_CS8":"98","TxCS6":"15.864892"}
,{"CODGEO":"79328","REG":"54","DEP":"79","LIBGEO":"Thorigny-sur-le-Mignon","P12_POP":"92","C12_POP15P":"54","C12_POP15P_CS1":"5","C12_POP15P_CS2":"0","C12_POP15P_CS3":"0","C12_POP15P_CS4":"14","C12_POP15P_CS5":"9","C12_POP15P_CS6":"14","C12_POP15P_CS7":"14","C12_POP15P_CS8":"0","TxCS6":"25.925926"}
,{"CODGEO":"79329","REG":"54","DEP":"79","LIBGEO":"Thouars","P12_POP":"9462","C12_POP15P":"8065","C12_POP15P_CS1":"16","C12_POP15P_CS2":"236","C12_POP15P_CS3":"310","C12_POP15P_CS4":"713","C12_POP15P_CS5":"1103","C12_POP15P_CS6":"1412","C12_POP15P_CS7":"3076","C12_POP15P_CS8":"1199","TxCS6":"17.50775"}
,{"CODGEO":"79330","REG":"54","DEP":"79","LIBGEO":"Tillou","P12_POP":"309","C12_POP15P":"250","C12_POP15P_CS1":"12","C12_POP15P_CS2":"0","C12_POP15P_CS3":"12","C12_POP15P_CS4":"25","C12_POP15P_CS5":"29","C12_POP15P_CS6":"41","C12_POP15P_CS7":"99","C12_POP15P_CS8":"33","TxCS6":"16.4"}
,{"CODGEO":"79331","REG":"54","DEP":"79","LIBGEO":"Tourtenay","P12_POP":"138","C12_POP15P":"109","C12_POP15P_CS1":"0","C12_POP15P_CS2":"0","C12_POP15P_CS3":"0","C12_POP15P_CS4":"19","C12_POP15P_CS5":"4","C12_POP15P_CS6":"16","C12_POP15P_CS7":"58","C12_POP15P_CS8":"12","TxCS6":"14.678899"}
,{"CODGEO":"79332","REG":"54","DEP":"79","LIBGEO":"Trayes","P12_POP":"135","C12_POP15P":"120","C12_POP15P_CS1":"12","C12_POP15P_CS2":"0","C12_POP15P_CS3":"0","C12_POP15P_CS4":"4","C12_POP15P_CS5":"20","C12_POP15P_CS6":"32","C12_POP15P_CS7":"28","C12_POP15P_CS8":"24","TxCS6":"26.666668"}
,{"CODGEO":"79333","REG":"54","DEP":"79","LIBGEO":"Ulcot","P12_POP":"56","C12_POP15P":"46","C12_POP15P_CS1":"4","C12_POP15P_CS2":"0","C12_POP15P_CS3":"0","C12_POP15P_CS4":"8","C12_POP15P_CS5":"12","C12_POP15P_CS6":"4","C12_POP15P_CS7":"15","C12_POP15P_CS8":"4","TxCS6":"8.695652"}
,{"CODGEO":"79334","REG":"54","DEP":"79","LIBGEO":"Usseau","P12_POP":"900","C12_POP15P":"701","C12_POP15P_CS1":"16","C12_POP15P_CS2":"20","C12_POP15P_CS3":"69","C12_POP15P_CS4":"117","C12_POP15P_CS5":"117","C12_POP15P_CS6":"85","C12_POP15P_CS7":"198","C12_POP15P_CS8":"81","TxCS6":"12.125535"}
,{"CODGEO":"79335","REG":"54","DEP":"79","LIBGEO":"Vallans","P12_POP":"787","C12_POP15P":"604","C12_POP15P_CS1":"12","C12_POP15P_CS2":"8","C12_POP15P_CS3":"88","C12_POP15P_CS4":"92","C12_POP15P_CS5":"100","C12_POP15P_CS6":"96","C12_POP15P_CS7":"152","C12_POP15P_CS8":"56","TxCS6":"15.89404"}
,{"CODGEO":"79336","REG":"54","DEP":"79","LIBGEO":"Vançais","P12_POP":"267","C12_POP15P":"249","C12_POP15P_CS1":"20","C12_POP15P_CS2":"12","C12_POP15P_CS3":"28","C12_POP15P_CS4":"16","C12_POP15P_CS5":"16","C12_POP15P_CS6":"16","C12_POP15P_CS7":"96","C12_POP15P_CS8":"44","TxCS6":"6.4257026"}
,{"CODGEO":"79337","REG":"54","DEP":"79","LIBGEO":"Le Vanneau-Irleau","P12_POP":"870","C12_POP15P":"696","C12_POP15P_CS1":"16","C12_POP15P_CS2":"20","C12_POP15P_CS3":"36","C12_POP15P_CS4":"80","C12_POP15P_CS5":"172","C12_POP15P_CS6":"124","C12_POP15P_CS7":"188","C12_POP15P_CS8":"60","TxCS6":"17.816092"}
,{"CODGEO":"79338","REG":"54","DEP":"79","LIBGEO":"Vanzay","P12_POP":"200","C12_POP15P":"168","C12_POP15P_CS1":"28","C12_POP15P_CS2":"4","C12_POP15P_CS3":"0","C12_POP15P_CS4":"0","C12_POP15P_CS5":"32","C12_POP15P_CS6":"16","C12_POP15P_CS7":"76","C12_POP15P_CS8":"12","TxCS6":"9.523809"}
,{"CODGEO":"79339","REG":"54","DEP":"79","LIBGEO":"Vasles","P12_POP":"1729","C12_POP15P":"1402","C12_POP15P_CS1":"89","C12_POP15P_CS2":"57","C12_POP15P_CS3":"32","C12_POP15P_CS4":"130","C12_POP15P_CS5":"239","C12_POP15P_CS6":"195","C12_POP15P_CS7":"551","C12_POP15P_CS8":"110","TxCS6":"13.908702"}
,{"CODGEO":"79340","REG":"54","DEP":"79","LIBGEO":"Vausseroux","P12_POP":"337","C12_POP15P":"260","C12_POP15P_CS1":"20","C12_POP15P_CS2":"8","C12_POP15P_CS3":"0","C12_POP15P_CS4":"40","C12_POP15P_CS5":"32","C12_POP15P_CS6":"40","C12_POP15P_CS7":"80","C12_POP15P_CS8":"40","TxCS6":"15.384616"}
,{"CODGEO":"79341","REG":"54","DEP":"79","LIBGEO":"Vautebis","P12_POP":"123","C12_POP15P":"130","C12_POP15P_CS1":"8","C12_POP15P_CS2":"8","C12_POP15P_CS3":"0","C12_POP15P_CS4":"16","C12_POP15P_CS5":"28","C12_POP15P_CS6":"8","C12_POP15P_CS7":"43","C12_POP15P_CS8":"20","TxCS6":"6.1538463"}
,{"CODGEO":"79342","REG":"54","DEP":"79","LIBGEO":"Vernoux-en-Gâtine","P12_POP":"581","C12_POP15P":"481","C12_POP15P_CS1":"61","C12_POP15P_CS2":"8","C12_POP15P_CS3":"4","C12_POP15P_CS4":"37","C12_POP15P_CS5":"61","C12_POP15P_CS6":"94","C12_POP15P_CS7":"167","C12_POP15P_CS8":"49","TxCS6":"19.54262"}
,{"CODGEO":"79343","REG":"54","DEP":"79","LIBGEO":"Vernoux-sur-Boutonne","P12_POP":"211","C12_POP15P":"168","C12_POP15P_CS1":"20","C12_POP15P_CS2":"0","C12_POP15P_CS3":"0","C12_POP15P_CS4":"20","C12_POP15P_CS5":"40","C12_POP15P_CS6":"40","C12_POP15P_CS7":"40","C12_POP15P_CS8":"8","TxCS6":"23.809525"}
,{"CODGEO":"79345","REG":"54","DEP":"79","LIBGEO":"Verruyes","P12_POP":"915","C12_POP15P":"721","C12_POP15P_CS1":"48","C12_POP15P_CS2":"24","C12_POP15P_CS3":"48","C12_POP15P_CS4":"88","C12_POP15P_CS5":"84","C12_POP15P_CS6":"124","C12_POP15P_CS7":"232","C12_POP15P_CS8":"72","TxCS6":"17.198336"}
,{"CODGEO":"79346","REG":"54","DEP":"79","LIBGEO":"Le Vert","P12_POP":"128","C12_POP15P":"121","C12_POP15P_CS1":"16","C12_POP15P_CS2":"12","C12_POP15P_CS3":"0","C12_POP15P_CS4":"16","C12_POP15P_CS5":"16","C12_POP15P_CS6":"4","C12_POP15P_CS7":"56","C12_POP15P_CS8":"0","TxCS6":"3.305785"}
,{"CODGEO":"79347","REG":"54","DEP":"79","LIBGEO":"Viennay","P12_POP":"1091","C12_POP15P":"876","C12_POP15P_CS1":"8","C12_POP15P_CS2":"32","C12_POP15P_CS3":"44","C12_POP15P_CS4":"100","C12_POP15P_CS5":"156","C12_POP15P_CS6":"220","C12_POP15P_CS7":"252","C12_POP15P_CS8":"64","TxCS6":"25.114155"}
,{"CODGEO":"79348","REG":"54","DEP":"79","LIBGEO":"Villefollet","P12_POP":"199","C12_POP15P":"164","C12_POP15P_CS1":"12","C12_POP15P_CS2":"8","C12_POP15P_CS3":"0","C12_POP15P_CS4":"8","C12_POP15P_CS5":"24","C12_POP15P_CS6":"28","C12_POP15P_CS7":"64","C12_POP15P_CS8":"20","TxCS6":"17.073172"}
,{"CODGEO":"79349","REG":"54","DEP":"79","LIBGEO":"Villemain","P12_POP":"159","C12_POP15P":"136","C12_POP15P_CS1":"16","C12_POP15P_CS2":"8","C12_POP15P_CS3":"0","C12_POP15P_CS4":"12","C12_POP15P_CS5":"0","C12_POP15P_CS6":"12","C12_POP15P_CS7":"68","C12_POP15P_CS8":"20","TxCS6":"8.823529"}
,{"CODGEO":"79350","REG":"54","DEP":"79","LIBGEO":"Villiers-en-Bois","P12_POP":"133","C12_POP15P":"108","C12_POP15P_CS1":"4","C12_POP15P_CS2":"0","C12_POP15P_CS3":"4","C12_POP15P_CS4":"8","C12_POP15P_CS5":"20","C12_POP15P_CS6":"12","C12_POP15P_CS7":"52","C12_POP15P_CS8":"8","TxCS6":"11.111112"}
,{"CODGEO":"79351","REG":"54","DEP":"79","LIBGEO":"Villiers-en-Plaine","P12_POP":"1734","C12_POP15P":"1317","C12_POP15P_CS1":"40","C12_POP15P_CS2":"40","C12_POP15P_CS3":"71","C12_POP15P_CS4":"261","C12_POP15P_CS5":"253","C12_POP15P_CS6":"225","C12_POP15P_CS7":"301","C12_POP15P_CS8":"126","TxCS6":"17.084282"}
,{"CODGEO":"79352","REG":"54","DEP":"79","LIBGEO":"Villiers-sur-Chizé","P12_POP":"164","C12_POP15P":"127","C12_POP15P_CS1":"20","C12_POP15P_CS2":"8","C12_POP15P_CS3":"0","C12_POP15P_CS4":"24","C12_POP15P_CS5":"12","C12_POP15P_CS6":"28","C12_POP15P_CS7":"28","C12_POP15P_CS8":"8","TxCS6":"22.047243"}
,{"CODGEO":"79354","REG":"54","DEP":"79","LIBGEO":"Vouhé","P12_POP":"378","C12_POP15P":"295","C12_POP15P_CS1":"15","C12_POP15P_CS2":"15","C12_POP15P_CS3":"10","C12_POP15P_CS4":"34","C12_POP15P_CS5":"44","C12_POP15P_CS6":"44","C12_POP15P_CS7":"103","C12_POP15P_CS8":"29","TxCS6":"14.915255"}
,{"CODGEO":"79355","REG":"54","DEP":"79","LIBGEO":"Vouillé","P12_POP":"3262","C12_POP15P":"2642","C12_POP15P_CS1":"35","C12_POP15P_CS2":"126","C12_POP15P_CS3":"252","C12_POP15P_CS4":"494","C12_POP15P_CS5":"408","C12_POP15P_CS6":"308","C12_POP15P_CS7":"787","C12_POP15P_CS8":"232","TxCS6":"11.657835"}
,{"CODGEO":"79357","REG":"54","DEP":"79","LIBGEO":"Xaintray","P12_POP":"248","C12_POP15P":"194","C12_POP15P_CS1":"17","C12_POP15P_CS2":"12","C12_POP15P_CS3":"12","C12_POP15P_CS4":"33","C12_POP15P_CS5":"33","C12_POP15P_CS6":"25","C12_POP15P_CS7":"45","C12_POP15P_CS8":"17","TxCS6":"12.886598"}
]}
