{"status":"success","data":[{"CODGEO":"94001","REG":"11","DEP":"94","LIBGEO":"Ablon-sur-Seine","P12_POP":"5327","C12_POP15P":"4137","C12_POP15P_CS1":"0","C12_POP15P_CS2":"137","C12_POP15P_CS3":"373","C12_POP15P_CS4":"838","C12_POP15P_CS5":"816","C12_POP15P_CS6":"528","C12_POP15P_CS7":"891","C12_POP15P_CS8":"554","TxCS6":"12.762872"}
,{"CODGEO":"94002","REG":"11","DEP":"94","LIBGEO":"Alfortville","P12_POP":"44397","C12_POP15P":"35739","C12_POP15P_CS1":"2","C12_POP15P_CS2":"1080","C12_POP15P_CS3":"4695","C12_POP15P_CS4":"6268","C12_POP15P_CS5":"7079","C12_POP15P_CS6":"4055","C12_POP15P_CS7":"6453","C12_POP15P_CS8":"6107","TxCS6":"11.3461485"}
,{"CODGEO":"94003","REG":"11","DEP":"94","LIBGEO":"Arcueil","P12_POP":"19526","C12_POP15P":"15822","C12_POP15P_CS1":"0","C12_POP15P_CS2":"443","C12_POP15P_CS3":"2753","C12_POP15P_CS4":"2513","C12_POP15P_CS5":"2982","C12_POP15P_CS6":"1372","C12_POP15P_CS7":"2977","C12_POP15P_CS8":"2782","TxCS6":"8.67147"}
,{"CODGEO":"94004","REG":"11","DEP":"94","LIBGEO":"Boissy-Saint-Léger","P12_POP":"16483","C12_POP15P":"12853","C12_POP15P_CS1":"0","C12_POP15P_CS2":"344","C12_POP15P_CS3":"1091","C12_POP15P_CS4":"2066","C12_POP15P_CS5":"2975","C12_POP15P_CS6":"1823","C12_POP15P_CS7":"2195","C12_POP15P_CS8":"2358","TxCS6":"14.183458"}
,{"CODGEO":"94011","REG":"11","DEP":"94","LIBGEO":"Bonneuil-sur-Marne","P12_POP":"16439","C12_POP15P":"12743","C12_POP15P_CS1":"1","C12_POP15P_CS2":"271","C12_POP15P_CS3":"701","C12_POP15P_CS4":"1784","C12_POP15P_CS5":"2958","C12_POP15P_CS6":"1725","C12_POP15P_CS7":"2482","C12_POP15P_CS8":"2821","TxCS6":"13.536843"}
,{"CODGEO":"94015","REG":"11","DEP":"94","LIBGEO":"Bry-sur-Marne","P12_POP":"16319","C12_POP15P":"13141","C12_POP15P_CS1":"6","C12_POP15P_CS2":"562","C12_POP15P_CS3":"2973","C12_POP15P_CS4":"2444","C12_POP15P_CS5":"1775","C12_POP15P_CS6":"783","C12_POP15P_CS7":"2740","C12_POP15P_CS8":"1858","TxCS6":"5.958451"}
,{"CODGEO":"94016","REG":"11","DEP":"94","LIBGEO":"Cachan","P12_POP":"28365","C12_POP15P":"23032","C12_POP15P_CS1":"0","C12_POP15P_CS2":"410","C12_POP15P_CS3":"4505","C12_POP15P_CS4":"3439","C12_POP15P_CS5":"3563","C12_POP15P_CS6":"1469","C12_POP15P_CS7":"4830","C12_POP15P_CS8":"4815","TxCS6":"6.3780828"}
,{"CODGEO":"94017","REG":"11","DEP":"94","LIBGEO":"Champigny-sur-Marne","P12_POP":"75869","C12_POP15P":"59544","C12_POP15P_CS1":"10","C12_POP15P_CS2":"1755","C12_POP15P_CS3":"5871","C12_POP15P_CS4":"9459","C12_POP15P_CS5":"12662","C12_POP15P_CS6":"7538","C12_POP15P_CS7":"11255","C12_POP15P_CS8":"10993","TxCS6":"12.659545"}
,{"CODGEO":"94018","REG":"11","DEP":"94","LIBGEO":"Charenton-le-Pont","P12_POP":"30148","C12_POP15P":"24400","C12_POP15P_CS1":"3","C12_POP15P_CS2":"801","C12_POP15P_CS3":"5809","C12_POP15P_CS4":"4495","C12_POP15P_CS5":"3808","C12_POP15P_CS6":"1201","C12_POP15P_CS7":"4606","C12_POP15P_CS8":"3676","TxCS6":"4.922131"}
,{"CODGEO":"94019","REG":"11","DEP":"94","LIBGEO":"Chennevières-sur-Marne","P12_POP":"18304","C12_POP15P":"14516","C12_POP15P_CS1":"0","C12_POP15P_CS2":"498","C12_POP15P_CS3":"1619","C12_POP15P_CS4":"2420","C12_POP15P_CS5":"2773","C12_POP15P_CS6":"1644","C12_POP15P_CS7":"3141","C12_POP15P_CS8":"2421","TxCS6":"11.325434"}
,{"CODGEO":"94021","REG":"11","DEP":"94","LIBGEO":"Chevilly-Larue","P12_POP":"18786","C12_POP15P":"15065","C12_POP15P_CS1":"4","C12_POP15P_CS2":"364","C12_POP15P_CS3":"1434","C12_POP15P_CS4":"2739","C12_POP15P_CS5":"3439","C12_POP15P_CS6":"1726","C12_POP15P_CS7":"2873","C12_POP15P_CS8":"2486","TxCS6":"11.457019"}
,{"CODGEO":"94022","REG":"11","DEP":"94","LIBGEO":"Choisy-le-Roi","P12_POP":"41507","C12_POP15P":"32891","C12_POP15P_CS1":"0","C12_POP15P_CS2":"907","C12_POP15P_CS3":"3595","C12_POP15P_CS4":"6025","C12_POP15P_CS5":"6967","C12_POP15P_CS6":"4212","C12_POP15P_CS7":"5945","C12_POP15P_CS8":"5240","TxCS6":"12.805934"}
,{"CODGEO":"94028","REG":"11","DEP":"94","LIBGEO":"Créteil","P12_POP":"89845","C12_POP15P":"70328","C12_POP15P_CS1":"8","C12_POP15P_CS2":"2057","C12_POP15P_CS3":"7867","C12_POP15P_CS4":"11627","C12_POP15P_CS5":"15722","C12_POP15P_CS6":"6623","C12_POP15P_CS7":"12387","C12_POP15P_CS8":"14036","TxCS6":"9.417301"}
,{"CODGEO":"94033","REG":"11","DEP":"94","LIBGEO":"Fontenay-sous-Bois","P12_POP":"52998","C12_POP15P":"42084","C12_POP15P_CS1":"4","C12_POP15P_CS2":"1220","C12_POP15P_CS3":"7381","C12_POP15P_CS4":"7402","C12_POP15P_CS5":"7673","C12_POP15P_CS6":"3583","C12_POP15P_CS7":"8410","C12_POP15P_CS8":"6411","TxCS6":"8.513925"}
,{"CODGEO":"94034","REG":"11","DEP":"94","LIBGEO":"Fresnes","P12_POP":"26419","C12_POP15P":"21614","C12_POP15P_CS1":"1","C12_POP15P_CS2":"410","C12_POP15P_CS3":"2799","C12_POP15P_CS4":"3713","C12_POP15P_CS5":"4056","C12_POP15P_CS6":"1951","C12_POP15P_CS7":"3605","C12_POP15P_CS8":"5080","TxCS6":"9.026557"}
,{"CODGEO":"94037","REG":"11","DEP":"94","LIBGEO":"Gentilly","P12_POP":"16623","C12_POP15P":"13532","C12_POP15P_CS1":"0","C12_POP15P_CS2":"373","C12_POP15P_CS3":"1941","C12_POP15P_CS4":"2085","C12_POP15P_CS5":"2904","C12_POP15P_CS6":"1378","C12_POP15P_CS7":"2540","C12_POP15P_CS8":"2312","TxCS6":"10.1832695"}
,{"CODGEO":"94038","REG":"11","DEP":"94","LIBGEO":"L'Haÿ-les-Roses","P12_POP":"31168","C12_POP15P":"24979","C12_POP15P_CS1":"0","C12_POP15P_CS2":"597","C12_POP15P_CS3":"3952","C12_POP15P_CS4":"4217","C12_POP15P_CS5":"4130","C12_POP15P_CS6":"1908","C12_POP15P_CS7":"6205","C12_POP15P_CS8":"3968","TxCS6":"7.6384163"}
,{"CODGEO":"94041","REG":"11","DEP":"94","LIBGEO":"Ivry-sur-Seine","P12_POP":"58579","C12_POP15P":"48108","C12_POP15P_CS1":"9","C12_POP15P_CS2":"1278","C12_POP15P_CS3":"5764","C12_POP15P_CS4":"7191","C12_POP15P_CS5":"9838","C12_POP15P_CS6":"5836","C12_POP15P_CS7":"8943","C12_POP15P_CS8":"9250","TxCS6":"12.131039"}
,{"CODGEO":"94042","REG":"11","DEP":"94","LIBGEO":"Joinville-le-Pont","P12_POP":"18020","C12_POP15P":"14792","C12_POP15P_CS1":"10","C12_POP15P_CS2":"463","C12_POP15P_CS3":"2844","C12_POP15P_CS4":"2574","C12_POP15P_CS5":"2294","C12_POP15P_CS6":"879","C12_POP15P_CS7":"3537","C12_POP15P_CS8":"2190","TxCS6":"5.9424014"}
,{"CODGEO":"94043","REG":"11","DEP":"94","LIBGEO":"Le Kremlin-Bicêtre","P12_POP":"26119","C12_POP15P":"21139","C12_POP15P_CS1":"1","C12_POP15P_CS2":"522","C12_POP15P_CS3":"3760","C12_POP15P_CS4":"3894","C12_POP15P_CS5":"4454","C12_POP15P_CS6":"1500","C12_POP15P_CS7":"3201","C12_POP15P_CS8":"3806","TxCS6":"7.095889"}
,{"CODGEO":"94044","REG":"11","DEP":"94","LIBGEO":"Limeil-Brévannes","P12_POP":"21103","C12_POP15P":"16419","C12_POP15P_CS1":"8","C12_POP15P_CS2":"561","C12_POP15P_CS3":"1470","C12_POP15P_CS4":"3371","C12_POP15P_CS5":"3697","C12_POP15P_CS6":"1845","C12_POP15P_CS7":"3255","C12_POP15P_CS8":"2212","TxCS6":"11.236981"}
,{"CODGEO":"94046","REG":"11","DEP":"94","LIBGEO":"Maisons-Alfort","P12_POP":"54186","C12_POP15P":"44944","C12_POP15P_CS1":"3","C12_POP15P_CS2":"1206","C12_POP15P_CS3":"7782","C12_POP15P_CS4":"8426","C12_POP15P_CS5":"8145","C12_POP15P_CS6":"3199","C12_POP15P_CS7":"9705","C12_POP15P_CS8":"6477","TxCS6":"7.117747"}
,{"CODGEO":"94047","REG":"11","DEP":"94","LIBGEO":"Mandres-les-Roses","P12_POP":"4407","C12_POP15P":"3598","C12_POP15P_CS1":"24","C12_POP15P_CS2":"127","C12_POP15P_CS3":"539","C12_POP15P_CS4":"751","C12_POP15P_CS5":"533","C12_POP15P_CS6":"233","C12_POP15P_CS7":"835","C12_POP15P_CS8":"555","TxCS6":"6.4758196"}
,{"CODGEO":"94048","REG":"11","DEP":"94","LIBGEO":"Marolles-en-Brie","P12_POP":"4861","C12_POP15P":"3831","C12_POP15P_CS1":"0","C12_POP15P_CS2":"198","C12_POP15P_CS3":"760","C12_POP15P_CS4":"764","C12_POP15P_CS5":"469","C12_POP15P_CS6":"256","C12_POP15P_CS7":"781","C12_POP15P_CS8":"603","TxCS6":"6.682328"}
,{"CODGEO":"94052","REG":"11","DEP":"94","LIBGEO":"Nogent-sur-Marne","P12_POP":"30884","C12_POP15P":"25410","C12_POP15P_CS1":"8","C12_POP15P_CS2":"827","C12_POP15P_CS3":"6857","C12_POP15P_CS4":"4394","C12_POP15P_CS5":"3116","C12_POP15P_CS6":"1183","C12_POP15P_CS7":"5680","C12_POP15P_CS8":"3346","TxCS6":"4.6556473"}
,{"CODGEO":"94053","REG":"11","DEP":"94","LIBGEO":"Noiseau","P12_POP":"4689","C12_POP15P":"3780","C12_POP15P_CS1":"0","C12_POP15P_CS2":"160","C12_POP15P_CS3":"483","C12_POP15P_CS4":"826","C12_POP15P_CS5":"667","C12_POP15P_CS6":"311","C12_POP15P_CS7":"818","C12_POP15P_CS8":"515","TxCS6":"8.227513"}
,{"CODGEO":"94054","REG":"11","DEP":"94","LIBGEO":"Orly","P12_POP":"21628","C12_POP15P":"16721","C12_POP15P_CS1":"0","C12_POP15P_CS2":"393","C12_POP15P_CS3":"954","C12_POP15P_CS4":"2446","C12_POP15P_CS5":"3749","C12_POP15P_CS6":"2477","C12_POP15P_CS7":"3208","C12_POP15P_CS8":"3495","TxCS6":"14.813707"}
,{"CODGEO":"94055","REG":"11","DEP":"94","LIBGEO":"Ormesson-sur-Marne","P12_POP":"9945","C12_POP15P":"8195","C12_POP15P_CS1":"0","C12_POP15P_CS2":"454","C12_POP15P_CS3":"1007","C12_POP15P_CS4":"1233","C12_POP15P_CS5":"1214","C12_POP15P_CS6":"703","C12_POP15P_CS7":"2294","C12_POP15P_CS8":"1291","TxCS6":"8.578402"}
,{"CODGEO":"94056","REG":"11","DEP":"94","LIBGEO":"Périgny","P12_POP":"2485","C12_POP15P":"1885","C12_POP15P_CS1":"0","C12_POP15P_CS2":"109","C12_POP15P_CS3":"313","C12_POP15P_CS4":"453","C12_POP15P_CS5":"292","C12_POP15P_CS6":"123","C12_POP15P_CS7":"350","C12_POP15P_CS8":"245","TxCS6":"6.525199"}
,{"CODGEO":"94058","REG":"11","DEP":"94","LIBGEO":"Le Perreux-sur-Marne","P12_POP":"33248","C12_POP15P":"27175","C12_POP15P_CS1":"10","C12_POP15P_CS2":"998","C12_POP15P_CS3":"5882","C12_POP15P_CS4":"4992","C12_POP15P_CS5":"3780","C12_POP15P_CS6":"1621","C12_POP15P_CS7":"6266","C12_POP15P_CS8":"3626","TxCS6":"5.965041"}
,{"CODGEO":"94059","REG":"11","DEP":"94","LIBGEO":"Le Plessis-Trévise","P12_POP":"18976","C12_POP15P":"15247","C12_POP15P_CS1":"0","C12_POP15P_CS2":"644","C12_POP15P_CS3":"2066","C12_POP15P_CS4":"2710","C12_POP15P_CS5":"2786","C12_POP15P_CS6":"1305","C12_POP15P_CS7":"3792","C12_POP15P_CS8":"1943","TxCS6":"8.559061"}
,{"CODGEO":"94060","REG":"11","DEP":"94","LIBGEO":"La Queue-en-Brie","P12_POP":"11733","C12_POP15P":"8931","C12_POP15P_CS1":"3","C12_POP15P_CS2":"231","C12_POP15P_CS3":"1004","C12_POP15P_CS4":"1733","C12_POP15P_CS5":"1722","C12_POP15P_CS6":"1064","C12_POP15P_CS7":"1681","C12_POP15P_CS8":"1495","TxCS6":"11.91356"}
,{"CODGEO":"94065","REG":"11","DEP":"94","LIBGEO":"Rungis","P12_POP":"5691","C12_POP15P":"4658","C12_POP15P_CS1":"0","C12_POP15P_CS2":"165","C12_POP15P_CS3":"843","C12_POP15P_CS4":"1099","C12_POP15P_CS5":"916","C12_POP15P_CS6":"254","C12_POP15P_CS7":"751","C12_POP15P_CS8":"630","TxCS6":"5.4529843"}
,{"CODGEO":"94067","REG":"11","DEP":"94","LIBGEO":"Saint-Mandé","P12_POP":"21846","C12_POP15P":"17945","C12_POP15P_CS1":"6","C12_POP15P_CS2":"866","C12_POP15P_CS3":"4886","C12_POP15P_CS4":"2933","C12_POP15P_CS5":"2189","C12_POP15P_CS6":"617","C12_POP15P_CS7":"3697","C12_POP15P_CS8":"2751","TxCS6":"3.4382834"}
,{"CODGEO":"94068","REG":"11","DEP":"94","LIBGEO":"Saint-Maur-des-Fossés","P12_POP":"74176","C12_POP15P":"61943","C12_POP15P_CS1":"21","C12_POP15P_CS2":"2361","C12_POP15P_CS3":"13086","C12_POP15P_CS4":"10253","C12_POP15P_CS5":"8047","C12_POP15P_CS6":"3298","C12_POP15P_CS7":"15738","C12_POP15P_CS8":"9139","TxCS6":"5.3242497"}
,{"CODGEO":"94069","REG":"11","DEP":"94","LIBGEO":"Saint-Maurice","P12_POP":"14870","C12_POP15P":"12164","C12_POP15P_CS1":"6","C12_POP15P_CS2":"414","C12_POP15P_CS3":"2648","C12_POP15P_CS4":"2266","C12_POP15P_CS5":"2305","C12_POP15P_CS6":"722","C12_POP15P_CS7":"2053","C12_POP15P_CS8":"1751","TxCS6":"5.9355474"}
,{"CODGEO":"94070","REG":"11","DEP":"94","LIBGEO":"Santeny","P12_POP":"3651","C12_POP15P":"2856","C12_POP15P_CS1":"16","C12_POP15P_CS2":"176","C12_POP15P_CS3":"456","C12_POP15P_CS4":"420","C12_POP15P_CS5":"372","C12_POP15P_CS6":"180","C12_POP15P_CS7":"748","C12_POP15P_CS8":"488","TxCS6":"6.302521"}
,{"CODGEO":"94071","REG":"11","DEP":"94","LIBGEO":"Sucy-en-Brie","P12_POP":"25900","C12_POP15P":"20891","C12_POP15P_CS1":"8","C12_POP15P_CS2":"692","C12_POP15P_CS3":"3175","C12_POP15P_CS4":"3645","C12_POP15P_CS5":"3298","C12_POP15P_CS6":"1573","C12_POP15P_CS7":"5342","C12_POP15P_CS8":"3157","TxCS6":"7.529558"}
,{"CODGEO":"94073","REG":"11","DEP":"94","LIBGEO":"Thiais","P12_POP":"29422","C12_POP15P":"23989","C12_POP15P_CS1":"4","C12_POP15P_CS2":"606","C12_POP15P_CS3":"2851","C12_POP15P_CS4":"4542","C12_POP15P_CS5":"4570","C12_POP15P_CS6":"2217","C12_POP15P_CS7":"5306","C12_POP15P_CS8":"3893","TxCS6":"9.241735"}
,{"CODGEO":"94074","REG":"11","DEP":"94","LIBGEO":"Valenton","P12_POP":"12231","C12_POP15P":"9410","C12_POP15P_CS1":"0","C12_POP15P_CS2":"240","C12_POP15P_CS3":"254","C12_POP15P_CS4":"1308","C12_POP15P_CS5":"2365","C12_POP15P_CS6":"1609","C12_POP15P_CS7":"1569","C12_POP15P_CS8":"2065","TxCS6":"17.098831"}
,{"CODGEO":"94075","REG":"11","DEP":"94","LIBGEO":"Villecresnes","P12_POP":"9708","C12_POP15P":"8005","C12_POP15P_CS1":"0","C12_POP15P_CS2":"286","C12_POP15P_CS3":"1024","C12_POP15P_CS4":"1429","C12_POP15P_CS5":"1285","C12_POP15P_CS6":"711","C12_POP15P_CS7":"2225","C12_POP15P_CS8":"1045","TxCS6":"8.881948"}
,{"CODGEO":"94076","REG":"11","DEP":"94","LIBGEO":"Villejuif","P12_POP":"56504","C12_POP15P":"45294","C12_POP15P_CS1":"16","C12_POP15P_CS2":"1072","C12_POP15P_CS3":"5611","C12_POP15P_CS4":"7165","C12_POP15P_CS5":"9336","C12_POP15P_CS6":"4547","C12_POP15P_CS7":"8072","C12_POP15P_CS8":"9475","TxCS6":"10.038857"}
,{"CODGEO":"94077","REG":"11","DEP":"94","LIBGEO":"Villeneuve-le-Roi","P12_POP":"19782","C12_POP15P":"15674","C12_POP15P_CS1":"0","C12_POP15P_CS2":"497","C12_POP15P_CS3":"1119","C12_POP15P_CS4":"2357","C12_POP15P_CS5":"3054","C12_POP15P_CS6":"2343","C12_POP15P_CS7":"3488","C12_POP15P_CS8":"2815","TxCS6":"14.948322"}
,{"CODGEO":"94078","REG":"11","DEP":"94","LIBGEO":"Villeneuve-Saint-Georges","P12_POP":"32994","C12_POP15P":"25485","C12_POP15P_CS1":"10","C12_POP15P_CS2":"736","C12_POP15P_CS3":"1082","C12_POP15P_CS4":"3267","C12_POP15P_CS5":"6512","C12_POP15P_CS6":"4785","C12_POP15P_CS7":"4010","C12_POP15P_CS8":"5082","TxCS6":"18.775751"}
,{"CODGEO":"94079","REG":"11","DEP":"94","LIBGEO":"Villiers-sur-Marne","P12_POP":"27737","C12_POP15P":"21973","C12_POP15P_CS1":"3","C12_POP15P_CS2":"607","C12_POP15P_CS3":"2862","C12_POP15P_CS4":"3854","C12_POP15P_CS5":"3898","C12_POP15P_CS6":"2291","C12_POP15P_CS7":"4401","C12_POP15P_CS8":"4058","TxCS6":"10.426433"}
,{"CODGEO":"94080","REG":"11","DEP":"94","LIBGEO":"Vincennes","P12_POP":"49831","C12_POP15P":"41470","C12_POP15P_CS1":"11","C12_POP15P_CS2":"1343","C12_POP15P_CS3":"13217","C12_POP15P_CS4":"7163","C12_POP15P_CS5":"4984","C12_POP15P_CS6":"1534","C12_POP15P_CS7":"8158","C12_POP15P_CS8":"5061","TxCS6":"3.6990595"}
,{"CODGEO":"94081","REG":"11","DEP":"94","LIBGEO":"Vitry-sur-Seine","P12_POP":"88102","C12_POP15P":"69623","C12_POP15P_CS1":"0","C12_POP15P_CS2":"2248","C12_POP15P_CS3":"5892","C12_POP15P_CS4":"10226","C12_POP15P_CS5":"14659","C12_POP15P_CS6":"9183","C12_POP15P_CS7":"13702","C12_POP15P_CS8":"13713","TxCS6":"13.189607"}
]}
