{"status":"success","data":[{"CODGEO":"95002","REG":"11","DEP":"95","LIBGEO":"Ableiges","P12_POP":"933","C12_POP15P":"712","C12_POP15P_CS1":"8","C12_POP15P_CS2":"12","C12_POP15P_CS3":"115","C12_POP15P_CS4":"166","C12_POP15P_CS5":"111","C12_POP15P_CS6":"63","C12_POP15P_CS7":"162","C12_POP15P_CS8":"75","TxCS6":"8.848314"}
,{"CODGEO":"95008","REG":"11","DEP":"95","LIBGEO":"Aincourt","P12_POP":"953","C12_POP15P":"793","C12_POP15P_CS1":"5","C12_POP15P_CS2":"35","C12_POP15P_CS3":"71","C12_POP15P_CS4":"151","C12_POP15P_CS5":"137","C12_POP15P_CS6":"74","C12_POP15P_CS7":"156","C12_POP15P_CS8":"164","TxCS6":"9.331652"}
,{"CODGEO":"95011","REG":"11","DEP":"95","LIBGEO":"Ambleville","P12_POP":"430","C12_POP15P":"332","C12_POP15P_CS1":"0","C12_POP15P_CS2":"16","C12_POP15P_CS3":"20","C12_POP15P_CS4":"61","C12_POP15P_CS5":"57","C12_POP15P_CS6":"53","C12_POP15P_CS7":"57","C12_POP15P_CS8":"65","TxCS6":"15.963856"}
,{"CODGEO":"95012","REG":"11","DEP":"95","LIBGEO":"Amenucourt","P12_POP":"206","C12_POP15P":"155","C12_POP15P_CS1":"0","C12_POP15P_CS2":"12","C12_POP15P_CS3":"20","C12_POP15P_CS4":"36","C12_POP15P_CS5":"32","C12_POP15P_CS6":"24","C12_POP15P_CS7":"24","C12_POP15P_CS8":"8","TxCS6":"15.483871"}
,{"CODGEO":"95014","REG":"11","DEP":"95","LIBGEO":"Andilly","P12_POP":"2530","C12_POP15P":"2088","C12_POP15P_CS1":"0","C12_POP15P_CS2":"80","C12_POP15P_CS3":"370","C12_POP15P_CS4":"398","C12_POP15P_CS5":"249","C12_POP15P_CS6":"149","C12_POP15P_CS7":"466","C12_POP15P_CS8":"377","TxCS6":"7.1360154"}
,{"CODGEO":"95018","REG":"11","DEP":"95","LIBGEO":"Argenteuil","P12_POP":"104962","C12_POP15P":"81666","C12_POP15P_CS1":"55","C12_POP15P_CS2":"2295","C12_POP15P_CS3":"6604","C12_POP15P_CS4":"12548","C12_POP15P_CS5":"17454","C12_POP15P_CS6":"12135","C12_POP15P_CS7":"14691","C12_POP15P_CS8":"15884","TxCS6":"14.859305"}
,{"CODGEO":"95019","REG":"11","DEP":"95","LIBGEO":"Arnouville","P12_POP":"13979","C12_POP15P":"10908","C12_POP15P_CS1":"5","C12_POP15P_CS2":"442","C12_POP15P_CS3":"776","C12_POP15P_CS4":"1754","C12_POP15P_CS5":"2127","C12_POP15P_CS6":"1484","C12_POP15P_CS7":"2290","C12_POP15P_CS8":"2030","TxCS6":"13.604693"}
,{"CODGEO":"95023","REG":"11","DEP":"95","LIBGEO":"Arronville","P12_POP":"659","C12_POP15P":"544","C12_POP15P_CS1":"5","C12_POP15P_CS2":"30","C12_POP15P_CS3":"63","C12_POP15P_CS4":"133","C12_POP15P_CS5":"111","C12_POP15P_CS6":"59","C12_POP15P_CS7":"79","C12_POP15P_CS8":"64","TxCS6":"10.845588"}
,{"CODGEO":"95024","REG":"11","DEP":"95","LIBGEO":"Arthies","P12_POP":"297","C12_POP15P":"220","C12_POP15P_CS1":"5","C12_POP15P_CS2":"10","C12_POP15P_CS3":"21","C12_POP15P_CS4":"58","C12_POP15P_CS5":"31","C12_POP15P_CS6":"26","C12_POP15P_CS7":"31","C12_POP15P_CS8":"37","TxCS6":"11.818182"}
,{"CODGEO":"95026","REG":"11","DEP":"95","LIBGEO":"Asnières-sur-Oise","P12_POP":"2544","C12_POP15P":"2033","C12_POP15P_CS1":"4","C12_POP15P_CS2":"109","C12_POP15P_CS3":"297","C12_POP15P_CS4":"449","C12_POP15P_CS5":"317","C12_POP15P_CS6":"177","C12_POP15P_CS7":"448","C12_POP15P_CS8":"231","TxCS6":"8.706346"}
,{"CODGEO":"95028","REG":"11","DEP":"95","LIBGEO":"Attainville","P12_POP":"1820","C12_POP15P":"1452","C12_POP15P_CS1":"16","C12_POP15P_CS2":"40","C12_POP15P_CS3":"180","C12_POP15P_CS4":"340","C12_POP15P_CS5":"220","C12_POP15P_CS6":"144","C12_POP15P_CS7":"248","C12_POP15P_CS8":"264","TxCS6":"9.917356"}
,{"CODGEO":"95039","REG":"11","DEP":"95","LIBGEO":"Auvers-sur-Oise","P12_POP":"6846","C12_POP15P":"5637","C12_POP15P_CS1":"15","C12_POP15P_CS2":"196","C12_POP15P_CS3":"900","C12_POP15P_CS4":"1182","C12_POP15P_CS5":"767","C12_POP15P_CS6":"373","C12_POP15P_CS7":"1371","C12_POP15P_CS8":"833","TxCS6":"6.616995"}
,{"CODGEO":"95040","REG":"11","DEP":"95","LIBGEO":"Avernes","P12_POP":"822","C12_POP15P":"674","C12_POP15P_CS1":"8","C12_POP15P_CS2":"20","C12_POP15P_CS3":"110","C12_POP15P_CS4":"143","C12_POP15P_CS5":"78","C12_POP15P_CS6":"69","C12_POP15P_CS7":"159","C12_POP15P_CS8":"86","TxCS6":"10.237389"}
,{"CODGEO":"95042","REG":"11","DEP":"95","LIBGEO":"Baillet-en-France","P12_POP":"2020","C12_POP15P":"1647","C12_POP15P_CS1":"5","C12_POP15P_CS2":"40","C12_POP15P_CS3":"262","C12_POP15P_CS4":"396","C12_POP15P_CS5":"251","C12_POP15P_CS6":"113","C12_POP15P_CS7":"403","C12_POP15P_CS8":"178","TxCS6":"6.8609595"}
,{"CODGEO":"95046","REG":"11","DEP":"95","LIBGEO":"Banthelu","P12_POP":"132","C12_POP15P":"96","C12_POP15P_CS1":"0","C12_POP15P_CS2":"0","C12_POP15P_CS3":"18","C12_POP15P_CS4":"27","C12_POP15P_CS5":"14","C12_POP15P_CS6":"23","C12_POP15P_CS7":"0","C12_POP15P_CS8":"14","TxCS6":"23.958332"}
,{"CODGEO":"95051","REG":"11","DEP":"95","LIBGEO":"Beauchamp","P12_POP":"8753","C12_POP15P":"7288","C12_POP15P_CS1":"0","C12_POP15P_CS2":"199","C12_POP15P_CS3":"1005","C12_POP15P_CS4":"1248","C12_POP15P_CS5":"1082","C12_POP15P_CS6":"621","C12_POP15P_CS7":"2079","C12_POP15P_CS8":"1054","TxCS6":"8.520857"}
,{"CODGEO":"95052","REG":"11","DEP":"95","LIBGEO":"Beaumont-sur-Oise","P12_POP":"9418","C12_POP15P":"7449","C12_POP15P_CS1":"4","C12_POP15P_CS2":"216","C12_POP15P_CS3":"490","C12_POP15P_CS4":"1420","C12_POP15P_CS5":"1626","C12_POP15P_CS6":"1134","C12_POP15P_CS7":"1361","C12_POP15P_CS8":"1199","TxCS6":"15.223519"}
,{"CODGEO":"95054","REG":"11","DEP":"95","LIBGEO":"Le Bellay-en-Vexin","P12_POP":"248","C12_POP15P":"192","C12_POP15P_CS1":"0","C12_POP15P_CS2":"5","C12_POP15P_CS3":"26","C12_POP15P_CS4":"22","C12_POP15P_CS5":"46","C12_POP15P_CS6":"36","C12_POP15P_CS7":"21","C12_POP15P_CS8":"36","TxCS6":"18.75"}
,{"CODGEO":"95055","REG":"11","DEP":"95","LIBGEO":"Bellefontaine","P12_POP":"434","C12_POP15P":"378","C12_POP15P_CS1":"4","C12_POP15P_CS2":"12","C12_POP15P_CS3":"40","C12_POP15P_CS4":"84","C12_POP15P_CS5":"48","C12_POP15P_CS6":"44","C12_POP15P_CS7":"112","C12_POP15P_CS8":"32","TxCS6":"11.640212"}
,{"CODGEO":"95056","REG":"11","DEP":"95","LIBGEO":"Belloy-en-France","P12_POP":"2098","C12_POP15P":"1580","C12_POP15P_CS1":"12","C12_POP15P_CS2":"48","C12_POP15P_CS3":"156","C12_POP15P_CS4":"388","C12_POP15P_CS5":"292","C12_POP15P_CS6":"168","C12_POP15P_CS7":"352","C12_POP15P_CS8":"164","TxCS6":"10.632912"}
,{"CODGEO":"95058","REG":"11","DEP":"95","LIBGEO":"Bernes-sur-Oise","P12_POP":"2399","C12_POP15P":"1880","C12_POP15P_CS1":"16","C12_POP15P_CS2":"72","C12_POP15P_CS3":"136","C12_POP15P_CS4":"252","C12_POP15P_CS5":"360","C12_POP15P_CS6":"304","C12_POP15P_CS7":"368","C12_POP15P_CS8":"372","TxCS6":"16.170212"}
,{"CODGEO":"95059","REG":"11","DEP":"95","LIBGEO":"Berville","P12_POP":"339","C12_POP15P":"276","C12_POP15P_CS1":"8","C12_POP15P_CS2":"16","C12_POP15P_CS3":"32","C12_POP15P_CS4":"52","C12_POP15P_CS5":"44","C12_POP15P_CS6":"44","C12_POP15P_CS7":"44","C12_POP15P_CS8":"36","TxCS6":"15.94203"}
,{"CODGEO":"95060","REG":"11","DEP":"95","LIBGEO":"Bessancourt","P12_POP":"6629","C12_POP15P":"5348","C12_POP15P_CS1":"0","C12_POP15P_CS2":"176","C12_POP15P_CS3":"708","C12_POP15P_CS4":"1120","C12_POP15P_CS5":"912","C12_POP15P_CS6":"500","C12_POP15P_CS7":"1228","C12_POP15P_CS8":"704","TxCS6":"9.34929"}
,{"CODGEO":"95061","REG":"11","DEP":"95","LIBGEO":"Béthemont-la-Forêt","P12_POP":"429","C12_POP15P":"356","C12_POP15P_CS1":"0","C12_POP15P_CS2":"16","C12_POP15P_CS3":"80","C12_POP15P_CS4":"68","C12_POP15P_CS5":"40","C12_POP15P_CS6":"20","C12_POP15P_CS7":"88","C12_POP15P_CS8":"44","TxCS6":"5.6179776"}
,{"CODGEO":"95063","REG":"11","DEP":"95","LIBGEO":"Bezons","P12_POP":"28172","C12_POP15P":"21761","C12_POP15P_CS1":"2","C12_POP15P_CS2":"676","C12_POP15P_CS3":"1792","C12_POP15P_CS4":"3402","C12_POP15P_CS5":"4790","C12_POP15P_CS6":"3259","C12_POP15P_CS7":"4029","C12_POP15P_CS8":"3809","TxCS6":"14.976333"}
,{"CODGEO":"95074","REG":"11","DEP":"95","LIBGEO":"Boisemont","P12_POP":"775","C12_POP15P":"622","C12_POP15P_CS1":"0","C12_POP15P_CS2":"41","C12_POP15P_CS3":"129","C12_POP15P_CS4":"108","C12_POP15P_CS5":"100","C12_POP15P_CS6":"37","C12_POP15P_CS7":"120","C12_POP15P_CS8":"87","TxCS6":"5.948553"}
,{"CODGEO":"95078","REG":"11","DEP":"95","LIBGEO":"Boissy-l'Aillerie","P12_POP":"1794","C12_POP15P":"1424","C12_POP15P_CS1":"0","C12_POP15P_CS2":"37","C12_POP15P_CS3":"215","C12_POP15P_CS4":"337","C12_POP15P_CS5":"195","C12_POP15P_CS6":"138","C12_POP15P_CS7":"280","C12_POP15P_CS8":"223","TxCS6":"9.691011"}
,{"CODGEO":"95088","REG":"11","DEP":"95","LIBGEO":"Bonneuil-en-France","P12_POP":"723","C12_POP15P":"588","C12_POP15P_CS1":"0","C12_POP15P_CS2":"28","C12_POP15P_CS3":"41","C12_POP15P_CS4":"101","C12_POP15P_CS5":"134","C12_POP15P_CS6":"49","C12_POP15P_CS7":"93","C12_POP15P_CS8":"142","TxCS6":"8.333334"}
,{"CODGEO":"95091","REG":"11","DEP":"95","LIBGEO":"Bouffémont","P12_POP":"6022","C12_POP15P":"4647","C12_POP15P_CS1":"0","C12_POP15P_CS2":"109","C12_POP15P_CS3":"580","C12_POP15P_CS4":"927","C12_POP15P_CS5":"776","C12_POP15P_CS6":"388","C12_POP15P_CS7":"1027","C12_POP15P_CS8":"840","TxCS6":"8.349473"}
,{"CODGEO":"95094","REG":"11","DEP":"95","LIBGEO":"Bouqueval","P12_POP":"332","C12_POP15P":"264","C12_POP15P_CS1":"0","C12_POP15P_CS2":"31","C12_POP15P_CS3":"16","C12_POP15P_CS4":"51","C12_POP15P_CS5":"47","C12_POP15P_CS6":"36","C12_POP15P_CS7":"42","C12_POP15P_CS8":"42","TxCS6":"13.636364"}
,{"CODGEO":"95101","REG":"11","DEP":"95","LIBGEO":"Bray-et-Lû","P12_POP":"965","C12_POP15P":"709","C12_POP15P_CS1":"0","C12_POP15P_CS2":"24","C12_POP15P_CS3":"56","C12_POP15P_CS4":"145","C12_POP15P_CS5":"113","C12_POP15P_CS6":"89","C12_POP15P_CS7":"200","C12_POP15P_CS8":"82","TxCS6":"12.552892"}
,{"CODGEO":"95102","REG":"11","DEP":"95","LIBGEO":"Bréançon","P12_POP":"360","C12_POP15P":"291","C12_POP15P_CS1":"8","C12_POP15P_CS2":"23","C12_POP15P_CS3":"54","C12_POP15P_CS4":"43","C12_POP15P_CS5":"39","C12_POP15P_CS6":"19","C12_POP15P_CS7":"70","C12_POP15P_CS8":"35","TxCS6":"6.5292096"}
,{"CODGEO":"95110","REG":"11","DEP":"95","LIBGEO":"Brignancourt","P12_POP":"200","C12_POP15P":"166","C12_POP15P_CS1":"0","C12_POP15P_CS2":"16","C12_POP15P_CS3":"24","C12_POP15P_CS4":"24","C12_POP15P_CS5":"16","C12_POP15P_CS6":"16","C12_POP15P_CS7":"53","C12_POP15P_CS8":"16","TxCS6":"9.638554"}
,{"CODGEO":"95116","REG":"11","DEP":"95","LIBGEO":"Bruyères-sur-Oise","P12_POP":"3976","C12_POP15P":"3001","C12_POP15P_CS1":"0","C12_POP15P_CS2":"44","C12_POP15P_CS3":"173","C12_POP15P_CS4":"591","C12_POP15P_CS5":"719","C12_POP15P_CS6":"550","C12_POP15P_CS7":"478","C12_POP15P_CS8":"447","TxCS6":"18.327225"}
,{"CODGEO":"95119","REG":"11","DEP":"95","LIBGEO":"Buhy","P12_POP":"315","C12_POP15P":"254","C12_POP15P_CS1":"4","C12_POP15P_CS2":"16","C12_POP15P_CS3":"16","C12_POP15P_CS4":"62","C12_POP15P_CS5":"37","C12_POP15P_CS6":"45","C12_POP15P_CS7":"45","C12_POP15P_CS8":"29","TxCS6":"17.716536"}
,{"CODGEO":"95120","REG":"11","DEP":"95","LIBGEO":"Butry-sur-Oise","P12_POP":"2213","C12_POP15P":"1747","C12_POP15P_CS1":"13","C12_POP15P_CS2":"69","C12_POP15P_CS3":"224","C12_POP15P_CS4":"435","C12_POP15P_CS5":"258","C12_POP15P_CS6":"164","C12_POP15P_CS7":"323","C12_POP15P_CS8":"263","TxCS6":"9.387522"}
,{"CODGEO":"95127","REG":"11","DEP":"95","LIBGEO":"Cergy","P12_POP":"60528","C12_POP15P":"46982","C12_POP15P_CS1":"13","C12_POP15P_CS2":"755","C12_POP15P_CS3":"6187","C12_POP15P_CS4":"8633","C12_POP15P_CS5":"10019","C12_POP15P_CS6":"5553","C12_POP15P_CS7":"4839","C12_POP15P_CS8":"10981","TxCS6":"11.81942"}
,{"CODGEO":"95134","REG":"11","DEP":"95","LIBGEO":"Champagne-sur-Oise","P12_POP":"4692","C12_POP15P":"3721","C12_POP15P_CS1":"12","C12_POP15P_CS2":"124","C12_POP15P_CS3":"465","C12_POP15P_CS4":"758","C12_POP15P_CS5":"753","C12_POP15P_CS6":"384","C12_POP15P_CS7":"685","C12_POP15P_CS8":"540","TxCS6":"10.319807"}
,{"CODGEO":"95139","REG":"11","DEP":"95","LIBGEO":"La Chapelle-en-Vexin","P12_POP":"331","C12_POP15P":"225","C12_POP15P_CS1":"5","C12_POP15P_CS2":"10","C12_POP15P_CS3":"15","C12_POP15P_CS4":"70","C12_POP15P_CS5":"25","C12_POP15P_CS6":"20","C12_POP15P_CS7":"50","C12_POP15P_CS8":"30","TxCS6":"8.888889"}
,{"CODGEO":"95141","REG":"11","DEP":"95","LIBGEO":"Charmont","P12_POP":"27","C12_POP15P":"24","C12_POP15P_CS1":"0","C12_POP15P_CS2":"0","C12_POP15P_CS3":"4","C12_POP15P_CS4":"4","C12_POP15P_CS5":"12","C12_POP15P_CS6":"0","C12_POP15P_CS7":"0","C12_POP15P_CS8":"4","TxCS6":"0.0"}
,{"CODGEO":"95142","REG":"11","DEP":"95","LIBGEO":"Chars","P12_POP":"1935","C12_POP15P":"1515","C12_POP15P_CS1":"5","C12_POP15P_CS2":"42","C12_POP15P_CS3":"144","C12_POP15P_CS4":"338","C12_POP15P_CS5":"281","C12_POP15P_CS6":"175","C12_POP15P_CS7":"344","C12_POP15P_CS8":"186","TxCS6":"11.551155"}
,{"CODGEO":"95144","REG":"11","DEP":"95","LIBGEO":"Châtenay-en-France","P12_POP":"73","C12_POP15P":"70","C12_POP15P_CS1":"0","C12_POP15P_CS2":"8","C12_POP15P_CS3":"35","C12_POP15P_CS4":"4","C12_POP15P_CS5":"8","C12_POP15P_CS6":"12","C12_POP15P_CS7":"0","C12_POP15P_CS8":"4","TxCS6":"17.142859"}
,{"CODGEO":"95149","REG":"11","DEP":"95","LIBGEO":"Chaumontel","P12_POP":"3317","C12_POP15P":"2658","C12_POP15P_CS1":"0","C12_POP15P_CS2":"115","C12_POP15P_CS3":"306","C12_POP15P_CS4":"600","C12_POP15P_CS5":"396","C12_POP15P_CS6":"243","C12_POP15P_CS7":"704","C12_POP15P_CS8":"294","TxCS6":"9.142212"}
,{"CODGEO":"95150","REG":"11","DEP":"95","LIBGEO":"Chaussy","P12_POP":"615","C12_POP15P":"467","C12_POP15P_CS1":"0","C12_POP15P_CS2":"20","C12_POP15P_CS3":"82","C12_POP15P_CS4":"110","C12_POP15P_CS5":"82","C12_POP15P_CS6":"39","C12_POP15P_CS7":"71","C12_POP15P_CS8":"63","TxCS6":"8.351178"}
,{"CODGEO":"95151","REG":"11","DEP":"95","LIBGEO":"Chauvry","P12_POP":"306","C12_POP15P":"216","C12_POP15P_CS1":"0","C12_POP15P_CS2":"8","C12_POP15P_CS3":"40","C12_POP15P_CS4":"36","C12_POP15P_CS5":"36","C12_POP15P_CS6":"8","C12_POP15P_CS7":"60","C12_POP15P_CS8":"28","TxCS6":"3.7037036"}
,{"CODGEO":"95154","REG":"11","DEP":"95","LIBGEO":"Chennevières-lès-Louvres","P12_POP":"329","C12_POP15P":"230","C12_POP15P_CS1":"0","C12_POP15P_CS2":"4","C12_POP15P_CS3":"20","C12_POP15P_CS4":"37","C12_POP15P_CS5":"66","C12_POP15P_CS6":"49","C12_POP15P_CS7":"29","C12_POP15P_CS8":"25","TxCS6":"21.304348"}
,{"CODGEO":"95157","REG":"11","DEP":"95","LIBGEO":"Chérence","P12_POP":"158","C12_POP15P":"141","C12_POP15P_CS1":"4","C12_POP15P_CS2":"12","C12_POP15P_CS3":"19","C12_POP15P_CS4":"12","C12_POP15P_CS5":"4","C12_POP15P_CS6":"4","C12_POP15P_CS7":"46","C12_POP15P_CS8":"41","TxCS6":"2.8368793"}
,{"CODGEO":"95166","REG":"11","DEP":"95","LIBGEO":"Cléry-en-Vexin","P12_POP":"410","C12_POP15P":"287","C12_POP15P_CS1":"0","C12_POP15P_CS2":"10","C12_POP15P_CS3":"53","C12_POP15P_CS4":"63","C12_POP15P_CS5":"24","C12_POP15P_CS6":"49","C12_POP15P_CS7":"53","C12_POP15P_CS8":"34","TxCS6":"17.073172"}
,{"CODGEO":"95169","REG":"11","DEP":"95","LIBGEO":"Commeny","P12_POP":"390","C12_POP15P":"304","C12_POP15P_CS1":"4","C12_POP15P_CS2":"8","C12_POP15P_CS3":"36","C12_POP15P_CS4":"72","C12_POP15P_CS5":"48","C12_POP15P_CS6":"32","C12_POP15P_CS7":"68","C12_POP15P_CS8":"36","TxCS6":"10.526316"}
,{"CODGEO":"95170","REG":"11","DEP":"95","LIBGEO":"Condécourt","P12_POP":"568","C12_POP15P":"472","C12_POP15P_CS1":"8","C12_POP15P_CS2":"28","C12_POP15P_CS3":"72","C12_POP15P_CS4":"104","C12_POP15P_CS5":"64","C12_POP15P_CS6":"28","C12_POP15P_CS7":"100","C12_POP15P_CS8":"68","TxCS6":"5.9322033"}
,{"CODGEO":"95176","REG":"11","DEP":"95","LIBGEO":"Cormeilles-en-Parisis","P12_POP":"23369","C12_POP15P":"18591","C12_POP15P_CS1":"3","C12_POP15P_CS2":"614","C12_POP15P_CS3":"3170","C12_POP15P_CS4":"3965","C12_POP15P_CS5":"2928","C12_POP15P_CS6":"1490","C12_POP15P_CS7":"3813","C12_POP15P_CS8":"2606","TxCS6":"8.01463"}
,{"CODGEO":"95177","REG":"11","DEP":"95","LIBGEO":"Cormeilles-en-Vexin","P12_POP":"1186","C12_POP15P":"883","C12_POP15P_CS1":"26","C12_POP15P_CS2":"76","C12_POP15P_CS3":"120","C12_POP15P_CS4":"145","C12_POP15P_CS5":"167","C12_POP15P_CS6":"64","C12_POP15P_CS7":"196","C12_POP15P_CS8":"88","TxCS6":"7.248018"}
,{"CODGEO":"95181","REG":"11","DEP":"95","LIBGEO":"Courcelles-sur-Viosne","P12_POP":"308","C12_POP15P":"242","C12_POP15P_CS1":"0","C12_POP15P_CS2":"8","C12_POP15P_CS3":"64","C12_POP15P_CS4":"56","C12_POP15P_CS5":"40","C12_POP15P_CS6":"12","C12_POP15P_CS7":"32","C12_POP15P_CS8":"28","TxCS6":"4.958678"}
,{"CODGEO":"95183","REG":"11","DEP":"95","LIBGEO":"Courdimanche","P12_POP":"6572","C12_POP15P":"4989","C12_POP15P_CS1":"8","C12_POP15P_CS2":"115","C12_POP15P_CS3":"943","C12_POP15P_CS4":"1153","C12_POP15P_CS5":"1056","C12_POP15P_CS6":"414","C12_POP15P_CS7":"549","C12_POP15P_CS8":"752","TxCS6":"8.298256"}
,{"CODGEO":"95197","REG":"11","DEP":"95","LIBGEO":"Deuil-la-Barre","P12_POP":"21983","C12_POP15P":"17698","C12_POP15P_CS1":"3","C12_POP15P_CS2":"575","C12_POP15P_CS3":"2687","C12_POP15P_CS4":"3874","C12_POP15P_CS5":"3097","C12_POP15P_CS6":"1332","C12_POP15P_CS7":"3468","C12_POP15P_CS8":"2661","TxCS6":"7.526274"}
,{"CODGEO":"95199","REG":"11","DEP":"95","LIBGEO":"Domont","P12_POP":"15213","C12_POP15P":"12060","C12_POP15P_CS1":"14","C12_POP15P_CS2":"345","C12_POP15P_CS3":"1356","C12_POP15P_CS4":"2434","C12_POP15P_CS5":"2322","C12_POP15P_CS6":"1166","C12_POP15P_CS7":"2798","C12_POP15P_CS8":"1625","TxCS6":"9.668324"}
,{"CODGEO":"95203","REG":"11","DEP":"95","LIBGEO":"Eaubonne","P12_POP":"24714","C12_POP15P":"19870","C12_POP15P_CS1":"0","C12_POP15P_CS2":"555","C12_POP15P_CS3":"2832","C12_POP15P_CS4":"3500","C12_POP15P_CS5":"3505","C12_POP15P_CS6":"1723","C12_POP15P_CS7":"4977","C12_POP15P_CS8":"2778","TxCS6":"8.671364"}
,{"CODGEO":"95205","REG":"11","DEP":"95","LIBGEO":"Écouen","P12_POP":"7253","C12_POP15P":"5672","C12_POP15P_CS1":"0","C12_POP15P_CS2":"148","C12_POP15P_CS3":"692","C12_POP15P_CS4":"1256","C12_POP15P_CS5":"1220","C12_POP15P_CS6":"556","C12_POP15P_CS7":"1008","C12_POP15P_CS8":"792","TxCS6":"9.802539"}
,{"CODGEO":"95210","REG":"11","DEP":"95","LIBGEO":"Enghien-les-Bains","P12_POP":"11410","C12_POP15P":"9452","C12_POP15P_CS1":"1","C12_POP15P_CS2":"411","C12_POP15P_CS3":"2029","C12_POP15P_CS4":"1650","C12_POP15P_CS5":"1188","C12_POP15P_CS6":"427","C12_POP15P_CS7":"2358","C12_POP15P_CS8":"1388","TxCS6":"4.5175624"}
,{"CODGEO":"95211","REG":"11","DEP":"95","LIBGEO":"Ennery","P12_POP":"2293","C12_POP15P":"1908","C12_POP15P_CS1":"0","C12_POP15P_CS2":"76","C12_POP15P_CS3":"276","C12_POP15P_CS4":"404","C12_POP15P_CS5":"272","C12_POP15P_CS6":"140","C12_POP15P_CS7":"572","C12_POP15P_CS8":"168","TxCS6":"7.3375263"}
,{"CODGEO":"95212","REG":"11","DEP":"95","LIBGEO":"Épiais-lès-Louvres","P12_POP":"108","C12_POP15P":"88","C12_POP15P_CS1":"0","C12_POP15P_CS2":"4","C12_POP15P_CS3":"12","C12_POP15P_CS4":"16","C12_POP15P_CS5":"16","C12_POP15P_CS6":"16","C12_POP15P_CS7":"16","C12_POP15P_CS8":"8","TxCS6":"18.181818"}
,{"CODGEO":"95213","REG":"11","DEP":"95","LIBGEO":"Épiais-Rhus","P12_POP":"652","C12_POP15P":"538","C12_POP15P_CS1":"0","C12_POP15P_CS2":"12","C12_POP15P_CS3":"109","C12_POP15P_CS4":"117","C12_POP15P_CS5":"53","C12_POP15P_CS6":"36","C12_POP15P_CS7":"125","C12_POP15P_CS8":"85","TxCS6":"6.69145"}
,{"CODGEO":"95214","REG":"11","DEP":"95","LIBGEO":"Épinay-Champlâtreux","P12_POP":"69","C12_POP15P":"65","C12_POP15P_CS1":"0","C12_POP15P_CS2":"4","C12_POP15P_CS3":"0","C12_POP15P_CS4":"16","C12_POP15P_CS5":"4","C12_POP15P_CS6":"12","C12_POP15P_CS7":"28","C12_POP15P_CS8":"0","TxCS6":"18.461538"}
,{"CODGEO":"95218","REG":"11","DEP":"95","LIBGEO":"Éragny","P12_POP":"16914","C12_POP15P":"12974","C12_POP15P_CS1":"8","C12_POP15P_CS2":"357","C12_POP15P_CS3":"1690","C12_POP15P_CS4":"2611","C12_POP15P_CS5":"2559","C12_POP15P_CS6":"1389","C12_POP15P_CS7":"2430","C12_POP15P_CS8":"1929","TxCS6":"10.706028"}
,{"CODGEO":"95219","REG":"11","DEP":"95","LIBGEO":"Ermont","P12_POP":"27352","C12_POP15P":"21978","C12_POP15P_CS1":"9","C12_POP15P_CS2":"472","C12_POP15P_CS3":"3007","C12_POP15P_CS4":"3818","C12_POP15P_CS5":"4021","C12_POP15P_CS6":"2100","C12_POP15P_CS7":"4875","C12_POP15P_CS8":"3675","TxCS6":"9.55501"}
,{"CODGEO":"95229","REG":"11","DEP":"95","LIBGEO":"Ézanville","P12_POP":"9316","C12_POP15P":"7706","C12_POP15P_CS1":"0","C12_POP15P_CS2":"145","C12_POP15P_CS3":"799","C12_POP15P_CS4":"1459","C12_POP15P_CS5":"1660","C12_POP15P_CS6":"836","C12_POP15P_CS7":"1844","C12_POP15P_CS8":"962","TxCS6":"10.848689"}
,{"CODGEO":"95241","REG":"11","DEP":"95","LIBGEO":"Fontenay-en-Parisis","P12_POP":"1899","C12_POP15P":"1480","C12_POP15P_CS1":"8","C12_POP15P_CS2":"4","C12_POP15P_CS3":"201","C12_POP15P_CS4":"305","C12_POP15P_CS5":"265","C12_POP15P_CS6":"213","C12_POP15P_CS7":"305","C12_POP15P_CS8":"180","TxCS6":"14.3918915"}
,{"CODGEO":"95250","REG":"11","DEP":"95","LIBGEO":"Fosses","P12_POP":"9582","C12_POP15P":"7429","C12_POP15P_CS1":"0","C12_POP15P_CS2":"192","C12_POP15P_CS3":"488","C12_POP15P_CS4":"1511","C12_POP15P_CS5":"1495","C12_POP15P_CS6":"1047","C12_POP15P_CS7":"1559","C12_POP15P_CS8":"1139","TxCS6":"14.093418"}
,{"CODGEO":"95252","REG":"11","DEP":"95","LIBGEO":"Franconville","P12_POP":"33196","C12_POP15P":"26448","C12_POP15P_CS1":"4","C12_POP15P_CS2":"605","C12_POP15P_CS3":"2798","C12_POP15P_CS4":"5024","C12_POP15P_CS5":"5522","C12_POP15P_CS6":"2813","C12_POP15P_CS7":"5777","C12_POP15P_CS8":"3905","TxCS6":"10.635964"}
,{"CODGEO":"95253","REG":"11","DEP":"95","LIBGEO":"Frémainville","P12_POP":"486","C12_POP15P":"374","C12_POP15P_CS1":"0","C12_POP15P_CS2":"21","C12_POP15P_CS3":"92","C12_POP15P_CS4":"77","C12_POP15P_CS5":"36","C12_POP15P_CS6":"36","C12_POP15P_CS7":"82","C12_POP15P_CS8":"31","TxCS6":"9.625669"}
,{"CODGEO":"95254","REG":"11","DEP":"95","LIBGEO":"Frémécourt","P12_POP":"552","C12_POP15P":"455","C12_POP15P_CS1":"0","C12_POP15P_CS2":"12","C12_POP15P_CS3":"53","C12_POP15P_CS4":"126","C12_POP15P_CS5":"98","C12_POP15P_CS6":"61","C12_POP15P_CS7":"49","C12_POP15P_CS8":"57","TxCS6":"13.406594"}
,{"CODGEO":"95256","REG":"11","DEP":"95","LIBGEO":"Frépillon","P12_POP":"2860","C12_POP15P":"2223","C12_POP15P_CS1":"4","C12_POP15P_CS2":"82","C12_POP15P_CS3":"323","C12_POP15P_CS4":"504","C12_POP15P_CS5":"344","C12_POP15P_CS6":"184","C12_POP15P_CS7":"389","C12_POP15P_CS8":"393","TxCS6":"8.277103"}
,{"CODGEO":"95257","REG":"11","DEP":"95","LIBGEO":"La Frette-sur-Seine","P12_POP":"4572","C12_POP15P":"3741","C12_POP15P_CS1":"0","C12_POP15P_CS2":"148","C12_POP15P_CS3":"736","C12_POP15P_CS4":"700","C12_POP15P_CS5":"516","C12_POP15P_CS6":"236","C12_POP15P_CS7":"895","C12_POP15P_CS8":"511","TxCS6":"6.3084736"}
,{"CODGEO":"95258","REG":"11","DEP":"95","LIBGEO":"Frouville","P12_POP":"367","C12_POP15P":"300","C12_POP15P_CS1":"5","C12_POP15P_CS2":"30","C12_POP15P_CS3":"49","C12_POP15P_CS4":"78","C12_POP15P_CS5":"39","C12_POP15P_CS6":"20","C12_POP15P_CS7":"59","C12_POP15P_CS8":"20","TxCS6":"6.666667"}
,{"CODGEO":"95259","REG":"11","DEP":"95","LIBGEO":"Gadancourt","P12_POP":"87","C12_POP15P":"64","C12_POP15P_CS1":"0","C12_POP15P_CS2":"4","C12_POP15P_CS3":"4","C12_POP15P_CS4":"8","C12_POP15P_CS5":"12","C12_POP15P_CS6":"0","C12_POP15P_CS7":"28","C12_POP15P_CS8":"8","TxCS6":"0.0"}
,{"CODGEO":"95268","REG":"11","DEP":"95","LIBGEO":"Garges-lès-Gonesse","P12_POP":"41001","C12_POP15P":"30427","C12_POP15P_CS1":"6","C12_POP15P_CS2":"706","C12_POP15P_CS3":"651","C12_POP15P_CS4":"3169","C12_POP15P_CS5":"6905","C12_POP15P_CS6":"5229","C12_POP15P_CS7":"4427","C12_POP15P_CS8":"9334","TxCS6":"17.185394"}
,{"CODGEO":"95270","REG":"11","DEP":"95","LIBGEO":"Genainville","P12_POP":"552","C12_POP15P":"489","C12_POP15P_CS1":"4","C12_POP15P_CS2":"35","C12_POP15P_CS3":"59","C12_POP15P_CS4":"90","C12_POP15P_CS5":"86","C12_POP15P_CS6":"39","C12_POP15P_CS7":"90","C12_POP15P_CS8":"86","TxCS6":"7.97546"}
,{"CODGEO":"95271","REG":"11","DEP":"95","LIBGEO":"Génicourt","P12_POP":"485","C12_POP15P":"409","C12_POP15P_CS1":"8","C12_POP15P_CS2":"24","C12_POP15P_CS3":"91","C12_POP15P_CS4":"67","C12_POP15P_CS5":"83","C12_POP15P_CS6":"24","C12_POP15P_CS7":"75","C12_POP15P_CS8":"36","TxCS6":"5.867971"}
,{"CODGEO":"95277","REG":"11","DEP":"95","LIBGEO":"Gonesse","P12_POP":"26343","C12_POP15P":"20077","C12_POP15P_CS1":"11","C12_POP15P_CS2":"432","C12_POP15P_CS3":"919","C12_POP15P_CS4":"2788","C12_POP15P_CS5":"4697","C12_POP15P_CS6":"3430","C12_POP15P_CS7":"3612","C12_POP15P_CS8":"4186","TxCS6":"17.084227"}
,{"CODGEO":"95280","REG":"11","DEP":"95","LIBGEO":"Goussainville","P12_POP":"31255","C12_POP15P":"23326","C12_POP15P_CS1":"5","C12_POP15P_CS2":"688","C12_POP15P_CS3":"864","C12_POP15P_CS4":"2822","C12_POP15P_CS5":"4991","C12_POP15P_CS6":"4896","C12_POP15P_CS7":"3665","C12_POP15P_CS8":"5396","TxCS6":"20.989454"}
,{"CODGEO":"95282","REG":"11","DEP":"95","LIBGEO":"Gouzangrez","P12_POP":"176","C12_POP15P":"144","C12_POP15P_CS1":"0","C12_POP15P_CS2":"4","C12_POP15P_CS3":"32","C12_POP15P_CS4":"40","C12_POP15P_CS5":"28","C12_POP15P_CS6":"16","C12_POP15P_CS7":"8","C12_POP15P_CS8":"16","TxCS6":"11.111112"}
,{"CODGEO":"95287","REG":"11","DEP":"95","LIBGEO":"Grisy-les-Plâtres","P12_POP":"606","C12_POP15P":"495","C12_POP15P_CS1":"0","C12_POP15P_CS2":"24","C12_POP15P_CS3":"90","C12_POP15P_CS4":"71","C12_POP15P_CS5":"79","C12_POP15P_CS6":"35","C12_POP15P_CS7":"141","C12_POP15P_CS8":"55","TxCS6":"7.070707"}
,{"CODGEO":"95288","REG":"11","DEP":"95","LIBGEO":"Groslay","P12_POP":"8676","C12_POP15P":"6881","C12_POP15P_CS1":"4","C12_POP15P_CS2":"283","C12_POP15P_CS3":"912","C12_POP15P_CS4":"1335","C12_POP15P_CS5":"1215","C12_POP15P_CS6":"619","C12_POP15P_CS7":"1247","C12_POP15P_CS8":"1264","TxCS6":"8.995786"}
,{"CODGEO":"95295","REG":"11","DEP":"95","LIBGEO":"Guiry-en-Vexin","P12_POP":"165","C12_POP15P":"143","C12_POP15P_CS1":"8","C12_POP15P_CS2":"0","C12_POP15P_CS3":"15","C12_POP15P_CS4":"39","C12_POP15P_CS5":"27","C12_POP15P_CS6":"15","C12_POP15P_CS7":"31","C12_POP15P_CS8":"8","TxCS6":"10.489511"}
,{"CODGEO":"95298","REG":"11","DEP":"95","LIBGEO":"Haravilliers","P12_POP":"552","C12_POP15P":"393","C12_POP15P_CS1":"4","C12_POP15P_CS2":"37","C12_POP15P_CS3":"53","C12_POP15P_CS4":"90","C12_POP15P_CS5":"41","C12_POP15P_CS6":"29","C12_POP15P_CS7":"98","C12_POP15P_CS8":"41","TxCS6":"7.3791347"}
,{"CODGEO":"95301","REG":"11","DEP":"95","LIBGEO":"Haute-Isle","P12_POP":"311","C12_POP15P":"289","C12_POP15P_CS1":"0","C12_POP15P_CS2":"31","C12_POP15P_CS3":"19","C12_POP15P_CS4":"39","C12_POP15P_CS5":"19","C12_POP15P_CS6":"23","C12_POP15P_CS7":"114","C12_POP15P_CS8":"43","TxCS6":"7.958478"}
,{"CODGEO":"95303","REG":"11","DEP":"95","LIBGEO":"Le Heaulme","P12_POP":"204","C12_POP15P":"172","C12_POP15P_CS1":"0","C12_POP15P_CS2":"12","C12_POP15P_CS3":"28","C12_POP15P_CS4":"32","C12_POP15P_CS5":"24","C12_POP15P_CS6":"24","C12_POP15P_CS7":"40","C12_POP15P_CS8":"12","TxCS6":"13.953489"}
,{"CODGEO":"95304","REG":"11","DEP":"95","LIBGEO":"Hédouville","P12_POP":"242","C12_POP15P":"194","C12_POP15P_CS1":"0","C12_POP15P_CS2":"19","C12_POP15P_CS3":"43","C12_POP15P_CS4":"23","C12_POP15P_CS5":"23","C12_POP15P_CS6":"4","C12_POP15P_CS7":"46","C12_POP15P_CS8":"35","TxCS6":"2.0618556"}
,{"CODGEO":"95306","REG":"11","DEP":"95","LIBGEO":"Herblay","P12_POP":"26944","C12_POP15P":"21055","C12_POP15P_CS1":"15","C12_POP15P_CS2":"686","C12_POP15P_CS3":"3217","C12_POP15P_CS4":"4232","C12_POP15P_CS5":"3682","C12_POP15P_CS6":"1809","C12_POP15P_CS7":"4212","C12_POP15P_CS8":"3201","TxCS6":"8.591784"}
,{"CODGEO":"95308","REG":"11","DEP":"95","LIBGEO":"Hérouville","P12_POP":"609","C12_POP15P":"483","C12_POP15P_CS1":"25","C12_POP15P_CS2":"20","C12_POP15P_CS3":"70","C12_POP15P_CS4":"80","C12_POP15P_CS5":"75","C12_POP15P_CS6":"60","C12_POP15P_CS7":"100","C12_POP15P_CS8":"55","TxCS6":"12.42236"}
,{"CODGEO":"95309","REG":"11","DEP":"95","LIBGEO":"Hodent","P12_POP":"238","C12_POP15P":"198","C12_POP15P_CS1":"4","C12_POP15P_CS2":"0","C12_POP15P_CS3":"28","C12_POP15P_CS4":"47","C12_POP15P_CS5":"24","C12_POP15P_CS6":"8","C12_POP15P_CS7":"55","C12_POP15P_CS8":"32","TxCS6":"4.040404"}
,{"CODGEO":"95313","REG":"11","DEP":"95","LIBGEO":"L'Isle-Adam","P12_POP":"11918","C12_POP15P":"9922","C12_POP15P_CS1":"7","C12_POP15P_CS2":"423","C12_POP15P_CS3":"1270","C12_POP15P_CS4":"1558","C12_POP15P_CS5":"1453","C12_POP15P_CS6":"867","C12_POP15P_CS7":"2953","C12_POP15P_CS8":"1393","TxCS6":"8.738158"}
,{"CODGEO":"95316","REG":"11","DEP":"95","LIBGEO":"Jagny-sous-Bois","P12_POP":"250","C12_POP15P":"192","C12_POP15P_CS1":"4","C12_POP15P_CS2":"12","C12_POP15P_CS3":"32","C12_POP15P_CS4":"44","C12_POP15P_CS5":"40","C12_POP15P_CS6":"4","C12_POP15P_CS7":"24","C12_POP15P_CS8":"32","TxCS6":"2.0833335"}
,{"CODGEO":"95323","REG":"11","DEP":"95","LIBGEO":"Jouy-le-Moutier","P12_POP":"16371","C12_POP15P":"12531","C12_POP15P_CS1":"8","C12_POP15P_CS2":"256","C12_POP15P_CS3":"1639","C12_POP15P_CS4":"2618","C12_POP15P_CS5":"2724","C12_POP15P_CS6":"1359","C12_POP15P_CS7":"1774","C12_POP15P_CS8":"2154","TxCS6":"10.845104"}
,{"CODGEO":"95328","REG":"11","DEP":"95","LIBGEO":"Labbeville","P12_POP":"580","C12_POP15P":"467","C12_POP15P_CS1":"0","C12_POP15P_CS2":"24","C12_POP15P_CS3":"69","C12_POP15P_CS4":"121","C12_POP15P_CS5":"96","C12_POP15P_CS6":"39","C12_POP15P_CS7":"76","C12_POP15P_CS8":"42","TxCS6":"8.351178"}
,{"CODGEO":"95331","REG":"11","DEP":"95","LIBGEO":"Lassy","P12_POP":"181","C12_POP15P":"125","C12_POP15P_CS1":"0","C12_POP15P_CS2":"5","C12_POP15P_CS3":"16","C12_POP15P_CS4":"31","C12_POP15P_CS5":"16","C12_POP15P_CS6":"10","C12_POP15P_CS7":"26","C12_POP15P_CS8":"21","TxCS6":"8.0"}
,{"CODGEO":"95341","REG":"11","DEP":"95","LIBGEO":"Livilliers","P12_POP":"384","C12_POP15P":"322","C12_POP15P_CS1":"4","C12_POP15P_CS2":"4","C12_POP15P_CS3":"60","C12_POP15P_CS4":"68","C12_POP15P_CS5":"20","C12_POP15P_CS6":"36","C12_POP15P_CS7":"72","C12_POP15P_CS8":"60","TxCS6":"11.180124"}
,{"CODGEO":"95348","REG":"11","DEP":"95","LIBGEO":"Longuesse","P12_POP":"529","C12_POP15P":"426","C12_POP15P_CS1":"8","C12_POP15P_CS2":"24","C12_POP15P_CS3":"80","C12_POP15P_CS4":"80","C12_POP15P_CS5":"56","C12_POP15P_CS6":"28","C12_POP15P_CS7":"72","C12_POP15P_CS8":"80","TxCS6":"6.5727696"}
,{"CODGEO":"95351","REG":"11","DEP":"95","LIBGEO":"Louvres","P12_POP":"9767","C12_POP15P":"7536","C12_POP15P_CS1":"20","C12_POP15P_CS2":"84","C12_POP15P_CS3":"500","C12_POP15P_CS4":"1568","C12_POP15P_CS5":"1720","C12_POP15P_CS6":"1036","C12_POP15P_CS7":"1428","C12_POP15P_CS8":"1180","TxCS6":"13.747347"}
,{"CODGEO":"95352","REG":"11","DEP":"95","LIBGEO":"Luzarches","P12_POP":"4401","C12_POP15P":"3600","C12_POP15P_CS1":"12","C12_POP15P_CS2":"99","C12_POP15P_CS3":"417","C12_POP15P_CS4":"813","C12_POP15P_CS5":"481","C12_POP15P_CS6":"341","C12_POP15P_CS7":"892","C12_POP15P_CS8":"546","TxCS6":"9.472222"}
,{"CODGEO":"95353","REG":"11","DEP":"95","LIBGEO":"Maffliers","P12_POP":"1702","C12_POP15P":"1285","C12_POP15P_CS1":"5","C12_POP15P_CS2":"35","C12_POP15P_CS3":"207","C12_POP15P_CS4":"354","C12_POP15P_CS5":"178","C12_POP15P_CS6":"158","C12_POP15P_CS7":"210","C12_POP15P_CS8":"138","TxCS6":"12.29572"}
,{"CODGEO":"95355","REG":"11","DEP":"95","LIBGEO":"Magny-en-Vexin","P12_POP":"5763","C12_POP15P":"4630","C12_POP15P_CS1":"0","C12_POP15P_CS2":"82","C12_POP15P_CS3":"289","C12_POP15P_CS4":"834","C12_POP15P_CS5":"1017","C12_POP15P_CS6":"714","C12_POP15P_CS7":"1091","C12_POP15P_CS8":"603","TxCS6":"15.421167"}
,{"CODGEO":"95365","REG":"11","DEP":"95","LIBGEO":"Mareil-en-France","P12_POP":"698","C12_POP15P":"557","C12_POP15P_CS1":"0","C12_POP15P_CS2":"15","C12_POP15P_CS3":"45","C12_POP15P_CS4":"100","C12_POP15P_CS5":"111","C12_POP15P_CS6":"90","C12_POP15P_CS7":"116","C12_POP15P_CS8":"81","TxCS6":"16.15799"}
,{"CODGEO":"95369","REG":"11","DEP":"95","LIBGEO":"Margency","P12_POP":"2893","C12_POP15P":"2347","C12_POP15P_CS1":"0","C12_POP15P_CS2":"87","C12_POP15P_CS3":"470","C12_POP15P_CS4":"533","C12_POP15P_CS5":"241","C12_POP15P_CS6":"166","C12_POP15P_CS7":"508","C12_POP15P_CS8":"341","TxCS6":"7.0728593"}
,{"CODGEO":"95370","REG":"11","DEP":"95","LIBGEO":"Marines","P12_POP":"3373","C12_POP15P":"2615","C12_POP15P_CS1":"4","C12_POP15P_CS2":"78","C12_POP15P_CS3":"333","C12_POP15P_CS4":"564","C12_POP15P_CS5":"470","C12_POP15P_CS6":"345","C12_POP15P_CS7":"545","C12_POP15P_CS8":"275","TxCS6":"13.193117"}
,{"CODGEO":"95371","REG":"11","DEP":"95","LIBGEO":"Marly-la-Ville","P12_POP":"5531","C12_POP15P":"4397","C12_POP15P_CS1":"16","C12_POP15P_CS2":"99","C12_POP15P_CS3":"489","C12_POP15P_CS4":"942","C12_POP15P_CS5":"847","C12_POP15P_CS6":"414","C12_POP15P_CS7":"1029","C12_POP15P_CS8":"561","TxCS6":"9.41551"}
,{"CODGEO":"95379","REG":"11","DEP":"95","LIBGEO":"Maudétour-en-Vexin","P12_POP":"193","C12_POP15P":"144","C12_POP15P_CS1":"0","C12_POP15P_CS2":"0","C12_POP15P_CS3":"27","C12_POP15P_CS4":"35","C12_POP15P_CS5":"8","C12_POP15P_CS6":"8","C12_POP15P_CS7":"47","C12_POP15P_CS8":"19","TxCS6":"5.555556"}
,{"CODGEO":"95387","REG":"11","DEP":"95","LIBGEO":"Menouville","P12_POP":"104","C12_POP15P":"74","C12_POP15P_CS1":"0","C12_POP15P_CS2":"5","C12_POP15P_CS3":"14","C12_POP15P_CS4":"5","C12_POP15P_CS5":"14","C12_POP15P_CS6":"9","C12_POP15P_CS7":"14","C12_POP15P_CS8":"14","TxCS6":"12.162163"}
,{"CODGEO":"95388","REG":"11","DEP":"95","LIBGEO":"Menucourt","P12_POP":"5332","C12_POP15P":"4063","C12_POP15P_CS1":"0","C12_POP15P_CS2":"87","C12_POP15P_CS3":"549","C12_POP15P_CS4":"867","C12_POP15P_CS5":"775","C12_POP15P_CS6":"398","C12_POP15P_CS7":"845","C12_POP15P_CS8":"541","TxCS6":"9.795717"}
,{"CODGEO":"95392","REG":"11","DEP":"95","LIBGEO":"Mériel","P12_POP":"4765","C12_POP15P":"3768","C12_POP15P_CS1":"17","C12_POP15P_CS2":"142","C12_POP15P_CS3":"468","C12_POP15P_CS4":"888","C12_POP15P_CS5":"605","C12_POP15P_CS6":"305","C12_POP15P_CS7":"908","C12_POP15P_CS8":"434","TxCS6":"8.09448"}
,{"CODGEO":"95394","REG":"11","DEP":"95","LIBGEO":"Méry-sur-Oise","P12_POP":"9320","C12_POP15P":"7364","C12_POP15P_CS1":"12","C12_POP15P_CS2":"268","C12_POP15P_CS3":"916","C12_POP15P_CS4":"1580","C12_POP15P_CS5":"1204","C12_POP15P_CS6":"828","C12_POP15P_CS7":"1212","C12_POP15P_CS8":"1344","TxCS6":"11.24389"}
,{"CODGEO":"95395","REG":"11","DEP":"95","LIBGEO":"Le Mesnil-Aubry","P12_POP":"908","C12_POP15P":"773","C12_POP15P_CS1":"5","C12_POP15P_CS2":"20","C12_POP15P_CS3":"83","C12_POP15P_CS4":"200","C12_POP15P_CS5":"127","C12_POP15P_CS6":"83","C12_POP15P_CS7":"127","C12_POP15P_CS8":"127","TxCS6":"10.737387"}
,{"CODGEO":"95409","REG":"11","DEP":"95","LIBGEO":"Moisselles","P12_POP":"1258","C12_POP15P":"992","C12_POP15P_CS1":"0","C12_POP15P_CS2":"44","C12_POP15P_CS3":"137","C12_POP15P_CS4":"299","C12_POP15P_CS5":"141","C12_POP15P_CS6":"80","C12_POP15P_CS7":"121","C12_POP15P_CS8":"169","TxCS6":"8.064516"}
,{"CODGEO":"95422","REG":"11","DEP":"95","LIBGEO":"Montgeroult","P12_POP":"405","C12_POP15P":"332","C12_POP15P_CS1":"0","C12_POP15P_CS2":"4","C12_POP15P_CS3":"66","C12_POP15P_CS4":"49","C12_POP15P_CS5":"53","C12_POP15P_CS6":"12","C12_POP15P_CS7":"103","C12_POP15P_CS8":"45","TxCS6":"3.6144576"}
,{"CODGEO":"95424","REG":"11","DEP":"95","LIBGEO":"Montigny-lès-Cormeilles","P12_POP":"20018","C12_POP15P":"15028","C12_POP15P_CS1":"0","C12_POP15P_CS2":"516","C12_POP15P_CS3":"1158","C12_POP15P_CS4":"2579","C12_POP15P_CS5":"3365","C12_POP15P_CS6":"2200","C12_POP15P_CS7":"2385","C12_POP15P_CS8":"2825","TxCS6":"14.63934"}
,{"CODGEO":"95426","REG":"11","DEP":"95","LIBGEO":"Montlignon","P12_POP":"2653","C12_POP15P":"2112","C12_POP15P_CS1":"0","C12_POP15P_CS2":"90","C12_POP15P_CS3":"424","C12_POP15P_CS4":"409","C12_POP15P_CS5":"196","C12_POP15P_CS6":"130","C12_POP15P_CS7":"512","C12_POP15P_CS8":"350","TxCS6":"6.155303"}
,{"CODGEO":"95427","REG":"11","DEP":"95","LIBGEO":"Montmagny","P12_POP":"13814","C12_POP15P":"10654","C12_POP15P_CS1":"4","C12_POP15P_CS2":"321","C12_POP15P_CS3":"919","C12_POP15P_CS4":"1686","C12_POP15P_CS5":"2232","C12_POP15P_CS6":"1406","C12_POP15P_CS7":"1684","C12_POP15P_CS8":"2403","TxCS6":"13.196921"}
,{"CODGEO":"95428","REG":"11","DEP":"95","LIBGEO":"Montmorency","P12_POP":"20842","C12_POP15P":"16998","C12_POP15P_CS1":"6","C12_POP15P_CS2":"597","C12_POP15P_CS3":"2971","C12_POP15P_CS4":"2776","C12_POP15P_CS5":"2500","C12_POP15P_CS6":"1090","C12_POP15P_CS7":"4491","C12_POP15P_CS8":"2568","TxCS6":"6.412519"}
,{"CODGEO":"95429","REG":"11","DEP":"95","LIBGEO":"Montreuil-sur-Epte","P12_POP":"437","C12_POP15P":"332","C12_POP15P_CS1":"0","C12_POP15P_CS2":"20","C12_POP15P_CS3":"20","C12_POP15P_CS4":"87","C12_POP15P_CS5":"32","C12_POP15P_CS6":"36","C12_POP15P_CS7":"71","C12_POP15P_CS8":"67","TxCS6":"10.843374"}
,{"CODGEO":"95430","REG":"11","DEP":"95","LIBGEO":"Montsoult","P12_POP":"3396","C12_POP15P":"2794","C12_POP15P_CS1":"0","C12_POP15P_CS2":"30","C12_POP15P_CS3":"424","C12_POP15P_CS4":"552","C12_POP15P_CS5":"478","C12_POP15P_CS6":"166","C12_POP15P_CS7":"768","C12_POP15P_CS8":"375","TxCS6":"5.941303"}
,{"CODGEO":"95436","REG":"11","DEP":"95","LIBGEO":"Mours","P12_POP":"1328","C12_POP15P":"1096","C12_POP15P_CS1":"4","C12_POP15P_CS2":"24","C12_POP15P_CS3":"144","C12_POP15P_CS4":"224","C12_POP15P_CS5":"196","C12_POP15P_CS6":"88","C12_POP15P_CS7":"320","C12_POP15P_CS8":"96","TxCS6":"8.029197"}
,{"CODGEO":"95438","REG":"11","DEP":"95","LIBGEO":"Moussy","P12_POP":"145","C12_POP15P":"108","C12_POP15P_CS1":"0","C12_POP15P_CS2":"0","C12_POP15P_CS3":"12","C12_POP15P_CS4":"23","C12_POP15P_CS5":"27","C12_POP15P_CS6":"19","C12_POP15P_CS7":"8","C12_POP15P_CS8":"19","TxCS6":"17.592592"}
,{"CODGEO":"95445","REG":"11","DEP":"95","LIBGEO":"Nerville-la-Forêt","P12_POP":"680","C12_POP15P":"580","C12_POP15P_CS1":"0","C12_POP15P_CS2":"50","C12_POP15P_CS3":"74","C12_POP15P_CS4":"134","C12_POP15P_CS5":"55","C12_POP15P_CS6":"15","C12_POP15P_CS7":"163","C12_POP15P_CS8":"89","TxCS6":"2.586207"}
,{"CODGEO":"95446","REG":"11","DEP":"95","LIBGEO":"Nesles-la-Vallée","P12_POP":"1796","C12_POP15P":"1444","C12_POP15P_CS1":"8","C12_POP15P_CS2":"88","C12_POP15P_CS3":"208","C12_POP15P_CS4":"356","C12_POP15P_CS5":"208","C12_POP15P_CS6":"136","C12_POP15P_CS7":"244","C12_POP15P_CS8":"196","TxCS6":"9.4182825"}
,{"CODGEO":"95447","REG":"11","DEP":"95","LIBGEO":"Neuilly-en-Vexin","P12_POP":"194","C12_POP15P":"163","C12_POP15P_CS1":"0","C12_POP15P_CS2":"8","C12_POP15P_CS3":"25","C12_POP15P_CS4":"33","C12_POP15P_CS5":"16","C12_POP15P_CS6":"12","C12_POP15P_CS7":"53","C12_POP15P_CS8":"16","TxCS6":"7.3619633"}
,{"CODGEO":"95450","REG":"11","DEP":"95","LIBGEO":"Neuville-sur-Oise","P12_POP":"2004","C12_POP15P":"1731","C12_POP15P_CS1":"20","C12_POP15P_CS2":"45","C12_POP15P_CS3":"419","C12_POP15P_CS4":"379","C12_POP15P_CS5":"193","C12_POP15P_CS6":"80","C12_POP15P_CS7":"344","C12_POP15P_CS8":"253","TxCS6":"4.621606"}
,{"CODGEO":"95452","REG":"11","DEP":"95","LIBGEO":"Nointel","P12_POP":"833","C12_POP15P":"675","C12_POP15P_CS1":"0","C12_POP15P_CS2":"39","C12_POP15P_CS3":"97","C12_POP15P_CS4":"158","C12_POP15P_CS5":"81","C12_POP15P_CS6":"25","C12_POP15P_CS7":"205","C12_POP15P_CS8":"70","TxCS6":"3.7037036"}
,{"CODGEO":"95456","REG":"11","DEP":"95","LIBGEO":"Noisy-sur-Oise","P12_POP":"688","C12_POP15P":"568","C12_POP15P_CS1":"0","C12_POP15P_CS2":"20","C12_POP15P_CS3":"64","C12_POP15P_CS4":"100","C12_POP15P_CS5":"112","C12_POP15P_CS6":"88","C12_POP15P_CS7":"76","C12_POP15P_CS8":"108","TxCS6":"15.492958"}
,{"CODGEO":"95459","REG":"11","DEP":"95","LIBGEO":"Nucourt","P12_POP":"733","C12_POP15P":"581","C12_POP15P_CS1":"4","C12_POP15P_CS2":"20","C12_POP15P_CS3":"73","C12_POP15P_CS4":"114","C12_POP15P_CS5":"77","C12_POP15P_CS6":"73","C12_POP15P_CS7":"122","C12_POP15P_CS8":"97","TxCS6":"12.564545"}
,{"CODGEO":"95462","REG":"11","DEP":"95","LIBGEO":"Omerville","P12_POP":"311","C12_POP15P":"240","C12_POP15P_CS1":"0","C12_POP15P_CS2":"4","C12_POP15P_CS3":"20","C12_POP15P_CS4":"56","C12_POP15P_CS5":"44","C12_POP15P_CS6":"24","C12_POP15P_CS7":"60","C12_POP15P_CS8":"32","TxCS6":"10.0"}
,{"CODGEO":"95476","REG":"11","DEP":"95","LIBGEO":"Osny","P12_POP":"16366","C12_POP15P":"13043","C12_POP15P_CS1":"5","C12_POP15P_CS2":"328","C12_POP15P_CS3":"1664","C12_POP15P_CS4":"2202","C12_POP15P_CS5":"2216","C12_POP15P_CS6":"1283","C12_POP15P_CS7":"2600","C12_POP15P_CS8":"2744","TxCS6":"9.836694"}
,{"CODGEO":"95480","REG":"11","DEP":"95","LIBGEO":"Parmain","P12_POP":"5547","C12_POP15P":"4387","C12_POP15P_CS1":"8","C12_POP15P_CS2":"181","C12_POP15P_CS3":"667","C12_POP15P_CS4":"912","C12_POP15P_CS5":"678","C12_POP15P_CS6":"329","C12_POP15P_CS7":"793","C12_POP15P_CS8":"820","TxCS6":"7.49943"}
,{"CODGEO":"95483","REG":"11","DEP":"95","LIBGEO":"Le Perchay","P12_POP":"565","C12_POP15P":"444","C12_POP15P_CS1":"8","C12_POP15P_CS2":"24","C12_POP15P_CS3":"48","C12_POP15P_CS4":"124","C12_POP15P_CS5":"52","C12_POP15P_CS6":"36","C12_POP15P_CS7":"72","C12_POP15P_CS8":"80","TxCS6":"8.108108"}
,{"CODGEO":"95487","REG":"11","DEP":"95","LIBGEO":"Persan","P12_POP":"11233","C12_POP15P":"8762","C12_POP15P_CS1":"11","C12_POP15P_CS2":"184","C12_POP15P_CS3":"334","C12_POP15P_CS4":"1248","C12_POP15P_CS5":"1959","C12_POP15P_CS6":"1789","C12_POP15P_CS7":"1499","C12_POP15P_CS8":"1737","TxCS6":"20.417713"}
,{"CODGEO":"95488","REG":"11","DEP":"95","LIBGEO":"Pierrelaye","P12_POP":"8218","C12_POP15P":"6586","C12_POP15P_CS1":"0","C12_POP15P_CS2":"294","C12_POP15P_CS3":"563","C12_POP15P_CS4":"1081","C12_POP15P_CS5":"1131","C12_POP15P_CS6":"838","C12_POP15P_CS7":"1302","C12_POP15P_CS8":"1377","TxCS6":"12.72396"}
,{"CODGEO":"95489","REG":"11","DEP":"95","LIBGEO":"Piscop","P12_POP":"736","C12_POP15P":"592","C12_POP15P_CS1":"4","C12_POP15P_CS2":"40","C12_POP15P_CS3":"68","C12_POP15P_CS4":"128","C12_POP15P_CS5":"108","C12_POP15P_CS6":"64","C12_POP15P_CS7":"76","C12_POP15P_CS8":"104","TxCS6":"10.810811"}
,{"CODGEO":"95491","REG":"11","DEP":"95","LIBGEO":"Le Plessis-Bouchard","P12_POP":"7840","C12_POP15P":"6304","C12_POP15P_CS1":"12","C12_POP15P_CS2":"198","C12_POP15P_CS3":"978","C12_POP15P_CS4":"1365","C12_POP15P_CS5":"1026","C12_POP15P_CS6":"477","C12_POP15P_CS7":"1463","C12_POP15P_CS8":"784","TxCS6":"7.566624"}
,{"CODGEO":"95492","REG":"11","DEP":"95","LIBGEO":"Le Plessis-Gassot","P12_POP":"71","C12_POP15P":"58","C12_POP15P_CS1":"4","C12_POP15P_CS2":"4","C12_POP15P_CS3":"4","C12_POP15P_CS4":"4","C12_POP15P_CS5":"16","C12_POP15P_CS6":"12","C12_POP15P_CS7":"12","C12_POP15P_CS8":"0","TxCS6":"20.689655"}
,{"CODGEO":"95493","REG":"11","DEP":"95","LIBGEO":"Le Plessis-Luzarches","P12_POP":"140","C12_POP15P":"117","C12_POP15P_CS1":"0","C12_POP15P_CS2":"4","C12_POP15P_CS3":"19","C12_POP15P_CS4":"27","C12_POP15P_CS5":"12","C12_POP15P_CS6":"23","C12_POP15P_CS7":"16","C12_POP15P_CS8":"16","TxCS6":"19.65812"}
,{"CODGEO":"95500","REG":"11","DEP":"95","LIBGEO":"Pontoise","P12_POP":"30164","C12_POP15P":"24111","C12_POP15P_CS1":"3","C12_POP15P_CS2":"444","C12_POP15P_CS3":"2786","C12_POP15P_CS4":"4074","C12_POP15P_CS5":"4896","C12_POP15P_CS6":"2797","C12_POP15P_CS7":"4337","C12_POP15P_CS8":"4774","TxCS6":"11.600514"}
,{"CODGEO":"95504","REG":"11","DEP":"95","LIBGEO":"Presles","P12_POP":"3701","C12_POP15P":"3108","C12_POP15P_CS1":"0","C12_POP15P_CS2":"104","C12_POP15P_CS3":"480","C12_POP15P_CS4":"580","C12_POP15P_CS5":"488","C12_POP15P_CS6":"256","C12_POP15P_CS7":"820","C12_POP15P_CS8":"380","TxCS6":"8.236809"}
,{"CODGEO":"95509","REG":"11","DEP":"95","LIBGEO":"Puiseux-en-France","P12_POP":"3262","C12_POP15P":"2650","C12_POP15P_CS1":"4","C12_POP15P_CS2":"85","C12_POP15P_CS3":"275","C12_POP15P_CS4":"552","C12_POP15P_CS5":"502","C12_POP15P_CS6":"305","C12_POP15P_CS7":"555","C12_POP15P_CS8":"371","TxCS6":"11.509434"}
,{"CODGEO":"95510","REG":"11","DEP":"95","LIBGEO":"Puiseux-Pontoise","P12_POP":"410","C12_POP15P":"304","C12_POP15P_CS1":"0","C12_POP15P_CS2":"4","C12_POP15P_CS3":"28","C12_POP15P_CS4":"88","C12_POP15P_CS5":"76","C12_POP15P_CS6":"20","C12_POP15P_CS7":"32","C12_POP15P_CS8":"56","TxCS6":"6.5789475"}
,{"CODGEO":"95523","REG":"11","DEP":"95","LIBGEO":"La Roche-Guyon","P12_POP":"461","C12_POP15P":"360","C12_POP15P_CS1":"0","C12_POP15P_CS2":"32","C12_POP15P_CS3":"44","C12_POP15P_CS4":"76","C12_POP15P_CS5":"52","C12_POP15P_CS6":"44","C12_POP15P_CS7":"56","C12_POP15P_CS8":"56","TxCS6":"12.222222"}
,{"CODGEO":"95527","REG":"11","DEP":"95","LIBGEO":"Roissy-en-France","P12_POP":"2816","C12_POP15P":"2292","C12_POP15P_CS1":"0","C12_POP15P_CS2":"35","C12_POP15P_CS3":"167","C12_POP15P_CS4":"549","C12_POP15P_CS5":"787","C12_POP15P_CS6":"295","C12_POP15P_CS7":"215","C12_POP15P_CS8":"243","TxCS6":"12.870855"}
,{"CODGEO":"95529","REG":"11","DEP":"95","LIBGEO":"Ronquerolles","P12_POP":"860","C12_POP15P":"676","C12_POP15P_CS1":"0","C12_POP15P_CS2":"24","C12_POP15P_CS3":"108","C12_POP15P_CS4":"152","C12_POP15P_CS5":"80","C12_POP15P_CS6":"32","C12_POP15P_CS7":"184","C12_POP15P_CS8":"96","TxCS6":"4.733728"}
,{"CODGEO":"95535","REG":"11","DEP":"95","LIBGEO":"Sagy","P12_POP":"1162","C12_POP15P":"946","C12_POP15P_CS1":"8","C12_POP15P_CS2":"48","C12_POP15P_CS3":"117","C12_POP15P_CS4":"205","C12_POP15P_CS5":"153","C12_POP15P_CS6":"68","C12_POP15P_CS7":"237","C12_POP15P_CS8":"109","TxCS6":"7.188161"}
,{"CODGEO":"95539","REG":"11","DEP":"95","LIBGEO":"Saint-Brice-sous-Forêt","P12_POP":"14333","C12_POP15P":"10916","C12_POP15P_CS1":"4","C12_POP15P_CS2":"464","C12_POP15P_CS3":"1349","C12_POP15P_CS4":"2222","C12_POP15P_CS5":"2184","C12_POP15P_CS6":"1001","C12_POP15P_CS7":"1860","C12_POP15P_CS8":"1831","TxCS6":"9.170026"}
,{"CODGEO":"95541","REG":"11","DEP":"95","LIBGEO":"Saint-Clair-sur-Epte","P12_POP":"973","C12_POP15P":"763","C12_POP15P_CS1":"0","C12_POP15P_CS2":"37","C12_POP15P_CS3":"28","C12_POP15P_CS4":"102","C12_POP15P_CS5":"114","C12_POP15P_CS6":"163","C12_POP15P_CS7":"202","C12_POP15P_CS8":"118","TxCS6":"21.36304"}
,{"CODGEO":"95543","REG":"11","DEP":"95","LIBGEO":"Saint-Cyr-en-Arthies","P12_POP":"235","C12_POP15P":"181","C12_POP15P_CS1":"0","C12_POP15P_CS2":"4","C12_POP15P_CS3":"28","C12_POP15P_CS4":"24","C12_POP15P_CS5":"51","C12_POP15P_CS6":"16","C12_POP15P_CS7":"39","C12_POP15P_CS8":"20","TxCS6":"8.839779"}
,{"CODGEO":"95554","REG":"11","DEP":"95","LIBGEO":"Saint-Gervais","P12_POP":"959","C12_POP15P":"760","C12_POP15P_CS1":"5","C12_POP15P_CS2":"34","C12_POP15P_CS3":"109","C12_POP15P_CS4":"119","C12_POP15P_CS5":"116","C12_POP15P_CS6":"78","C12_POP15P_CS7":"249","C12_POP15P_CS8":"50","TxCS6":"10.263158"}
,{"CODGEO":"95555","REG":"11","DEP":"95","LIBGEO":"Saint-Gratien","P12_POP":"20937","C12_POP15P":"16995","C12_POP15P_CS1":"0","C12_POP15P_CS2":"440","C12_POP15P_CS3":"2031","C12_POP15P_CS4":"2919","C12_POP15P_CS5":"3124","C12_POP15P_CS6":"1652","C12_POP15P_CS7":"3999","C12_POP15P_CS8":"2831","TxCS6":"9.720506"}
,{"CODGEO":"95563","REG":"11","DEP":"95","LIBGEO":"Saint-Leu-la-Forêt","P12_POP":"14748","C12_POP15P":"12067","C12_POP15P_CS1":"0","C12_POP15P_CS2":"371","C12_POP15P_CS3":"1868","C12_POP15P_CS4":"2342","C12_POP15P_CS5":"1861","C12_POP15P_CS6":"873","C12_POP15P_CS7":"2976","C12_POP15P_CS8":"1776","TxCS6":"7.2346067"}
,{"CODGEO":"95566","REG":"11","DEP":"95","LIBGEO":"Saint-Martin-du-Tertre","P12_POP":"2668","C12_POP15P":"2105","C12_POP15P_CS1":"0","C12_POP15P_CS2":"70","C12_POP15P_CS3":"178","C12_POP15P_CS4":"442","C12_POP15P_CS5":"413","C12_POP15P_CS6":"256","C12_POP15P_CS7":"465","C12_POP15P_CS8":"280","TxCS6":"12.16152"}
,{"CODGEO":"95572","REG":"11","DEP":"95","LIBGEO":"Saint-Ouen-l'Aumône","P12_POP":"23470","C12_POP15P":"18084","C12_POP15P_CS1":"16","C12_POP15P_CS2":"450","C12_POP15P_CS3":"1832","C12_POP15P_CS4":"3219","C12_POP15P_CS5":"3845","C12_POP15P_CS6":"2749","C12_POP15P_CS7":"3142","C12_POP15P_CS8":"2830","TxCS6":"15.2012825"}
,{"CODGEO":"95574","REG":"11","DEP":"95","LIBGEO":"Saint-Prix","P12_POP":"7214","C12_POP15P":"5907","C12_POP15P_CS1":"0","C12_POP15P_CS2":"217","C12_POP15P_CS3":"1040","C12_POP15P_CS4":"1052","C12_POP15P_CS5":"693","C12_POP15P_CS6":"403","C12_POP15P_CS7":"1449","C12_POP15P_CS8":"1054","TxCS6":"6.822414"}
,{"CODGEO":"95580","REG":"11","DEP":"95","LIBGEO":"Saint-Witz","P12_POP":"2552","C12_POP15P":"1998","C12_POP15P_CS1":"0","C12_POP15P_CS2":"131","C12_POP15P_CS3":"439","C12_POP15P_CS4":"350","C12_POP15P_CS5":"260","C12_POP15P_CS6":"82","C12_POP15P_CS7":"412","C12_POP15P_CS8":"325","TxCS6":"4.104104"}
,{"CODGEO":"95582","REG":"11","DEP":"95","LIBGEO":"Sannois","P12_POP":"26559","C12_POP15P":"20934","C12_POP15P_CS1":"4","C12_POP15P_CS2":"625","C12_POP15P_CS3":"2737","C12_POP15P_CS4":"3802","C12_POP15P_CS5":"4055","C12_POP15P_CS6":"2302","C12_POP15P_CS7":"4111","C12_POP15P_CS8":"3300","TxCS6":"10.996466"}
,{"CODGEO":"95584","REG":"11","DEP":"95","LIBGEO":"Santeuil","P12_POP":"644","C12_POP15P":"528","C12_POP15P_CS1":"0","C12_POP15P_CS2":"20","C12_POP15P_CS3":"76","C12_POP15P_CS4":"132","C12_POP15P_CS5":"68","C12_POP15P_CS6":"60","C12_POP15P_CS7":"132","C12_POP15P_CS8":"40","TxCS6":"11.363637"}
,{"CODGEO":"95585","REG":"11","DEP":"95","LIBGEO":"Sarcelles","P12_POP":"57499","C12_POP15P":"42737","C12_POP15P_CS1":"13","C12_POP15P_CS2":"1187","C12_POP15P_CS3":"1646","C12_POP15P_CS4":"5083","C12_POP15P_CS5":"10227","C12_POP15P_CS6":"6525","C12_POP15P_CS7":"6979","C12_POP15P_CS8":"11076","TxCS6":"15.267801"}
,{"CODGEO":"95592","REG":"11","DEP":"95","LIBGEO":"Seraincourt","P12_POP":"1312","C12_POP15P":"1065","C12_POP15P_CS1":"5","C12_POP15P_CS2":"40","C12_POP15P_CS3":"182","C12_POP15P_CS4":"233","C12_POP15P_CS5":"156","C12_POP15P_CS6":"101","C12_POP15P_CS7":"242","C12_POP15P_CS8":"105","TxCS6":"9.483568"}
,{"CODGEO":"95594","REG":"11","DEP":"95","LIBGEO":"Seugy","P12_POP":"1021","C12_POP15P":"852","C12_POP15P_CS1":"0","C12_POP15P_CS2":"32","C12_POP15P_CS3":"134","C12_POP15P_CS4":"193","C12_POP15P_CS5":"134","C12_POP15P_CS6":"67","C12_POP15P_CS7":"182","C12_POP15P_CS8":"110","TxCS6":"7.8638496"}
,{"CODGEO":"95598","REG":"11","DEP":"95","LIBGEO":"Soisy-sous-Montmorency","P12_POP":"17534","C12_POP15P":"14198","C12_POP15P_CS1":"3","C12_POP15P_CS2":"425","C12_POP15P_CS3":"2056","C12_POP15P_CS4":"2540","C12_POP15P_CS5":"2413","C12_POP15P_CS6":"1102","C12_POP15P_CS7":"3512","C12_POP15P_CS8":"2145","TxCS6":"7.7616563"}
,{"CODGEO":"95604","REG":"11","DEP":"95","LIBGEO":"Survilliers","P12_POP":"4053","C12_POP15P":"3116","C12_POP15P_CS1":"0","C12_POP15P_CS2":"52","C12_POP15P_CS3":"248","C12_POP15P_CS4":"700","C12_POP15P_CS5":"720","C12_POP15P_CS6":"428","C12_POP15P_CS7":"576","C12_POP15P_CS8":"392","TxCS6":"13.7355585"}
,{"CODGEO":"95607","REG":"11","DEP":"95","LIBGEO":"Taverny","P12_POP":"26094","C12_POP15P":"20696","C12_POP15P_CS1":"15","C12_POP15P_CS2":"499","C12_POP15P_CS3":"2597","C12_POP15P_CS4":"4133","C12_POP15P_CS5":"3910","C12_POP15P_CS6":"1989","C12_POP15P_CS7":"4597","C12_POP15P_CS8":"2956","TxCS6":"9.610553"}
,{"CODGEO":"95610","REG":"11","DEP":"95","LIBGEO":"Théméricourt","P12_POP":"273","C12_POP15P":"220","C12_POP15P_CS1":"0","C12_POP15P_CS2":"20","C12_POP15P_CS3":"28","C12_POP15P_CS4":"44","C12_POP15P_CS5":"40","C12_POP15P_CS6":"8","C12_POP15P_CS7":"60","C12_POP15P_CS8":"20","TxCS6":"3.6363635"}
,{"CODGEO":"95611","REG":"11","DEP":"95","LIBGEO":"Theuville","P12_POP":"25","C12_POP15P":"32","C12_POP15P_CS1":"0","C12_POP15P_CS2":"0","C12_POP15P_CS3":"16","C12_POP15P_CS4":"0","C12_POP15P_CS5":"4","C12_POP15P_CS6":"4","C12_POP15P_CS7":"0","C12_POP15P_CS8":"8","TxCS6":"12.5"}
,{"CODGEO":"95612","REG":"11","DEP":"95","LIBGEO":"Le Thillay","P12_POP":"4130","C12_POP15P":"3228","C12_POP15P_CS1":"4","C12_POP15P_CS2":"88","C12_POP15P_CS3":"196","C12_POP15P_CS4":"508","C12_POP15P_CS5":"696","C12_POP15P_CS6":"568","C12_POP15P_CS7":"684","C12_POP15P_CS8":"484","TxCS6":"17.596035"}
,{"CODGEO":"95625","REG":"11","DEP":"95","LIBGEO":"Us","P12_POP":"1334","C12_POP15P":"1114","C12_POP15P_CS1":"10","C12_POP15P_CS2":"38","C12_POP15P_CS3":"142","C12_POP15P_CS4":"228","C12_POP15P_CS5":"151","C12_POP15P_CS6":"127","C12_POP15P_CS7":"274","C12_POP15P_CS8":"144","TxCS6":"11.400359"}
,{"CODGEO":"95627","REG":"11","DEP":"95","LIBGEO":"Vallangoujard","P12_POP":"633","C12_POP15P":"476","C12_POP15P_CS1":"0","C12_POP15P_CS2":"40","C12_POP15P_CS3":"80","C12_POP15P_CS4":"76","C12_POP15P_CS5":"88","C12_POP15P_CS6":"52","C12_POP15P_CS7":"76","C12_POP15P_CS8":"64","TxCS6":"10.92437"}
,{"CODGEO":"95628","REG":"11","DEP":"95","LIBGEO":"Valmondois","P12_POP":"1195","C12_POP15P":"1014","C12_POP15P_CS1":"0","C12_POP15P_CS2":"52","C12_POP15P_CS3":"123","C12_POP15P_CS4":"222","C12_POP15P_CS5":"123","C12_POP15P_CS6":"111","C12_POP15P_CS7":"232","C12_POP15P_CS8":"151","TxCS6":"10.946746"}
,{"CODGEO":"95633","REG":"11","DEP":"95","LIBGEO":"Vaudherland","P12_POP":"79","C12_POP15P":"53","C12_POP15P_CS1":"0","C12_POP15P_CS2":"0","C12_POP15P_CS3":"0","C12_POP15P_CS4":"12","C12_POP15P_CS5":"12","C12_POP15P_CS6":"16","C12_POP15P_CS7":"8","C12_POP15P_CS8":"4","TxCS6":"30.188679"}
,{"CODGEO":"95637","REG":"11","DEP":"95","LIBGEO":"Vauréal","P12_POP":"15868","C12_POP15P":"12105","C12_POP15P_CS1":"0","C12_POP15P_CS2":"236","C12_POP15P_CS3":"1920","C12_POP15P_CS4":"2725","C12_POP15P_CS5":"2626","C12_POP15P_CS6":"1207","C12_POP15P_CS7":"1183","C12_POP15P_CS8":"2208","TxCS6":"9.9710865"}
,{"CODGEO":"95641","REG":"11","DEP":"95","LIBGEO":"Vémars","P12_POP":"2198","C12_POP15P":"1724","C12_POP15P_CS1":"4","C12_POP15P_CS2":"56","C12_POP15P_CS3":"220","C12_POP15P_CS4":"412","C12_POP15P_CS5":"352","C12_POP15P_CS6":"212","C12_POP15P_CS7":"264","C12_POP15P_CS8":"204","TxCS6":"12.296984"}
,{"CODGEO":"95651","REG":"11","DEP":"95","LIBGEO":"Vétheuil","P12_POP":"883","C12_POP15P":"726","C12_POP15P_CS1":"0","C12_POP15P_CS2":"26","C12_POP15P_CS3":"83","C12_POP15P_CS4":"151","C12_POP15P_CS5":"103","C12_POP15P_CS6":"67","C12_POP15P_CS7":"234","C12_POP15P_CS8":"62","TxCS6":"9.22865"}
,{"CODGEO":"95652","REG":"11","DEP":"95","LIBGEO":"Viarmes","P12_POP":"5230","C12_POP15P":"4260","C12_POP15P_CS1":"4","C12_POP15P_CS2":"173","C12_POP15P_CS3":"490","C12_POP15P_CS4":"790","C12_POP15P_CS5":"663","C12_POP15P_CS6":"428","C12_POP15P_CS7":"1169","C12_POP15P_CS8":"542","TxCS6":"10.046948"}
,{"CODGEO":"95656","REG":"11","DEP":"95","LIBGEO":"Vienne-en-Arthies","P12_POP":"425","C12_POP15P":"324","C12_POP15P_CS1":"0","C12_POP15P_CS2":"14","C12_POP15P_CS3":"58","C12_POP15P_CS4":"72","C12_POP15P_CS5":"19","C12_POP15P_CS6":"14","C12_POP15P_CS7":"106","C12_POP15P_CS8":"39","TxCS6":"4.3209877"}
,{"CODGEO":"95658","REG":"11","DEP":"95","LIBGEO":"Vigny","P12_POP":"1065","C12_POP15P":"823","C12_POP15P_CS1":"16","C12_POP15P_CS2":"36","C12_POP15P_CS3":"159","C12_POP15P_CS4":"163","C12_POP15P_CS5":"83","C12_POP15P_CS6":"64","C12_POP15P_CS7":"179","C12_POP15P_CS8":"123","TxCS6":"7.776428"}
,{"CODGEO":"95660","REG":"11","DEP":"95","LIBGEO":"Villaines-sous-Bois","P12_POP":"692","C12_POP15P":"543","C12_POP15P_CS1":"0","C12_POP15P_CS2":"39","C12_POP15P_CS3":"79","C12_POP15P_CS4":"126","C12_POP15P_CS5":"79","C12_POP15P_CS6":"75","C12_POP15P_CS7":"110","C12_POP15P_CS8":"35","TxCS6":"13.812155"}
,{"CODGEO":"95675","REG":"11","DEP":"95","LIBGEO":"Villeron","P12_POP":"815","C12_POP15P":"648","C12_POP15P_CS1":"11","C12_POP15P_CS2":"16","C12_POP15P_CS3":"81","C12_POP15P_CS4":"156","C12_POP15P_CS5":"113","C12_POP15P_CS6":"91","C12_POP15P_CS7":"95","C12_POP15P_CS8":"86","TxCS6":"14.04321"}
,{"CODGEO":"95676","REG":"11","DEP":"95","LIBGEO":"Villers-en-Arthies","P12_POP":"481","C12_POP15P":"358","C12_POP15P_CS1":"0","C12_POP15P_CS2":"19","C12_POP15P_CS3":"43","C12_POP15P_CS4":"81","C12_POP15P_CS5":"57","C12_POP15P_CS6":"19","C12_POP15P_CS7":"99","C12_POP15P_CS8":"38","TxCS6":"5.3072624"}
,{"CODGEO":"95678","REG":"11","DEP":"95","LIBGEO":"Villiers-Adam","P12_POP":"830","C12_POP15P":"646","C12_POP15P_CS1":"4","C12_POP15P_CS2":"20","C12_POP15P_CS3":"68","C12_POP15P_CS4":"124","C12_POP15P_CS5":"92","C12_POP15P_CS6":"44","C12_POP15P_CS7":"217","C12_POP15P_CS8":"76","TxCS6":"6.811146"}
,{"CODGEO":"95680","REG":"11","DEP":"95","LIBGEO":"Villiers-le-Bel","P12_POP":"27496","C12_POP15P":"20707","C12_POP15P_CS1":"6","C12_POP15P_CS2":"507","C12_POP15P_CS3":"757","C12_POP15P_CS4":"2594","C12_POP15P_CS5":"4713","C12_POP15P_CS6":"3496","C12_POP15P_CS7":"3465","C12_POP15P_CS8":"5171","TxCS6":"16.883179"}
,{"CODGEO":"95682","REG":"11","DEP":"95","LIBGEO":"Villiers-le-Sec","P12_POP":"180","C12_POP15P":"174","C12_POP15P_CS1":"0","C12_POP15P_CS2":"5","C12_POP15P_CS3":"17","C12_POP15P_CS4":"49","C12_POP15P_CS5":"14","C12_POP15P_CS6":"10","C12_POP15P_CS7":"35","C12_POP15P_CS8":"44","TxCS6":"5.7471266"}
,{"CODGEO":"95690","REG":"11","DEP":"95","LIBGEO":"Wy-dit-Joli-Village","P12_POP":"316","C12_POP15P":"290","C12_POP15P_CS1":"8","C12_POP15P_CS2":"0","C12_POP15P_CS3":"43","C12_POP15P_CS4":"63","C12_POP15P_CS5":"27","C12_POP15P_CS6":"24","C12_POP15P_CS7":"90","C12_POP15P_CS8":"35","TxCS6":"8.275862"}
]}
