{
  "status": "success",
  "data": {
    "abstentions": "54282",
    "pourcent_blancs_ins": "3.57",
    "pourcent_nuls_ins": "1.78",
    "pourcent_exp_vot": "90.55",
    "votants": "70877",
    "pourcent_exp_ins": "51.28",
    "blancs": "4462",
    "resultats": [
      {
        "pourcent_voix_exp": "2.61",
        "voix": "1678",
        "sieges": "0",
        "pourcent_voix_ins": "1.34",
        "code_nuance": "BC-FG"
      },
      {
        "pourcent_voix_exp": "36.0",
        "voix": "23104",
        "sieges": "18",
        "pourcent_voix_ins": "18.46",
        "code_nuance": "BC-SOC"
      },
      {
        "pourcent_voix_exp": "4.14",
        "voix": "2654",
        "sieges": "2",
        "pourcent_voix_ins": "2.12",
        "code_nuance": "BC-DVG"
      },
      {
        "pourcent_voix_exp": "14.44",
        "voix": "9265",
        "sieges": "2",
        "pourcent_voix_ins": "7.4",
        "code_nuance": "BC-UMP"
      },
      {
        "pourcent_voix_exp": "13.89",
        "voix": "8917",
        "sieges": "4",
        "pourcent_voix_ins": "7.12",
        "code_nuance": "BC-UD"
      },
      {
        "pourcent_voix_exp": "7.4",
        "voix": "4749",
        "sieges": "4",
        "pourcent_voix_ins": "3.79",
        "code_nuance": "BC-DVD"
      },
      {
        "pourcent_voix_exp": "19.64",
        "voix": "12606",
        "sieges": "0",
        "pourcent_voix_ins": "10.07",
        "code_nuance": "BC-FN"
      },
      {
        "pourcent_voix_exp": "1.88",
        "voix": "1208",
        "sieges": "0",
        "pourcent_voix_ins": "0.97",
        "code_nuance": "BC-EXD"
      }
    ],
    "code": "04",
    "pourcent_nuls_vot": "3.15",
    "lib": "ALPES DE HAUTE PROVENCE",
    "pourcent_blancs_vot": "6.3",
    "nuls": "2234",
    "exprimes": "64181",
    "pourcent_vot_ins": "56.63",
    "inscrits": "125159",
    "pourcent_abs_ins": "43.37"
  }
}