{
  "status": "success",
  "data": {
    "abstentions": "100087",
    "pourcent_blancs_ins": "3.59",
    "pourcent_nuls_ins": "1.77",
    "pourcent_exp_vot": "91.12",
    "votants": "152117",
    "pourcent_exp_ins": "54.96",
    "blancs": "9045",
    "resultats": [
      {
        "pourcent_voix_exp": "44.62",
        "voix": "61839",
        "sieges": "32",
        "pourcent_voix_ins": "24.52",
        "code_nuance": "BC-SOC"
      },
      {
        "pourcent_voix_exp": "3.76",
        "voix": "5212",
        "sieges": "2",
        "pourcent_voix_ins": "2.07",
        "code_nuance": "BC-DVG"
      },
      {
        "pourcent_voix_exp": "3.1",
        "voix": "4300",
        "sieges": "0",
        "pourcent_voix_ins": "1.7",
        "code_nuance": "BC-UMP"
      },
      {
        "pourcent_voix_exp": "4.29",
        "voix": "5948",
        "sieges": "2",
        "pourcent_voix_ins": "2.36",
        "code_nuance": "BC-UD"
      },
      {
        "pourcent_voix_exp": "5.2",
        "voix": "7211",
        "sieges": "0",
        "pourcent_voix_ins": "2.86",
        "code_nuance": "BC-DVD"
      },
      {
        "pourcent_voix_exp": "39.03",
        "voix": "54095",
        "sieges": "0",
        "pourcent_voix_ins": "21.45",
        "code_nuance": "BC-FN"
      }
    ],
    "code": "11",
    "pourcent_nuls_vot": "2.94",
    "lib": "AUDE",
    "pourcent_blancs_vot": "5.95",
    "nuls": "4467",
    "exprimes": "138605",
    "pourcent_vot_ins": "60.32",
    "inscrits": "252204",
    "pourcent_abs_ins": "39.68"
  }
}