{
  "status": "success",
  "data": {
    "abstentions": "660041",
    "pourcent_blancs_ins": "2.82",
    "pourcent_nuls_ins": "1.19",
    "pourcent_exp_vot": "92.11",
    "votants": "680841",
    "pourcent_exp_ins": "46.77",
    "blancs": "37810",
    "resultats": [
      {
        "pourcent_voix_exp": "4.18",
        "voix": "26217",
        "sieges": "4",
        "pourcent_voix_ins": "1.96",
        "code_nuance": "BC-COM"
      },
      {
        "pourcent_voix_exp": "7.74",
        "voix": "48516",
        "sieges": "8",
        "pourcent_voix_ins": "3.62",
        "code_nuance": "BC-SOC"
      },
      {
        "pourcent_voix_exp": "6.2",
        "voix": "38907",
        "sieges": "6",
        "pourcent_voix_ins": "2.9",
        "code_nuance": "BC-UG"
      },
      {
        "pourcent_voix_exp": "4.67",
        "voix": "29290",
        "sieges": "6",
        "pourcent_voix_ins": "2.18",
        "code_nuance": "BC-DVG"
      },
      {
        "pourcent_voix_exp": "38.01",
        "voix": "238359",
        "sieges": "32",
        "pourcent_voix_ins": "17.78",
        "code_nuance": "BC-UD"
      },
      {
        "pourcent_voix_exp": "39.2",
        "voix": "245844",
        "sieges": "2",
        "pourcent_voix_ins": "18.33",
        "code_nuance": "BC-FN"
      }
    ],
    "code": "13",
    "pourcent_nuls_vot": "2.34",
    "lib": "BOUCHES DU RHONE",
    "pourcent_blancs_vot": "5.55",
    "nuls": "15898",
    "exprimes": "627133",
    "pourcent_vot_ins": "50.78",
    "inscrits": "1340882",
    "pourcent_abs_ins": "49.22"
  }
}