{
  "status": "success",
  "data": {
    "abstentions": "413110",
    "pourcent_blancs_ins": "2.57",
    "pourcent_nuls_ins": "1.43",
    "pourcent_exp_vot": "92.38",
    "votants": "455698",
    "pourcent_exp_ins": "48.45",
    "blancs": "22315",
    "resultats": [
      {
        "pourcent_voix_exp": "42.58",
        "voix": "179228",
        "sieges": "40",
        "pourcent_voix_ins": "20.63",
        "code_nuance": "BC-SOC"
      },
      {
        "pourcent_voix_exp": "10.26",
        "voix": "43193",
        "sieges": "6",
        "pourcent_voix_ins": "4.97",
        "code_nuance": "BC-UG"
      },
      {
        "pourcent_voix_exp": "2.02",
        "voix": "8498",
        "sieges": "2",
        "pourcent_voix_ins": "0.98",
        "code_nuance": "BC-DVG"
      },
      {
        "pourcent_voix_exp": "19.05",
        "voix": "80175",
        "sieges": "6",
        "pourcent_voix_ins": "9.23",
        "code_nuance": "BC-UD"
      },
      {
        "pourcent_voix_exp": "10.28",
        "voix": "43275",
        "sieges": "0",
        "pourcent_voix_ins": "4.98",
        "code_nuance": "BC-DVD"
      },
      {
        "pourcent_voix_exp": "15.82",
        "voix": "66584",
        "sieges": "0",
        "pourcent_voix_ins": "7.66",
        "code_nuance": "BC-FN"
      }
    ],
    "code": "31",
    "pourcent_nuls_vot": "2.73",
    "lib": "HAUTE GARONNE",
    "pourcent_blancs_vot": "4.9",
    "nuls": "12430",
    "exprimes": "420953",
    "pourcent_vot_ins": "52.45",
    "inscrits": "868808",
    "pourcent_abs_ins": "47.55"
  }
}