{
  "status": "success",
  "data": {
    "abstentions": "126032",
    "pourcent_blancs_ins": "3.8",
    "pourcent_nuls_ins": "1.84",
    "pourcent_exp_vot": "89.79",
    "votants": "155629",
    "pourcent_exp_ins": "49.61",
    "blancs": "10707",
    "resultats": [
      {
        "pourcent_voix_exp": "3.2",
        "voix": "4471",
        "sieges": "2",
        "pourcent_voix_ins": "1.59",
        "code_nuance": "BC-FG"
      },
      {
        "pourcent_voix_exp": "41.78",
        "voix": "58383",
        "sieges": "14",
        "pourcent_voix_ins": "20.73",
        "code_nuance": "BC-SOC"
      },
      {
        "pourcent_voix_exp": "3.8",
        "voix": "5310",
        "sieges": "2",
        "pourcent_voix_ins": "1.89",
        "code_nuance": "BC-UG"
      },
      {
        "pourcent_voix_exp": "48.72",
        "voix": "68075",
        "sieges": "10",
        "pourcent_voix_ins": "24.17",
        "code_nuance": "BC-UD"
      },
      {
        "pourcent_voix_exp": "2.5",
        "voix": "3499",
        "sieges": "0",
        "pourcent_voix_ins": "1.24",
        "code_nuance": "BC-FN"
      }
    ],
    "code": "40",
    "pourcent_nuls_vot": "3.33",
    "lib": "LANDES",
    "pourcent_blancs_vot": "6.88",
    "nuls": "5184",
    "exprimes": "139738",
    "pourcent_vot_ins": "55.25",
    "inscrits": "281661",
    "pourcent_abs_ins": "44.75"
  }
}