{
  "status": "success",
  "data": {
    "abstentions": "94684",
    "pourcent_blancs_ins": "3.02",
    "pourcent_nuls_ins": "1.11",
    "pourcent_exp_vot": "92.43",
    "votants": "113677",
    "pourcent_exp_ins": "50.43",
    "blancs": "6294",
    "resultats": [
      {
        "pourcent_voix_exp": "9.81",
        "voix": "10303",
        "sieges": "4",
        "pourcent_voix_ins": "4.94",
        "code_nuance": "BC-SOC"
      },
      {
        "pourcent_voix_exp": "4.02",
        "voix": "4228",
        "sieges": "2",
        "pourcent_voix_ins": "2.03",
        "code_nuance": "BC-UG"
      },
      {
        "pourcent_voix_exp": "9.31",
        "voix": "9782",
        "sieges": "2",
        "pourcent_voix_ins": "4.69",
        "code_nuance": "BC-DVG"
      },
      {
        "pourcent_voix_exp": "5.29",
        "voix": "5559",
        "sieges": "2",
        "pourcent_voix_ins": "2.67",
        "code_nuance": "BC-MDM"
      },
      {
        "pourcent_voix_exp": "3.24",
        "voix": "3400",
        "sieges": "2",
        "pourcent_voix_ins": "1.63",
        "code_nuance": "BC-UDI"
      },
      {
        "pourcent_voix_exp": "6.94",
        "voix": "7289",
        "sieges": "2",
        "pourcent_voix_ins": "3.5",
        "code_nuance": "BC-UMP"
      },
      {
        "pourcent_voix_exp": "28.09",
        "voix": "29518",
        "sieges": "12",
        "pourcent_voix_ins": "14.17",
        "code_nuance": "BC-UD"
      },
      {
        "pourcent_voix_exp": "6.95",
        "voix": "7305",
        "sieges": "0",
        "pourcent_voix_ins": "3.51",
        "code_nuance": "BC-DVD"
      },
      {
        "pourcent_voix_exp": "26.35",
        "voix": "27685",
        "sieges": "0",
        "pourcent_voix_ins": "13.29",
        "code_nuance": "BC-FN"
      }
    ],
    "code": "41",
    "pourcent_nuls_vot": "2.04",
    "lib": "LOIR ET CHER",
    "pourcent_blancs_vot": "5.54",
    "nuls": "2314",
    "exprimes": "105069",
    "pourcent_vot_ins": "54.56",
    "inscrits": "208361",
    "pourcent_abs_ins": "45.44"
  }
}