{
  "status": "success",
  "data": {
    "abstentions": "492206",
    "pourcent_blancs_ins": "2.77",
    "pourcent_nuls_ins": "1.23",
    "pourcent_exp_vot": "91.77",
    "votants": "464919",
    "pourcent_exp_ins": "44.58",
    "blancs": "26476",
    "resultats": [
      {
        "pourcent_voix_exp": "32.95",
        "voix": "140597",
        "sieges": "26",
        "pourcent_voix_ins": "14.69",
        "code_nuance": "BC-SOC"
      },
      {
        "pourcent_voix_exp": "3.39",
        "voix": "14467",
        "sieges": "2",
        "pourcent_voix_ins": "1.51",
        "code_nuance": "BC-UG"
      },
      {
        "pourcent_voix_exp": "12.26",
        "voix": "52288",
        "sieges": "4",
        "pourcent_voix_ins": "5.46",
        "code_nuance": "BC-DVG"
      },
      {
        "pourcent_voix_exp": "48.89",
        "voix": "208605",
        "sieges": "30",
        "pourcent_voix_ins": "21.79",
        "code_nuance": "BC-UD"
      },
      {
        "pourcent_voix_exp": "2.51",
        "voix": "10702",
        "sieges": "0",
        "pourcent_voix_ins": "1.12",
        "code_nuance": "BC-FN"
      }
    ],
    "code": "44",
    "pourcent_nuls_vot": "2.53",
    "lib": "LOIRE ATLANTIQUE",
    "pourcent_blancs_vot": "5.69",
    "nuls": "11784",
    "exprimes": "426659",
    "pourcent_vot_ins": "48.57",
    "inscrits": "957125",
    "pourcent_abs_ins": "51.43"
  }
}