{
  "status": "success",
  "data": {
    "abstentions": "46712",
    "pourcent_blancs_ins": "4.3",
    "pourcent_nuls_ins": "2.81",
    "pourcent_exp_vot": "87.75",
    "votants": "64485",
    "pourcent_exp_ins": "50.89",
    "blancs": "4781",
    "resultats": [
      {
        "pourcent_voix_exp": "2.19",
        "voix": "1237",
        "sieges": "0",
        "pourcent_voix_ins": "1.11",
        "code_nuance": "BC-FG"
      },
      {
        "pourcent_voix_exp": "25.9",
        "voix": "14654",
        "sieges": "8",
        "pourcent_voix_ins": "13.18",
        "code_nuance": "BC-SOC"
      },
      {
        "pourcent_voix_exp": "19.19",
        "voix": "10861",
        "sieges": "8",
        "pourcent_voix_ins": "9.77",
        "code_nuance": "BC-UG"
      },
      {
        "pourcent_voix_exp": "3.72",
        "voix": "2103",
        "sieges": "2",
        "pourcent_voix_ins": "1.89",
        "code_nuance": "BC-RDG"
      },
      {
        "pourcent_voix_exp": "14.09",
        "voix": "7972",
        "sieges": "6",
        "pourcent_voix_ins": "7.17",
        "code_nuance": "BC-DVG"
      },
      {
        "pourcent_voix_exp": "7.82",
        "voix": "4423",
        "sieges": "0",
        "pourcent_voix_ins": "3.98",
        "code_nuance": "BC-UDI"
      },
      {
        "pourcent_voix_exp": "3.63",
        "voix": "2053",
        "sieges": "0",
        "pourcent_voix_ins": "1.85",
        "code_nuance": "BC-UMP"
      },
      {
        "pourcent_voix_exp": "12.95",
        "voix": "7327",
        "sieges": "4",
        "pourcent_voix_ins": "6.59",
        "code_nuance": "BC-DVD"
      },
      {
        "pourcent_voix_exp": "10.52",
        "voix": "5953",
        "sieges": "0",
        "pourcent_voix_ins": "5.35",
        "code_nuance": "BC-FN"
      }
    ],
    "code": "46",
    "pourcent_nuls_vot": "4.84",
    "lib": "LOT",
    "pourcent_blancs_vot": "7.41",
    "nuls": "3121",
    "exprimes": "56583",
    "pourcent_vot_ins": "57.99",
    "inscrits": "111197",
    "pourcent_abs_ins": "42.01"
  }
}