{
  "status": "success",
  "data": {
    "abstentions": "509286",
    "pourcent_blancs_ins": "2.56",
    "pourcent_nuls_ins": "1.42",
    "pourcent_exp_vot": "92.34",
    "votants": "551570",
    "pourcent_exp_ins": "48.01",
    "blancs": "27144",
    "resultats": [
      {
        "pourcent_voix_exp": "2.69",
        "voix": "13694",
        "sieges": "4",
        "pourcent_voix_ins": "1.29",
        "code_nuance": "BC-FG"
      },
      {
        "pourcent_voix_exp": "2.51",
        "voix": "12764",
        "sieges": "0",
        "pourcent_voix_ins": "1.2",
        "code_nuance": "BC-COM"
      },
      {
        "pourcent_voix_exp": "23.09",
        "voix": "117603",
        "sieges": "22",
        "pourcent_voix_ins": "11.09",
        "code_nuance": "BC-SOC"
      },
      {
        "pourcent_voix_exp": "8.39",
        "voix": "42730",
        "sieges": "10",
        "pourcent_voix_ins": "4.03",
        "code_nuance": "BC-UG"
      },
      {
        "pourcent_voix_exp": "2.66",
        "voix": "13538",
        "sieges": "2",
        "pourcent_voix_ins": "1.28",
        "code_nuance": "BC-DVG"
      },
      {
        "pourcent_voix_exp": "1.16",
        "voix": "5919",
        "sieges": "2",
        "pourcent_voix_ins": "0.56",
        "code_nuance": "BC-UMP"
      },
      {
        "pourcent_voix_exp": "14.21",
        "voix": "72372",
        "sieges": "18",
        "pourcent_voix_ins": "6.82",
        "code_nuance": "BC-UD"
      },
      {
        "pourcent_voix_exp": "3.81",
        "voix": "19419",
        "sieges": "6",
        "pourcent_voix_ins": "1.83",
        "code_nuance": "BC-DVD"
      },
      {
        "pourcent_voix_exp": "41.48",
        "voix": "211281",
        "sieges": "12",
        "pourcent_voix_ins": "19.92",
        "code_nuance": "BC-FN"
      }
    ],
    "code": "62",
    "pourcent_nuls_vot": "2.74",
    "lib": "PAS DE CALAIS",
    "pourcent_blancs_vot": "4.92",
    "nuls": "15106",
    "exprimes": "509320",
    "pourcent_vot_ins": "51.99",
    "inscrits": "1060856",
    "pourcent_abs_ins": "48.01"
  }
}