{
  "status": "success",
  "data": {
    "abstentions": "140623",
    "pourcent_blancs_ins": "2.53",
    "pourcent_nuls_ins": "1.49",
    "pourcent_exp_vot": "93.15",
    "votants": "199517",
    "pourcent_exp_ins": "54.64",
    "blancs": "8607",
    "resultats": [
      {
        "pourcent_voix_exp": "2.51",
        "voix": "4665",
        "sieges": "2",
        "pourcent_voix_ins": "1.37",
        "code_nuance": "BC-COM"
      },
      {
        "pourcent_voix_exp": "18.87",
        "voix": "35070",
        "sieges": "12",
        "pourcent_voix_ins": "10.31",
        "code_nuance": "BC-SOC"
      },
      {
        "pourcent_voix_exp": "8.05",
        "voix": "14970",
        "sieges": "6",
        "pourcent_voix_ins": "4.4",
        "code_nuance": "BC-UG"
      },
      {
        "pourcent_voix_exp": "3.11",
        "voix": "5771",
        "sieges": "2",
        "pourcent_voix_ins": "1.7",
        "code_nuance": "BC-DIV"
      },
      {
        "pourcent_voix_exp": "13.9",
        "voix": "25831",
        "sieges": "6",
        "pourcent_voix_ins": "7.59",
        "code_nuance": "BC-UMP"
      },
      {
        "pourcent_voix_exp": "12.84",
        "voix": "23856",
        "sieges": "6",
        "pourcent_voix_ins": "7.01",
        "code_nuance": "BC-UD"
      },
      {
        "pourcent_voix_exp": "6.21",
        "voix": "11541",
        "sieges": "0",
        "pourcent_voix_ins": "3.39",
        "code_nuance": "BC-DVD"
      },
      {
        "pourcent_voix_exp": "34.51",
        "voix": "64146",
        "sieges": "0",
        "pourcent_voix_ins": "18.86",
        "code_nuance": "BC-FN"
      }
    ],
    "code": "66",
    "pourcent_nuls_vot": "2.54",
    "lib": "PYRENEES ORIENTALES",
    "pourcent_blancs_vot": "4.31",
    "nuls": "5060",
    "exprimes": "185850",
    "pourcent_vot_ins": "58.66",
    "inscrits": "340140",
    "pourcent_abs_ins": "41.34"
  }
}