{
  "status": "success",
  "data": {
    "abstentions": "200052",
    "pourcent_blancs_ins": "3.89",
    "pourcent_nuls_ins": "0.99",
    "pourcent_exp_vot": "90.4",
    "votants": "206312",
    "pourcent_exp_ins": "45.9",
    "blancs": "15793",
    "resultats": [
      {
        "pourcent_voix_exp": "15.36",
        "voix": "28640",
        "sieges": "10",
        "pourcent_voix_ins": "7.05",
        "code_nuance": "BC-SOC"
      },
      {
        "pourcent_voix_exp": "9.72",
        "voix": "18128",
        "sieges": "6",
        "pourcent_voix_ins": "4.46",
        "code_nuance": "BC-UG"
      },
      {
        "pourcent_voix_exp": "1.35",
        "voix": "2519",
        "sieges": "0",
        "pourcent_voix_ins": "0.62",
        "code_nuance": "BC-DVG"
      },
      {
        "pourcent_voix_exp": "12.85",
        "voix": "23962",
        "sieges": "6",
        "pourcent_voix_ins": "5.9",
        "code_nuance": "BC-UMP"
      },
      {
        "pourcent_voix_exp": "28.49",
        "voix": "53143",
        "sieges": "14",
        "pourcent_voix_ins": "13.08",
        "code_nuance": "BC-UD"
      },
      {
        "pourcent_voix_exp": "7.97",
        "voix": "14856",
        "sieges": "6",
        "pourcent_voix_ins": "3.66",
        "code_nuance": "BC-DVD"
      },
      {
        "pourcent_voix_exp": "24.27",
        "voix": "45261",
        "sieges": "0",
        "pourcent_voix_ins": "11.14",
        "code_nuance": "BC-FN"
      }
    ],
    "code": "72",
    "pourcent_nuls_vot": "1.94",
    "lib": "SARTHE",
    "pourcent_blancs_vot": "7.65",
    "nuls": "4010",
    "exprimes": "186509",
    "pourcent_vot_ins": "50.77",
    "inscrits": "406364",
    "pourcent_abs_ins": "49.23"
  }
}