{
  "status": "success",
  "data": {
    "abstentions": "262015",
    "pourcent_blancs_ins": "2.86",
    "pourcent_nuls_ins": "1.02",
    "pourcent_exp_vot": "91.17",
    "votants": "205418",
    "pourcent_exp_ins": "40.07",
    "blancs": "13372",
    "resultats": [
      {
        "pourcent_voix_exp": "1.64",
        "voix": "3069",
        "sieges": "0",
        "pourcent_voix_ins": "0.66",
        "code_nuance": "BC-SOC"
      },
      {
        "pourcent_voix_exp": "2.97",
        "voix": "5571",
        "sieges": "0",
        "pourcent_voix_ins": "1.19",
        "code_nuance": "BC-UG"
      },
      {
        "pourcent_voix_exp": "2.69",
        "voix": "5041",
        "sieges": "0",
        "pourcent_voix_ins": "1.08",
        "code_nuance": "BC-DVG"
      },
      {
        "pourcent_voix_exp": "2.08",
        "voix": "3893",
        "sieges": "0",
        "pourcent_voix_ins": "0.83",
        "code_nuance": "BC-VEC"
      },
      {
        "pourcent_voix_exp": "31.88",
        "voix": "59701",
        "sieges": "12",
        "pourcent_voix_ins": "12.77",
        "code_nuance": "BC-UMP"
      },
      {
        "pourcent_voix_exp": "12.91",
        "voix": "24181",
        "sieges": "6",
        "pourcent_voix_ins": "5.17",
        "code_nuance": "BC-UD"
      },
      {
        "pourcent_voix_exp": "25.19",
        "voix": "47173",
        "sieges": "12",
        "pourcent_voix_ins": "10.09",
        "code_nuance": "BC-DVD"
      },
      {
        "pourcent_voix_exp": "20.64",
        "voix": "38653",
        "sieges": "0",
        "pourcent_voix_ins": "8.27",
        "code_nuance": "BC-FN"
      }
    ],
    "code": "74",
    "pourcent_nuls_vot": "2.32",
    "lib": "HAUTE SAVOIE",
    "pourcent_blancs_vot": "6.51",
    "nuls": "4764",
    "exprimes": "187282",
    "pourcent_vot_ins": "43.95",
    "inscrits": "467433",
    "pourcent_abs_ins": "56.05"
  }
}