{
  "status": "success",
  "data": {
    "abstentions": "126631",
    "pourcent_blancs_ins": "2.63",
    "pourcent_nuls_ins": "1.48",
    "pourcent_exp_vot": "91.81",
    "votants": "127362",
    "pourcent_exp_ins": "46.04",
    "blancs": "6678",
    "resultats": [
      {
        "pourcent_voix_exp": "44.03",
        "voix": "51490",
        "sieges": "10",
        "pourcent_voix_ins": "20.27",
        "code_nuance": "BC-UG"
      },
      {
        "pourcent_voix_exp": "2.54",
        "voix": "2975",
        "sieges": "0",
        "pourcent_voix_ins": "1.17",
        "code_nuance": "BC-DVG"
      },
      {
        "pourcent_voix_exp": "2.3",
        "voix": "2691",
        "sieges": "0",
        "pourcent_voix_ins": "1.06",
        "code_nuance": "BC-UMP"
      },
      {
        "pourcent_voix_exp": "45.07",
        "voix": "52705",
        "sieges": "20",
        "pourcent_voix_ins": "20.75",
        "code_nuance": "BC-UD"
      },
      {
        "pourcent_voix_exp": "4.0",
        "voix": "4673",
        "sieges": "2",
        "pourcent_voix_ins": "1.84",
        "code_nuance": "BC-DVD"
      },
      {
        "pourcent_voix_exp": "2.05",
        "voix": "2400",
        "sieges": "0",
        "pourcent_voix_ins": "0.94",
        "code_nuance": "BC-FN"
      }
    ],
    "code": "79",
    "pourcent_nuls_vot": "2.94",
    "lib": "DEUX SEVRES",
    "pourcent_blancs_vot": "5.24",
    "nuls": "3750",
    "exprimes": "116934",
    "pourcent_vot_ins": "50.14",
    "inscrits": "253993",
    "pourcent_abs_ins": "49.86"
  }
}