{
  "status": "success",
  "data": {
    "abstentions": "111362",
    "pourcent_blancs_ins": "3.57",
    "pourcent_nuls_ins": "1.93",
    "pourcent_exp_vot": "90.76",
    "votants": "163631",
    "pourcent_exp_ins": "54.01",
    "blancs": "9812",
    "resultats": [
      {
        "pourcent_voix_exp": "18.87",
        "voix": "28029",
        "sieges": "10",
        "pourcent_voix_ins": "10.19",
        "code_nuance": "BC-SOC"
      },
      {
        "pourcent_voix_exp": "7.02",
        "voix": "10429",
        "sieges": "6",
        "pourcent_voix_ins": "3.79",
        "code_nuance": "BC-UG"
      },
      {
        "pourcent_voix_exp": "15.15",
        "voix": "22503",
        "sieges": "10",
        "pourcent_voix_ins": "8.18",
        "code_nuance": "BC-DVG"
      },
      {
        "pourcent_voix_exp": "1.83",
        "voix": "2724",
        "sieges": "0",
        "pourcent_voix_ins": "0.99",
        "code_nuance": "BC-DIV"
      },
      {
        "pourcent_voix_exp": "4.36",
        "voix": "6481",
        "sieges": "4",
        "pourcent_voix_ins": "2.36",
        "code_nuance": "BC-UMP"
      },
      {
        "pourcent_voix_exp": "7.35",
        "voix": "10914",
        "sieges": "6",
        "pourcent_voix_ins": "3.97",
        "code_nuance": "BC-UD"
      },
      {
        "pourcent_voix_exp": "18.41",
        "voix": "27347",
        "sieges": "8",
        "pourcent_voix_ins": "9.94",
        "code_nuance": "BC-DVD"
      },
      {
        "pourcent_voix_exp": "26.99",
        "voix": "40088",
        "sieges": "0",
        "pourcent_voix_ins": "14.58",
        "code_nuance": "BC-FN"
      }
    ],
    "code": "81",
    "pourcent_nuls_vot": "3.24",
    "lib": "TARN",
    "pourcent_blancs_vot": "6.0",
    "nuls": "5304",
    "exprimes": "148515",
    "pourcent_vot_ins": "59.5",
    "inscrits": "274993",
    "pourcent_abs_ins": "40.5"
  }
}