{
  "status": "success",
  "data": {
    "abstentions": "365347",
    "pourcent_blancs_ins": "2.71",
    "pourcent_nuls_ins": "1.19",
    "pourcent_exp_vot": "92.38",
    "votants": "383052",
    "pourcent_exp_ins": "47.28",
    "blancs": "20279",
    "resultats": [
      {
        "pourcent_voix_exp": "1.91",
        "voix": "6754",
        "sieges": "0",
        "pourcent_voix_ins": "0.9",
        "code_nuance": "BC-SOC"
      },
      {
        "pourcent_voix_exp": "2.19",
        "voix": "7733",
        "sieges": "0",
        "pourcent_voix_ins": "1.03",
        "code_nuance": "BC-UG"
      },
      {
        "pourcent_voix_exp": "52.55",
        "voix": "185943",
        "sieges": "40",
        "pourcent_voix_ins": "24.85",
        "code_nuance": "BC-UD"
      },
      {
        "pourcent_voix_exp": "43.36",
        "voix": "153418",
        "sieges": "4",
        "pourcent_voix_ins": "20.5",
        "code_nuance": "BC-FN"
      }
    ],
    "code": "83",
    "pourcent_nuls_vot": "2.33",
    "lib": "VAR",
    "pourcent_blancs_vot": "5.29",
    "nuls": "8925",
    "exprimes": "353848",
    "pourcent_vot_ins": "51.18",
    "inscrits": "748399",
    "pourcent_abs_ins": "48.82"
  }
}