{"status":"success","data":[{"CODGEO":"04001","TxChomage":"11.9"}
,{"CODGEO":"04004","TxChomage":"12.5"}
,{"CODGEO":"04005","TxChomage":"11.9"}
,{"CODGEO":"04006","TxChomage":"11.9"}
,{"CODGEO":"04007","TxChomage":"11.9"}
,{"CODGEO":"04008","TxChomage":"10.7"}
,{"CODGEO":"04009","TxChomage":"11.9"}
,{"CODGEO":"04012","TxChomage":"12.5"}
,{"CODGEO":"04013","TxChomage":"11.9"}
,{"CODGEO":"04016","TxChomage":"11.9"}
,{"CODGEO":"04017","TxChomage":"11.9"}
,{"CODGEO":"04018","TxChomage":"12.5"}
,{"CODGEO":"04019","TxChomage":"9.1"}
,{"CODGEO":"04020","TxChomage":"11.9"}
,{"CODGEO":"04021","TxChomage":"11.9"}
,{"CODGEO":"04022","TxChomage":"11.9"}
,{"CODGEO":"04023","TxChomage":"11.9"}
,{"CODGEO":"04024","TxChomage":"11.9"}
,{"CODGEO":"04025","TxChomage":"11.9"}
,{"CODGEO":"04026","TxChomage":"9.1"}
,{"CODGEO":"04027","TxChomage":"11.9"}
,{"CODGEO":"04028","TxChomage":"11.9"}
,{"CODGEO":"04030","TxChomage":"11.9"}
,{"CODGEO":"04031","TxChomage":"11.9"}
,{"CODGEO":"04032","TxChomage":"10.7"}
,{"CODGEO":"04033","TxChomage":"9.1"}
,{"CODGEO":"04034","TxChomage":"12.5"}
,{"CODGEO":"04035","TxChomage":"12.5"}
,{"CODGEO":"04036","TxChomage":"11.9"}
,{"CODGEO":"04037","TxChomage":"11.9"}
,{"CODGEO":"04039","TxChomage":"11.9"}
,{"CODGEO":"04040","TxChomage":"11.9"}
,{"CODGEO":"04041","TxChomage":"12.5"}
,{"CODGEO":"04042","TxChomage":"10.7"}
,{"CODGEO":"04043","TxChomage":"10.7"}
,{"CODGEO":"04045","TxChomage":"13.3"}
,{"CODGEO":"04046","TxChomage":"11.9"}
,{"CODGEO":"04047","TxChomage":"11.9"}
,{"CODGEO":"04049","TxChomage":"11.9"}
,{"CODGEO":"04050","TxChomage":"11.9"}
,{"CODGEO":"04051","TxChomage":"11.9"}
,{"CODGEO":"04053","TxChomage":"11.9"}
,{"CODGEO":"04054","TxChomage":"11.9"}
,{"CODGEO":"04055","TxChomage":"11.9"}
,{"CODGEO":"04057","TxChomage":"11.9"}
,{"CODGEO":"04058","TxChomage":"9.1"}
,{"CODGEO":"04059","TxChomage":"11.9"}
,{"CODGEO":"04061","TxChomage":"11.9"}
,{"CODGEO":"04062","TxChomage":"9.1"}
,{"CODGEO":"04063","TxChomage":"12.5"}
,{"CODGEO":"04065","TxChomage":"12.5"}
,{"CODGEO":"04066","TxChomage":"9.1"}
,{"CODGEO":"04067","TxChomage":"11.9"}
,{"CODGEO":"04068","TxChomage":"12.5"}
,{"CODGEO":"04069","TxChomage":"11.9"}
,{"CODGEO":"04070","TxChomage":"11.9"}
,{"CODGEO":"04072","TxChomage":"11.9"}
,{"CODGEO":"04073","TxChomage":"9.1"}
,{"CODGEO":"04074","TxChomage":"11.9"}
,{"CODGEO":"04075","TxChomage":"11.9"}
,{"CODGEO":"04076","TxChomage":"10.7"}
,{"CODGEO":"04077","TxChomage":"12.5"}
,{"CODGEO":"04079","TxChomage":"11.9"}
,{"CODGEO":"04081","TxChomage":"12.5"}
,{"CODGEO":"04084","TxChomage":"11.9"}
,{"CODGEO":"04085","TxChomage":"11.9"}
,{"CODGEO":"04086","TxChomage":"9.1"}
,{"CODGEO":"04087","TxChomage":"12.5"}
,{"CODGEO":"04088","TxChomage":"12.5"}
,{"CODGEO":"04090","TxChomage":"10.7"}
,{"CODGEO":"04091","TxChomage":"12.5"}
,{"CODGEO":"04092","TxChomage":"11.9"}
,{"CODGEO":"04093","TxChomage":"9.1"}
,{"CODGEO":"04094","TxChomage":"12.5"}
,{"CODGEO":"04095","TxChomage":"12.5"}
,{"CODGEO":"04096","TxChomage":"9.1"}
,{"CODGEO":"04097","TxChomage":"11.9"}
,{"CODGEO":"04099","TxChomage":"11.9"}
,{"CODGEO":"04100","TxChomage":"9.1"}
,{"CODGEO":"04101","TxChomage":"12.5"}
,{"CODGEO":"04102","TxChomage":"9.1"}
,{"CODGEO":"04104","TxChomage":"12.5"}
,{"CODGEO":"04106","TxChomage":"12.5"}
,{"CODGEO":"04107","TxChomage":"11.9"}
,{"CODGEO":"04108","TxChomage":"11.9"}
,{"CODGEO":"04109","TxChomage":"12.5"}
,{"CODGEO":"04110","TxChomage":"11.9"}
,{"CODGEO":"04111","TxChomage":"12.5"}
,{"CODGEO":"04112","TxChomage":"12.5"}
,{"CODGEO":"04113","TxChomage":"11.9"}
,{"CODGEO":"04115","TxChomage":"10.7"}
,{"CODGEO":"04116","TxChomage":"12.5"}
,{"CODGEO":"04118","TxChomage":"11.9"}
,{"CODGEO":"04120","TxChomage":"9.1"}
,{"CODGEO":"04121","TxChomage":"11.9"}
,{"CODGEO":"04122","TxChomage":"11.9"}
,{"CODGEO":"04123","TxChomage":"11.9"}
,{"CODGEO":"04124","TxChomage":"12.5"}
,{"CODGEO":"04126","TxChomage":"11.9"}
,{"CODGEO":"04127","TxChomage":"11.9"}
,{"CODGEO":"04128","TxChomage":"12.5"}
,{"CODGEO":"04129","TxChomage":"13.3"}
,{"CODGEO":"04130","TxChomage":"12.5"}
,{"CODGEO":"04132","TxChomage":"12.5"}
,{"CODGEO":"04133","TxChomage":"11.9"}
,{"CODGEO":"04134","TxChomage":"11.9"}
,{"CODGEO":"04135","TxChomage":"12.5"}
,{"CODGEO":"04136","TxChomage":"11.9"}
,{"CODGEO":"04137","TxChomage":"11.9"}
,{"CODGEO":"04138","TxChomage":"12.5"}
,{"CODGEO":"04139","TxChomage":"11.9"}
,{"CODGEO":"04140","TxChomage":"12.5"}
,{"CODGEO":"04141","TxChomage":"12.5"}
,{"CODGEO":"04142","TxChomage":"13.3"}
,{"CODGEO":"04143","TxChomage":"12.5"}
,{"CODGEO":"04144","TxChomage":"11.9"}
,{"CODGEO":"04145","TxChomage":"11.9"}
,{"CODGEO":"04148","TxChomage":"10.8"}
,{"CODGEO":"04149","TxChomage":"12.5"}
,{"CODGEO":"04150","TxChomage":"9.1"}
,{"CODGEO":"04151","TxChomage":"12.5"}
,{"CODGEO":"04152","TxChomage":"12.5"}
,{"CODGEO":"04154","TxChomage":"9.1"}
,{"CODGEO":"04155","TxChomage":"11.9"}
,{"CODGEO":"04156","TxChomage":"12.5"}
,{"CODGEO":"04157","TxChomage":"12.5"}
,{"CODGEO":"04158","TxChomage":"12.5"}
,{"CODGEO":"04159","TxChomage":"12.5"}
,{"CODGEO":"04160","TxChomage":"12.5"}
,{"CODGEO":"04161","TxChomage":"9.1"}
,{"CODGEO":"04162","TxChomage":"12.5"}
,{"CODGEO":"04163","TxChomage":"13.3"}
,{"CODGEO":"04164","TxChomage":"12.5"}
,{"CODGEO":"04166","TxChomage":"12.5"}
,{"CODGEO":"04167","TxChomage":"11.9"}
,{"CODGEO":"04169","TxChomage":"12.5"}
,{"CODGEO":"04170","TxChomage":"10.7"}
,{"CODGEO":"04171","TxChomage":"11.9"}
,{"CODGEO":"04172","TxChomage":"12.5"}
,{"CODGEO":"04173","TxChomage":"11.9"}
,{"CODGEO":"04174","TxChomage":"10.7"}
,{"CODGEO":"04175","TxChomage":"12.5"}
,{"CODGEO":"04176","TxChomage":"12.5"}
,{"CODGEO":"04177","TxChomage":"11.9"}
,{"CODGEO":"04178","TxChomage":"12.5"}
,{"CODGEO":"04179","TxChomage":"11.9"}
,{"CODGEO":"04180","TxChomage":"11.9"}
,{"CODGEO":"04181","TxChomage":"11.9"}
,{"CODGEO":"04182","TxChomage":"11.9"}
,{"CODGEO":"04183","TxChomage":"11.9"}
,{"CODGEO":"04184","TxChomage":"12.5"}
,{"CODGEO":"04186","TxChomage":"12.5"}
,{"CODGEO":"04187","TxChomage":"11.9"}
,{"CODGEO":"04188","TxChomage":"12.5"}
,{"CODGEO":"04189","TxChomage":"12.5"}
,{"CODGEO":"04190","TxChomage":"12.5"}
,{"CODGEO":"04191","TxChomage":"11.9"}
,{"CODGEO":"04192","TxChomage":"12.5"}
,{"CODGEO":"04193","TxChomage":"9.1"}
,{"CODGEO":"04194","TxChomage":"10.7"}
,{"CODGEO":"04195","TxChomage":"9.1"}
,{"CODGEO":"04197","TxChomage":"12.5"}
,{"CODGEO":"04198","TxChomage":"9.1"}
,{"CODGEO":"04199","TxChomage":"11.9"}
,{"CODGEO":"04200","TxChomage":"11.9"}
,{"CODGEO":"04201","TxChomage":"12.5"}
,{"CODGEO":"04202","TxChomage":"10.7"}
,{"CODGEO":"04203","TxChomage":"11.9"}
,{"CODGEO":"04204","TxChomage":"11.9"}
,{"CODGEO":"04205","TxChomage":"11.9"}
,{"CODGEO":"04206","TxChomage":"12.5"}
,{"CODGEO":"04207","TxChomage":"11.9"}
,{"CODGEO":"04208","TxChomage":"13.3"}
,{"CODGEO":"04209","TxChomage":"11.9"}
,{"CODGEO":"04210","TxChomage":"10.7"}
,{"CODGEO":"04211","TxChomage":"11.9"}
,{"CODGEO":"04214","TxChomage":"11.9"}
,{"CODGEO":"04216","TxChomage":"11.9"}
,{"CODGEO":"04217","TxChomage":"11.9"}
,{"CODGEO":"04218","TxChomage":"11.9"}
,{"CODGEO":"04219","TxChomage":"11.9"}
,{"CODGEO":"04220","TxChomage":"9.1"}
,{"CODGEO":"04222","TxChomage":"9.1"}
,{"CODGEO":"04224","TxChomage":"10.7"}
,{"CODGEO":"04226","TxChomage":"9.1"}
,{"CODGEO":"04227","TxChomage":"12.5"}
,{"CODGEO":"04228","TxChomage":"11.9"}
,{"CODGEO":"04229","TxChomage":"11.9"}
,{"CODGEO":"04230","TxChomage":"12.5"}
,{"CODGEO":"04231","TxChomage":"11.9"}
,{"CODGEO":"04233","TxChomage":"11.9"}
,{"CODGEO":"04234","TxChomage":"9.1"}
,{"CODGEO":"04235","TxChomage":"11.9"}
,{"CODGEO":"04236","TxChomage":"11.9"}
,{"CODGEO":"04237","TxChomage":"11.9"}
,{"CODGEO":"04240","TxChomage":"11.9"}
,{"CODGEO":"04241","TxChomage":"12.5"}
,{"CODGEO":"04242","TxChomage":"12.5"}
,{"CODGEO":"04244","TxChomage":"11.9"}
,{"CODGEO":"04245","TxChomage":"12.5"}
]}
