{"status":"success","data":[{"CODGEO":"09001","TxChomage":"12.4"}
,{"CODGEO":"09002","TxChomage":"12.4"}
,{"CODGEO":"09003","TxChomage":"12.4"}
,{"CODGEO":"09004","TxChomage":"12.4"}
,{"CODGEO":"09005","TxChomage":"12.5"}
,{"CODGEO":"09006","TxChomage":"12.4"}
,{"CODGEO":"09007","TxChomage":"12.4"}
,{"CODGEO":"09008","TxChomage":"12.5"}
,{"CODGEO":"09009","TxChomage":"12.4"}
,{"CODGEO":"09011","TxChomage":"12.5"}
,{"CODGEO":"09012","TxChomage":"12.4"}
,{"CODGEO":"09013","TxChomage":"12.4"}
,{"CODGEO":"09014","TxChomage":"12.5"}
,{"CODGEO":"09015","TxChomage":"12.4"}
,{"CODGEO":"09016","TxChomage":"12.4"}
,{"CODGEO":"09017","TxChomage":"12.5"}
,{"CODGEO":"09018","TxChomage":"12.5"}
,{"CODGEO":"09019","TxChomage":"10.6"}
,{"CODGEO":"09020","TxChomage":"12.4"}
,{"CODGEO":"09021","TxChomage":"12.4"}
,{"CODGEO":"09022","TxChomage":"12.4"}
,{"CODGEO":"09023","TxChomage":"12.4"}
,{"CODGEO":"09024","TxChomage":"12.4"}
,{"CODGEO":"09025","TxChomage":"12.5"}
,{"CODGEO":"09026","TxChomage":"12.5"}
,{"CODGEO":"09027","TxChomage":"12.5"}
,{"CODGEO":"09028","TxChomage":"12.4"}
,{"CODGEO":"09029","TxChomage":"12.5"}
,{"CODGEO":"09030","TxChomage":"12.4"}
,{"CODGEO":"09031","TxChomage":"12.4"}
,{"CODGEO":"09032","TxChomage":"12.4"}
,{"CODGEO":"09033","TxChomage":"12.5"}
,{"CODGEO":"09034","TxChomage":"12.5"}
,{"CODGEO":"09035","TxChomage":"12.5"}
,{"CODGEO":"09037","TxChomage":"12.5"}
,{"CODGEO":"09038","TxChomage":"10.6"}
,{"CODGEO":"09039","TxChomage":"12.4"}
,{"CODGEO":"09040","TxChomage":"12.4"}
,{"CODGEO":"09041","TxChomage":"12.5"}
,{"CODGEO":"09042","TxChomage":"12.4"}
,{"CODGEO":"09043","TxChomage":"12.4"}
,{"CODGEO":"09044","TxChomage":"12.4"}
,{"CODGEO":"09045","TxChomage":"12.4"}
,{"CODGEO":"09046","TxChomage":"10.6"}
,{"CODGEO":"09047","TxChomage":"12.4"}
,{"CODGEO":"09048","TxChomage":"12.4"}
,{"CODGEO":"09049","TxChomage":"12.4"}
,{"CODGEO":"09050","TxChomage":"12.4"}
,{"CODGEO":"09051","TxChomage":"12.4"}
,{"CODGEO":"09052","TxChomage":"12.4"}
,{"CODGEO":"09053","TxChomage":"12.4"}
,{"CODGEO":"09054","TxChomage":"12.5"}
,{"CODGEO":"09055","TxChomage":"12.5"}
,{"CODGEO":"09056","TxChomage":"12.4"}
,{"CODGEO":"09057","TxChomage":"12.5"}
,{"CODGEO":"09058","TxChomage":"12.4"}
,{"CODGEO":"09059","TxChomage":"12.5"}
,{"CODGEO":"09060","TxChomage":"12.4"}
,{"CODGEO":"09061","TxChomage":"10.6"}
,{"CODGEO":"09062","TxChomage":"12.5"}
,{"CODGEO":"09063","TxChomage":"12.4"}
,{"CODGEO":"09064","TxChomage":"12.4"}
,{"CODGEO":"09065","TxChomage":"12.5"}
,{"CODGEO":"09066","TxChomage":"12.4"}
,{"CODGEO":"09067","TxChomage":"12.4"}
,{"CODGEO":"09068","TxChomage":"12.4"}
,{"CODGEO":"09069","TxChomage":"12.5"}
,{"CODGEO":"09070","TxChomage":"12.4"}
,{"CODGEO":"09071","TxChomage":"12.4"}
,{"CODGEO":"09072","TxChomage":"12.4"}
,{"CODGEO":"09073","TxChomage":"10.6"}
,{"CODGEO":"09074","TxChomage":"12.4"}
,{"CODGEO":"09075","TxChomage":"10.6"}
,{"CODGEO":"09076","TxChomage":"12.4"}
,{"CODGEO":"09077","TxChomage":"12.4"}
,{"CODGEO":"09078","TxChomage":"12.4"}
,{"CODGEO":"09079","TxChomage":"10.6"}
,{"CODGEO":"09080","TxChomage":"12.4"}
,{"CODGEO":"09081","TxChomage":"12.4"}
,{"CODGEO":"09082","TxChomage":"12.5"}
,{"CODGEO":"09083","TxChomage":"10.6"}
,{"CODGEO":"09084","TxChomage":"10.6"}
,{"CODGEO":"09085","TxChomage":"12.5"}
,{"CODGEO":"09086","TxChomage":"12.5"}
,{"CODGEO":"09087","TxChomage":"12.4"}
,{"CODGEO":"09088","TxChomage":"12.4"}
,{"CODGEO":"09089","TxChomage":"12.4"}
,{"CODGEO":"09090","TxChomage":"12.4"}
,{"CODGEO":"09091","TxChomage":"12.5"}
,{"CODGEO":"09092","TxChomage":"12.4"}
,{"CODGEO":"09093","TxChomage":"12.4"}
,{"CODGEO":"09094","TxChomage":"10.6"}
,{"CODGEO":"09095","TxChomage":"12.5"}
,{"CODGEO":"09096","TxChomage":"12.4"}
,{"CODGEO":"09097","TxChomage":"12.5"}
,{"CODGEO":"09098","TxChomage":"12.5"}
,{"CODGEO":"09099","TxChomage":"12.4"}
,{"CODGEO":"09100","TxChomage":"12.5"}
,{"CODGEO":"09101","TxChomage":"12.4"}
,{"CODGEO":"09102","TxChomage":"12.4"}
,{"CODGEO":"09103","TxChomage":"12.4"}
,{"CODGEO":"09104","TxChomage":"12.4"}
,{"CODGEO":"09105","TxChomage":"10.6"}
,{"CODGEO":"09106","TxChomage":"12.4"}
,{"CODGEO":"09107","TxChomage":"12.4"}
,{"CODGEO":"09108","TxChomage":"12.4"}
,{"CODGEO":"09109","TxChomage":"10.6"}
,{"CODGEO":"09110","TxChomage":"12.5"}
,{"CODGEO":"09111","TxChomage":"12.5"}
,{"CODGEO":"09113","TxChomage":"12.5"}
,{"CODGEO":"09114","TxChomage":"12.5"}
,{"CODGEO":"09115","TxChomage":"12.4"}
,{"CODGEO":"09116","TxChomage":"12.4"}
,{"CODGEO":"09117","TxChomage":"12.4"}
,{"CODGEO":"09118","TxChomage":"12.5"}
,{"CODGEO":"09119","TxChomage":"12.5"}
,{"CODGEO":"09120","TxChomage":"10.6"}
,{"CODGEO":"09121","TxChomage":"12.4"}
,{"CODGEO":"09122","TxChomage":"12.4"}
,{"CODGEO":"09123","TxChomage":"10.6"}
,{"CODGEO":"09124","TxChomage":"10.6"}
,{"CODGEO":"09125","TxChomage":"12.4"}
,{"CODGEO":"09126","TxChomage":"12.4"}
,{"CODGEO":"09127","TxChomage":"10.6"}
,{"CODGEO":"09128","TxChomage":"12.5"}
,{"CODGEO":"09129","TxChomage":"12.5"}
,{"CODGEO":"09130","TxChomage":"12.4"}
,{"CODGEO":"09131","TxChomage":"12.4"}
,{"CODGEO":"09132","TxChomage":"12.4"}
,{"CODGEO":"09133","TxChomage":"12.4"}
,{"CODGEO":"09134","TxChomage":"12.4"}
,{"CODGEO":"09135","TxChomage":"12.4"}
,{"CODGEO":"09136","TxChomage":"12.4"}
,{"CODGEO":"09137","TxChomage":"12.4"}
,{"CODGEO":"09138","TxChomage":"12.4"}
,{"CODGEO":"09139","TxChomage":"12.4"}
,{"CODGEO":"09140","TxChomage":"12.4"}
,{"CODGEO":"09141","TxChomage":"12.5"}
,{"CODGEO":"09142","TxChomage":"12.4"}
,{"CODGEO":"09143","TxChomage":"12.4"}
,{"CODGEO":"09145","TxChomage":"12.4"}
,{"CODGEO":"09146","TxChomage":"12.4"}
,{"CODGEO":"09147","TxChomage":"12.4"}
,{"CODGEO":"09148","TxChomage":"12.5"}
,{"CODGEO":"09149","TxChomage":"12.5"}
,{"CODGEO":"09150","TxChomage":"12.4"}
,{"CODGEO":"09151","TxChomage":"10.6"}
,{"CODGEO":"09152","TxChomage":"12.4"}
,{"CODGEO":"09153","TxChomage":"12.4"}
,{"CODGEO":"09154","TxChomage":"12.4"}
,{"CODGEO":"09155","TxChomage":"12.4"}
,{"CODGEO":"09156","TxChomage":"12.4"}
,{"CODGEO":"09157","TxChomage":"12.4"}
,{"CODGEO":"09158","TxChomage":"12.5"}
,{"CODGEO":"09159","TxChomage":"12.4"}
,{"CODGEO":"09160","TxChomage":"12.4"}
,{"CODGEO":"09161","TxChomage":"12.4"}
,{"CODGEO":"09162","TxChomage":"12.4"}
,{"CODGEO":"09163","TxChomage":"12.4"}
,{"CODGEO":"09164","TxChomage":"12.5"}
,{"CODGEO":"09165","TxChomage":"12.4"}
,{"CODGEO":"09166","TxChomage":"12.4"}
,{"CODGEO":"09167","TxChomage":"10.6"}
,{"CODGEO":"09168","TxChomage":"12.4"}
,{"CODGEO":"09169","TxChomage":"12.4"}
,{"CODGEO":"09170","TxChomage":"12.4"}
,{"CODGEO":"09171","TxChomage":"12.4"}
,{"CODGEO":"09172","TxChomage":"10.6"}
,{"CODGEO":"09173","TxChomage":"12.4"}
,{"CODGEO":"09174","TxChomage":"12.4"}
,{"CODGEO":"09175","TxChomage":"12.4"}
,{"CODGEO":"09176","TxChomage":"12.4"}
,{"CODGEO":"09177","TxChomage":"12.4"}
,{"CODGEO":"09178","TxChomage":"12.4"}
,{"CODGEO":"09179","TxChomage":"12.4"}
,{"CODGEO":"09180","TxChomage":"12.4"}
,{"CODGEO":"09181","TxChomage":"10.6"}
,{"CODGEO":"09182","TxChomage":"12.5"}
,{"CODGEO":"09183","TxChomage":"12.5"}
,{"CODGEO":"09184","TxChomage":"10.6"}
,{"CODGEO":"09185","TxChomage":"12.4"}
,{"CODGEO":"09186","TxChomage":"10.6"}
,{"CODGEO":"09187","TxChomage":"12.5"}
,{"CODGEO":"09188","TxChomage":"12.4"}
,{"CODGEO":"09189","TxChomage":"12.4"}
,{"CODGEO":"09190","TxChomage":"12.5"}
,{"CODGEO":"09192","TxChomage":"12.4"}
,{"CODGEO":"09193","TxChomage":"12.4"}
,{"CODGEO":"09194","TxChomage":"12.4"}
,{"CODGEO":"09195","TxChomage":"10.6"}
,{"CODGEO":"09196","TxChomage":"12.4"}
,{"CODGEO":"09197","TxChomage":"12.4"}
,{"CODGEO":"09198","TxChomage":"12.5"}
,{"CODGEO":"09199","TxChomage":"12.4"}
,{"CODGEO":"09200","TxChomage":"12.4"}
,{"CODGEO":"09201","TxChomage":"12.5"}
,{"CODGEO":"09202","TxChomage":"12.4"}
,{"CODGEO":"09203","TxChomage":"12.4"}
,{"CODGEO":"09204","TxChomage":"12.5"}
,{"CODGEO":"09205","TxChomage":"10.6"}
,{"CODGEO":"09206","TxChomage":"12.4"}
,{"CODGEO":"09207","TxChomage":"12.4"}
,{"CODGEO":"09208","TxChomage":"12.5"}
,{"CODGEO":"09209","TxChomage":"12.5"}
,{"CODGEO":"09210","TxChomage":"12.4"}
,{"CODGEO":"09211","TxChomage":"12.4"}
,{"CODGEO":"09212","TxChomage":"12.5"}
,{"CODGEO":"09213","TxChomage":"12.4"}
,{"CODGEO":"09214","TxChomage":"12.5"}
,{"CODGEO":"09215","TxChomage":"12.4"}
,{"CODGEO":"09216","TxChomage":"12.4"}
,{"CODGEO":"09217","TxChomage":"12.4"}
,{"CODGEO":"09218","TxChomage":"12.4"}
,{"CODGEO":"09219","TxChomage":"12.5"}
,{"CODGEO":"09220","TxChomage":"12.4"}
,{"CODGEO":"09221","TxChomage":"12.4"}
,{"CODGEO":"09222","TxChomage":"12.4"}
,{"CODGEO":"09223","TxChomage":"12.5"}
,{"CODGEO":"09224","TxChomage":"10.6"}
,{"CODGEO":"09225","TxChomage":"12.4"}
,{"CODGEO":"09226","TxChomage":"12.4"}
,{"CODGEO":"09227","TxChomage":"12.4"}
,{"CODGEO":"09228","TxChomage":"12.4"}
,{"CODGEO":"09229","TxChomage":"12.4"}
,{"CODGEO":"09230","TxChomage":"12.4"}
,{"CODGEO":"09231","TxChomage":"12.5"}
,{"CODGEO":"09232","TxChomage":"12.4"}
,{"CODGEO":"09233","TxChomage":"12.4"}
,{"CODGEO":"09234","TxChomage":"12.4"}
,{"CODGEO":"09235","TxChomage":"12.5"}
,{"CODGEO":"09236","TxChomage":"12.4"}
,{"CODGEO":"09237","TxChomage":"12.4"}
,{"CODGEO":"09238","TxChomage":"12.4"}
,{"CODGEO":"09239","TxChomage":"12.4"}
,{"CODGEO":"09240","TxChomage":"12.4"}
,{"CODGEO":"09241","TxChomage":"12.4"}
,{"CODGEO":"09242","TxChomage":"12.4"}
,{"CODGEO":"09243","TxChomage":"12.4"}
,{"CODGEO":"09244","TxChomage":"12.4"}
,{"CODGEO":"09245","TxChomage":"12.4"}
,{"CODGEO":"09246","TxChomage":"12.5"}
,{"CODGEO":"09247","TxChomage":"12.5"}
,{"CODGEO":"09249","TxChomage":"12.4"}
,{"CODGEO":"09250","TxChomage":"12.4"}
,{"CODGEO":"09251","TxChomage":"12.4"}
,{"CODGEO":"09252","TxChomage":"12.4"}
,{"CODGEO":"09253","TxChomage":"10.6"}
,{"CODGEO":"09254","TxChomage":"12.4"}
,{"CODGEO":"09255","TxChomage":"12.4"}
,{"CODGEO":"09256","TxChomage":"12.4"}
,{"CODGEO":"09257","TxChomage":"10.6"}
,{"CODGEO":"09258","TxChomage":"12.4"}
,{"CODGEO":"09259","TxChomage":"12.4"}
,{"CODGEO":"09260","TxChomage":"12.4"}
,{"CODGEO":"09261","TxChomage":"12.5"}
,{"CODGEO":"09262","TxChomage":"12.4"}
,{"CODGEO":"09263","TxChomage":"12.5"}
,{"CODGEO":"09264","TxChomage":"12.4"}
,{"CODGEO":"09265","TxChomage":"12.4"}
,{"CODGEO":"09266","TxChomage":"12.4"}
,{"CODGEO":"09267","TxChomage":"12.5"}
,{"CODGEO":"09268","TxChomage":"12.5"}
,{"CODGEO":"09269","TxChomage":"12.4"}
,{"CODGEO":"09270","TxChomage":"12.4"}
,{"CODGEO":"09271","TxChomage":"12.4"}
,{"CODGEO":"09272","TxChomage":"12.4"}
,{"CODGEO":"09273","TxChomage":"12.4"}
,{"CODGEO":"09274","TxChomage":"12.4"}
,{"CODGEO":"09275","TxChomage":"12.4"}
,{"CODGEO":"09276","TxChomage":"12.4"}
,{"CODGEO":"09277","TxChomage":"10.6"}
,{"CODGEO":"09279","TxChomage":"12.5"}
,{"CODGEO":"09280","TxChomage":"12.4"}
,{"CODGEO":"09281","TxChomage":"12.4"}
,{"CODGEO":"09282","TxChomage":"12.4"}
,{"CODGEO":"09283","TxChomage":"12.4"}
,{"CODGEO":"09284","TxChomage":"12.4"}
,{"CODGEO":"09285","TxChomage":"12.5"}
,{"CODGEO":"09286","TxChomage":"12.4"}
,{"CODGEO":"09287","TxChomage":"12.4"}
,{"CODGEO":"09289","TxChomage":"12.5"}
,{"CODGEO":"09290","TxChomage":"12.5"}
,{"CODGEO":"09291","TxChomage":"12.5"}
,{"CODGEO":"09292","TxChomage":"12.5"}
,{"CODGEO":"09293","TxChomage":"12.4"}
,{"CODGEO":"09294","TxChomage":"10.6"}
,{"CODGEO":"09295","TxChomage":"12.4"}
,{"CODGEO":"09296","TxChomage":"12.4"}
,{"CODGEO":"09297","TxChomage":"12.5"}
,{"CODGEO":"09298","TxChomage":"12.4"}
,{"CODGEO":"09299","TxChomage":"12.5"}
,{"CODGEO":"09300","TxChomage":"12.4"}
,{"CODGEO":"09301","TxChomage":"12.5"}
,{"CODGEO":"09302","TxChomage":"12.4"}
,{"CODGEO":"09303","TxChomage":"12.4"}
,{"CODGEO":"09304","TxChomage":"12.4"}
,{"CODGEO":"09305","TxChomage":"12.4"}
,{"CODGEO":"09306","TxChomage":"12.4"}
,{"CODGEO":"09307","TxChomage":"12.5"}
,{"CODGEO":"09308","TxChomage":"12.5"}
,{"CODGEO":"09309","TxChomage":"12.4"}
,{"CODGEO":"09310","TxChomage":"10.6"}
,{"CODGEO":"09311","TxChomage":"12.4"}
,{"CODGEO":"09312","TxChomage":"12.4"}
,{"CODGEO":"09313","TxChomage":"10.6"}
,{"CODGEO":"09314","TxChomage":"12.4"}
,{"CODGEO":"09315","TxChomage":"12.4"}
,{"CODGEO":"09316","TxChomage":"12.4"}
,{"CODGEO":"09317","TxChomage":"12.5"}
,{"CODGEO":"09318","TxChomage":"12.4"}
,{"CODGEO":"09319","TxChomage":"12.4"}
,{"CODGEO":"09320","TxChomage":"12.4"}
,{"CODGEO":"09321","TxChomage":"12.4"}
,{"CODGEO":"09322","TxChomage":"12.5"}
,{"CODGEO":"09323","TxChomage":"12.4"}
,{"CODGEO":"09324","TxChomage":"12.4"}
,{"CODGEO":"09325","TxChomage":"12.4"}
,{"CODGEO":"09326","TxChomage":"12.4"}
,{"CODGEO":"09327","TxChomage":"12.4"}
,{"CODGEO":"09328","TxChomage":"12.4"}
,{"CODGEO":"09329","TxChomage":"12.4"}
,{"CODGEO":"09330","TxChomage":"12.4"}
,{"CODGEO":"09331","TxChomage":"12.4"}
,{"CODGEO":"09332","TxChomage":"12.4"}
,{"CODGEO":"09334","TxChomage":"12.4"}
,{"CODGEO":"09335","TxChomage":"12.5"}
,{"CODGEO":"09336","TxChomage":"12.4"}
,{"CODGEO":"09338","TxChomage":"10.6"}
,{"CODGEO":"09339","TxChomage":"12.4"}
,{"CODGEO":"09340","TxChomage":"12.4"}
,{"CODGEO":"09341","TxChomage":"12.4"}
,{"CODGEO":"09342","TxChomage":"10.6"}
]}
