{"status":"success","data":[{"CODGEO":"16001","TxChomage":"10.8"}
,{"CODGEO":"16002","TxChomage":"10.8"}
,{"CODGEO":"16003","TxChomage":"10.8"}
,{"CODGEO":"16004","TxChomage":"10.8"}
,{"CODGEO":"16005","TxChomage":"10.8"}
,{"CODGEO":"16007","TxChomage":"10.8"}
,{"CODGEO":"16008","TxChomage":"10.8"}
,{"CODGEO":"16009","TxChomage":"10.8"}
,{"CODGEO":"16010","TxChomage":"8.8"}
,{"CODGEO":"16011","TxChomage":"10.8"}
,{"CODGEO":"16012","TxChomage":"8.8"}
,{"CODGEO":"16013","TxChomage":"10.8"}
,{"CODGEO":"16014","TxChomage":"9.8"}
,{"CODGEO":"16015","TxChomage":"10.8"}
,{"CODGEO":"16016","TxChomage":"10.8"}
,{"CODGEO":"16017","TxChomage":"10.8"}
,{"CODGEO":"16018","TxChomage":"8.8"}
,{"CODGEO":"16019","TxChomage":"10.8"}
,{"CODGEO":"16020","TxChomage":"10.8"}
,{"CODGEO":"16021","TxChomage":"10.8"}
,{"CODGEO":"16023","TxChomage":"10.8"}
,{"CODGEO":"16024","TxChomage":"10.8"}
,{"CODGEO":"16025","TxChomage":"9.8"}
,{"CODGEO":"16026","TxChomage":"10.8"}
,{"CODGEO":"16027","TxChomage":"10.8"}
,{"CODGEO":"16028","TxChomage":"9.8"}
,{"CODGEO":"16029","TxChomage":"10.8"}
,{"CODGEO":"16030","TxChomage":"9.8"}
,{"CODGEO":"16031","TxChomage":"10.8"}
,{"CODGEO":"16032","TxChomage":"8.8"}
,{"CODGEO":"16033","TxChomage":"10.8"}
,{"CODGEO":"16034","TxChomage":"10.8"}
,{"CODGEO":"16035","TxChomage":"10.8"}
,{"CODGEO":"16036","TxChomage":"10.8"}
,{"CODGEO":"16037","TxChomage":"10.8"}
,{"CODGEO":"16038","TxChomage":"10.8"}
,{"CODGEO":"16039","TxChomage":"10.8"}
,{"CODGEO":"16040","TxChomage":"9.8"}
,{"CODGEO":"16041","TxChomage":"10.8"}
,{"CODGEO":"16042","TxChomage":"10.8"}
,{"CODGEO":"16043","TxChomage":"10.8"}
,{"CODGEO":"16044","TxChomage":"10.8"}
,{"CODGEO":"16045","TxChomage":"10.8"}
,{"CODGEO":"16046","TxChomage":"10.8"}
,{"CODGEO":"16047","TxChomage":"10.8"}
,{"CODGEO":"16048","TxChomage":"9.8"}
,{"CODGEO":"16049","TxChomage":"10.8"}
,{"CODGEO":"16050","TxChomage":"10.8"}
,{"CODGEO":"16051","TxChomage":"10.8"}
,{"CODGEO":"16052","TxChomage":"10.8"}
,{"CODGEO":"16053","TxChomage":"9.8"}
,{"CODGEO":"16054","TxChomage":"10.8"}
,{"CODGEO":"16055","TxChomage":"10.8"}
,{"CODGEO":"16056","TxChomage":"8.8"}
,{"CODGEO":"16057","TxChomage":"10.8"}
,{"CODGEO":"16058","TxChomage":"8.8"}
,{"CODGEO":"16059","TxChomage":"10.8"}
,{"CODGEO":"16060","TxChomage":"8.8"}
,{"CODGEO":"16061","TxChomage":"10.8"}
,{"CODGEO":"16062","TxChomage":"9.8"}
,{"CODGEO":"16063","TxChomage":"10.8"}
,{"CODGEO":"16064","TxChomage":"10.8"}
,{"CODGEO":"16065","TxChomage":"10.8"}
,{"CODGEO":"16066","TxChomage":"10.8"}
,{"CODGEO":"16067","TxChomage":"10.8"}
,{"CODGEO":"16068","TxChomage":"10.8"}
,{"CODGEO":"16069","TxChomage":"10.8"}
,{"CODGEO":"16070","TxChomage":"10.8"}
,{"CODGEO":"16071","TxChomage":"10.8"}
,{"CODGEO":"16072","TxChomage":"10.8"}
,{"CODGEO":"16073","TxChomage":"10.8"}
,{"CODGEO":"16074","TxChomage":"9.8"}
,{"CODGEO":"16075","TxChomage":"10.8"}
,{"CODGEO":"16076","TxChomage":"10.8"}
,{"CODGEO":"16077","TxChomage":"10.8"}
,{"CODGEO":"16078","TxChomage":"10.8"}
,{"CODGEO":"16079","TxChomage":"9.8"}
,{"CODGEO":"16081","TxChomage":"10.8"}
,{"CODGEO":"16082","TxChomage":"10.8"}
,{"CODGEO":"16083","TxChomage":"10.8"}
,{"CODGEO":"16084","TxChomage":"10.8"}
,{"CODGEO":"16085","TxChomage":"10.8"}
,{"CODGEO":"16086","TxChomage":"10.8"}
,{"CODGEO":"16087","TxChomage":"10.8"}
,{"CODGEO":"16088","TxChomage":"8.8"}
,{"CODGEO":"16089","TxChomage":"8.8"}
,{"CODGEO":"16090","TxChomage":"10.8"}
,{"CODGEO":"16091","TxChomage":"10.8"}
,{"CODGEO":"16092","TxChomage":"10.8"}
,{"CODGEO":"16093","TxChomage":"10.8"}
,{"CODGEO":"16094","TxChomage":"10.8"}
,{"CODGEO":"16095","TxChomage":"10.8"}
,{"CODGEO":"16096","TxChomage":"10.8"}
,{"CODGEO":"16097","TxChomage":"8.8"}
,{"CODGEO":"16098","TxChomage":"10.8"}
,{"CODGEO":"16099","TxChomage":"9.8"}
,{"CODGEO":"16100","TxChomage":"10.8"}
,{"CODGEO":"16101","TxChomage":"10.8"}
,{"CODGEO":"16102","TxChomage":"8.8"}
,{"CODGEO":"16103","TxChomage":"10.8"}
,{"CODGEO":"16104","TxChomage":"10.8"}
,{"CODGEO":"16105","TxChomage":"9.8"}
,{"CODGEO":"16106","TxChomage":"10.8"}
,{"CODGEO":"16107","TxChomage":"10.8"}
,{"CODGEO":"16108","TxChomage":"10.8"}
,{"CODGEO":"16109","TxChomage":"8.8"}
,{"CODGEO":"16110","TxChomage":"10.8"}
,{"CODGEO":"16111","TxChomage":"10.8"}
,{"CODGEO":"16112","TxChomage":"10.8"}
,{"CODGEO":"16113","TxChomage":"10.8"}
,{"CODGEO":"16114","TxChomage":"10.8"}
,{"CODGEO":"16115","TxChomage":"10.8"}
,{"CODGEO":"16116","TxChomage":"8.8"}
,{"CODGEO":"16117","TxChomage":"10.8"}
,{"CODGEO":"16118","TxChomage":"10.8"}
,{"CODGEO":"16119","TxChomage":"10.8"}
,{"CODGEO":"16120","TxChomage":"10.8"}
,{"CODGEO":"16121","TxChomage":"10.8"}
,{"CODGEO":"16122","TxChomage":"10.8"}
,{"CODGEO":"16123","TxChomage":"10.8"}
,{"CODGEO":"16124","TxChomage":"10.8"}
,{"CODGEO":"16125","TxChomage":"10.8"}
,{"CODGEO":"16127","TxChomage":"10.8"}
,{"CODGEO":"16128","TxChomage":"10.8"}
,{"CODGEO":"16129","TxChomage":"10.8"}
,{"CODGEO":"16130","TxChomage":"10.8"}
,{"CODGEO":"16131","TxChomage":"10.8"}
,{"CODGEO":"16132","TxChomage":"10.8"}
,{"CODGEO":"16133","TxChomage":"10.8"}
,{"CODGEO":"16134","TxChomage":"10.8"}
,{"CODGEO":"16135","TxChomage":"10.8"}
,{"CODGEO":"16136","TxChomage":"10.8"}
,{"CODGEO":"16137","TxChomage":"10.8"}
,{"CODGEO":"16138","TxChomage":"10.8"}
,{"CODGEO":"16139","TxChomage":"10.8"}
,{"CODGEO":"16140","TxChomage":"10.8"}
,{"CODGEO":"16141","TxChomage":"10.8"}
,{"CODGEO":"16142","TxChomage":"10.8"}
,{"CODGEO":"16143","TxChomage":"10.8"}
,{"CODGEO":"16144","TxChomage":"10.8"}
,{"CODGEO":"16145","TxChomage":"8.8"}
,{"CODGEO":"16146","TxChomage":"10.8"}
,{"CODGEO":"16147","TxChomage":"10.8"}
,{"CODGEO":"16148","TxChomage":"10.8"}
,{"CODGEO":"16149","TxChomage":"10.8"}
,{"CODGEO":"16150","TxChomage":"8.8"}
,{"CODGEO":"16151","TxChomage":"8.8"}
,{"CODGEO":"16152","TxChomage":"8.8"}
,{"CODGEO":"16153","TxChomage":"8.8"}
,{"CODGEO":"16154","TxChomage":"10.8"}
,{"CODGEO":"16155","TxChomage":"8"}
,{"CODGEO":"16156","TxChomage":"10.8"}
,{"CODGEO":"16157","TxChomage":"10.8"}
,{"CODGEO":"16158","TxChomage":"10.8"}
,{"CODGEO":"16160","TxChomage":"9.8"}
,{"CODGEO":"16161","TxChomage":"10.8"}
,{"CODGEO":"16162","TxChomage":"10.8"}
,{"CODGEO":"16163","TxChomage":"10.8"}
,{"CODGEO":"16164","TxChomage":"10.8"}
,{"CODGEO":"16165","TxChomage":"8.8"}
,{"CODGEO":"16166","TxChomage":"10.8"}
,{"CODGEO":"16167","TxChomage":"8.8"}
,{"CODGEO":"16168","TxChomage":"10.8"}
,{"CODGEO":"16169","TxChomage":"8.8"}
,{"CODGEO":"16170","TxChomage":"10.8"}
,{"CODGEO":"16171","TxChomage":"8.8"}
,{"CODGEO":"16172","TxChomage":"10.8"}
,{"CODGEO":"16173","TxChomage":"10.8"}
,{"CODGEO":"16174","TxChomage":"8.8"}
,{"CODGEO":"16175","TxChomage":"10.8"}
,{"CODGEO":"16176","TxChomage":"9.8"}
,{"CODGEO":"16177","TxChomage":"10.8"}
,{"CODGEO":"16178","TxChomage":"9.8"}
,{"CODGEO":"16179","TxChomage":"9.8"}
,{"CODGEO":"16180","TxChomage":"10.8"}
,{"CODGEO":"16181","TxChomage":"10.8"}
,{"CODGEO":"16182","TxChomage":"10.8"}
,{"CODGEO":"16183","TxChomage":"10.8"}
,{"CODGEO":"16184","TxChomage":"10.8"}
,{"CODGEO":"16185","TxChomage":"10.8"}
,{"CODGEO":"16186","TxChomage":"8.8"}
,{"CODGEO":"16187","TxChomage":"10.8"}
,{"CODGEO":"16188","TxChomage":"10.8"}
,{"CODGEO":"16189","TxChomage":"10.8"}
,{"CODGEO":"16190","TxChomage":"10.8"}
,{"CODGEO":"16191","TxChomage":"10.8"}
,{"CODGEO":"16192","TxChomage":"10.8"}
,{"CODGEO":"16193","TxChomage":"8.8"}
,{"CODGEO":"16194","TxChomage":"10.8"}
,{"CODGEO":"16195","TxChomage":"10.8"}
,{"CODGEO":"16196","TxChomage":"10.8"}
,{"CODGEO":"16197","TxChomage":"10.8"}
,{"CODGEO":"16198","TxChomage":"10.8"}
,{"CODGEO":"16199","TxChomage":"10.8"}
,{"CODGEO":"16200","TxChomage":"10.8"}
,{"CODGEO":"16201","TxChomage":"10.8"}
,{"CODGEO":"16202","TxChomage":"8.8"}
,{"CODGEO":"16203","TxChomage":"10.8"}
,{"CODGEO":"16204","TxChomage":"10.8"}
,{"CODGEO":"16205","TxChomage":"10.8"}
,{"CODGEO":"16206","TxChomage":"10.8"}
,{"CODGEO":"16207","TxChomage":"10.8"}
,{"CODGEO":"16208","TxChomage":"8.8"}
,{"CODGEO":"16209","TxChomage":"10.8"}
,{"CODGEO":"16210","TxChomage":"10.8"}
,{"CODGEO":"16211","TxChomage":"10.8"}
,{"CODGEO":"16212","TxChomage":"10.8"}
,{"CODGEO":"16213","TxChomage":"10.8"}
,{"CODGEO":"16214","TxChomage":"10.8"}
,{"CODGEO":"16215","TxChomage":"10.8"}
,{"CODGEO":"16216","TxChomage":"8.8"}
,{"CODGEO":"16217","TxChomage":"8.8"}
,{"CODGEO":"16218","TxChomage":"8.8"}
,{"CODGEO":"16220","TxChomage":"8.8"}
,{"CODGEO":"16221","TxChomage":"10.8"}
,{"CODGEO":"16222","TxChomage":"10.8"}
,{"CODGEO":"16223","TxChomage":"10.8"}
,{"CODGEO":"16224","TxChomage":"9.8"}
,{"CODGEO":"16225","TxChomage":"10.8"}
,{"CODGEO":"16226","TxChomage":"10.8"}
,{"CODGEO":"16227","TxChomage":"10.8"}
,{"CODGEO":"16228","TxChomage":"10.8"}
,{"CODGEO":"16229","TxChomage":"10.8"}
,{"CODGEO":"16230","TxChomage":"10.8"}
,{"CODGEO":"16231","TxChomage":"10.8"}
,{"CODGEO":"16232","TxChomage":"10.8"}
,{"CODGEO":"16233","TxChomage":"10.8"}
,{"CODGEO":"16234","TxChomage":"10.8"}
,{"CODGEO":"16236","TxChomage":"10.8"}
,{"CODGEO":"16237","TxChomage":"10.8"}
,{"CODGEO":"16238","TxChomage":"10.8"}
,{"CODGEO":"16239","TxChomage":"10.8"}
,{"CODGEO":"16240","TxChomage":"10.8"}
,{"CODGEO":"16241","TxChomage":"10.8"}
,{"CODGEO":"16242","TxChomage":"10.8"}
,{"CODGEO":"16243","TxChomage":"8.8"}
,{"CODGEO":"16244","TxChomage":"10.8"}
,{"CODGEO":"16245","TxChomage":"10.8"}
,{"CODGEO":"16246","TxChomage":"10.8"}
,{"CODGEO":"16247","TxChomage":"10.8"}
,{"CODGEO":"16248","TxChomage":"10.8"}
,{"CODGEO":"16249","TxChomage":"10.8"}
,{"CODGEO":"16250","TxChomage":"10.8"}
,{"CODGEO":"16251","TxChomage":"9.8"}
,{"CODGEO":"16252","TxChomage":"10.8"}
,{"CODGEO":"16253","TxChomage":"10.8"}
,{"CODGEO":"16254","TxChomage":"10.8"}
,{"CODGEO":"16255","TxChomage":"10.8"}
,{"CODGEO":"16256","TxChomage":"9.8"}
,{"CODGEO":"16257","TxChomage":"10.8"}
,{"CODGEO":"16258","TxChomage":"10.8"}
,{"CODGEO":"16259","TxChomage":"10.8"}
,{"CODGEO":"16260","TxChomage":"10.8"}
,{"CODGEO":"16261","TxChomage":"10.8"}
,{"CODGEO":"16262","TxChomage":"8.8"}
,{"CODGEO":"16263","TxChomage":"10.8"}
,{"CODGEO":"16264","TxChomage":"8.1"}
,{"CODGEO":"16267","TxChomage":"10.8"}
,{"CODGEO":"16268","TxChomage":"10.8"}
,{"CODGEO":"16269","TxChomage":"10.8"}
,{"CODGEO":"16270","TxChomage":"10.8"}
,{"CODGEO":"16271","TxChomage":"10.8"}
,{"CODGEO":"16272","TxChomage":"10.8"}
,{"CODGEO":"16273","TxChomage":"10.8"}
,{"CODGEO":"16274","TxChomage":"10.8"}
,{"CODGEO":"16275","TxChomage":"10.8"}
,{"CODGEO":"16276","TxChomage":"9.8"}
,{"CODGEO":"16277","TxChomage":"8.8"}
,{"CODGEO":"16279","TxChomage":"10.8"}
,{"CODGEO":"16280","TxChomage":"10.8"}
,{"CODGEO":"16281","TxChomage":"10.8"}
,{"CODGEO":"16282","TxChomage":"10.8"}
,{"CODGEO":"16283","TxChomage":"10.8"}
,{"CODGEO":"16284","TxChomage":"10.8"}
,{"CODGEO":"16285","TxChomage":"10.8"}
,{"CODGEO":"16286","TxChomage":"10.8"}
,{"CODGEO":"16287","TxChomage":"10.8"}
,{"CODGEO":"16289","TxChomage":"10.8"}
,{"CODGEO":"16290","TxChomage":"10.8"}
,{"CODGEO":"16291","TxChomage":"10.8"}
,{"CODGEO":"16292","TxChomage":"10.8"}
,{"CODGEO":"16293","TxChomage":"10.8"}
,{"CODGEO":"16294","TxChomage":"10.8"}
,{"CODGEO":"16295","TxChomage":"10.8"}
,{"CODGEO":"16296","TxChomage":"10.8"}
,{"CODGEO":"16297","TxChomage":"10.8"}
,{"CODGEO":"16298","TxChomage":"10.8"}
,{"CODGEO":"16300","TxChomage":"10.8"}
,{"CODGEO":"16301","TxChomage":"9.8"}
,{"CODGEO":"16302","TxChomage":"10.8"}
,{"CODGEO":"16303","TxChomage":"9.8"}
,{"CODGEO":"16304","TxChomage":"8.8"}
,{"CODGEO":"16306","TxChomage":"10.8"}
,{"CODGEO":"16307","TxChomage":"10.8"}
,{"CODGEO":"16308","TxChomage":"10.8"}
,{"CODGEO":"16309","TxChomage":"10.8"}
,{"CODGEO":"16310","TxChomage":"10.8"}
,{"CODGEO":"16312","TxChomage":"10.8"}
,{"CODGEO":"16314","TxChomage":"10.8"}
,{"CODGEO":"16315","TxChomage":"10.8"}
,{"CODGEO":"16316","TxChomage":"8.8"}
,{"CODGEO":"16317","TxChomage":"10.8"}
,{"CODGEO":"16318","TxChomage":"10.8"}
,{"CODGEO":"16320","TxChomage":"10.8"}
,{"CODGEO":"16321","TxChomage":"10.8"}
,{"CODGEO":"16322","TxChomage":"10.8"}
,{"CODGEO":"16323","TxChomage":"10.8"}
,{"CODGEO":"16325","TxChomage":"10.8"}
,{"CODGEO":"16326","TxChomage":"10.8"}
,{"CODGEO":"16328","TxChomage":"10.8"}
,{"CODGEO":"16329","TxChomage":"10.8"}
,{"CODGEO":"16330","TxChomage":"8.8"}
,{"CODGEO":"16331","TxChomage":"10.8"}
,{"CODGEO":"16332","TxChomage":"10.8"}
,{"CODGEO":"16334","TxChomage":"10.8"}
,{"CODGEO":"16335","TxChomage":"10.8"}
,{"CODGEO":"16336","TxChomage":"10.8"}
,{"CODGEO":"16337","TxChomage":"10.8"}
,{"CODGEO":"16338","TxChomage":"9.8"}
,{"CODGEO":"16339","TxChomage":"10.8"}
,{"CODGEO":"16340","TxChomage":"8.8"}
,{"CODGEO":"16341","TxChomage":"10.8"}
,{"CODGEO":"16342","TxChomage":"8.8"}
,{"CODGEO":"16343","TxChomage":"8.8"}
,{"CODGEO":"16344","TxChomage":"10.8"}
,{"CODGEO":"16345","TxChomage":"10.8"}
,{"CODGEO":"16346","TxChomage":"10.8"}
,{"CODGEO":"16347","TxChomage":"10.8"}
,{"CODGEO":"16348","TxChomage":"10.8"}
,{"CODGEO":"16349","TxChomage":"8.8"}
,{"CODGEO":"16350","TxChomage":"10.8"}
,{"CODGEO":"16351","TxChomage":"10.8"}
,{"CODGEO":"16352","TxChomage":"10.8"}
,{"CODGEO":"16353","TxChomage":"10.8"}
,{"CODGEO":"16354","TxChomage":"9.8"}
,{"CODGEO":"16355","TxChomage":"8.8"}
,{"CODGEO":"16356","TxChomage":"10.8"}
,{"CODGEO":"16357","TxChomage":"10.8"}
,{"CODGEO":"16358","TxChomage":"10.8"}
,{"CODGEO":"16359","TxChomage":"8.8"}
,{"CODGEO":"16360","TxChomage":"9.8"}
,{"CODGEO":"16361","TxChomage":"10.8"}
,{"CODGEO":"16362","TxChomage":"10.8"}
,{"CODGEO":"16363","TxChomage":"10.8"}
,{"CODGEO":"16364","TxChomage":"10.8"}
,{"CODGEO":"16365","TxChomage":"10.8"}
,{"CODGEO":"16366","TxChomage":"8.8"}
,{"CODGEO":"16368","TxChomage":"10.8"}
,{"CODGEO":"16369","TxChomage":"8.8"}
,{"CODGEO":"16370","TxChomage":"10.8"}
,{"CODGEO":"16371","TxChomage":"10.8"}
,{"CODGEO":"16372","TxChomage":"10.8"}
,{"CODGEO":"16373","TxChomage":"10.8"}
,{"CODGEO":"16374","TxChomage":"10.8"}
,{"CODGEO":"16375","TxChomage":"10.8"}
,{"CODGEO":"16376","TxChomage":"10.8"}
,{"CODGEO":"16377","TxChomage":"10.8"}
,{"CODGEO":"16378","TxChomage":"10.8"}
,{"CODGEO":"16379","TxChomage":"10.8"}
,{"CODGEO":"16380","TxChomage":"9.8"}
,{"CODGEO":"16381","TxChomage":"10.8"}
,{"CODGEO":"16382","TxChomage":"10.8"}
,{"CODGEO":"16383","TxChomage":"10.8"}
,{"CODGEO":"16384","TxChomage":"9.8"}
,{"CODGEO":"16385","TxChomage":"10.8"}
,{"CODGEO":"16386","TxChomage":"9.8"}
,{"CODGEO":"16387","TxChomage":"8.8"}
,{"CODGEO":"16388","TxChomage":"10.8"}
,{"CODGEO":"16389","TxChomage":"10.8"}
,{"CODGEO":"16390","TxChomage":"10.8"}
,{"CODGEO":"16391","TxChomage":"10.8"}
,{"CODGEO":"16392","TxChomage":"10.8"}
,{"CODGEO":"16393","TxChomage":"10.8"}
,{"CODGEO":"16394","TxChomage":"10.8"}
,{"CODGEO":"16395","TxChomage":"10.8"}
,{"CODGEO":"16396","TxChomage":"10.8"}
,{"CODGEO":"16397","TxChomage":"10.8"}
,{"CODGEO":"16398","TxChomage":"10.8"}
,{"CODGEO":"16399","TxChomage":"8.8"}
,{"CODGEO":"16400","TxChomage":"10.8"}
,{"CODGEO":"16401","TxChomage":"10.8"}
,{"CODGEO":"16402","TxChomage":"10.8"}
,{"CODGEO":"16403","TxChomage":"10.8"}
,{"CODGEO":"16404","TxChomage":"10.8"}
,{"CODGEO":"16405","TxChomage":"9.8"}
,{"CODGEO":"16406","TxChomage":"10.8"}
,{"CODGEO":"16408","TxChomage":"10.8"}
,{"CODGEO":"16409","TxChomage":"10.8"}
,{"CODGEO":"16410","TxChomage":"10.8"}
,{"CODGEO":"16411","TxChomage":"10.8"}
,{"CODGEO":"16412","TxChomage":"10.8"}
,{"CODGEO":"16413","TxChomage":"10.8"}
,{"CODGEO":"16414","TxChomage":"10.8"}
,{"CODGEO":"16415","TxChomage":"10.8"}
,{"CODGEO":"16416","TxChomage":"10.8"}
,{"CODGEO":"16417","TxChomage":"9.8"}
,{"CODGEO":"16418","TxChomage":"10.8"}
,{"CODGEO":"16419","TxChomage":"10.8"}
,{"CODGEO":"16420","TxChomage":"10.8"}
,{"CODGEO":"16421","TxChomage":"10.8"}
,{"CODGEO":"16422","TxChomage":"10.8"}
,{"CODGEO":"16423","TxChomage":"10.8"}
,{"CODGEO":"16424","TxChomage":"10.8"}
,{"CODGEO":"16425","TxChomage":"10.8"}
]}
