{"status":"success","data":[{"CODGEO":"18001","TxChomage":"9.8"}
,{"CODGEO":"18002","TxChomage":"11.9"}
,{"CODGEO":"18003","TxChomage":"9.8"}
,{"CODGEO":"18004","TxChomage":"9.8"}
,{"CODGEO":"18005","TxChomage":"9.8"}
,{"CODGEO":"18006","TxChomage":"9.8"}
,{"CODGEO":"18007","TxChomage":"9.8"}
,{"CODGEO":"18008","TxChomage":"9.8"}
,{"CODGEO":"18009","TxChomage":"11.9"}
,{"CODGEO":"18010","TxChomage":"11.9"}
,{"CODGEO":"18011","TxChomage":"10.9"}
,{"CODGEO":"18012","TxChomage":"9.8"}
,{"CODGEO":"18013","TxChomage":"11.9"}
,{"CODGEO":"18014","TxChomage":"9.4"}
,{"CODGEO":"18015","TxChomage":"10.9"}
,{"CODGEO":"18016","TxChomage":"9.8"}
,{"CODGEO":"18017","TxChomage":"11.9"}
,{"CODGEO":"18018","TxChomage":"9.8"}
,{"CODGEO":"18019","TxChomage":"9.8"}
,{"CODGEO":"18020","TxChomage":"9.4"}
,{"CODGEO":"18021","TxChomage":"9.8"}
,{"CODGEO":"18022","TxChomage":"10.9"}
,{"CODGEO":"18023","TxChomage":"9.8"}
,{"CODGEO":"18024","TxChomage":"11.9"}
,{"CODGEO":"18025","TxChomage":"9.8"}
,{"CODGEO":"18026","TxChomage":"10.9"}
,{"CODGEO":"18027","TxChomage":"9.8"}
,{"CODGEO":"18028","TxChomage":"9.8"}
,{"CODGEO":"18029","TxChomage":"11.9"}
,{"CODGEO":"18030","TxChomage":"10.9"}
,{"CODGEO":"18031","TxChomage":"9.8"}
,{"CODGEO":"18032","TxChomage":"9.4"}
,{"CODGEO":"18033","TxChomage":"9.8"}
,{"CODGEO":"18034","TxChomage":"11.9"}
,{"CODGEO":"18035","TxChomage":"9.8"}
,{"CODGEO":"18036","TxChomage":"13.3"}
,{"CODGEO":"18037","TxChomage":"9.1"}
,{"CODGEO":"18038","TxChomage":"11.9"}
,{"CODGEO":"18039","TxChomage":"9.4"}
,{"CODGEO":"18040","TxChomage":"9.8"}
,{"CODGEO":"18041","TxChomage":"11.9"}
,{"CODGEO":"18042","TxChomage":"11.9"}
,{"CODGEO":"18043","TxChomage":"9.8"}
,{"CODGEO":"18044","TxChomage":"9.8"}
,{"CODGEO":"18045","TxChomage":"9.8"}
,{"CODGEO":"18046","TxChomage":"11.9"}
,{"CODGEO":"18047","TxChomage":"9.8"}
,{"CODGEO":"18048","TxChomage":"9.8"}
,{"CODGEO":"18049","TxChomage":"9.8"}
,{"CODGEO":"18050","TxChomage":"9.8"}
,{"CODGEO":"18051","TxChomage":"9.8"}
,{"CODGEO":"18052","TxChomage":"11.9"}
,{"CODGEO":"18053","TxChomage":"9.8"}
,{"CODGEO":"18054","TxChomage":"9.8"}
,{"CODGEO":"18055","TxChomage":"9.8"}
,{"CODGEO":"18056","TxChomage":"9.8"}
,{"CODGEO":"18057","TxChomage":"11.9"}
,{"CODGEO":"18058","TxChomage":"9.8"}
,{"CODGEO":"18059","TxChomage":"11.9"}
,{"CODGEO":"18060","TxChomage":"9.8"}
,{"CODGEO":"18061","TxChomage":"9.8"}
,{"CODGEO":"18062","TxChomage":"9.8"}
,{"CODGEO":"18063","TxChomage":"9.8"}
,{"CODGEO":"18064","TxChomage":"13.3"}
,{"CODGEO":"18065","TxChomage":"9.8"}
,{"CODGEO":"18066","TxChomage":"9.8"}
,{"CODGEO":"18067","TxChomage":"10.9"}
,{"CODGEO":"18068","TxChomage":"9.8"}
,{"CODGEO":"18069","TxChomage":"11.9"}
,{"CODGEO":"18070","TxChomage":"10.9"}
,{"CODGEO":"18071","TxChomage":"9.8"}
,{"CODGEO":"18072","TxChomage":"9.8"}
,{"CODGEO":"18073","TxChomage":"9.8"}
,{"CODGEO":"18074","TxChomage":"9.4"}
,{"CODGEO":"18075","TxChomage":"9.8"}
,{"CODGEO":"18076","TxChomage":"11.9"}
,{"CODGEO":"18077","TxChomage":"9.8"}
,{"CODGEO":"18078","TxChomage":"11.9"}
,{"CODGEO":"18079","TxChomage":"9.4"}
,{"CODGEO":"18080","TxChomage":"9.8"}
,{"CODGEO":"18081","TxChomage":"9.8"}
,{"CODGEO":"18082","TxChomage":"9.8"}
,{"CODGEO":"18083","TxChomage":"11.9"}
,{"CODGEO":"18084","TxChomage":"10.9"}
,{"CODGEO":"18085","TxChomage":"13.3"}
,{"CODGEO":"18086","TxChomage":"11.9"}
,{"CODGEO":"18087","TxChomage":"9.8"}
,{"CODGEO":"18088","TxChomage":"10.9"}
,{"CODGEO":"18089","TxChomage":"11.9"}
,{"CODGEO":"18090","TxChomage":"9.8"}
,{"CODGEO":"18091","TxChomage":"11.9"}
,{"CODGEO":"18092","TxChomage":"9.8"}
,{"CODGEO":"18093","TxChomage":"11.9"}
,{"CODGEO":"18094","TxChomage":"9.4"}
,{"CODGEO":"18095","TxChomage":"9.8"}
,{"CODGEO":"18096","TxChomage":"13.3"}
,{"CODGEO":"18097","TxChomage":"9.8"}
,{"CODGEO":"18098","TxChomage":"9.4"}
,{"CODGEO":"18099","TxChomage":"9.8"}
,{"CODGEO":"18100","TxChomage":"13.3"}
,{"CODGEO":"18101","TxChomage":"9.8"}
,{"CODGEO":"18102","TxChomage":"11.9"}
,{"CODGEO":"18103","TxChomage":"13.3"}
,{"CODGEO":"18104","TxChomage":"9.4"}
,{"CODGEO":"18105","TxChomage":"9.8"}
,{"CODGEO":"18106","TxChomage":"11.9"}
,{"CODGEO":"18107","TxChomage":"11.9"}
,{"CODGEO":"18108","TxChomage":"9.8"}
,{"CODGEO":"18109","TxChomage":"9.8"}
,{"CODGEO":"18110","TxChomage":"9.8"}
,{"CODGEO":"18111","TxChomage":"9.8"}
,{"CODGEO":"18112","TxChomage":"11.9"}
,{"CODGEO":"18113","TxChomage":"9.8"}
,{"CODGEO":"18114","TxChomage":"9.8"}
,{"CODGEO":"18115","TxChomage":"9.8"}
,{"CODGEO":"18116","TxChomage":"9.4"}
,{"CODGEO":"18117","TxChomage":"9.4"}
,{"CODGEO":"18118","TxChomage":"9.8"}
,{"CODGEO":"18119","TxChomage":"9.8"}
,{"CODGEO":"18120","TxChomage":"9.8"}
,{"CODGEO":"18121","TxChomage":"9.8"}
,{"CODGEO":"18122","TxChomage":"9.8"}
,{"CODGEO":"18123","TxChomage":"9.8"}
,{"CODGEO":"18124","TxChomage":"9.8"}
,{"CODGEO":"18125","TxChomage":"9.4"}
,{"CODGEO":"18126","TxChomage":"9.8"}
,{"CODGEO":"18127","TxChomage":"9.8"}
,{"CODGEO":"18128","TxChomage":"9.8"}
,{"CODGEO":"18129","TxChomage":"9.8"}
,{"CODGEO":"18130","TxChomage":"11.9"}
,{"CODGEO":"18131","TxChomage":"9.8"}
,{"CODGEO":"18132","TxChomage":"9.8"}
,{"CODGEO":"18133","TxChomage":"9.8"}
,{"CODGEO":"18134","TxChomage":"13.3"}
,{"CODGEO":"18135","TxChomage":"11.9"}
,{"CODGEO":"18136","TxChomage":"11.9"}
,{"CODGEO":"18137","TxChomage":"9.8"}
,{"CODGEO":"18138","TxChomage":"9.8"}
,{"CODGEO":"18139","TxChomage":"9.8"}
,{"CODGEO":"18140","TxChomage":"13.3"}
,{"CODGEO":"18141","TxChomage":"9.8"}
,{"CODGEO":"18142","TxChomage":"11.9"}
,{"CODGEO":"18143","TxChomage":"9.8"}
,{"CODGEO":"18144","TxChomage":"9.4"}
,{"CODGEO":"18145","TxChomage":"9.8"}
,{"CODGEO":"18146","TxChomage":"9.4"}
,{"CODGEO":"18147","TxChomage":"10.9"}
,{"CODGEO":"18148","TxChomage":"13.3"}
,{"CODGEO":"18149","TxChomage":"9.8"}
,{"CODGEO":"18150","TxChomage":"13.3"}
,{"CODGEO":"18151","TxChomage":"9.8"}
,{"CODGEO":"18152","TxChomage":"9.8"}
,{"CODGEO":"18153","TxChomage":"11.9"}
,{"CODGEO":"18154","TxChomage":"9.8"}
,{"CODGEO":"18155","TxChomage":"11.9"}
,{"CODGEO":"18156","TxChomage":"9.8"}
,{"CODGEO":"18157","TxChomage":"9.8"}
,{"CODGEO":"18158","TxChomage":"9.8"}
,{"CODGEO":"18159","TxChomage":"13.3"}
,{"CODGEO":"18160","TxChomage":"9.8"}
,{"CODGEO":"18161","TxChomage":"11.9"}
,{"CODGEO":"18162","TxChomage":"9.8"}
,{"CODGEO":"18163","TxChomage":"9.8"}
,{"CODGEO":"18164","TxChomage":"11.9"}
,{"CODGEO":"18165","TxChomage":"13.3"}
,{"CODGEO":"18166","TxChomage":"9.8"}
,{"CODGEO":"18167","TxChomage":"13.3"}
,{"CODGEO":"18168","TxChomage":"9.4"}
,{"CODGEO":"18169","TxChomage":"11.9"}
,{"CODGEO":"18170","TxChomage":"10.9"}
,{"CODGEO":"18171","TxChomage":"11.9"}
,{"CODGEO":"18172","TxChomage":"11.9"}
,{"CODGEO":"18173","TxChomage":"9.8"}
,{"CODGEO":"18174","TxChomage":"9.8"}
,{"CODGEO":"18175","TxChomage":"9.8"}
,{"CODGEO":"18176","TxChomage":"9.8"}
,{"CODGEO":"18177","TxChomage":"9.8"}
,{"CODGEO":"18178","TxChomage":"11.9"}
,{"CODGEO":"18179","TxChomage":"9.8"}
,{"CODGEO":"18180","TxChomage":"9.8"}
,{"CODGEO":"18181","TxChomage":"9.8"}
,{"CODGEO":"18182","TxChomage":"9.8"}
,{"CODGEO":"18183","TxChomage":"9.8"}
,{"CODGEO":"18184","TxChomage":"9.8"}
,{"CODGEO":"18185","TxChomage":"10.9"}
,{"CODGEO":"18186","TxChomage":"9.8"}
,{"CODGEO":"18187","TxChomage":"11.9"}
,{"CODGEO":"18188","TxChomage":"9.8"}
,{"CODGEO":"18189","TxChomage":"9.8"}
,{"CODGEO":"18190","TxChomage":"9.8"}
,{"CODGEO":"18191","TxChomage":"9.8"}
,{"CODGEO":"18192","TxChomage":"11.9"}
,{"CODGEO":"18193","TxChomage":"9.8"}
,{"CODGEO":"18194","TxChomage":"9.8"}
,{"CODGEO":"18195","TxChomage":"11.9"}
,{"CODGEO":"18196","TxChomage":"11.9"}
,{"CODGEO":"18197","TxChomage":"11.9"}
,{"CODGEO":"18198","TxChomage":"9.8"}
,{"CODGEO":"18199","TxChomage":"9.8"}
,{"CODGEO":"18200","TxChomage":"9.4"}
,{"CODGEO":"18201","TxChomage":"9.8"}
,{"CODGEO":"18202","TxChomage":"9.8"}
,{"CODGEO":"18203","TxChomage":"11.9"}
,{"CODGEO":"18204","TxChomage":"9.8"}
,{"CODGEO":"18205","TxChomage":"9.8"}
,{"CODGEO":"18206","TxChomage":"9.8"}
,{"CODGEO":"18207","TxChomage":"9.8"}
,{"CODGEO":"18208","TxChomage":"9.4"}
,{"CODGEO":"18209","TxChomage":"11.9"}
,{"CODGEO":"18210","TxChomage":"13.3"}
,{"CODGEO":"18211","TxChomage":"9.8"}
,{"CODGEO":"18212","TxChomage":"9.8"}
,{"CODGEO":"18213","TxChomage":"9.8"}
,{"CODGEO":"18214","TxChomage":"13.3"}
,{"CODGEO":"18215","TxChomage":"9.8"}
,{"CODGEO":"18216","TxChomage":"9.8"}
,{"CODGEO":"18217","TxChomage":"11.9"}
,{"CODGEO":"18218","TxChomage":"9.8"}
,{"CODGEO":"18219","TxChomage":"13.3"}
,{"CODGEO":"18220","TxChomage":"9.8"}
,{"CODGEO":"18221","TxChomage":"9.8"}
,{"CODGEO":"18222","TxChomage":"9.8"}
,{"CODGEO":"18223","TxChomage":"9.8"}
,{"CODGEO":"18224","TxChomage":"9.8"}
,{"CODGEO":"18225","TxChomage":"11.9"}
,{"CODGEO":"18226","TxChomage":"9.8"}
,{"CODGEO":"18227","TxChomage":"10.9"}
,{"CODGEO":"18228","TxChomage":"13.3"}
,{"CODGEO":"18229","TxChomage":"9.8"}
,{"CODGEO":"18230","TxChomage":"11.9"}
,{"CODGEO":"18231","TxChomage":"11.9"}
,{"CODGEO":"18232","TxChomage":"11.9"}
,{"CODGEO":"18233","TxChomage":"9.4"}
,{"CODGEO":"18234","TxChomage":"11.9"}
,{"CODGEO":"18235","TxChomage":"9.8"}
,{"CODGEO":"18236","TxChomage":"9.8"}
,{"CODGEO":"18237","TxChomage":"9.8"}
,{"CODGEO":"18238","TxChomage":"11.9"}
,{"CODGEO":"18239","TxChomage":"9.8"}
,{"CODGEO":"18240","TxChomage":"9.8"}
,{"CODGEO":"18241","TxChomage":"9.4"}
,{"CODGEO":"18242","TxChomage":"11.9"}
,{"CODGEO":"18243","TxChomage":"10.9"}
,{"CODGEO":"18244","TxChomage":"9.8"}
,{"CODGEO":"18245","TxChomage":"11.9"}
,{"CODGEO":"18246","TxChomage":"9.4"}
,{"CODGEO":"18247","TxChomage":"9.8"}
,{"CODGEO":"18248","TxChomage":"9.8"}
,{"CODGEO":"18249","TxChomage":"9.4"}
,{"CODGEO":"18250","TxChomage":"9.8"}
,{"CODGEO":"18251","TxChomage":"9.8"}
,{"CODGEO":"18252","TxChomage":"11.9"}
,{"CODGEO":"18253","TxChomage":"9.8"}
,{"CODGEO":"18254","TxChomage":"9.8"}
,{"CODGEO":"18255","TxChomage":"9.8"}
,{"CODGEO":"18256","TxChomage":"9.4"}
,{"CODGEO":"18257","TxChomage":"9.4"}
,{"CODGEO":"18258","TxChomage":"9.4"}
,{"CODGEO":"18259","TxChomage":"10.9"}
,{"CODGEO":"18260","TxChomage":"9.8"}
,{"CODGEO":"18261","TxChomage":"9.8"}
,{"CODGEO":"18262","TxChomage":"9.4"}
,{"CODGEO":"18263","TxChomage":"13.3"}
,{"CODGEO":"18264","TxChomage":"10.9"}
,{"CODGEO":"18265","TxChomage":"9.8"}
,{"CODGEO":"18266","TxChomage":"9.8"}
,{"CODGEO":"18267","TxChomage":"9.8"}
,{"CODGEO":"18268","TxChomage":"11.9"}
,{"CODGEO":"18269","TxChomage":"10.9"}
,{"CODGEO":"18270","TxChomage":"11.9"}
,{"CODGEO":"18271","TxChomage":"9.8"}
,{"CODGEO":"18272","TxChomage":"9.4"}
,{"CODGEO":"18273","TxChomage":"9.8"}
,{"CODGEO":"18274","TxChomage":"9.4"}
,{"CODGEO":"18275","TxChomage":"11.9"}
,{"CODGEO":"18276","TxChomage":"11.9"}
,{"CODGEO":"18277","TxChomage":"9.8"}
,{"CODGEO":"18278","TxChomage":"11.9"}
,{"CODGEO":"18279","TxChomage":"13.3"}
,{"CODGEO":"18280","TxChomage":"9.8"}
,{"CODGEO":"18281","TxChomage":"13.3"}
,{"CODGEO":"18282","TxChomage":"9.8"}
,{"CODGEO":"18283","TxChomage":"9.8"}
,{"CODGEO":"18284","TxChomage":"10.9"}
,{"CODGEO":"18285","TxChomage":"9.8"}
,{"CODGEO":"18286","TxChomage":"9.8"}
,{"CODGEO":"18287","TxChomage":"9.4"}
,{"CODGEO":"18288","TxChomage":"9.8"}
,{"CODGEO":"18289","TxChomage":"9.8"}
,{"CODGEO":"18290","TxChomage":"13.3"}
]}
