{"status":"success","data":[{"CODGEO":"32001","TxChomage":"8.2"}
,{"CODGEO":"32002","TxChomage":"8.7"}
,{"CODGEO":"32003","TxChomage":"8.7"}
,{"CODGEO":"32004","TxChomage":"8.2"}
,{"CODGEO":"32005","TxChomage":"8.2"}
,{"CODGEO":"32007","TxChomage":"10.6"}
,{"CODGEO":"32008","TxChomage":"11.5"}
,{"CODGEO":"32009","TxChomage":"8.7"}
,{"CODGEO":"32010","TxChomage":"8.7"}
,{"CODGEO":"32012","TxChomage":"8.7"}
,{"CODGEO":"32013","TxChomage":"8.7"}
,{"CODGEO":"32014","TxChomage":"8.7"}
,{"CODGEO":"32015","TxChomage":"8.7"}
,{"CODGEO":"32016","TxChomage":"10.6"}
,{"CODGEO":"32017","TxChomage":"8.2"}
,{"CODGEO":"32018","TxChomage":"10.6"}
,{"CODGEO":"32019","TxChomage":"8.7"}
,{"CODGEO":"32020","TxChomage":"8.7"}
,{"CODGEO":"32021","TxChomage":"10.6"}
,{"CODGEO":"32022","TxChomage":"8.2"}
,{"CODGEO":"32023","TxChomage":"8.7"}
,{"CODGEO":"32024","TxChomage":"8.7"}
,{"CODGEO":"32025","TxChomage":"8.2"}
,{"CODGEO":"32026","TxChomage":"10.6"}
,{"CODGEO":"32027","TxChomage":"8.2"}
,{"CODGEO":"32028","TxChomage":"8.7"}
,{"CODGEO":"32029","TxChomage":"8.7"}
,{"CODGEO":"32030","TxChomage":"8.7"}
,{"CODGEO":"32031","TxChomage":"8.2"}
,{"CODGEO":"32032","TxChomage":"8.7"}
,{"CODGEO":"32033","TxChomage":"8.7"}
,{"CODGEO":"32034","TxChomage":"8.7"}
,{"CODGEO":"32035","TxChomage":"8.7"}
,{"CODGEO":"32036","TxChomage":"8.2"}
,{"CODGEO":"32037","TxChomage":"8.7"}
,{"CODGEO":"32038","TxChomage":"10.6"}
,{"CODGEO":"32039","TxChomage":"11.5"}
,{"CODGEO":"32040","TxChomage":"8.7"}
,{"CODGEO":"32041","TxChomage":"8.7"}
,{"CODGEO":"32042","TxChomage":"8.7"}
,{"CODGEO":"32043","TxChomage":"8.7"}
,{"CODGEO":"32044","TxChomage":"8.7"}
,{"CODGEO":"32045","TxChomage":"8.7"}
,{"CODGEO":"32046","TxChomage":"8.2"}
,{"CODGEO":"32047","TxChomage":"8.7"}
,{"CODGEO":"32048","TxChomage":"8.7"}
,{"CODGEO":"32049","TxChomage":"8.2"}
,{"CODGEO":"32050","TxChomage":"11.5"}
,{"CODGEO":"32051","TxChomage":"10.6"}
,{"CODGEO":"32052","TxChomage":"8.7"}
,{"CODGEO":"32053","TxChomage":"8.7"}
,{"CODGEO":"32054","TxChomage":"8.7"}
,{"CODGEO":"32055","TxChomage":"10.6"}
,{"CODGEO":"32056","TxChomage":"10.6"}
,{"CODGEO":"32057","TxChomage":"8.7"}
,{"CODGEO":"32058","TxChomage":"11.5"}
,{"CODGEO":"32059","TxChomage":"8.7"}
,{"CODGEO":"32060","TxChomage":"8.7"}
,{"CODGEO":"32061","TxChomage":"8.7"}
,{"CODGEO":"32062","TxChomage":"8.2"}
,{"CODGEO":"32063","TxChomage":"8.2"}
,{"CODGEO":"32064","TxChomage":"8.2"}
,{"CODGEO":"32065","TxChomage":"8.7"}
,{"CODGEO":"32066","TxChomage":"8.7"}
,{"CODGEO":"32067","TxChomage":"8.7"}
,{"CODGEO":"32068","TxChomage":"8.7"}
,{"CODGEO":"32069","TxChomage":"10.6"}
,{"CODGEO":"32070","TxChomage":"8.2"}
,{"CODGEO":"32071","TxChomage":"8.7"}
,{"CODGEO":"32072","TxChomage":"8.7"}
,{"CODGEO":"32073","TxChomage":"8.2"}
,{"CODGEO":"32074","TxChomage":"8.2"}
,{"CODGEO":"32075","TxChomage":"8.7"}
,{"CODGEO":"32076","TxChomage":"8.7"}
,{"CODGEO":"32077","TxChomage":"8.7"}
,{"CODGEO":"32078","TxChomage":"8.7"}
,{"CODGEO":"32079","TxChomage":"8.2"}
,{"CODGEO":"32080","TxChomage":"8.7"}
,{"CODGEO":"32081","TxChomage":"8.7"}
,{"CODGEO":"32082","TxChomage":"8.7"}
,{"CODGEO":"32083","TxChomage":"8.7"}
,{"CODGEO":"32084","TxChomage":"8.7"}
,{"CODGEO":"32085","TxChomage":"8.7"}
,{"CODGEO":"32086","TxChomage":"8.7"}
,{"CODGEO":"32087","TxChomage":"8.2"}
,{"CODGEO":"32088","TxChomage":"8.7"}
,{"CODGEO":"32089","TxChomage":"8.7"}
,{"CODGEO":"32090","TxChomage":"10.6"}
,{"CODGEO":"32091","TxChomage":"8.7"}
,{"CODGEO":"32092","TxChomage":"10.6"}
,{"CODGEO":"32093","TxChomage":"8.2"}
,{"CODGEO":"32094","TxChomage":"8.2"}
,{"CODGEO":"32095","TxChomage":"8.7"}
,{"CODGEO":"32096","TxChomage":"8.2"}
,{"CODGEO":"32097","TxChomage":"8.7"}
,{"CODGEO":"32098","TxChomage":"10.6"}
,{"CODGEO":"32099","TxChomage":"11.5"}
,{"CODGEO":"32100","TxChomage":"8.2"}
,{"CODGEO":"32101","TxChomage":"8.7"}
,{"CODGEO":"32102","TxChomage":"8.7"}
,{"CODGEO":"32103","TxChomage":"8.7"}
,{"CODGEO":"32104","TxChomage":"8.7"}
,{"CODGEO":"32105","TxChomage":"10.6"}
,{"CODGEO":"32106","TxChomage":"10.6"}
,{"CODGEO":"32107","TxChomage":"8.7"}
,{"CODGEO":"32108","TxChomage":"8.2"}
,{"CODGEO":"32109","TxChomage":"8.2"}
,{"CODGEO":"32110","TxChomage":"8.7"}
,{"CODGEO":"32111","TxChomage":"8.2"}
,{"CODGEO":"32112","TxChomage":"8.7"}
,{"CODGEO":"32113","TxChomage":"8.2"}
,{"CODGEO":"32114","TxChomage":"8.7"}
,{"CODGEO":"32115","TxChomage":"8.7"}
,{"CODGEO":"32116","TxChomage":"8.7"}
,{"CODGEO":"32117","TxChomage":"8.7"}
,{"CODGEO":"32118","TxChomage":"8.7"}
,{"CODGEO":"32119","TxChomage":"8.2"}
,{"CODGEO":"32120","TxChomage":"10.6"}
,{"CODGEO":"32121","TxChomage":"10.6"}
,{"CODGEO":"32122","TxChomage":"8.7"}
,{"CODGEO":"32123","TxChomage":"10.6"}
,{"CODGEO":"32124","TxChomage":"10.6"}
,{"CODGEO":"32125","TxChomage":"8.2"}
,{"CODGEO":"32126","TxChomage":"11.5"}
,{"CODGEO":"32127","TxChomage":"8.2"}
,{"CODGEO":"32128","TxChomage":"8.7"}
,{"CODGEO":"32129","TxChomage":"8.7"}
,{"CODGEO":"32130","TxChomage":"8.7"}
,{"CODGEO":"32131","TxChomage":"8.7"}
,{"CODGEO":"32132","TxChomage":"8.7"}
,{"CODGEO":"32133","TxChomage":"8.7"}
,{"CODGEO":"32134","TxChomage":"10.6"}
,{"CODGEO":"32135","TxChomage":"8.2"}
,{"CODGEO":"32136","TxChomage":"8.2"}
,{"CODGEO":"32138","TxChomage":"10.6"}
,{"CODGEO":"32139","TxChomage":"8.7"}
,{"CODGEO":"32140","TxChomage":"10.6"}
,{"CODGEO":"32141","TxChomage":"10.6"}
,{"CODGEO":"32142","TxChomage":"8.7"}
,{"CODGEO":"32143","TxChomage":"8.7"}
,{"CODGEO":"32144","TxChomage":"8.7"}
,{"CODGEO":"32145","TxChomage":"8.2"}
,{"CODGEO":"32146","TxChomage":"8.7"}
,{"CODGEO":"32147","TxChomage":"10.6"}
,{"CODGEO":"32148","TxChomage":"10.6"}
,{"CODGEO":"32149","TxChomage":"8.7"}
,{"CODGEO":"32150","TxChomage":"8.7"}
,{"CODGEO":"32151","TxChomage":"8.2"}
,{"CODGEO":"32152","TxChomage":"11.5"}
,{"CODGEO":"32153","TxChomage":"8.7"}
,{"CODGEO":"32154","TxChomage":"10.6"}
,{"CODGEO":"32155","TxChomage":"8.2"}
,{"CODGEO":"32156","TxChomage":"8.7"}
,{"CODGEO":"32157","TxChomage":"8.7"}
,{"CODGEO":"32158","TxChomage":"8.7"}
,{"CODGEO":"32159","TxChomage":"8.7"}
,{"CODGEO":"32160","TxChomage":"10.6"}
,{"CODGEO":"32161","TxChomage":"8.2"}
,{"CODGEO":"32162","TxChomage":"8.7"}
,{"CODGEO":"32163","TxChomage":"8.2"}
,{"CODGEO":"32164","TxChomage":"8.7"}
,{"CODGEO":"32165","TxChomage":"10.6"}
,{"CODGEO":"32166","TxChomage":"8.7"}
,{"CODGEO":"32167","TxChomage":"8.7"}
,{"CODGEO":"32168","TxChomage":"8.7"}
,{"CODGEO":"32169","TxChomage":"8.7"}
,{"CODGEO":"32170","TxChomage":"8.2"}
,{"CODGEO":"32171","TxChomage":"10.6"}
,{"CODGEO":"32172","TxChomage":"8.7"}
,{"CODGEO":"32173","TxChomage":"10.6"}
,{"CODGEO":"32174","TxChomage":"11.5"}
,{"CODGEO":"32175","TxChomage":"11.5"}
,{"CODGEO":"32176","TxChomage":"8.7"}
,{"CODGEO":"32177","TxChomage":"8.7"}
,{"CODGEO":"32178","TxChomage":"8.7"}
,{"CODGEO":"32180","TxChomage":"8.7"}
,{"CODGEO":"32181","TxChomage":"11.5"}
,{"CODGEO":"32182","TxChomage":"10.6"}
,{"CODGEO":"32183","TxChomage":"8.7"}
,{"CODGEO":"32184","TxChomage":"8.7"}
,{"CODGEO":"32185","TxChomage":"8.7"}
,{"CODGEO":"32186","TxChomage":"8.7"}
,{"CODGEO":"32187","TxChomage":"8.7"}
,{"CODGEO":"32188","TxChomage":"8.7"}
,{"CODGEO":"32189","TxChomage":"8.2"}
,{"CODGEO":"32190","TxChomage":"8.2"}
,{"CODGEO":"32191","TxChomage":"8.2"}
,{"CODGEO":"32192","TxChomage":"8.2"}
,{"CODGEO":"32193","TxChomage":"8.2"}
,{"CODGEO":"32194","TxChomage":"8.7"}
,{"CODGEO":"32195","TxChomage":"8.7"}
,{"CODGEO":"32196","TxChomage":"8.7"}
,{"CODGEO":"32197","TxChomage":"8.7"}
,{"CODGEO":"32198","TxChomage":"8.7"}
,{"CODGEO":"32199","TxChomage":"8.2"}
,{"CODGEO":"32200","TxChomage":"8.7"}
,{"CODGEO":"32201","TxChomage":"8.7"}
,{"CODGEO":"32202","TxChomage":"8.2"}
,{"CODGEO":"32203","TxChomage":"8.7"}
,{"CODGEO":"32204","TxChomage":"8.7"}
,{"CODGEO":"32205","TxChomage":"8.7"}
,{"CODGEO":"32206","TxChomage":"10.6"}
,{"CODGEO":"32207","TxChomage":"8.7"}
,{"CODGEO":"32208","TxChomage":"8.7"}
,{"CODGEO":"32209","TxChomage":"8.2"}
,{"CODGEO":"32210","TxChomage":"10.6"}
,{"CODGEO":"32211","TxChomage":"8.2"}
,{"CODGEO":"32212","TxChomage":"8.7"}
,{"CODGEO":"32213","TxChomage":"10.6"}
,{"CODGEO":"32214","TxChomage":"8.2"}
,{"CODGEO":"32215","TxChomage":"8.7"}
,{"CODGEO":"32216","TxChomage":"8.7"}
,{"CODGEO":"32217","TxChomage":"8.2"}
,{"CODGEO":"32218","TxChomage":"8.2"}
,{"CODGEO":"32219","TxChomage":"8.7"}
,{"CODGEO":"32220","TxChomage":"8.2"}
,{"CODGEO":"32221","TxChomage":"8.7"}
,{"CODGEO":"32222","TxChomage":"8.2"}
,{"CODGEO":"32223","TxChomage":"8.7"}
,{"CODGEO":"32224","TxChomage":"8.7"}
,{"CODGEO":"32225","TxChomage":"11.5"}
,{"CODGEO":"32226","TxChomage":"11.5"}
,{"CODGEO":"32227","TxChomage":"8.2"}
,{"CODGEO":"32228","TxChomage":"8.7"}
,{"CODGEO":"32229","TxChomage":"10.6"}
,{"CODGEO":"32230","TxChomage":"8.7"}
,{"CODGEO":"32231","TxChomage":"8.7"}
,{"CODGEO":"32232","TxChomage":"10.6"}
,{"CODGEO":"32233","TxChomage":"8.7"}
,{"CODGEO":"32234","TxChomage":"10.6"}
,{"CODGEO":"32235","TxChomage":"8.7"}
,{"CODGEO":"32236","TxChomage":"8.2"}
,{"CODGEO":"32237","TxChomage":"8.7"}
,{"CODGEO":"32238","TxChomage":"8.7"}
,{"CODGEO":"32239","TxChomage":"8.7"}
,{"CODGEO":"32240","TxChomage":"8.7"}
,{"CODGEO":"32241","TxChomage":"8.7"}
,{"CODGEO":"32242","TxChomage":"8.7"}
,{"CODGEO":"32243","TxChomage":"8.2"}
,{"CODGEO":"32244","TxChomage":"8.2"}
,{"CODGEO":"32245","TxChomage":"8.2"}
,{"CODGEO":"32246","TxChomage":"8.2"}
,{"CODGEO":"32247","TxChomage":"10.6"}
,{"CODGEO":"32248","TxChomage":"8.7"}
,{"CODGEO":"32249","TxChomage":"10.6"}
,{"CODGEO":"32250","TxChomage":"8.7"}
,{"CODGEO":"32251","TxChomage":"8.7"}
,{"CODGEO":"32252","TxChomage":"8.7"}
,{"CODGEO":"32253","TxChomage":"8.7"}
,{"CODGEO":"32254","TxChomage":"8.7"}
,{"CODGEO":"32255","TxChomage":"8.7"}
,{"CODGEO":"32256","TxChomage":"8.7"}
,{"CODGEO":"32257","TxChomage":"8.7"}
,{"CODGEO":"32258","TxChomage":"8.7"}
,{"CODGEO":"32260","TxChomage":"10.6"}
,{"CODGEO":"32261","TxChomage":"10.6"}
,{"CODGEO":"32262","TxChomage":"10.6"}
,{"CODGEO":"32263","TxChomage":"8.7"}
,{"CODGEO":"32264","TxChomage":"8.2"}
,{"CODGEO":"32265","TxChomage":"8.7"}
,{"CODGEO":"32266","TxChomage":"8.7"}
,{"CODGEO":"32267","TxChomage":"8.7"}
,{"CODGEO":"32268","TxChomage":"10.6"}
,{"CODGEO":"32269","TxChomage":"10.6"}
,{"CODGEO":"32270","TxChomage":"8.7"}
,{"CODGEO":"32271","TxChomage":"8.2"}
,{"CODGEO":"32272","TxChomage":"8.7"}
,{"CODGEO":"32273","TxChomage":"8.7"}
,{"CODGEO":"32274","TxChomage":"8.2"}
,{"CODGEO":"32275","TxChomage":"11.5"}
,{"CODGEO":"32276","TxChomage":"10.6"}
,{"CODGEO":"32277","TxChomage":"10.6"}
,{"CODGEO":"32278","TxChomage":"8.7"}
,{"CODGEO":"32279","TxChomage":"8.7"}
,{"CODGEO":"32280","TxChomage":"8.7"}
,{"CODGEO":"32281","TxChomage":"8.7"}
,{"CODGEO":"32282","TxChomage":"8.7"}
,{"CODGEO":"32283","TxChomage":"11.5"}
,{"CODGEO":"32284","TxChomage":"10.6"}
,{"CODGEO":"32285","TxChomage":"8.7"}
,{"CODGEO":"32286","TxChomage":"8.7"}
,{"CODGEO":"32287","TxChomage":"10.6"}
,{"CODGEO":"32288","TxChomage":"10.6"}
,{"CODGEO":"32289","TxChomage":"10.6"}
,{"CODGEO":"32290","TxChomage":"8.7"}
,{"CODGEO":"32291","TxChomage":"8.2"}
,{"CODGEO":"32292","TxChomage":"8.7"}
,{"CODGEO":"32293","TxChomage":"8.7"}
,{"CODGEO":"32294","TxChomage":"8.7"}
,{"CODGEO":"32295","TxChomage":"10.6"}
,{"CODGEO":"32296","TxChomage":"8.2"}
,{"CODGEO":"32297","TxChomage":"10.6"}
,{"CODGEO":"32298","TxChomage":"8.7"}
,{"CODGEO":"32299","TxChomage":"8.2"}
,{"CODGEO":"32300","TxChomage":"8.7"}
,{"CODGEO":"32301","TxChomage":"8.7"}
,{"CODGEO":"32302","TxChomage":"8.7"}
,{"CODGEO":"32303","TxChomage":"8.7"}
,{"CODGEO":"32304","TxChomage":"8.7"}
,{"CODGEO":"32305","TxChomage":"8.2"}
,{"CODGEO":"32306","TxChomage":"8.7"}
,{"CODGEO":"32307","TxChomage":"8.7"}
,{"CODGEO":"32308","TxChomage":"10.6"}
,{"CODGEO":"32309","TxChomage":"8.7"}
,{"CODGEO":"32310","TxChomage":"8.2"}
,{"CODGEO":"32311","TxChomage":"8.7"}
,{"CODGEO":"32312","TxChomage":"8.7"}
,{"CODGEO":"32313","TxChomage":"8.7"}
,{"CODGEO":"32314","TxChomage":"8.7"}
,{"CODGEO":"32315","TxChomage":"8.7"}
,{"CODGEO":"32316","TxChomage":"8.7"}
,{"CODGEO":"32317","TxChomage":"8.7"}
,{"CODGEO":"32318","TxChomage":"8.7"}
,{"CODGEO":"32319","TxChomage":"8.2"}
,{"CODGEO":"32320","TxChomage":"8.7"}
,{"CODGEO":"32321","TxChomage":"10.6"}
,{"CODGEO":"32322","TxChomage":"10.6"}
,{"CODGEO":"32323","TxChomage":"8.7"}
,{"CODGEO":"32324","TxChomage":"8.7"}
,{"CODGEO":"32325","TxChomage":"8.2"}
,{"CODGEO":"32326","TxChomage":"8.7"}
,{"CODGEO":"32327","TxChomage":"8.7"}
,{"CODGEO":"32328","TxChomage":"8.7"}
,{"CODGEO":"32329","TxChomage":"8.7"}
,{"CODGEO":"32330","TxChomage":"8.2"}
,{"CODGEO":"32331","TxChomage":"8.7"}
,{"CODGEO":"32332","TxChomage":"8.7"}
,{"CODGEO":"32333","TxChomage":"8.2"}
,{"CODGEO":"32334","TxChomage":"10.6"}
,{"CODGEO":"32335","TxChomage":"8.7"}
,{"CODGEO":"32336","TxChomage":"10.6"}
,{"CODGEO":"32337","TxChomage":"8.7"}
,{"CODGEO":"32338","TxChomage":"8.2"}
,{"CODGEO":"32339","TxChomage":"10.6"}
,{"CODGEO":"32340","TxChomage":"8.2"}
,{"CODGEO":"32341","TxChomage":"8.7"}
,{"CODGEO":"32342","TxChomage":"8.7"}
,{"CODGEO":"32343","TxChomage":"8.7"}
,{"CODGEO":"32344","TxChomage":"8.2"}
,{"CODGEO":"32345","TxChomage":"8.7"}
,{"CODGEO":"32346","TxChomage":"8.7"}
,{"CODGEO":"32347","TxChomage":"8.7"}
,{"CODGEO":"32348","TxChomage":"8.7"}
,{"CODGEO":"32349","TxChomage":"10.6"}
,{"CODGEO":"32350","TxChomage":"8.7"}
,{"CODGEO":"32351","TxChomage":"8.7"}
,{"CODGEO":"32352","TxChomage":"8.7"}
,{"CODGEO":"32353","TxChomage":"10.6"}
,{"CODGEO":"32354","TxChomage":"8.2"}
,{"CODGEO":"32355","TxChomage":"8.7"}
,{"CODGEO":"32356","TxChomage":"10.6"}
,{"CODGEO":"32357","TxChomage":"10.6"}
,{"CODGEO":"32358","TxChomage":"11.8"}
,{"CODGEO":"32359","TxChomage":"10.6"}
,{"CODGEO":"32360","TxChomage":"8.7"}
,{"CODGEO":"32361","TxChomage":"8.7"}
,{"CODGEO":"32362","TxChomage":"8.2"}
,{"CODGEO":"32363","TxChomage":"8.7"}
,{"CODGEO":"32364","TxChomage":"8.7"}
,{"CODGEO":"32365","TxChomage":"8.7"}
,{"CODGEO":"32366","TxChomage":"8.7"}
,{"CODGEO":"32367","TxChomage":"8.7"}
,{"CODGEO":"32368","TxChomage":"8.7"}
,{"CODGEO":"32369","TxChomage":"8.2"}
,{"CODGEO":"32370","TxChomage":"8.7"}
,{"CODGEO":"32371","TxChomage":"8.7"}
,{"CODGEO":"32372","TxChomage":"10.6"}
,{"CODGEO":"32373","TxChomage":"8.7"}
,{"CODGEO":"32374","TxChomage":"8.7"}
,{"CODGEO":"32375","TxChomage":"8.7"}
,{"CODGEO":"32376","TxChomage":"10.6"}
,{"CODGEO":"32377","TxChomage":"10.6"}
,{"CODGEO":"32378","TxChomage":"8.2"}
,{"CODGEO":"32379","TxChomage":"10.6"}
,{"CODGEO":"32380","TxChomage":"8.2"}
,{"CODGEO":"32381","TxChomage":"8.7"}
,{"CODGEO":"32382","TxChomage":"8.7"}
,{"CODGEO":"32383","TxChomage":"8.7"}
,{"CODGEO":"32384","TxChomage":"8.7"}
,{"CODGEO":"32385","TxChomage":"8.7"}
,{"CODGEO":"32386","TxChomage":"10.6"}
,{"CODGEO":"32387","TxChomage":"10.6"}
,{"CODGEO":"32388","TxChomage":"10.6"}
,{"CODGEO":"32389","TxChomage":"8.7"}
,{"CODGEO":"32390","TxChomage":"8.2"}
,{"CODGEO":"32391","TxChomage":"8.7"}
,{"CODGEO":"32392","TxChomage":"10.6"}
,{"CODGEO":"32393","TxChomage":"8.7"}
,{"CODGEO":"32394","TxChomage":"8.7"}
,{"CODGEO":"32395","TxChomage":"8.7"}
,{"CODGEO":"32396","TxChomage":"8.7"}
,{"CODGEO":"32397","TxChomage":"8.7"}
,{"CODGEO":"32398","TxChomage":"8.2"}
,{"CODGEO":"32399","TxChomage":"10.6"}
,{"CODGEO":"32400","TxChomage":"8.7"}
,{"CODGEO":"32401","TxChomage":"8.7"}
,{"CODGEO":"32402","TxChomage":"8.7"}
,{"CODGEO":"32403","TxChomage":"8.7"}
,{"CODGEO":"32404","TxChomage":"8.7"}
,{"CODGEO":"32405","TxChomage":"8.7"}
,{"CODGEO":"32406","TxChomage":"10.6"}
,{"CODGEO":"32407","TxChomage":"10.6"}
,{"CODGEO":"32408","TxChomage":"8.2"}
,{"CODGEO":"32409","TxChomage":"8.7"}
,{"CODGEO":"32410","TxChomage":"10.6"}
,{"CODGEO":"32411","TxChomage":"8.7"}
,{"CODGEO":"32412","TxChomage":"8.7"}
,{"CODGEO":"32413","TxChomage":"8.7"}
,{"CODGEO":"32414","TxChomage":"8.2"}
,{"CODGEO":"32415","TxChomage":"11.5"}
,{"CODGEO":"32416","TxChomage":"10.6"}
,{"CODGEO":"32417","TxChomage":"8.7"}
,{"CODGEO":"32418","TxChomage":"10.6"}
,{"CODGEO":"32419","TxChomage":"8.7"}
,{"CODGEO":"32420","TxChomage":"10.6"}
,{"CODGEO":"32421","TxChomage":"10.6"}
,{"CODGEO":"32422","TxChomage":"8.7"}
,{"CODGEO":"32423","TxChomage":"8.7"}
,{"CODGEO":"32424","TxChomage":"8.2"}
,{"CODGEO":"32425","TxChomage":"10.6"}
,{"CODGEO":"32426","TxChomage":"8.7"}
,{"CODGEO":"32427","TxChomage":"8.7"}
,{"CODGEO":"32428","TxChomage":"8.7"}
,{"CODGEO":"32429","TxChomage":"8.7"}
,{"CODGEO":"32430","TxChomage":"8.7"}
,{"CODGEO":"32431","TxChomage":"10.6"}
,{"CODGEO":"32432","TxChomage":"10.6"}
,{"CODGEO":"32433","TxChomage":"10.6"}
,{"CODGEO":"32434","TxChomage":"8.2"}
,{"CODGEO":"32435","TxChomage":"10.6"}
,{"CODGEO":"32436","TxChomage":"10.6"}
,{"CODGEO":"32437","TxChomage":"8.2"}
,{"CODGEO":"32438","TxChomage":"8.7"}
,{"CODGEO":"32439","TxChomage":"8.2"}
,{"CODGEO":"32440","TxChomage":"8.2"}
,{"CODGEO":"32441","TxChomage":"8.7"}
,{"CODGEO":"32442","TxChomage":"8.7"}
,{"CODGEO":"32443","TxChomage":"8.2"}
,{"CODGEO":"32444","TxChomage":"10.6"}
,{"CODGEO":"32445","TxChomage":"11.5"}
,{"CODGEO":"32446","TxChomage":"8.7"}
,{"CODGEO":"32447","TxChomage":"8.7"}
,{"CODGEO":"32448","TxChomage":"10.6"}
,{"CODGEO":"32449","TxChomage":"8.2"}
,{"CODGEO":"32450","TxChomage":"8.7"}
,{"CODGEO":"32451","TxChomage":"10.6"}
,{"CODGEO":"32452","TxChomage":"8.7"}
,{"CODGEO":"32453","TxChomage":"8.7"}
,{"CODGEO":"32454","TxChomage":"8.7"}
,{"CODGEO":"32455","TxChomage":"11.5"}
,{"CODGEO":"32456","TxChomage":"8.7"}
,{"CODGEO":"32457","TxChomage":"8.7"}
,{"CODGEO":"32458","TxChomage":"8.2"}
,{"CODGEO":"32459","TxChomage":"8.7"}
,{"CODGEO":"32460","TxChomage":"8.2"}
,{"CODGEO":"32461","TxChomage":"8.2"}
,{"CODGEO":"32462","TxChomage":"8.7"}
,{"CODGEO":"32463","TxChomage":"8.2"}
,{"CODGEO":"32464","TxChomage":"11.5"}
,{"CODGEO":"32465","TxChomage":"8.7"}
,{"CODGEO":"32466","TxChomage":"8.7"}
,{"CODGEO":"32467","TxChomage":"8.7"}
,{"CODGEO":"32468","TxChomage":"10.6"}
]}
