{"status":"success","data":[{"CODGEO":"40001","TxChomage":"8.2"}
,{"CODGEO":"40002","TxChomage":"8.5"}
,{"CODGEO":"40003","TxChomage":"10.6"}
,{"CODGEO":"40004","TxChomage":"10.6"}
,{"CODGEO":"40005","TxChomage":"8.2"}
,{"CODGEO":"40006","TxChomage":"8.2"}
,{"CODGEO":"40007","TxChomage":"8.2"}
,{"CODGEO":"40008","TxChomage":"11.3"}
,{"CODGEO":"40009","TxChomage":"10.6"}
,{"CODGEO":"40011","TxChomage":"8.5"}
,{"CODGEO":"40012","TxChomage":"8.2"}
,{"CODGEO":"40013","TxChomage":"8.2"}
,{"CODGEO":"40014","TxChomage":"8.2"}
,{"CODGEO":"40015","TxChomage":"9.7"}
,{"CODGEO":"40016","TxChomage":"8.2"}
,{"CODGEO":"40017","TxChomage":"8.2"}
,{"CODGEO":"40018","TxChomage":"10.6"}
,{"CODGEO":"40019","TxChomage":"11.3"}
,{"CODGEO":"40020","TxChomage":"8.2"}
,{"CODGEO":"40021","TxChomage":"10.6"}
,{"CODGEO":"40022","TxChomage":"8.2"}
,{"CODGEO":"40023","TxChomage":"10.6"}
,{"CODGEO":"40024","TxChomage":"8.2"}
,{"CODGEO":"40025","TxChomage":"8.2"}
,{"CODGEO":"40026","TxChomage":"8.2"}
,{"CODGEO":"40027","TxChomage":"8.5"}
,{"CODGEO":"40028","TxChomage":"10.6"}
,{"CODGEO":"40029","TxChomage":"8.2"}
,{"CODGEO":"40030","TxChomage":"8.2"}
,{"CODGEO":"40031","TxChomage":"10.6"}
,{"CODGEO":"40032","TxChomage":"11.3"}
,{"CODGEO":"40033","TxChomage":"8.2"}
,{"CODGEO":"40034","TxChomage":"10.6"}
,{"CODGEO":"40035","TxChomage":"10.6"}
,{"CODGEO":"40036","TxChomage":"9.1"}
,{"CODGEO":"40037","TxChomage":"8.2"}
,{"CODGEO":"40038","TxChomage":"8.2"}
,{"CODGEO":"40039","TxChomage":"8.2"}
,{"CODGEO":"40040","TxChomage":"10.6"}
,{"CODGEO":"40041","TxChomage":"8.5"}
,{"CODGEO":"40042","TxChomage":"9.1"}
,{"CODGEO":"40043","TxChomage":"11.3"}
,{"CODGEO":"40044","TxChomage":"9.1"}
,{"CODGEO":"40046","TxChomage":"11.3"}
,{"CODGEO":"40047","TxChomage":"8.5"}
,{"CODGEO":"40048","TxChomage":"10.6"}
,{"CODGEO":"40049","TxChomage":"8.2"}
,{"CODGEO":"40050","TxChomage":"8.2"}
,{"CODGEO":"40051","TxChomage":"8.2"}
,{"CODGEO":"40052","TxChomage":"8.2"}
,{"CODGEO":"40053","TxChomage":"8.2"}
,{"CODGEO":"40054","TxChomage":"8.2"}
,{"CODGEO":"40055","TxChomage":"8.2"}
,{"CODGEO":"40056","TxChomage":"8.2"}
,{"CODGEO":"40057","TxChomage":"8.2"}
,{"CODGEO":"40058","TxChomage":"8.2"}
,{"CODGEO":"40059","TxChomage":"10.6"}
,{"CODGEO":"40060","TxChomage":"11.3"}
,{"CODGEO":"40061","TxChomage":"8.2"}
,{"CODGEO":"40062","TxChomage":"8.2"}
,{"CODGEO":"40063","TxChomage":"10.6"}
,{"CODGEO":"40064","TxChomage":"8.2"}
,{"CODGEO":"40065","TxChomage":"10.6"}
,{"CODGEO":"40066","TxChomage":"8.2"}
,{"CODGEO":"40067","TxChomage":"10.6"}
,{"CODGEO":"40068","TxChomage":"10.6"}
,{"CODGEO":"40069","TxChomage":"8.2"}
,{"CODGEO":"40070","TxChomage":"8.2"}
,{"CODGEO":"40071","TxChomage":"10.6"}
,{"CODGEO":"40072","TxChomage":"8.2"}
,{"CODGEO":"40073","TxChomage":"8.5"}
,{"CODGEO":"40074","TxChomage":"10.6"}
,{"CODGEO":"40075","TxChomage":"10.6"}
,{"CODGEO":"40076","TxChomage":"8.2"}
,{"CODGEO":"40077","TxChomage":"10.6"}
,{"CODGEO":"40078","TxChomage":"10.6"}
,{"CODGEO":"40079","TxChomage":"8.2"}
,{"CODGEO":"40080","TxChomage":"8.2"}
,{"CODGEO":"40081","TxChomage":"8.2"}
,{"CODGEO":"40082","TxChomage":"8.2"}
,{"CODGEO":"40083","TxChomage":"8.2"}
,{"CODGEO":"40084","TxChomage":"10.6"}
,{"CODGEO":"40085","TxChomage":"11.3"}
,{"CODGEO":"40086","TxChomage":"8.2"}
,{"CODGEO":"40087","TxChomage":"8.2"}
,{"CODGEO":"40088","TxChomage":"10.6"}
,{"CODGEO":"40089","TxChomage":"8.2"}
,{"CODGEO":"40090","TxChomage":"10.6"}
,{"CODGEO":"40091","TxChomage":"8.2"}
,{"CODGEO":"40092","TxChomage":"8.2"}
,{"CODGEO":"40093","TxChomage":"8.2"}
,{"CODGEO":"40094","TxChomage":"11.3"}
,{"CODGEO":"40095","TxChomage":"10.6"}
,{"CODGEO":"40096","TxChomage":"8.2"}
,{"CODGEO":"40097","TxChomage":"8.2"}
,{"CODGEO":"40098","TxChomage":"8.2"}
,{"CODGEO":"40099","TxChomage":"8.2"}
,{"CODGEO":"40100","TxChomage":"8.2"}
,{"CODGEO":"40101","TxChomage":"10.6"}
,{"CODGEO":"40102","TxChomage":"8.2"}
,{"CODGEO":"40103","TxChomage":"8.2"}
,{"CODGEO":"40104","TxChomage":"10.6"}
,{"CODGEO":"40105","TxChomage":"8.2"}
,{"CODGEO":"40106","TxChomage":"10.6"}
,{"CODGEO":"40107","TxChomage":"10.6"}
,{"CODGEO":"40108","TxChomage":"11.3"}
,{"CODGEO":"40109","TxChomage":"10.6"}
,{"CODGEO":"40110","TxChomage":"8.2"}
,{"CODGEO":"40111","TxChomage":"8.2"}
,{"CODGEO":"40112","TxChomage":"10.6"}
,{"CODGEO":"40113","TxChomage":"10.6"}
,{"CODGEO":"40114","TxChomage":"10.6"}
,{"CODGEO":"40115","TxChomage":"10.6"}
,{"CODGEO":"40116","TxChomage":"10.6"}
,{"CODGEO":"40117","TxChomage":"8.2"}
,{"CODGEO":"40118","TxChomage":"10.6"}
,{"CODGEO":"40119","TxChomage":"8.2"}
,{"CODGEO":"40120","TxChomage":"9.1"}
,{"CODGEO":"40121","TxChomage":"8.2"}
,{"CODGEO":"40122","TxChomage":"8.2"}
,{"CODGEO":"40123","TxChomage":"10.6"}
,{"CODGEO":"40124","TxChomage":"8.2"}
,{"CODGEO":"40125","TxChomage":"10.6"}
,{"CODGEO":"40126","TxChomage":"10.6"}
,{"CODGEO":"40127","TxChomage":"8.2"}
,{"CODGEO":"40128","TxChomage":"8.2"}
,{"CODGEO":"40129","TxChomage":"10.6"}
,{"CODGEO":"40130","TxChomage":"8.2"}
,{"CODGEO":"40131","TxChomage":"8.2"}
,{"CODGEO":"40132","TxChomage":"10.6"}
,{"CODGEO":"40133","TxChomage":"9.1"}
,{"CODGEO":"40134","TxChomage":"11.3"}
,{"CODGEO":"40135","TxChomage":"8.2"}
,{"CODGEO":"40136","TxChomage":"8.5"}
,{"CODGEO":"40137","TxChomage":"8.2"}
,{"CODGEO":"40138","TxChomage":"8.2"}
,{"CODGEO":"40139","TxChomage":"8.2"}
,{"CODGEO":"40140","TxChomage":"8.2"}
,{"CODGEO":"40141","TxChomage":"10.6"}
,{"CODGEO":"40142","TxChomage":"10.6"}
,{"CODGEO":"40143","TxChomage":"8.2"}
,{"CODGEO":"40144","TxChomage":"10.6"}
,{"CODGEO":"40145","TxChomage":"8.2"}
,{"CODGEO":"40146","TxChomage":"8.2"}
,{"CODGEO":"40147","TxChomage":"10.6"}
,{"CODGEO":"40148","TxChomage":"8.5"}
,{"CODGEO":"40149","TxChomage":"8.2"}
,{"CODGEO":"40150","TxChomage":"10.6"}
,{"CODGEO":"40151","TxChomage":"10.6"}
,{"CODGEO":"40152","TxChomage":"10.6"}
,{"CODGEO":"40153","TxChomage":"8.2"}
,{"CODGEO":"40154","TxChomage":"10.6"}
,{"CODGEO":"40155","TxChomage":"10.6"}
,{"CODGEO":"40156","TxChomage":"11.3"}
,{"CODGEO":"40157","TxChomage":"10.6"}
,{"CODGEO":"40158","TxChomage":"8.2"}
,{"CODGEO":"40159","TxChomage":"10.6"}
,{"CODGEO":"40160","TxChomage":"10.6"}
,{"CODGEO":"40161","TxChomage":"8.2"}
,{"CODGEO":"40162","TxChomage":"8.2"}
,{"CODGEO":"40163","TxChomage":"11.3"}
,{"CODGEO":"40164","TxChomage":"8.2"}
,{"CODGEO":"40165","TxChomage":"8.2"}
,{"CODGEO":"40166","TxChomage":"8.2"}
,{"CODGEO":"40167","TxChomage":"11.3"}
,{"CODGEO":"40168","TxChomage":"10.6"}
,{"CODGEO":"40169","TxChomage":"8.2"}
,{"CODGEO":"40170","TxChomage":"8.2"}
,{"CODGEO":"40171","TxChomage":"11.3"}
,{"CODGEO":"40172","TxChomage":"8.2"}
,{"CODGEO":"40173","TxChomage":"8.5"}
,{"CODGEO":"40174","TxChomage":"8.2"}
,{"CODGEO":"40175","TxChomage":"8.2"}
,{"CODGEO":"40176","TxChomage":"8.2"}
,{"CODGEO":"40177","TxChomage":"8.2"}
,{"CODGEO":"40178","TxChomage":"8.2"}
,{"CODGEO":"40179","TxChomage":"10.6"}
,{"CODGEO":"40180","TxChomage":"8.2"}
,{"CODGEO":"40181","TxChomage":"10.6"}
,{"CODGEO":"40182","TxChomage":"11.3"}
,{"CODGEO":"40183","TxChomage":"10.6"}
,{"CODGEO":"40184","TxChomage":"11.3"}
,{"CODGEO":"40185","TxChomage":"8.2"}
,{"CODGEO":"40186","TxChomage":"10.6"}
,{"CODGEO":"40187","TxChomage":"10.6"}
,{"CODGEO":"40188","TxChomage":"8.2"}
,{"CODGEO":"40189","TxChomage":"8.5"}
,{"CODGEO":"40190","TxChomage":"8.2"}
,{"CODGEO":"40191","TxChomage":"8.2"}
,{"CODGEO":"40192","TxChomage":"8.2"}
,{"CODGEO":"40193","TxChomage":"8.2"}
,{"CODGEO":"40194","TxChomage":"10.6"}
,{"CODGEO":"40195","TxChomage":"8.2"}
,{"CODGEO":"40196","TxChomage":"8.2"}
,{"CODGEO":"40197","TxChomage":"10.6"}
,{"CODGEO":"40198","TxChomage":"8.2"}
,{"CODGEO":"40199","TxChomage":"10.6"}
,{"CODGEO":"40200","TxChomage":"11.3"}
,{"CODGEO":"40201","TxChomage":"10.6"}
,{"CODGEO":"40202","TxChomage":"10.6"}
,{"CODGEO":"40203","TxChomage":"8.5"}
,{"CODGEO":"40204","TxChomage":"8.2"}
,{"CODGEO":"40205","TxChomage":"10.6"}
,{"CODGEO":"40206","TxChomage":"10.6"}
,{"CODGEO":"40207","TxChomage":"10.6"}
,{"CODGEO":"40208","TxChomage":"10.6"}
,{"CODGEO":"40209","TxChomage":"9.1"}
,{"CODGEO":"40210","TxChomage":"10.6"}
,{"CODGEO":"40211","TxChomage":"10.6"}
,{"CODGEO":"40212","TxChomage":"9.1"}
,{"CODGEO":"40213","TxChomage":"9.1"}
,{"CODGEO":"40214","TxChomage":"10.6"}
,{"CODGEO":"40215","TxChomage":"8.2"}
,{"CODGEO":"40216","TxChomage":"10.6"}
,{"CODGEO":"40217","TxChomage":"11.3"}
,{"CODGEO":"40218","TxChomage":"8.2"}
,{"CODGEO":"40219","TxChomage":"8.2"}
,{"CODGEO":"40220","TxChomage":"8.2"}
,{"CODGEO":"40221","TxChomage":"8.2"}
,{"CODGEO":"40222","TxChomage":"10.6"}
,{"CODGEO":"40223","TxChomage":"8.2"}
,{"CODGEO":"40224","TxChomage":"10.6"}
,{"CODGEO":"40225","TxChomage":"8.5"}
,{"CODGEO":"40226","TxChomage":"8.5"}
,{"CODGEO":"40227","TxChomage":"11.3"}
,{"CODGEO":"40228","TxChomage":"10.6"}
,{"CODGEO":"40229","TxChomage":"11.3"}
,{"CODGEO":"40230","TxChomage":"10.6"}
,{"CODGEO":"40231","TxChomage":"10.6"}
,{"CODGEO":"40232","TxChomage":"8.2"}
,{"CODGEO":"40233","TxChomage":"10.6"}
,{"CODGEO":"40234","TxChomage":"8.2"}
,{"CODGEO":"40235","TxChomage":"10.6"}
,{"CODGEO":"40236","TxChomage":"10.6"}
,{"CODGEO":"40237","TxChomage":"10.6"}
,{"CODGEO":"40238","TxChomage":"8.2"}
,{"CODGEO":"40239","TxChomage":"8.2"}
,{"CODGEO":"40240","TxChomage":"8.2"}
,{"CODGEO":"40242","TxChomage":"8.2"}
,{"CODGEO":"40243","TxChomage":"10.6"}
,{"CODGEO":"40244","TxChomage":"10.6"}
,{"CODGEO":"40245","TxChomage":"8.2"}
,{"CODGEO":"40246","TxChomage":"8.2"}
,{"CODGEO":"40247","TxChomage":"8.2"}
,{"CODGEO":"40248","TxChomage":"9.1"}
,{"CODGEO":"40249","TxChomage":"8.2"}
,{"CODGEO":"40250","TxChomage":"8.2"}
,{"CODGEO":"40251","TxChomage":"9.1"}
,{"CODGEO":"40252","TxChomage":"8.2"}
,{"CODGEO":"40253","TxChomage":"8.2"}
,{"CODGEO":"40254","TxChomage":"10.6"}
,{"CODGEO":"40255","TxChomage":"8.2"}
,{"CODGEO":"40256","TxChomage":"10.6"}
,{"CODGEO":"40257","TxChomage":"11.3"}
,{"CODGEO":"40258","TxChomage":"8.2"}
,{"CODGEO":"40259","TxChomage":"8.2"}
,{"CODGEO":"40260","TxChomage":"10.6"}
,{"CODGEO":"40261","TxChomage":"10.6"}
,{"CODGEO":"40262","TxChomage":"8.2"}
,{"CODGEO":"40263","TxChomage":"10.6"}
,{"CODGEO":"40264","TxChomage":"10.6"}
,{"CODGEO":"40265","TxChomage":"8.2"}
,{"CODGEO":"40266","TxChomage":"10.6"}
,{"CODGEO":"40267","TxChomage":"8.2"}
,{"CODGEO":"40268","TxChomage":"9.1"}
,{"CODGEO":"40269","TxChomage":"10.6"}
,{"CODGEO":"40270","TxChomage":"8.2"}
,{"CODGEO":"40271","TxChomage":"9.1"}
,{"CODGEO":"40272","TxChomage":"9.1"}
,{"CODGEO":"40273","TxChomage":"9.1"}
,{"CODGEO":"40274","TxChomage":"8.2"}
,{"CODGEO":"40275","TxChomage":"8.2"}
,{"CODGEO":"40276","TxChomage":"10.6"}
,{"CODGEO":"40277","TxChomage":"10.6"}
,{"CODGEO":"40278","TxChomage":"11.3"}
,{"CODGEO":"40279","TxChomage":"10.6"}
,{"CODGEO":"40280","TxChomage":"8.2"}
,{"CODGEO":"40281","TxChomage":"8.2"}
,{"CODGEO":"40282","TxChomage":"8.2"}
,{"CODGEO":"40283","TxChomage":"10.6"}
,{"CODGEO":"40284","TxChomage":"10.6"}
,{"CODGEO":"40285","TxChomage":"8.2"}
,{"CODGEO":"40286","TxChomage":"8.2"}
,{"CODGEO":"40287","TxChomage":"11.3"}
,{"CODGEO":"40288","TxChomage":"8.2"}
,{"CODGEO":"40289","TxChomage":"8.2"}
,{"CODGEO":"40290","TxChomage":"8.5"}
,{"CODGEO":"40291","TxChomage":"10.6"}
,{"CODGEO":"40292","TxChomage":"9.1"}
,{"CODGEO":"40293","TxChomage":"10.6"}
,{"CODGEO":"40294","TxChomage":"10.6"}
,{"CODGEO":"40295","TxChomage":"11.3"}
,{"CODGEO":"40296","TxChomage":"10.6"}
,{"CODGEO":"40297","TxChomage":"8.2"}
,{"CODGEO":"40298","TxChomage":"8.2"}
,{"CODGEO":"40299","TxChomage":"8.2"}
,{"CODGEO":"40300","TxChomage":"10.6"}
,{"CODGEO":"40301","TxChomage":"10.6"}
,{"CODGEO":"40302","TxChomage":"10.6"}
,{"CODGEO":"40303","TxChomage":"11.3"}
,{"CODGEO":"40304","TxChomage":"10.6"}
,{"CODGEO":"40305","TxChomage":"8.2"}
,{"CODGEO":"40306","TxChomage":"10.6"}
,{"CODGEO":"40307","TxChomage":"11.3"}
,{"CODGEO":"40308","TxChomage":"10.6"}
,{"CODGEO":"40309","TxChomage":"8.2"}
,{"CODGEO":"40310","TxChomage":"10.6"}
,{"CODGEO":"40311","TxChomage":"10.6"}
,{"CODGEO":"40312","TxChomage":"9.1"}
,{"CODGEO":"40313","TxChomage":"10.6"}
,{"CODGEO":"40314","TxChomage":"10.6"}
,{"CODGEO":"40315","TxChomage":"10.6"}
,{"CODGEO":"40316","TxChomage":"10.6"}
,{"CODGEO":"40317","TxChomage":"10.6"}
,{"CODGEO":"40318","TxChomage":"8.2"}
,{"CODGEO":"40319","TxChomage":"8.2"}
,{"CODGEO":"40320","TxChomage":"8.2"}
,{"CODGEO":"40321","TxChomage":"8.2"}
,{"CODGEO":"40322","TxChomage":"10.6"}
,{"CODGEO":"40323","TxChomage":"8.2"}
,{"CODGEO":"40324","TxChomage":"10.6"}
,{"CODGEO":"40325","TxChomage":"8.2"}
,{"CODGEO":"40326","TxChomage":"10.6"}
,{"CODGEO":"40327","TxChomage":"8.2"}
,{"CODGEO":"40328","TxChomage":"10.6"}
,{"CODGEO":"40329","TxChomage":"8.2"}
,{"CODGEO":"40330","TxChomage":"10.6"}
,{"CODGEO":"40331","TxChomage":"8.2"}
,{"CODGEO":"40332","TxChomage":"11.3"}
,{"CODGEO":"40333","TxChomage":"8.2"}
,{"CODGEO":"40334","TxChomage":"10.6"}
]}
