{"status":"success","data":[{"CODGEO":"44001","TxChomage":"8.5"}
,{"CODGEO":"44002","TxChomage":"8.5"}
,{"CODGEO":"44003","TxChomage":"6.3"}
,{"CODGEO":"44004","TxChomage":"6.3"}
,{"CODGEO":"44005","TxChomage":"8.5"}
,{"CODGEO":"44006","TxChomage":"9.6"}
,{"CODGEO":"44007","TxChomage":"8.5"}
,{"CODGEO":"44008","TxChomage":"8.5"}
,{"CODGEO":"44009","TxChomage":"8.5"}
,{"CODGEO":"44010","TxChomage":"9.6"}
,{"CODGEO":"44011","TxChomage":"6.3"}
,{"CODGEO":"44012","TxChomage":"8.5"}
,{"CODGEO":"44013","TxChomage":"9.6"}
,{"CODGEO":"44014","TxChomage":"8.5"}
,{"CODGEO":"44015","TxChomage":"8.5"}
,{"CODGEO":"44016","TxChomage":"8.5"}
,{"CODGEO":"44017","TxChomage":"6.3"}
,{"CODGEO":"44018","TxChomage":"8.5"}
,{"CODGEO":"44019","TxChomage":"8.5"}
,{"CODGEO":"44020","TxChomage":"8.5"}
,{"CODGEO":"44021","TxChomage":"8.5"}
,{"CODGEO":"44022","TxChomage":"8.5"}
,{"CODGEO":"44023","TxChomage":"8.5"}
,{"CODGEO":"44024","TxChomage":"8.5"}
,{"CODGEO":"44025","TxChomage":"9.6"}
,{"CODGEO":"44026","TxChomage":"8.5"}
,{"CODGEO":"44027","TxChomage":"8.5"}
,{"CODGEO":"44028","TxChomage":"8.5"}
,{"CODGEO":"44029","TxChomage":"8.5"}
,{"CODGEO":"44030","TxChomage":"9.6"}
,{"CODGEO":"44031","TxChomage":"8.8"}
,{"CODGEO":"44032","TxChomage":"8.5"}
,{"CODGEO":"44033","TxChomage":"9.6"}
,{"CODGEO":"44034","TxChomage":"10.4"}
,{"CODGEO":"44035","TxChomage":"8.5"}
,{"CODGEO":"44036","TxChomage":"8.8"}
,{"CODGEO":"44037","TxChomage":"8.5"}
,{"CODGEO":"44038","TxChomage":"9.6"}
,{"CODGEO":"44039","TxChomage":"8.5"}
,{"CODGEO":"44040","TxChomage":"8.5"}
,{"CODGEO":"44041","TxChomage":"8.5"}
,{"CODGEO":"44043","TxChomage":"8.5"}
,{"CODGEO":"44044","TxChomage":"8.5"}
,{"CODGEO":"44045","TxChomage":"8.5"}
,{"CODGEO":"44046","TxChomage":"9.6"}
,{"CODGEO":"44047","TxChomage":"8.5"}
,{"CODGEO":"44048","TxChomage":"8.5"}
,{"CODGEO":"44049","TxChomage":"9.6"}
,{"CODGEO":"44050","TxChomage":"9.6"}
,{"CODGEO":"44051","TxChomage":"8.5"}
,{"CODGEO":"44052","TxChomage":"9.6"}
,{"CODGEO":"44053","TxChomage":"9.6"}
,{"CODGEO":"44054","TxChomage":"8.8"}
,{"CODGEO":"44055","TxChomage":"9.6"}
,{"CODGEO":"44056","TxChomage":"8.5"}
,{"CODGEO":"44057","TxChomage":"9.6"}
,{"CODGEO":"44058","TxChomage":"8.8"}
,{"CODGEO":"44059","TxChomage":"8.5"}
,{"CODGEO":"44060","TxChomage":"10.4"}
,{"CODGEO":"44061","TxChomage":"9.6"}
,{"CODGEO":"44062","TxChomage":"8.5"}
,{"CODGEO":"44063","TxChomage":"8.5"}
,{"CODGEO":"44064","TxChomage":"8.5"}
,{"CODGEO":"44065","TxChomage":"8.8"}
,{"CODGEO":"44066","TxChomage":"8.5"}
,{"CODGEO":"44067","TxChomage":"8.5"}
,{"CODGEO":"44068","TxChomage":"9.6"}
,{"CODGEO":"44069","TxChomage":"9.6"}
,{"CODGEO":"44070","TxChomage":"8.5"}
,{"CODGEO":"44071","TxChomage":"8.5"}
,{"CODGEO":"44072","TxChomage":"9.6"}
,{"CODGEO":"44073","TxChomage":"8.5"}
,{"CODGEO":"44074","TxChomage":"8.5"}
,{"CODGEO":"44075","TxChomage":"8.8"}
,{"CODGEO":"44076","TxChomage":"8.5"}
,{"CODGEO":"44077","TxChomage":"8.5"}
,{"CODGEO":"44078","TxChomage":"8.8"}
,{"CODGEO":"44079","TxChomage":"8.5"}
,{"CODGEO":"44080","TxChomage":"9.6"}
,{"CODGEO":"44081","TxChomage":"8.5"}
,{"CODGEO":"44082","TxChomage":"8.5"}
,{"CODGEO":"44083","TxChomage":"8.5"}
,{"CODGEO":"44084","TxChomage":"8.5"}
,{"CODGEO":"44085","TxChomage":"8.8"}
,{"CODGEO":"44086","TxChomage":"8.8"}
,{"CODGEO":"44087","TxChomage":"8.5"}
,{"CODGEO":"44088","TxChomage":"8.5"}
,{"CODGEO":"44089","TxChomage":"8.5"}
,{"CODGEO":"44090","TxChomage":"8.5"}
,{"CODGEO":"44091","TxChomage":"8.5"}
,{"CODGEO":"44092","TxChomage":"8.5"}
,{"CODGEO":"44093","TxChomage":"6.3"}
,{"CODGEO":"44094","TxChomage":"8.5"}
,{"CODGEO":"44095","TxChomage":"8.5"}
,{"CODGEO":"44096","TxChomage":"6.3"}
,{"CODGEO":"44097","TxChomage":"9.6"}
,{"CODGEO":"44098","TxChomage":"9.6"}
,{"CODGEO":"44099","TxChomage":"8.8"}
,{"CODGEO":"44100","TxChomage":"8.5"}
,{"CODGEO":"44101","TxChomage":"8.5"}
,{"CODGEO":"44102","TxChomage":"8.5"}
,{"CODGEO":"44103","TxChomage":"9.6"}
,{"CODGEO":"44104","TxChomage":"10.4"}
,{"CODGEO":"44105","TxChomage":"8.8"}
,{"CODGEO":"44106","TxChomage":"8.5"}
,{"CODGEO":"44107","TxChomage":"8.5"}
,{"CODGEO":"44108","TxChomage":"8.5"}
,{"CODGEO":"44109","TxChomage":"8.5"}
,{"CODGEO":"44110","TxChomage":"8.5"}
,{"CODGEO":"44111","TxChomage":"8.5"}
,{"CODGEO":"44112","TxChomage":"8.8"}
,{"CODGEO":"44113","TxChomage":"8.5"}
,{"CODGEO":"44114","TxChomage":"8.5"}
,{"CODGEO":"44115","TxChomage":"8.5"}
,{"CODGEO":"44116","TxChomage":"9.6"}
,{"CODGEO":"44117","TxChomage":"8.5"}
,{"CODGEO":"44118","TxChomage":"6.3"}
,{"CODGEO":"44119","TxChomage":"8.5"}
,{"CODGEO":"44120","TxChomage":"8.5"}
,{"CODGEO":"44121","TxChomage":"8.8"}
,{"CODGEO":"44122","TxChomage":"8.5"}
,{"CODGEO":"44123","TxChomage":"8.5"}
,{"CODGEO":"44124","TxChomage":"6.3"}
,{"CODGEO":"44125","TxChomage":"9.6"}
,{"CODGEO":"44126","TxChomage":"9.6"}
,{"CODGEO":"44127","TxChomage":"8.5"}
,{"CODGEO":"44128","TxChomage":"8.5"}
,{"CODGEO":"44129","TxChomage":"9.6"}
,{"CODGEO":"44130","TxChomage":"8.5"}
,{"CODGEO":"44131","TxChomage":"9.6"}
,{"CODGEO":"44132","TxChomage":"9.6"}
,{"CODGEO":"44133","TxChomage":"8.5"}
,{"CODGEO":"44134","TxChomage":"6.3"}
,{"CODGEO":"44135","TxChomage":"9.6"}
,{"CODGEO":"44136","TxChomage":"9.6"}
,{"CODGEO":"44137","TxChomage":"9.6"}
,{"CODGEO":"44138","TxChomage":"8.5"}
,{"CODGEO":"44139","TxChomage":"9.6"}
,{"CODGEO":"44140","TxChomage":"8.5"}
,{"CODGEO":"44141","TxChomage":"8.5"}
,{"CODGEO":"44142","TxChomage":"8.5"}
,{"CODGEO":"44143","TxChomage":"8.5"}
,{"CODGEO":"44144","TxChomage":"8.5"}
,{"CODGEO":"44145","TxChomage":"8.5"}
,{"CODGEO":"44146","TxChomage":"8.8"}
,{"CODGEO":"44147","TxChomage":"6.3"}
,{"CODGEO":"44148","TxChomage":"8.8"}
,{"CODGEO":"44149","TxChomage":"8.5"}
,{"CODGEO":"44150","TxChomage":"8.5"}
,{"CODGEO":"44151","TxChomage":"9.6"}
,{"CODGEO":"44152","TxChomage":"9.6"}
,{"CODGEO":"44153","TxChomage":"8.8"}
,{"CODGEO":"44154","TxChomage":"9.6"}
,{"CODGEO":"44155","TxChomage":"8.5"}
,{"CODGEO":"44156","TxChomage":"8.5"}
,{"CODGEO":"44157","TxChomage":"8.5"}
,{"CODGEO":"44158","TxChomage":"8.5"}
,{"CODGEO":"44159","TxChomage":"8.5"}
,{"CODGEO":"44160","TxChomage":"6.3"}
,{"CODGEO":"44161","TxChomage":"9.6"}
,{"CODGEO":"44162","TxChomage":"8.5"}
,{"CODGEO":"44163","TxChomage":"6.3"}
,{"CODGEO":"44164","TxChomage":"8.5"}
,{"CODGEO":"44165","TxChomage":"8.5"}
,{"CODGEO":"44166","TxChomage":"8.5"}
,{"CODGEO":"44168","TxChomage":"9.6"}
,{"CODGEO":"44169","TxChomage":"8.5"}
,{"CODGEO":"44170","TxChomage":"8.8"}
,{"CODGEO":"44171","TxChomage":"8.5"}
,{"CODGEO":"44172","TxChomage":"8.5"}
,{"CODGEO":"44173","TxChomage":"8.5"}
,{"CODGEO":"44174","TxChomage":"8.5"}
,{"CODGEO":"44175","TxChomage":"9.6"}
,{"CODGEO":"44176","TxChomage":"9.6"}
,{"CODGEO":"44178","TxChomage":"8.5"}
,{"CODGEO":"44179","TxChomage":"8.5"}
,{"CODGEO":"44180","TxChomage":"6.3"}
,{"CODGEO":"44181","TxChomage":"8.5"}
,{"CODGEO":"44182","TxChomage":"9.6"}
,{"CODGEO":"44183","TxChomage":"9.6"}
,{"CODGEO":"44184","TxChomage":"9.6"}
,{"CODGEO":"44185","TxChomage":"8.5"}
,{"CODGEO":"44186","TxChomage":"8.5"}
,{"CODGEO":"44187","TxChomage":"9.6"}
,{"CODGEO":"44188","TxChomage":"8.5"}
,{"CODGEO":"44189","TxChomage":"9.6"}
,{"CODGEO":"44190","TxChomage":"8.5"}
,{"CODGEO":"44191","TxChomage":"6.3"}
,{"CODGEO":"44192","TxChomage":"9.6"}
,{"CODGEO":"44193","TxChomage":"8.8"}
,{"CODGEO":"44194","TxChomage":"8.5"}
,{"CODGEO":"44195","TxChomage":"8.5"}
,{"CODGEO":"44196","TxChomage":"9.6"}
,{"CODGEO":"44197","TxChomage":"8.8"}
,{"CODGEO":"44198","TxChomage":"8.5"}
,{"CODGEO":"44199","TxChomage":"8.8"}
,{"CODGEO":"44200","TxChomage":"8.8"}
,{"CODGEO":"44201","TxChomage":"8.5"}
,{"CODGEO":"44202","TxChomage":"8.5"}
,{"CODGEO":"44203","TxChomage":"8.5"}
,{"CODGEO":"44204","TxChomage":"8.5"}
,{"CODGEO":"44205","TxChomage":"8.5"}
,{"CODGEO":"44206","TxChomage":"8.5"}
,{"CODGEO":"44207","TxChomage":"8.5"}
,{"CODGEO":"44208","TxChomage":"8.5"}
,{"CODGEO":"44209","TxChomage":"8.5"}
,{"CODGEO":"44210","TxChomage":"9.6"}
,{"CODGEO":"44211","TxChomage":"9.6"}
,{"CODGEO":"44212","TxChomage":"8.5"}
,{"CODGEO":"44213","TxChomage":"6.3"}
,{"CODGEO":"44214","TxChomage":"8.5"}
,{"CODGEO":"44215","TxChomage":"8.5"}
,{"CODGEO":"44216","TxChomage":"8.5"}
,{"CODGEO":"44217","TxChomage":"8.5"}
,{"CODGEO":"44218","TxChomage":"8.8"}
,{"CODGEO":"44219","TxChomage":"6.3"}
,{"CODGEO":"44220","TxChomage":"8.5"}
,{"CODGEO":"44221","TxChomage":"8.5"}
,{"CODGEO":"44222","TxChomage":"6.3"}
,{"CODGEO":"44223","TxChomage":"8.5"}
,{"CODGEO":"44224","TxChomage":"8.5"}
]}
