{"status":"success","data":[{"CODGEO":"47001","TxChomage":"9.7"}
,{"CODGEO":"47002","TxChomage":"10"}
,{"CODGEO":"47003","TxChomage":"10"}
,{"CODGEO":"47004","TxChomage":"9.7"}
,{"CODGEO":"47005","TxChomage":"10"}
,{"CODGEO":"47006","TxChomage":"11.6"}
,{"CODGEO":"47007","TxChomage":"10"}
,{"CODGEO":"47008","TxChomage":"9.7"}
,{"CODGEO":"47009","TxChomage":"9.7"}
,{"CODGEO":"47010","TxChomage":"10"}
,{"CODGEO":"47011","TxChomage":"11.6"}
,{"CODGEO":"47012","TxChomage":"10"}
,{"CODGEO":"47013","TxChomage":"10"}
,{"CODGEO":"47014","TxChomage":"10"}
,{"CODGEO":"47015","TxChomage":"9.7"}
,{"CODGEO":"47016","TxChomage":"9.7"}
,{"CODGEO":"47017","TxChomage":"11.6"}
,{"CODGEO":"47018","TxChomage":"10"}
,{"CODGEO":"47019","TxChomage":"9.7"}
,{"CODGEO":"47020","TxChomage":"10"}
,{"CODGEO":"47021","TxChomage":"9.7"}
,{"CODGEO":"47022","TxChomage":"9.7"}
,{"CODGEO":"47023","TxChomage":"11.6"}
,{"CODGEO":"47024","TxChomage":"10"}
,{"CODGEO":"47025","TxChomage":"9.7"}
,{"CODGEO":"47026","TxChomage":"10"}
,{"CODGEO":"47027","TxChomage":"11.6"}
,{"CODGEO":"47028","TxChomage":"10"}
,{"CODGEO":"47029","TxChomage":"11.6"}
,{"CODGEO":"47030","TxChomage":"9.7"}
,{"CODGEO":"47031","TxChomage":"9.7"}
,{"CODGEO":"47032","TxChomage":"9.7"}
,{"CODGEO":"47033","TxChomage":"11.6"}
,{"CODGEO":"47034","TxChomage":"10"}
,{"CODGEO":"47035","TxChomage":"10"}
,{"CODGEO":"47036","TxChomage":"11.6"}
,{"CODGEO":"47037","TxChomage":"11.6"}
,{"CODGEO":"47038","TxChomage":"9.7"}
,{"CODGEO":"47039","TxChomage":"9.7"}
,{"CODGEO":"47040","TxChomage":"9.7"}
,{"CODGEO":"47041","TxChomage":"9.7"}
,{"CODGEO":"47042","TxChomage":"10"}
,{"CODGEO":"47043","TxChomage":"9.7"}
,{"CODGEO":"47044","TxChomage":"11.6"}
,{"CODGEO":"47045","TxChomage":"9.7"}
,{"CODGEO":"47046","TxChomage":"10"}
,{"CODGEO":"47047","TxChomage":"10"}
,{"CODGEO":"47048","TxChomage":"11.6"}
,{"CODGEO":"47049","TxChomage":"11.6"}
,{"CODGEO":"47050","TxChomage":"9.7"}
,{"CODGEO":"47051","TxChomage":"9.7"}
,{"CODGEO":"47052","TxChomage":"10"}
,{"CODGEO":"47053","TxChomage":"9.7"}
,{"CODGEO":"47054","TxChomage":"11.6"}
,{"CODGEO":"47055","TxChomage":"11.6"}
,{"CODGEO":"47056","TxChomage":"10"}
,{"CODGEO":"47057","TxChomage":"11.6"}
,{"CODGEO":"47058","TxChomage":"9.7"}
,{"CODGEO":"47059","TxChomage":"10"}
,{"CODGEO":"47060","TxChomage":"9.7"}
,{"CODGEO":"47061","TxChomage":"10"}
,{"CODGEO":"47062","TxChomage":"9.7"}
,{"CODGEO":"47063","TxChomage":"12.1"}
,{"CODGEO":"47064","TxChomage":"11.6"}
,{"CODGEO":"47065","TxChomage":"9.7"}
,{"CODGEO":"47066","TxChomage":"9.7"}
,{"CODGEO":"47067","TxChomage":"9.7"}
,{"CODGEO":"47068","TxChomage":"10"}
,{"CODGEO":"47069","TxChomage":"9.7"}
,{"CODGEO":"47070","TxChomage":"11.6"}
,{"CODGEO":"47071","TxChomage":"10"}
,{"CODGEO":"47072","TxChomage":"11.6"}
,{"CODGEO":"47073","TxChomage":"9.7"}
,{"CODGEO":"47074","TxChomage":"10"}
,{"CODGEO":"47075","TxChomage":"9.7"}
,{"CODGEO":"47076","TxChomage":"9.7"}
,{"CODGEO":"47077","TxChomage":"11.6"}
,{"CODGEO":"47078","TxChomage":"9.7"}
,{"CODGEO":"47079","TxChomage":"11.6"}
,{"CODGEO":"47080","TxChomage":"11.6"}
,{"CODGEO":"47081","TxChomage":"11.6"}
,{"CODGEO":"47082","TxChomage":"9.7"}
,{"CODGEO":"47083","TxChomage":"11.6"}
,{"CODGEO":"47084","TxChomage":"11.6"}
,{"CODGEO":"47085","TxChomage":"9.7"}
,{"CODGEO":"47086","TxChomage":"10"}
,{"CODGEO":"47087","TxChomage":"9.7"}
,{"CODGEO":"47088","TxChomage":"10"}
,{"CODGEO":"47089","TxChomage":"10"}
,{"CODGEO":"47090","TxChomage":"9.7"}
,{"CODGEO":"47091","TxChomage":"9.7"}
,{"CODGEO":"47092","TxChomage":"9.7"}
,{"CODGEO":"47093","TxChomage":"10"}
,{"CODGEO":"47094","TxChomage":"10"}
,{"CODGEO":"47095","TxChomage":"10"}
,{"CODGEO":"47096","TxChomage":"12.1"}
,{"CODGEO":"47097","TxChomage":"9.7"}
,{"CODGEO":"47098","TxChomage":"9.7"}
,{"CODGEO":"47099","TxChomage":"11.6"}
,{"CODGEO":"47100","TxChomage":"9.7"}
,{"CODGEO":"47101","TxChomage":"10"}
,{"CODGEO":"47102","TxChomage":"9.7"}
,{"CODGEO":"47103","TxChomage":"9.7"}
,{"CODGEO":"47104","TxChomage":"9.7"}
,{"CODGEO":"47105","TxChomage":"9.7"}
,{"CODGEO":"47106","TxChomage":"11.6"}
,{"CODGEO":"47107","TxChomage":"9.7"}
,{"CODGEO":"47108","TxChomage":"10"}
,{"CODGEO":"47109","TxChomage":"11.6"}
,{"CODGEO":"47110","TxChomage":"10"}
,{"CODGEO":"47111","TxChomage":"11.6"}
,{"CODGEO":"47112","TxChomage":"10"}
,{"CODGEO":"47113","TxChomage":"9.7"}
,{"CODGEO":"47114","TxChomage":"10"}
,{"CODGEO":"47115","TxChomage":"10"}
,{"CODGEO":"47117","TxChomage":"11.6"}
,{"CODGEO":"47118","TxChomage":"10"}
,{"CODGEO":"47119","TxChomage":"10"}
,{"CODGEO":"47120","TxChomage":"10"}
,{"CODGEO":"47121","TxChomage":"10"}
,{"CODGEO":"47122","TxChomage":"10"}
,{"CODGEO":"47123","TxChomage":"11.6"}
,{"CODGEO":"47124","TxChomage":"11.6"}
,{"CODGEO":"47125","TxChomage":"9.7"}
,{"CODGEO":"47126","TxChomage":"10"}
,{"CODGEO":"47127","TxChomage":"11.6"}
,{"CODGEO":"47128","TxChomage":"9.7"}
,{"CODGEO":"47129","TxChomage":"9.7"}
,{"CODGEO":"47130","TxChomage":"10"}
,{"CODGEO":"47131","TxChomage":"10"}
,{"CODGEO":"47132","TxChomage":"11.6"}
,{"CODGEO":"47133","TxChomage":"9.7"}
,{"CODGEO":"47134","TxChomage":"9.7"}
,{"CODGEO":"47135","TxChomage":"11.6"}
,{"CODGEO":"47136","TxChomage":"10"}
,{"CODGEO":"47137","TxChomage":"9.7"}
,{"CODGEO":"47138","TxChomage":"9.7"}
,{"CODGEO":"47139","TxChomage":"9.7"}
,{"CODGEO":"47140","TxChomage":"9.7"}
,{"CODGEO":"47141","TxChomage":"11.6"}
,{"CODGEO":"47142","TxChomage":"10"}
,{"CODGEO":"47143","TxChomage":"9.7"}
,{"CODGEO":"47144","TxChomage":"10"}
,{"CODGEO":"47145","TxChomage":"9.7"}
,{"CODGEO":"47146","TxChomage":"11.6"}
,{"CODGEO":"47147","TxChomage":"10"}
,{"CODGEO":"47148","TxChomage":"10"}
,{"CODGEO":"47150","TxChomage":"10"}
,{"CODGEO":"47151","TxChomage":"12.1"}
,{"CODGEO":"47152","TxChomage":"11.6"}
,{"CODGEO":"47154","TxChomage":"9.7"}
,{"CODGEO":"47155","TxChomage":"9.7"}
,{"CODGEO":"47156","TxChomage":"10"}
,{"CODGEO":"47157","TxChomage":"10"}
,{"CODGEO":"47158","TxChomage":"9.7"}
,{"CODGEO":"47159","TxChomage":"10"}
,{"CODGEO":"47160","TxChomage":"11.6"}
,{"CODGEO":"47161","TxChomage":"9.7"}
,{"CODGEO":"47162","TxChomage":"11.6"}
,{"CODGEO":"47163","TxChomage":"10"}
,{"CODGEO":"47164","TxChomage":"11.6"}
,{"CODGEO":"47165","TxChomage":"10"}
,{"CODGEO":"47167","TxChomage":"9.7"}
,{"CODGEO":"47168","TxChomage":"10"}
,{"CODGEO":"47169","TxChomage":"9.7"}
,{"CODGEO":"47170","TxChomage":"11.6"}
,{"CODGEO":"47171","TxChomage":"9.7"}
,{"CODGEO":"47172","TxChomage":"9.7"}
,{"CODGEO":"47173","TxChomage":"11.6"}
,{"CODGEO":"47174","TxChomage":"9.7"}
,{"CODGEO":"47175","TxChomage":"11.6"}
,{"CODGEO":"47176","TxChomage":"9.7"}
,{"CODGEO":"47177","TxChomage":"9.7"}
,{"CODGEO":"47178","TxChomage":"11.6"}
,{"CODGEO":"47179","TxChomage":"11.6"}
,{"CODGEO":"47180","TxChomage":"9.7"}
,{"CODGEO":"47181","TxChomage":"11.6"}
,{"CODGEO":"47182","TxChomage":"11.6"}
,{"CODGEO":"47183","TxChomage":"11.6"}
,{"CODGEO":"47184","TxChomage":"11.6"}
,{"CODGEO":"47185","TxChomage":"11.6"}
,{"CODGEO":"47186","TxChomage":"9.7"}
,{"CODGEO":"47187","TxChomage":"10"}
,{"CODGEO":"47188","TxChomage":"10"}
,{"CODGEO":"47189","TxChomage":"10"}
,{"CODGEO":"47190","TxChomage":"11.6"}
,{"CODGEO":"47191","TxChomage":"10"}
,{"CODGEO":"47192","TxChomage":"11.6"}
,{"CODGEO":"47193","TxChomage":"11.6"}
,{"CODGEO":"47194","TxChomage":"10"}
,{"CODGEO":"47195","TxChomage":"9.7"}
,{"CODGEO":"47196","TxChomage":"9.7"}
,{"CODGEO":"47197","TxChomage":"9.7"}
,{"CODGEO":"47198","TxChomage":"11.6"}
,{"CODGEO":"47199","TxChomage":"10"}
,{"CODGEO":"47200","TxChomage":"11.6"}
,{"CODGEO":"47201","TxChomage":"9.7"}
,{"CODGEO":"47202","TxChomage":"11.6"}
,{"CODGEO":"47203","TxChomage":"11.6"}
,{"CODGEO":"47204","TxChomage":"10"}
,{"CODGEO":"47205","TxChomage":"10"}
,{"CODGEO":"47206","TxChomage":"11.6"}
,{"CODGEO":"47207","TxChomage":"9.7"}
,{"CODGEO":"47208","TxChomage":"10"}
,{"CODGEO":"47209","TxChomage":"9.7"}
,{"CODGEO":"47210","TxChomage":"9.7"}
,{"CODGEO":"47211","TxChomage":"9.7"}
,{"CODGEO":"47212","TxChomage":"10"}
,{"CODGEO":"47213","TxChomage":"9.7"}
,{"CODGEO":"47214","TxChomage":"10"}
,{"CODGEO":"47215","TxChomage":"11.6"}
,{"CODGEO":"47216","TxChomage":"10"}
,{"CODGEO":"47217","TxChomage":"9.7"}
,{"CODGEO":"47218","TxChomage":"10"}
,{"CODGEO":"47219","TxChomage":"11.6"}
,{"CODGEO":"47220","TxChomage":"10"}
,{"CODGEO":"47221","TxChomage":"9.7"}
,{"CODGEO":"47222","TxChomage":"10"}
,{"CODGEO":"47223","TxChomage":"11.6"}
,{"CODGEO":"47224","TxChomage":"10"}
,{"CODGEO":"47225","TxChomage":"9.7"}
,{"CODGEO":"47226","TxChomage":"10"}
,{"CODGEO":"47227","TxChomage":"10"}
,{"CODGEO":"47228","TxChomage":"11.6"}
,{"CODGEO":"47229","TxChomage":"12.1"}
,{"CODGEO":"47230","TxChomage":"11.6"}
,{"CODGEO":"47231","TxChomage":"10"}
,{"CODGEO":"47232","TxChomage":"10"}
,{"CODGEO":"47233","TxChomage":"10"}
,{"CODGEO":"47234","TxChomage":"9.7"}
,{"CODGEO":"47235","TxChomage":"10"}
,{"CODGEO":"47236","TxChomage":"10"}
,{"CODGEO":"47237","TxChomage":"11.6"}
,{"CODGEO":"47238","TxChomage":"9.7"}
,{"CODGEO":"47239","TxChomage":"11.6"}
,{"CODGEO":"47240","TxChomage":"11.6"}
,{"CODGEO":"47241","TxChomage":"11.6"}
,{"CODGEO":"47242","TxChomage":"11.6"}
,{"CODGEO":"47244","TxChomage":"10"}
,{"CODGEO":"47245","TxChomage":"10"}
,{"CODGEO":"47246","TxChomage":"9.7"}
,{"CODGEO":"47247","TxChomage":"12.1"}
,{"CODGEO":"47248","TxChomage":"9.7"}
,{"CODGEO":"47249","TxChomage":"9.7"}
,{"CODGEO":"47250","TxChomage":"9.7"}
,{"CODGEO":"47251","TxChomage":"9.7"}
,{"CODGEO":"47252","TxChomage":"11.6"}
,{"CODGEO":"47253","TxChomage":"10"}
,{"CODGEO":"47254","TxChomage":"10"}
,{"CODGEO":"47255","TxChomage":"9.7"}
,{"CODGEO":"47256","TxChomage":"11.6"}
,{"CODGEO":"47257","TxChomage":"10"}
,{"CODGEO":"47258","TxChomage":"9.7"}
,{"CODGEO":"47259","TxChomage":"11.6"}
,{"CODGEO":"47260","TxChomage":"9.7"}
,{"CODGEO":"47262","TxChomage":"9.7"}
,{"CODGEO":"47263","TxChomage":"10"}
,{"CODGEO":"47264","TxChomage":"10"}
,{"CODGEO":"47265","TxChomage":"11.6"}
,{"CODGEO":"47266","TxChomage":"9.7"}
,{"CODGEO":"47267","TxChomage":"9.7"}
,{"CODGEO":"47269","TxChomage":"9.7"}
,{"CODGEO":"47271","TxChomage":"10"}
,{"CODGEO":"47272","TxChomage":"11.6"}
,{"CODGEO":"47273","TxChomage":"9.7"}
,{"CODGEO":"47274","TxChomage":"9.7"}
,{"CODGEO":"47275","TxChomage":"9.7"}
,{"CODGEO":"47276","TxChomage":"11.6"}
,{"CODGEO":"47277","TxChomage":"10"}
,{"CODGEO":"47278","TxChomage":"10"}
,{"CODGEO":"47279","TxChomage":"9.7"}
,{"CODGEO":"47280","TxChomage":"11.6"}
,{"CODGEO":"47281","TxChomage":"9.7"}
,{"CODGEO":"47282","TxChomage":"9.7"}
,{"CODGEO":"47283","TxChomage":"11.6"}
,{"CODGEO":"47284","TxChomage":"11.6"}
,{"CODGEO":"47285","TxChomage":"10"}
,{"CODGEO":"47286","TxChomage":"10"}
,{"CODGEO":"47287","TxChomage":"9.7"}
,{"CODGEO":"47288","TxChomage":"9.7"}
,{"CODGEO":"47289","TxChomage":"9.7"}
,{"CODGEO":"47290","TxChomage":"10"}
,{"CODGEO":"47291","TxChomage":"11.6"}
,{"CODGEO":"47292","TxChomage":"11.6"}
,{"CODGEO":"47293","TxChomage":"9.7"}
,{"CODGEO":"47294","TxChomage":"10"}
,{"CODGEO":"47295","TxChomage":"11.6"}
,{"CODGEO":"47296","TxChomage":"11.6"}
,{"CODGEO":"47297","TxChomage":"11.6"}
,{"CODGEO":"47298","TxChomage":"10"}
,{"CODGEO":"47299","TxChomage":"11.6"}
,{"CODGEO":"47300","TxChomage":"9.7"}
,{"CODGEO":"47301","TxChomage":"10"}
,{"CODGEO":"47302","TxChomage":"9.7"}
,{"CODGEO":"47303","TxChomage":"12.1"}
,{"CODGEO":"47304","TxChomage":"10"}
,{"CODGEO":"47305","TxChomage":"9.7"}
,{"CODGEO":"47306","TxChomage":"11.6"}
,{"CODGEO":"47307","TxChomage":"11.6"}
,{"CODGEO":"47308","TxChomage":"9.7"}
,{"CODGEO":"47309","TxChomage":"10"}
,{"CODGEO":"47310","TxChomage":"10"}
,{"CODGEO":"47311","TxChomage":"12.1"}
,{"CODGEO":"47312","TxChomage":"11.6"}
,{"CODGEO":"47313","TxChomage":"10"}
,{"CODGEO":"47314","TxChomage":"11.6"}
,{"CODGEO":"47315","TxChomage":"11.6"}
,{"CODGEO":"47316","TxChomage":"10"}
,{"CODGEO":"47317","TxChomage":"10"}
,{"CODGEO":"47318","TxChomage":"9.7"}
,{"CODGEO":"47319","TxChomage":"11.6"}
,{"CODGEO":"47320","TxChomage":"9.7"}
,{"CODGEO":"47321","TxChomage":"12.1"}
,{"CODGEO":"47323","TxChomage":"11.6"}
,{"CODGEO":"47324","TxChomage":"11.6"}
,{"CODGEO":"47325","TxChomage":"10"}
,{"CODGEO":"47326","TxChomage":"10"}
,{"CODGEO":"47327","TxChomage":"9.7"}
,{"CODGEO":"47328","TxChomage":"11.6"}
]}
