{"status":"success","data":[{"CODGEO":"50001","TxChomage":"9.5"}
,{"CODGEO":"50002","TxChomage":"7.3"}
,{"CODGEO":"50003","TxChomage":"8.6"}
,{"CODGEO":"50004","TxChomage":"7.3"}
,{"CODGEO":"50005","TxChomage":"9.5"}
,{"CODGEO":"50006","TxChomage":"7.3"}
,{"CODGEO":"50007","TxChomage":"8.6"}
,{"CODGEO":"50008","TxChomage":"8.9"}
,{"CODGEO":"50009","TxChomage":"8.9"}
,{"CODGEO":"50010","TxChomage":"9.5"}
,{"CODGEO":"50012","TxChomage":"8.6"}
,{"CODGEO":"50013","TxChomage":"9.5"}
,{"CODGEO":"50014","TxChomage":"8.6"}
,{"CODGEO":"50015","TxChomage":"8.6"}
,{"CODGEO":"50016","TxChomage":"9.5"}
,{"CODGEO":"50018","TxChomage":"6.8"}
,{"CODGEO":"50019","TxChomage":"6.8"}
,{"CODGEO":"50020","TxChomage":"9.5"}
,{"CODGEO":"50021","TxChomage":"9.5"}
,{"CODGEO":"50022","TxChomage":"9.5"}
,{"CODGEO":"50023","TxChomage":"9.5"}
,{"CODGEO":"50024","TxChomage":"9.5"}
,{"CODGEO":"50025","TxChomage":"6.8"}
,{"CODGEO":"50026","TxChomage":"9.5"}
,{"CODGEO":"50027","TxChomage":"6.8"}
,{"CODGEO":"50028","TxChomage":"8.9"}
,{"CODGEO":"50029","TxChomage":"6.8"}
,{"CODGEO":"50030","TxChomage":"9.5"}
,{"CODGEO":"50031","TxChomage":"9.5"}
,{"CODGEO":"50032","TxChomage":"7.3"}
,{"CODGEO":"50033","TxChomage":"9.5"}
,{"CODGEO":"50034","TxChomage":"7.3"}
,{"CODGEO":"50035","TxChomage":"8.6"}
,{"CODGEO":"50036","TxChomage":"9.5"}
,{"CODGEO":"50037","TxChomage":"6.8"}
,{"CODGEO":"50038","TxChomage":"8.9"}
,{"CODGEO":"50039","TxChomage":"7.3"}
,{"CODGEO":"50040","TxChomage":"8.6"}
,{"CODGEO":"50041","TxChomage":"9.5"}
,{"CODGEO":"50042","TxChomage":"6.8"}
,{"CODGEO":"50043","TxChomage":"6.8"}
,{"CODGEO":"50044","TxChomage":"8.6"}
,{"CODGEO":"50045","TxChomage":"9.5"}
,{"CODGEO":"50046","TxChomage":"7.3"}
,{"CODGEO":"50048","TxChomage":"6.8"}
,{"CODGEO":"50049","TxChomage":"9.5"}
,{"CODGEO":"50050","TxChomage":"7.3"}
,{"CODGEO":"50051","TxChomage":"9.5"}
,{"CODGEO":"50052","TxChomage":"9.5"}
,{"CODGEO":"50054","TxChomage":"7.3"}
,{"CODGEO":"50055","TxChomage":"9.5"}
,{"CODGEO":"50056","TxChomage":"6.8"}
,{"CODGEO":"50057","TxChomage":"9.5"}
,{"CODGEO":"50058","TxChomage":"8.6"}
,{"CODGEO":"50059","TxChomage":"9.5"}
,{"CODGEO":"50060","TxChomage":"6.8"}
,{"CODGEO":"50061","TxChomage":"8.6"}
,{"CODGEO":"50062","TxChomage":"6.8"}
,{"CODGEO":"50063","TxChomage":"8.6"}
,{"CODGEO":"50064","TxChomage":"9.5"}
,{"CODGEO":"50066","TxChomage":"8.9"}
,{"CODGEO":"50069","TxChomage":"6.8"}
,{"CODGEO":"50070","TxChomage":"9.5"}
,{"CODGEO":"50071","TxChomage":"6.8"}
,{"CODGEO":"50072","TxChomage":"8.6"}
,{"CODGEO":"50073","TxChomage":"9.5"}
,{"CODGEO":"50074","TxChomage":"6.8"}
,{"CODGEO":"50075","TxChomage":"7.3"}
,{"CODGEO":"50076","TxChomage":"8.9"}
,{"CODGEO":"50077","TxChomage":"9.5"}
,{"CODGEO":"50078","TxChomage":"8.6"}
,{"CODGEO":"50079","TxChomage":"9.5"}
,{"CODGEO":"50080","TxChomage":"9.5"}
,{"CODGEO":"50081","TxChomage":"8.9"}
,{"CODGEO":"50082","TxChomage":"9.5"}
,{"CODGEO":"50083","TxChomage":"9.5"}
,{"CODGEO":"50084","TxChomage":"8.6"}
,{"CODGEO":"50085","TxChomage":"8.9"}
,{"CODGEO":"50086","TxChomage":"9.5"}
,{"CODGEO":"50087","TxChomage":"9.5"}
,{"CODGEO":"50088","TxChomage":"8.6"}
,{"CODGEO":"50089","TxChomage":"9.5"}
,{"CODGEO":"50090","TxChomage":"6.8"}
,{"CODGEO":"50092","TxChomage":"8.6"}
,{"CODGEO":"50093","TxChomage":"7.3"}
,{"CODGEO":"50094","TxChomage":"8.6"}
,{"CODGEO":"50095","TxChomage":"7.3"}
,{"CODGEO":"50096","TxChomage":"9.5"}
,{"CODGEO":"50097","TxChomage":"9.5"}
,{"CODGEO":"50098","TxChomage":"7.3"}
,{"CODGEO":"50099","TxChomage":"9.5"}
,{"CODGEO":"50100","TxChomage":"6.8"}
,{"CODGEO":"50101","TxChomage":"9.5"}
,{"CODGEO":"50102","TxChomage":"8.9"}
,{"CODGEO":"50103","TxChomage":"9.5"}
,{"CODGEO":"50105","TxChomage":"9.5"}
,{"CODGEO":"50106","TxChomage":"7.3"}
,{"CODGEO":"50107","TxChomage":"9.5"}
,{"CODGEO":"50108","TxChomage":"6.8"}
,{"CODGEO":"50109","TxChomage":"8.9"}
,{"CODGEO":"50110","TxChomage":"7.3"}
,{"CODGEO":"50111","TxChomage":"7.3"}
,{"CODGEO":"50112","TxChomage":"6.8"}
,{"CODGEO":"50114","TxChomage":"6.8"}
,{"CODGEO":"50115","TxChomage":"8.9"}
,{"CODGEO":"50116","TxChomage":"8.9"}
,{"CODGEO":"50117","TxChomage":"8.9"}
,{"CODGEO":"50118","TxChomage":"8.9"}
,{"CODGEO":"50119","TxChomage":"7.3"}
,{"CODGEO":"50120","TxChomage":"8.9"}
,{"CODGEO":"50121","TxChomage":"6.8"}
,{"CODGEO":"50123","TxChomage":"7.3"}
,{"CODGEO":"50124","TxChomage":"6.8"}
,{"CODGEO":"50125","TxChomage":"6.8"}
,{"CODGEO":"50126","TxChomage":"6.8"}
,{"CODGEO":"50127","TxChomage":"9.5"}
,{"CODGEO":"50128","TxChomage":"6.8"}
,{"CODGEO":"50129","TxChomage":"9.5"}
,{"CODGEO":"50130","TxChomage":"6.8"}
,{"CODGEO":"50131","TxChomage":"6.8"}
,{"CODGEO":"50132","TxChomage":"6.8"}
,{"CODGEO":"50133","TxChomage":"6.8"}
,{"CODGEO":"50134","TxChomage":"7.3"}
,{"CODGEO":"50135","TxChomage":"9.5"}
,{"CODGEO":"50136","TxChomage":"9.5"}
,{"CODGEO":"50137","TxChomage":"6.8"}
,{"CODGEO":"50138","TxChomage":"9.5"}
,{"CODGEO":"50139","TxChomage":"7.3"}
,{"CODGEO":"50140","TxChomage":"8.6"}
,{"CODGEO":"50142","TxChomage":"9.5"}
,{"CODGEO":"50143","TxChomage":"8.9"}
,{"CODGEO":"50144","TxChomage":"6.8"}
,{"CODGEO":"50145","TxChomage":"8.6"}
,{"CODGEO":"50146","TxChomage":"6.8"}
,{"CODGEO":"50147","TxChomage":"8.6"}
,{"CODGEO":"50148","TxChomage":"7.3"}
,{"CODGEO":"50149","TxChomage":"9.5"}
,{"CODGEO":"50150","TxChomage":"9.5"}
,{"CODGEO":"50151","TxChomage":"8.6"}
,{"CODGEO":"50152","TxChomage":"6.8"}
,{"CODGEO":"50153","TxChomage":"9.5"}
,{"CODGEO":"50154","TxChomage":"6.8"}
,{"CODGEO":"50155","TxChomage":"6.8"}
,{"CODGEO":"50156","TxChomage":"9.5"}
,{"CODGEO":"50158","TxChomage":"6.8"}
,{"CODGEO":"50159","TxChomage":"7.3"}
,{"CODGEO":"50160","TxChomage":"9.5"}
,{"CODGEO":"50161","TxChomage":"7.3"}
,{"CODGEO":"50162","TxChomage":"9.5"}
,{"CODGEO":"50163","TxChomage":"9.5"}
,{"CODGEO":"50164","TxChomage":"7.3"}
,{"CODGEO":"50165","TxChomage":"8.9"}
,{"CODGEO":"50166","TxChomage":"8.6"}
,{"CODGEO":"50167","TxChomage":"6.8"}
,{"CODGEO":"50168","TxChomage":"6.8"}
,{"CODGEO":"50169","TxChomage":"9.5"}
,{"CODGEO":"50170","TxChomage":"9.5"}
,{"CODGEO":"50171","TxChomage":"9.5"}
,{"CODGEO":"50172","TxChomage":"9.5"}
,{"CODGEO":"50173","TxChomage":"9.5"}
,{"CODGEO":"50174","TxChomage":"8.9"}
,{"CODGEO":"50175","TxChomage":"9.5"}
,{"CODGEO":"50176","TxChomage":"9.5"}
,{"CODGEO":"50177","TxChomage":"9.5"}
,{"CODGEO":"50178","TxChomage":"9.5"}
,{"CODGEO":"50179","TxChomage":"6.8"}
,{"CODGEO":"50180","TxChomage":"7.3"}
,{"CODGEO":"50181","TxChomage":"8.6"}
,{"CODGEO":"50182","TxChomage":"8.6"}
,{"CODGEO":"50183","TxChomage":"9.5"}
,{"CODGEO":"50184","TxChomage":"9.5"}
,{"CODGEO":"50185","TxChomage":"6.8"}
,{"CODGEO":"50186","TxChomage":"9.5"}
,{"CODGEO":"50187","TxChomage":"9.5"}
,{"CODGEO":"50188","TxChomage":"8.9"}
,{"CODGEO":"50189","TxChomage":"6.8"}
,{"CODGEO":"50190","TxChomage":"9.5"}
,{"CODGEO":"50191","TxChomage":"9.5"}
,{"CODGEO":"50192","TxChomage":"7.3"}
,{"CODGEO":"50193","TxChomage":"8.6"}
,{"CODGEO":"50194","TxChomage":"9.5"}
,{"CODGEO":"50195","TxChomage":"8.6"}
,{"CODGEO":"50196","TxChomage":"9.5"}
,{"CODGEO":"50197","TxChomage":"8.9"}
,{"CODGEO":"50198","TxChomage":"8.6"}
,{"CODGEO":"50199","TxChomage":"6.8"}
,{"CODGEO":"50200","TxChomage":"9.1"}
,{"CODGEO":"50202","TxChomage":"7.3"}
,{"CODGEO":"50203","TxChomage":"9.5"}
,{"CODGEO":"50204","TxChomage":"9.5"}
,{"CODGEO":"50205","TxChomage":"6.8"}
,{"CODGEO":"50206","TxChomage":"6.8"}
,{"CODGEO":"50207","TxChomage":"9.5"}
,{"CODGEO":"50208","TxChomage":"8.6"}
,{"CODGEO":"50209","TxChomage":"9.5"}
,{"CODGEO":"50210","TxChomage":"8.6"}
,{"CODGEO":"50211","TxChomage":"9.5"}
,{"CODGEO":"50212","TxChomage":"9.5"}
,{"CODGEO":"50213","TxChomage":"7.3"}
,{"CODGEO":"50214","TxChomage":"7.3"}
,{"CODGEO":"50215","TxChomage":"8.6"}
,{"CODGEO":"50216","TxChomage":"7.3"}
,{"CODGEO":"50217","TxChomage":"6.8"}
,{"CODGEO":"50218","TxChomage":"8.9"}
,{"CODGEO":"50219","TxChomage":"8.6"}
,{"CODGEO":"50220","TxChomage":"9.5"}
,{"CODGEO":"50221","TxChomage":"8.6"}
,{"CODGEO":"50222","TxChomage":"9.5"}
,{"CODGEO":"50223","TxChomage":"8.6"}
,{"CODGEO":"50224","TxChomage":"7.3"}
,{"CODGEO":"50225","TxChomage":"7.3"}
,{"CODGEO":"50227","TxChomage":"9.5"}
,{"CODGEO":"50228","TxChomage":"7.3"}
,{"CODGEO":"50229","TxChomage":"6.8"}
,{"CODGEO":"50230","TxChomage":"9.5"}
,{"CODGEO":"50231","TxChomage":"8.6"}
,{"CODGEO":"50232","TxChomage":"7.3"}
,{"CODGEO":"50233","TxChomage":"9.5"}
,{"CODGEO":"50234","TxChomage":"7.3"}
,{"CODGEO":"50235","TxChomage":"9.5"}
,{"CODGEO":"50236","TxChomage":"8.6"}
,{"CODGEO":"50237","TxChomage":"8.9"}
,{"CODGEO":"50238","TxChomage":"9.5"}
,{"CODGEO":"50239","TxChomage":"7.3"}
,{"CODGEO":"50240","TxChomage":"9.5"}
,{"CODGEO":"50241","TxChomage":"9.5"}
,{"CODGEO":"50242","TxChomage":"9.5"}
,{"CODGEO":"50243","TxChomage":"8.6"}
,{"CODGEO":"50244","TxChomage":"8.6"}
,{"CODGEO":"50245","TxChomage":"6.8"}
,{"CODGEO":"50246","TxChomage":"9.5"}
,{"CODGEO":"50247","TxChomage":"8.9"}
,{"CODGEO":"50248","TxChomage":"7.3"}
,{"CODGEO":"50249","TxChomage":"9.5"}
,{"CODGEO":"50250","TxChomage":"9.5"}
,{"CODGEO":"50251","TxChomage":"9.5"}
,{"CODGEO":"50252","TxChomage":"8.9"}
,{"CODGEO":"50253","TxChomage":"6.8"}
,{"CODGEO":"50254","TxChomage":"6.8"}
,{"CODGEO":"50255","TxChomage":"8.6"}
,{"CODGEO":"50256","TxChomage":"6.8"}
,{"CODGEO":"50257","TxChomage":"9.5"}
,{"CODGEO":"50258","TxChomage":"9.5"}
,{"CODGEO":"50259","TxChomage":"6.8"}
,{"CODGEO":"50260","TxChomage":"6.8"}
,{"CODGEO":"50261","TxChomage":"7.3"}
,{"CODGEO":"50262","TxChomage":"6.8"}
,{"CODGEO":"50263","TxChomage":"6.8"}
,{"CODGEO":"50265","TxChomage":"8.6"}
,{"CODGEO":"50266","TxChomage":"8.9"}
,{"CODGEO":"50267","TxChomage":"8.6"}
,{"CODGEO":"50268","TxChomage":"9.5"}
,{"CODGEO":"50269","TxChomage":"9.5"}
,{"CODGEO":"50270","TxChomage":"9.5"}
,{"CODGEO":"50271","TxChomage":"8.6"}
,{"CODGEO":"50272","TxChomage":"8.9"}
,{"CODGEO":"50273","TxChomage":"8.6"}
,{"CODGEO":"50274","TxChomage":"6.8"}
,{"CODGEO":"50275","TxChomage":"6.8"}
,{"CODGEO":"50276","TxChomage":"6.8"}
,{"CODGEO":"50277","TxChomage":"8.9"}
,{"CODGEO":"50278","TxChomage":"8.9"}
,{"CODGEO":"50279","TxChomage":"7.3"}
,{"CODGEO":"50280","TxChomage":"7.3"}
,{"CODGEO":"50281","TxChomage":"8.9"}
,{"CODGEO":"50282","TxChomage":"6.8"}
,{"CODGEO":"50283","TxChomage":"7.3"}
,{"CODGEO":"50284","TxChomage":"6.8"}
,{"CODGEO":"50285","TxChomage":"9.5"}
,{"CODGEO":"50287","TxChomage":"7.3"}
,{"CODGEO":"50288","TxChomage":"6.8"}
,{"CODGEO":"50289","TxChomage":"7.3"}
,{"CODGEO":"50290","TxChomage":"6.8"}
,{"CODGEO":"50291","TxChomage":"6.8"}
,{"CODGEO":"50292","TxChomage":"7.3"}
,{"CODGEO":"50293","TxChomage":"6.8"}
,{"CODGEO":"50294","TxChomage":"9.5"}
,{"CODGEO":"50295","TxChomage":"7.3"}
,{"CODGEO":"50296","TxChomage":"9.5"}
,{"CODGEO":"50297","TxChomage":"7.3"}
,{"CODGEO":"50298","TxChomage":"9.5"}
,{"CODGEO":"50299","TxChomage":"9.5"}
,{"CODGEO":"50300","TxChomage":"6.8"}
,{"CODGEO":"50301","TxChomage":"8.9"}
,{"CODGEO":"50302","TxChomage":"7.3"}
,{"CODGEO":"50304","TxChomage":"8.6"}
,{"CODGEO":"50305","TxChomage":"9.5"}
,{"CODGEO":"50308","TxChomage":"8.6"}
,{"CODGEO":"50310","TxChomage":"7.3"}
,{"CODGEO":"50311","TxChomage":"8.9"}
,{"CODGEO":"50312","TxChomage":"6.8"}
,{"CODGEO":"50313","TxChomage":"7.3"}
,{"CODGEO":"50315","TxChomage":"6.8"}
,{"CODGEO":"50316","TxChomage":"7.3"}
,{"CODGEO":"50317","TxChomage":"6.8"}
,{"CODGEO":"50318","TxChomage":"6.8"}
,{"CODGEO":"50319","TxChomage":"7.3"}
,{"CODGEO":"50320","TxChomage":"8.9"}
,{"CODGEO":"50321","TxChomage":"7.3"}
,{"CODGEO":"50323","TxChomage":"6.8"}
,{"CODGEO":"50324","TxChomage":"7.3"}
,{"CODGEO":"50325","TxChomage":"7.3"}
,{"CODGEO":"50326","TxChomage":"8.9"}
,{"CODGEO":"50327","TxChomage":"8.9"}
,{"CODGEO":"50328","TxChomage":"8.6"}
,{"CODGEO":"50329","TxChomage":"6.8"}
,{"CODGEO":"50330","TxChomage":"8.6"}
,{"CODGEO":"50332","TxChomage":"9.5"}
,{"CODGEO":"50333","TxChomage":"9.5"}
,{"CODGEO":"50334","TxChomage":"7.3"}
,{"CODGEO":"50335","TxChomage":"9.5"}
,{"CODGEO":"50336","TxChomage":"6.8"}
,{"CODGEO":"50337","TxChomage":"6.8"}
,{"CODGEO":"50338","TxChomage":"7.3"}
,{"CODGEO":"50339","TxChomage":"8.6"}
,{"CODGEO":"50340","TxChomage":"8.6"}
,{"CODGEO":"50341","TxChomage":"9.5"}
,{"CODGEO":"50342","TxChomage":"9.5"}
,{"CODGEO":"50343","TxChomage":"8.6"}
,{"CODGEO":"50345","TxChomage":"8.6"}
,{"CODGEO":"50347","TxChomage":"6.8"}
,{"CODGEO":"50348","TxChomage":"9.5"}
,{"CODGEO":"50349","TxChomage":"8.6"}
,{"CODGEO":"50350","TxChomage":"8.6"}
,{"CODGEO":"50351","TxChomage":"7.3"}
,{"CODGEO":"50352","TxChomage":"7.3"}
,{"CODGEO":"50353","TxChomage":"6.8"}
,{"CODGEO":"50354","TxChomage":"8.6"}
,{"CODGEO":"50355","TxChomage":"6.8"}
,{"CODGEO":"50356","TxChomage":"7.3"}
,{"CODGEO":"50357","TxChomage":"8.6"}
,{"CODGEO":"50358","TxChomage":"9.5"}
,{"CODGEO":"50359","TxChomage":"6.8"}
,{"CODGEO":"50360","TxChomage":"9.5"}
,{"CODGEO":"50361","TxChomage":"8.9"}
,{"CODGEO":"50362","TxChomage":"6.8"}
,{"CODGEO":"50363","TxChomage":"7.3"}
,{"CODGEO":"50364","TxChomage":"8.6"}
,{"CODGEO":"50365","TxChomage":"8.9"}
,{"CODGEO":"50368","TxChomage":"8.6"}
,{"CODGEO":"50369","TxChomage":"9.5"}
,{"CODGEO":"50370","TxChomage":"9.5"}
,{"CODGEO":"50371","TxChomage":"6.8"}
,{"CODGEO":"50372","TxChomage":"8.6"}
,{"CODGEO":"50373","TxChomage":"9.5"}
,{"CODGEO":"50374","TxChomage":"9.5"}
,{"CODGEO":"50375","TxChomage":"9.5"}
,{"CODGEO":"50376","TxChomage":"8.6"}
,{"CODGEO":"50378","TxChomage":"7.3"}
,{"CODGEO":"50379","TxChomage":"6.8"}
,{"CODGEO":"50380","TxChomage":"7.3"}
,{"CODGEO":"50381","TxChomage":"6.8"}
,{"CODGEO":"50382","TxChomage":"9.5"}
,{"CODGEO":"50384","TxChomage":"9.5"}
,{"CODGEO":"50385","TxChomage":"9.5"}
,{"CODGEO":"50386","TxChomage":"9.5"}
,{"CODGEO":"50387","TxChomage":"9.5"}
,{"CODGEO":"50388","TxChomage":"8.6"}
,{"CODGEO":"50389","TxChomage":"8.6"}
,{"CODGEO":"50390","TxChomage":"9.5"}
,{"CODGEO":"50391","TxChomage":"6.8"}
,{"CODGEO":"50393","TxChomage":"7.3"}
,{"CODGEO":"50394","TxChomage":"8.6"}
,{"CODGEO":"50395","TxChomage":"9.5"}
,{"CODGEO":"50396","TxChomage":"9.5"}
,{"CODGEO":"50397","TxChomage":"8.6"}
,{"CODGEO":"50398","TxChomage":"7.3"}
,{"CODGEO":"50399","TxChomage":"6.8"}
,{"CODGEO":"50400","TxChomage":"9.5"}
,{"CODGEO":"50401","TxChomage":"9.5"}
,{"CODGEO":"50402","TxChomage":"9.5"}
,{"CODGEO":"50403","TxChomage":"8.6"}
,{"CODGEO":"50404","TxChomage":"7.3"}
,{"CODGEO":"50405","TxChomage":"8.6"}
,{"CODGEO":"50406","TxChomage":"6.8"}
,{"CODGEO":"50407","TxChomage":"6.8"}
,{"CODGEO":"50408","TxChomage":"6.8"}
,{"CODGEO":"50409","TxChomage":"7.3"}
,{"CODGEO":"50410","TxChomage":"6.8"}
,{"CODGEO":"50411","TxChomage":"6.8"}
,{"CODGEO":"50412","TxChomage":"9.5"}
,{"CODGEO":"50413","TxChomage":"6.8"}
,{"CODGEO":"50414","TxChomage":"7.3"}
,{"CODGEO":"50415","TxChomage":"9.5"}
,{"CODGEO":"50416","TxChomage":"9.5"}
,{"CODGEO":"50417","TxChomage":"9.5"}
,{"CODGEO":"50418","TxChomage":"9.5"}
,{"CODGEO":"50419","TxChomage":"8.6"}
,{"CODGEO":"50420","TxChomage":"7.3"}
,{"CODGEO":"50421","TxChomage":"9.5"}
,{"CODGEO":"50422","TxChomage":"8.6"}
,{"CODGEO":"50423","TxChomage":"7.3"}
,{"CODGEO":"50425","TxChomage":"9.5"}
,{"CODGEO":"50426","TxChomage":"9.5"}
,{"CODGEO":"50427","TxChomage":"9.5"}
,{"CODGEO":"50428","TxChomage":"6.8"}
,{"CODGEO":"50429","TxChomage":"8.6"}
,{"CODGEO":"50430","TxChomage":"9.5"}
,{"CODGEO":"50431","TxChomage":"7.3"}
,{"CODGEO":"50432","TxChomage":"9.5"}
,{"CODGEO":"50433","TxChomage":"9.5"}
,{"CODGEO":"50434","TxChomage":"8.9"}
,{"CODGEO":"50435","TxChomage":"9.5"}
,{"CODGEO":"50436","TxChomage":"6.8"}
,{"CODGEO":"50437","TxChomage":"8.6"}
,{"CODGEO":"50438","TxChomage":"8.6"}
,{"CODGEO":"50440","TxChomage":"6.8"}
,{"CODGEO":"50441","TxChomage":"7.3"}
,{"CODGEO":"50442","TxChomage":"9.5"}
,{"CODGEO":"50443","TxChomage":"6.8"}
,{"CODGEO":"50444","TxChomage":"7.3"}
,{"CODGEO":"50445","TxChomage":"9.5"}
,{"CODGEO":"50446","TxChomage":"7.3"}
,{"CODGEO":"50447","TxChomage":"8.9"}
,{"CODGEO":"50448","TxChomage":"6.8"}
,{"CODGEO":"50449","TxChomage":"8.6"}
,{"CODGEO":"50450","TxChomage":"6.8"}
,{"CODGEO":"50451","TxChomage":"6.8"}
,{"CODGEO":"50452","TxChomage":"6.8"}
,{"CODGEO":"50453","TxChomage":"6.8"}
,{"CODGEO":"50454","TxChomage":"9.5"}
,{"CODGEO":"50455","TxChomage":"7.3"}
,{"CODGEO":"50456","TxChomage":"6.8"}
,{"CODGEO":"50457","TxChomage":"9.5"}
,{"CODGEO":"50458","TxChomage":"9.5"}
,{"CODGEO":"50460","TxChomage":"9.5"}
,{"CODGEO":"50461","TxChomage":"9.5"}
,{"CODGEO":"50462","TxChomage":"6.8"}
,{"CODGEO":"50463","TxChomage":"8.6"}
,{"CODGEO":"50464","TxChomage":"8.6"}
,{"CODGEO":"50465","TxChomage":"7.3"}
,{"CODGEO":"50467","TxChomage":"9.5"}
,{"CODGEO":"50468","TxChomage":"7.3"}
,{"CODGEO":"50469","TxChomage":"9.5"}
,{"CODGEO":"50470","TxChomage":"9.5"}
,{"CODGEO":"50471","TxChomage":"9.5"}
,{"CODGEO":"50472","TxChomage":"6.8"}
,{"CODGEO":"50473","TxChomage":"7.3"}
,{"CODGEO":"50474","TxChomage":"6.8"}
,{"CODGEO":"50475","TxChomage":"7.3"}
,{"CODGEO":"50476","TxChomage":"7.3"}
,{"CODGEO":"50477","TxChomage":"9.5"}
,{"CODGEO":"50478","TxChomage":"9.5"}
,{"CODGEO":"50479","TxChomage":"9.5"}
,{"CODGEO":"50480","TxChomage":"9.5"}
,{"CODGEO":"50481","TxChomage":"8.6"}
,{"CODGEO":"50482","TxChomage":"8.6"}
,{"CODGEO":"50483","TxChomage":"7.3"}
,{"CODGEO":"50484","TxChomage":"6.8"}
,{"CODGEO":"50485","TxChomage":"9.5"}
,{"CODGEO":"50486","TxChomage":"9.5"}
,{"CODGEO":"50487","TxChomage":"6.8"}
,{"CODGEO":"50488","TxChomage":"7.3"}
,{"CODGEO":"50489","TxChomage":"6.8"}
,{"CODGEO":"50490","TxChomage":"9.5"}
,{"CODGEO":"50491","TxChomage":"7.3"}
,{"CODGEO":"50492","TxChomage":"7.3"}
,{"CODGEO":"50493","TxChomage":"8.9"}
,{"CODGEO":"50494","TxChomage":"6.8"}
,{"CODGEO":"50495","TxChomage":"6.8"}
,{"CODGEO":"50496","TxChomage":"8.9"}
,{"CODGEO":"50497","TxChomage":"9.5"}
,{"CODGEO":"50498","TxChomage":"9.5"}
,{"CODGEO":"50499","TxChomage":"6.8"}
,{"CODGEO":"50500","TxChomage":"6.8"}
,{"CODGEO":"50502","TxChomage":"7.3"}
,{"CODGEO":"50503","TxChomage":"9.5"}
,{"CODGEO":"50504","TxChomage":"7.3"}
,{"CODGEO":"50505","TxChomage":"6.8"}
,{"CODGEO":"50506","TxChomage":"8.6"}
,{"CODGEO":"50507","TxChomage":"9.5"}
,{"CODGEO":"50508","TxChomage":"6.8"}
,{"CODGEO":"50509","TxChomage":"9.5"}
,{"CODGEO":"50510","TxChomage":"8.6"}
,{"CODGEO":"50511","TxChomage":"9.5"}
,{"CODGEO":"50512","TxChomage":"7.3"}
,{"CODGEO":"50513","TxChomage":"8.6"}
,{"CODGEO":"50514","TxChomage":"8.6"}
,{"CODGEO":"50515","TxChomage":"6.8"}
,{"CODGEO":"50516","TxChomage":"6.8"}
,{"CODGEO":"50517","TxChomage":"9.5"}
,{"CODGEO":"50518","TxChomage":"6.8"}
,{"CODGEO":"50519","TxChomage":"9.5"}
,{"CODGEO":"50520","TxChomage":"9.5"}
,{"CODGEO":"50521","TxChomage":"6.8"}
,{"CODGEO":"50522","TxChomage":"9.5"}
,{"CODGEO":"50523","TxChomage":"9.5"}
,{"CODGEO":"50524","TxChomage":"8.6"}
,{"CODGEO":"50525","TxChomage":"8.6"}
,{"CODGEO":"50528","TxChomage":"8.6"}
,{"CODGEO":"50529","TxChomage":"6.8"}
,{"CODGEO":"50531","TxChomage":"6.8"}
,{"CODGEO":"50532","TxChomage":"8.9"}
,{"CODGEO":"50533","TxChomage":"8.6"}
,{"CODGEO":"50534","TxChomage":"9.5"}
,{"CODGEO":"50535","TxChomage":"6.8"}
,{"CODGEO":"50536","TxChomage":"9.5"}
,{"CODGEO":"50537","TxChomage":"8.6"}
,{"CODGEO":"50538","TxChomage":"7.3"}
,{"CODGEO":"50539","TxChomage":"9.5"}
,{"CODGEO":"50540","TxChomage":"8.9"}
,{"CODGEO":"50541","TxChomage":"8.9"}
,{"CODGEO":"50542","TxChomage":"8.6"}
,{"CODGEO":"50543","TxChomage":"6.8"}
,{"CODGEO":"50544","TxChomage":"9.5"}
,{"CODGEO":"50545","TxChomage":"7.3"}
,{"CODGEO":"50546","TxChomage":"7.3"}
,{"CODGEO":"50548","TxChomage":"9.5"}
,{"CODGEO":"50549","TxChomage":"8.9"}
,{"CODGEO":"50550","TxChomage":"8.6"}
,{"CODGEO":"50551","TxChomage":"9.5"}
,{"CODGEO":"50552","TxChomage":"8.6"}
,{"CODGEO":"50553","TxChomage":"6.8"}
,{"CODGEO":"50554","TxChomage":"6.8"}
,{"CODGEO":"50556","TxChomage":"7.3"}
,{"CODGEO":"50557","TxChomage":"6.8"}
,{"CODGEO":"50558","TxChomage":"8.6"}
,{"CODGEO":"50562","TxChomage":"9.5"}
,{"CODGEO":"50563","TxChomage":"7.3"}
,{"CODGEO":"50564","TxChomage":"9.5"}
,{"CODGEO":"50565","TxChomage":"8.9"}
,{"CODGEO":"50567","TxChomage":"9.5"}
,{"CODGEO":"50568","TxChomage":"8.6"}
,{"CODGEO":"50569","TxChomage":"8.6"}
,{"CODGEO":"50570","TxChomage":"6.8"}
,{"CODGEO":"50571","TxChomage":"9.5"}
,{"CODGEO":"50572","TxChomage":"9.5"}
,{"CODGEO":"50573","TxChomage":"8.6"}
,{"CODGEO":"50574","TxChomage":"6.8"}
,{"CODGEO":"50575","TxChomage":"9.5"}
,{"CODGEO":"50576","TxChomage":"9.5"}
,{"CODGEO":"50577","TxChomage":"9.5"}
,{"CODGEO":"50578","TxChomage":"9.5"}
,{"CODGEO":"50579","TxChomage":"9.5"}
,{"CODGEO":"50580","TxChomage":"9.5"}
,{"CODGEO":"50581","TxChomage":"7.3"}
,{"CODGEO":"50582","TxChomage":"8.6"}
,{"CODGEO":"50583","TxChomage":"6.8"}
,{"CODGEO":"50584","TxChomage":"6.8"}
,{"CODGEO":"50585","TxChomage":"9.5"}
,{"CODGEO":"50586","TxChomage":"9.5"}
,{"CODGEO":"50587","TxChomage":"9.5"}
,{"CODGEO":"50588","TxChomage":"9.5"}
,{"CODGEO":"50589","TxChomage":"6.8"}
,{"CODGEO":"50590","TxChomage":"8.9"}
,{"CODGEO":"50591","TxChomage":"6.8"}
,{"CODGEO":"50592","TxChomage":"7.3"}
,{"CODGEO":"50593","TxChomage":"9.5"}
,{"CODGEO":"50594","TxChomage":"9.5"}
,{"CODGEO":"50595","TxChomage":"9.5"}
,{"CODGEO":"50596","TxChomage":"9.5"}
,{"CODGEO":"50597","TxChomage":"6.8"}
,{"CODGEO":"50598","TxChomage":"9.5"}
,{"CODGEO":"50599","TxChomage":"9.5"}
,{"CODGEO":"50600","TxChomage":"9.5"}
,{"CODGEO":"50601","TxChomage":"7.3"}
,{"CODGEO":"50602","TxChomage":"9.5"}
,{"CODGEO":"50603","TxChomage":"8.6"}
,{"CODGEO":"50604","TxChomage":"9.5"}
,{"CODGEO":"50605","TxChomage":"8.6"}
,{"CODGEO":"50606","TxChomage":"7.3"}
,{"CODGEO":"50607","TxChomage":"6.8"}
,{"CODGEO":"50608","TxChomage":"7.3"}
,{"CODGEO":"50609","TxChomage":"9.5"}
,{"CODGEO":"50610","TxChomage":"9.5"}
,{"CODGEO":"50611","TxChomage":"9.5"}
,{"CODGEO":"50612","TxChomage":"6.8"}
,{"CODGEO":"50613","TxChomage":"9.5"}
,{"CODGEO":"50614","TxChomage":"9.5"}
,{"CODGEO":"50615","TxChomage":"9.5"}
,{"CODGEO":"50616","TxChomage":"6.8"}
,{"CODGEO":"50617","TxChomage":"9.5"}
,{"CODGEO":"50618","TxChomage":"9.5"}
,{"CODGEO":"50619","TxChomage":"9.5"}
,{"CODGEO":"50620","TxChomage":"9.5"}
,{"CODGEO":"50621","TxChomage":"9.5"}
,{"CODGEO":"50622","TxChomage":"8.6"}
,{"CODGEO":"50623","TxChomage":"9.5"}
,{"CODGEO":"50624","TxChomage":"8.6"}
,{"CODGEO":"50625","TxChomage":"8.6"}
,{"CODGEO":"50626","TxChomage":"8.9"}
,{"CODGEO":"50627","TxChomage":"6.8"}
,{"CODGEO":"50628","TxChomage":"6.8"}
,{"CODGEO":"50629","TxChomage":"8.6"}
,{"CODGEO":"50630","TxChomage":"6.8"}
,{"CODGEO":"50631","TxChomage":"9.5"}
,{"CODGEO":"50633","TxChomage":"9.5"}
,{"CODGEO":"50634","TxChomage":"9.5"}
,{"CODGEO":"50635","TxChomage":"7.3"}
,{"CODGEO":"50636","TxChomage":"9.5"}
,{"CODGEO":"50637","TxChomage":"7.3"}
,{"CODGEO":"50638","TxChomage":"6.8"}
,{"CODGEO":"50639","TxChomage":"6.8"}
,{"CODGEO":"50640","TxChomage":"6.8"}
,{"CODGEO":"50641","TxChomage":"7.3"}
,{"CODGEO":"50642","TxChomage":"9.5"}
,{"CODGEO":"50643","TxChomage":"9.5"}
,{"CODGEO":"50644","TxChomage":"6.8"}
,{"CODGEO":"50646","TxChomage":"9.5"}
,{"CODGEO":"50647","TxChomage":"8.9"}
,{"CODGEO":"50648","TxChomage":"9.5"}
]}
