{"status":"success","data":[{"CODGEO":"52001","TxChomage":"7.6"}
,{"CODGEO":"52002","TxChomage":"7.6"}
,{"CODGEO":"52003","TxChomage":"7.6"}
,{"CODGEO":"52004","TxChomage":"12.4"}
,{"CODGEO":"52005","TxChomage":"7.6"}
,{"CODGEO":"52006","TxChomage":"12.4"}
,{"CODGEO":"52007","TxChomage":"7.6"}
,{"CODGEO":"52008","TxChomage":"7.6"}
,{"CODGEO":"52009","TxChomage":"7.6"}
,{"CODGEO":"52011","TxChomage":"7.6"}
,{"CODGEO":"52012","TxChomage":"12.4"}
,{"CODGEO":"52013","TxChomage":"7.6"}
,{"CODGEO":"52014","TxChomage":"7.6"}
,{"CODGEO":"52015","TxChomage":"7.6"}
,{"CODGEO":"52016","TxChomage":"7.6"}
,{"CODGEO":"52017","TxChomage":"7.6"}
,{"CODGEO":"52019","TxChomage":"12.4"}
,{"CODGEO":"52021","TxChomage":"12.4"}
,{"CODGEO":"52022","TxChomage":"7.6"}
,{"CODGEO":"52023","TxChomage":"7.6"}
,{"CODGEO":"52025","TxChomage":"7.6"}
,{"CODGEO":"52027","TxChomage":"7.6"}
,{"CODGEO":"52028","TxChomage":"7.6"}
,{"CODGEO":"52029","TxChomage":"12.4"}
,{"CODGEO":"52030","TxChomage":"12.4"}
,{"CODGEO":"52031","TxChomage":"7.6"}
,{"CODGEO":"52034","TxChomage":"12.4"}
,{"CODGEO":"52035","TxChomage":"7.6"}
,{"CODGEO":"52036","TxChomage":"7.6"}
,{"CODGEO":"52037","TxChomage":"7.6"}
,{"CODGEO":"52038","TxChomage":"7.6"}
,{"CODGEO":"52039","TxChomage":"12.4"}
,{"CODGEO":"52040","TxChomage":"7.6"}
,{"CODGEO":"52042","TxChomage":"7.6"}
,{"CODGEO":"52043","TxChomage":"7.6"}
,{"CODGEO":"52044","TxChomage":"7.6"}
,{"CODGEO":"52045","TxChomage":"12.4"}
,{"CODGEO":"52047","TxChomage":"12.4"}
,{"CODGEO":"52050","TxChomage":"7.6"}
,{"CODGEO":"52051","TxChomage":"7.6"}
,{"CODGEO":"52053","TxChomage":"7.6"}
,{"CODGEO":"52055","TxChomage":"12.4"}
,{"CODGEO":"52056","TxChomage":"7.6"}
,{"CODGEO":"52057","TxChomage":"12.4"}
,{"CODGEO":"52058","TxChomage":"7.6"}
,{"CODGEO":"52059","TxChomage":"7.6"}
,{"CODGEO":"52060","TxChomage":"7.6"}
,{"CODGEO":"52061","TxChomage":"7.6"}
,{"CODGEO":"52062","TxChomage":"7.6"}
,{"CODGEO":"52063","TxChomage":"7.6"}
,{"CODGEO":"52064","TxChomage":"7.6"}
,{"CODGEO":"52065","TxChomage":"12.4"}
,{"CODGEO":"52066","TxChomage":"12.4"}
,{"CODGEO":"52067","TxChomage":"7.6"}
,{"CODGEO":"52069","TxChomage":"7.6"}
,{"CODGEO":"52070","TxChomage":"7.6"}
,{"CODGEO":"52072","TxChomage":"7.6"}
,{"CODGEO":"52074","TxChomage":"7.6"}
,{"CODGEO":"52075","TxChomage":"7.6"}
,{"CODGEO":"52076","TxChomage":"7.6"}
,{"CODGEO":"52079","TxChomage":"12.4"}
,{"CODGEO":"52082","TxChomage":"7.6"}
,{"CODGEO":"52083","TxChomage":"7.6"}
,{"CODGEO":"52084","TxChomage":"7.6"}
,{"CODGEO":"52085","TxChomage":"7.6"}
,{"CODGEO":"52087","TxChomage":"7.6"}
,{"CODGEO":"52088","TxChomage":"12.4"}
,{"CODGEO":"52089","TxChomage":"7.6"}
,{"CODGEO":"52090","TxChomage":"7.6"}
,{"CODGEO":"52091","TxChomage":"7.6"}
,{"CODGEO":"52092","TxChomage":"7.6"}
,{"CODGEO":"52093","TxChomage":"7.6"}
,{"CODGEO":"52094","TxChomage":"7.6"}
,{"CODGEO":"52095","TxChomage":"7.6"}
,{"CODGEO":"52097","TxChomage":"12.4"}
,{"CODGEO":"52099","TxChomage":"12.4"}
,{"CODGEO":"52101","TxChomage":"7.6"}
,{"CODGEO":"52102","TxChomage":"7.6"}
,{"CODGEO":"52103","TxChomage":"7.6"}
,{"CODGEO":"52104","TxChomage":"12.4"}
,{"CODGEO":"52105","TxChomage":"7.6"}
,{"CODGEO":"52106","TxChomage":"7.6"}
,{"CODGEO":"52107","TxChomage":"7.6"}
,{"CODGEO":"52108","TxChomage":"7.6"}
,{"CODGEO":"52109","TxChomage":"12.4"}
,{"CODGEO":"52110","TxChomage":"12.4"}
,{"CODGEO":"52113","TxChomage":"7.6"}
,{"CODGEO":"52114","TxChomage":"7.6"}
,{"CODGEO":"52115","TxChomage":"7.6"}
,{"CODGEO":"52116","TxChomage":"7.6"}
,{"CODGEO":"52118","TxChomage":"12.4"}
,{"CODGEO":"52119","TxChomage":"7.6"}
,{"CODGEO":"52120","TxChomage":"7.6"}
,{"CODGEO":"52121","TxChomage":"7.6"}
,{"CODGEO":"52122","TxChomage":"7.6"}
,{"CODGEO":"52123","TxChomage":"12.4"}
,{"CODGEO":"52125","TxChomage":"7.6"}
,{"CODGEO":"52126","TxChomage":"7.6"}
,{"CODGEO":"52127","TxChomage":"7.6"}
,{"CODGEO":"52128","TxChomage":"7.6"}
,{"CODGEO":"52129","TxChomage":"12.4"}
,{"CODGEO":"52130","TxChomage":"7.6"}
,{"CODGEO":"52131","TxChomage":"12.4"}
,{"CODGEO":"52132","TxChomage":"7.6"}
,{"CODGEO":"52133","TxChomage":"7.6"}
,{"CODGEO":"52134","TxChomage":"7.6"}
,{"CODGEO":"52135","TxChomage":"7.6"}
,{"CODGEO":"52136","TxChomage":"7.6"}
,{"CODGEO":"52137","TxChomage":"7.6"}
,{"CODGEO":"52138","TxChomage":"7.6"}
,{"CODGEO":"52140","TxChomage":"7.6"}
,{"CODGEO":"52141","TxChomage":"7.6"}
,{"CODGEO":"52142","TxChomage":"7.6"}
,{"CODGEO":"52145","TxChomage":"7.6"}
,{"CODGEO":"52146","TxChomage":"7.6"}
,{"CODGEO":"52147","TxChomage":"7.6"}
,{"CODGEO":"52149","TxChomage":"12.4"}
,{"CODGEO":"52151","TxChomage":"7.6"}
,{"CODGEO":"52155","TxChomage":"7.6"}
,{"CODGEO":"52156","TxChomage":"12.4"}
,{"CODGEO":"52157","TxChomage":"7.6"}
,{"CODGEO":"52158","TxChomage":"7.6"}
,{"CODGEO":"52159","TxChomage":"7.6"}
,{"CODGEO":"52160","TxChomage":"7.6"}
,{"CODGEO":"52161","TxChomage":"7.6"}
,{"CODGEO":"52162","TxChomage":"7.6"}
,{"CODGEO":"52163","TxChomage":"7.6"}
,{"CODGEO":"52164","TxChomage":"7.6"}
,{"CODGEO":"52165","TxChomage":"7.6"}
,{"CODGEO":"52167","TxChomage":"7.6"}
,{"CODGEO":"52168","TxChomage":"7.6"}
,{"CODGEO":"52169","TxChomage":"12.4"}
,{"CODGEO":"52170","TxChomage":"7.6"}
,{"CODGEO":"52171","TxChomage":"12.4"}
,{"CODGEO":"52172","TxChomage":"12.4"}
,{"CODGEO":"52173","TxChomage":"12.4"}
,{"CODGEO":"52174","TxChomage":"7.6"}
,{"CODGEO":"52175","TxChomage":"12.4"}
,{"CODGEO":"52177","TxChomage":"7.6"}
,{"CODGEO":"52178","TxChomage":"12.4"}
,{"CODGEO":"52179","TxChomage":"12.4"}
,{"CODGEO":"52180","TxChomage":"12.4"}
,{"CODGEO":"52181","TxChomage":"12.4"}
,{"CODGEO":"52182","TxChomage":"12.4"}
,{"CODGEO":"52183","TxChomage":"7.6"}
,{"CODGEO":"52184","TxChomage":"12.4"}
,{"CODGEO":"52185","TxChomage":"7.6"}
,{"CODGEO":"52187","TxChomage":"12.4"}
,{"CODGEO":"52189","TxChomage":"7.6"}
,{"CODGEO":"52190","TxChomage":"7.6"}
,{"CODGEO":"52193","TxChomage":"7.6"}
,{"CODGEO":"52194","TxChomage":"12.4"}
,{"CODGEO":"52195","TxChomage":"7.6"}
,{"CODGEO":"52196","TxChomage":"7.6"}
,{"CODGEO":"52197","TxChomage":"7.6"}
,{"CODGEO":"52198","TxChomage":"12.4"}
,{"CODGEO":"52199","TxChomage":"12.4"}
,{"CODGEO":"52200","TxChomage":"7.6"}
,{"CODGEO":"52201","TxChomage":"12.4"}
,{"CODGEO":"52203","TxChomage":"12.4"}
,{"CODGEO":"52204","TxChomage":"7.6"}
,{"CODGEO":"52205","TxChomage":"7.6"}
,{"CODGEO":"52206","TxChomage":"12.4"}
,{"CODGEO":"52207","TxChomage":"7.6"}
,{"CODGEO":"52208","TxChomage":"7.6"}
,{"CODGEO":"52211","TxChomage":"7.6"}
,{"CODGEO":"52212","TxChomage":"12.4"}
,{"CODGEO":"52213","TxChomage":"7.6"}
,{"CODGEO":"52214","TxChomage":"7.6"}
,{"CODGEO":"52216","TxChomage":"7.6"}
,{"CODGEO":"52217","TxChomage":"7.6"}
,{"CODGEO":"52218","TxChomage":"12.4"}
,{"CODGEO":"52219","TxChomage":"12.4"}
,{"CODGEO":"52220","TxChomage":"7.6"}
,{"CODGEO":"52221","TxChomage":"7.6"}
,{"CODGEO":"52222","TxChomage":"12.4"}
,{"CODGEO":"52223","TxChomage":"7.6"}
,{"CODGEO":"52225","TxChomage":"7.6"}
,{"CODGEO":"52227","TxChomage":"7.6"}
,{"CODGEO":"52228","TxChomage":"7.6"}
,{"CODGEO":"52229","TxChomage":"7.6"}
,{"CODGEO":"52230","TxChomage":"12.4"}
,{"CODGEO":"52231","TxChomage":"12.4"}
,{"CODGEO":"52232","TxChomage":"7.6"}
,{"CODGEO":"52233","TxChomage":"7.6"}
,{"CODGEO":"52234","TxChomage":"7.6"}
,{"CODGEO":"52235","TxChomage":"12.4"}
,{"CODGEO":"52237","TxChomage":"7.6"}
,{"CODGEO":"52239","TxChomage":"7.6"}
,{"CODGEO":"52240","TxChomage":"7.6"}
,{"CODGEO":"52242","TxChomage":"7.6"}
,{"CODGEO":"52243","TxChomage":"7.6"}
,{"CODGEO":"52244","TxChomage":"12.4"}
,{"CODGEO":"52245","TxChomage":"7.6"}
,{"CODGEO":"52246","TxChomage":"7.6"}
,{"CODGEO":"52247","TxChomage":"7.6"}
,{"CODGEO":"52248","TxChomage":"7.6"}
,{"CODGEO":"52249","TxChomage":"7.6"}
,{"CODGEO":"52250","TxChomage":"12.4"}
,{"CODGEO":"52251","TxChomage":"7.6"}
,{"CODGEO":"52253","TxChomage":"7.6"}
,{"CODGEO":"52254","TxChomage":"7.6"}
,{"CODGEO":"52256","TxChomage":"7.6"}
,{"CODGEO":"52257","TxChomage":"7.6"}
,{"CODGEO":"52258","TxChomage":"12.4"}
,{"CODGEO":"52260","TxChomage":"7.6"}
,{"CODGEO":"52262","TxChomage":"7.6"}
,{"CODGEO":"52264","TxChomage":"7.6"}
,{"CODGEO":"52265","TxChomage":"12.4"}
,{"CODGEO":"52267","TxChomage":"12.4"}
,{"CODGEO":"52269","TxChomage":"7.6"}
,{"CODGEO":"52271","TxChomage":"7.6"}
,{"CODGEO":"52272","TxChomage":"12.4"}
,{"CODGEO":"52273","TxChomage":"7.6"}
,{"CODGEO":"52274","TxChomage":"7.6"}
,{"CODGEO":"52275","TxChomage":"7.6"}
,{"CODGEO":"52276","TxChomage":"7.6"}
,{"CODGEO":"52277","TxChomage":"7.6"}
,{"CODGEO":"52280","TxChomage":"7.6"}
,{"CODGEO":"52282","TxChomage":"7.6"}
,{"CODGEO":"52284","TxChomage":"12.4"}
,{"CODGEO":"52285","TxChomage":"7.6"}
,{"CODGEO":"52286","TxChomage":"7.6"}
,{"CODGEO":"52287","TxChomage":"7.6"}
,{"CODGEO":"52288","TxChomage":"12.4"}
,{"CODGEO":"52289","TxChomage":"7.6"}
,{"CODGEO":"52290","TxChomage":"7.6"}
,{"CODGEO":"52291","TxChomage":"7.6"}
,{"CODGEO":"52292","TxChomage":"7.6"}
,{"CODGEO":"52293","TxChomage":"12.4"}
,{"CODGEO":"52294","TxChomage":"12.4"}
,{"CODGEO":"52295","TxChomage":"7.6"}
,{"CODGEO":"52296","TxChomage":"12.4"}
,{"CODGEO":"52297","TxChomage":"7.6"}
,{"CODGEO":"52298","TxChomage":"7.6"}
,{"CODGEO":"52300","TxChomage":"12.4"}
,{"CODGEO":"52301","TxChomage":"7.6"}
,{"CODGEO":"52302","TxChomage":"12.4"}
,{"CODGEO":"52303","TxChomage":"7.6"}
,{"CODGEO":"52304","TxChomage":"7.6"}
,{"CODGEO":"52305","TxChomage":"7.6"}
,{"CODGEO":"52306","TxChomage":"7.6"}
,{"CODGEO":"52307","TxChomage":"7.6"}
,{"CODGEO":"52308","TxChomage":"7.6"}
,{"CODGEO":"52310","TxChomage":"7.6"}
,{"CODGEO":"52311","TxChomage":"7.6"}
,{"CODGEO":"52312","TxChomage":"7.6"}
,{"CODGEO":"52313","TxChomage":"7.6"}
,{"CODGEO":"52315","TxChomage":"7.6"}
,{"CODGEO":"52316","TxChomage":"12.4"}
,{"CODGEO":"52318","TxChomage":"7.6"}
,{"CODGEO":"52319","TxChomage":"7.6"}
,{"CODGEO":"52320","TxChomage":"7.6"}
,{"CODGEO":"52321","TxChomage":"12.4"}
,{"CODGEO":"52322","TxChomage":"7.6"}
,{"CODGEO":"52325","TxChomage":"7.6"}
,{"CODGEO":"52326","TxChomage":"7.6"}
,{"CODGEO":"52327","TxChomage":"12.4"}
,{"CODGEO":"52328","TxChomage":"7.6"}
,{"CODGEO":"52330","TxChomage":"7.6"}
,{"CODGEO":"52331","TxChomage":"12.4"}
,{"CODGEO":"52332","TxChomage":"7.6"}
,{"CODGEO":"52335","TxChomage":"7.6"}
,{"CODGEO":"52336","TxChomage":"12.4"}
,{"CODGEO":"52337","TxChomage":"12.4"}
,{"CODGEO":"52340","TxChomage":"7.6"}
,{"CODGEO":"52341","TxChomage":"12.4"}
,{"CODGEO":"52342","TxChomage":"12.4"}
,{"CODGEO":"52344","TxChomage":"7.6"}
,{"CODGEO":"52346","TxChomage":"12.4"}
,{"CODGEO":"52347","TxChomage":"12.4"}
,{"CODGEO":"52348","TxChomage":"7.6"}
,{"CODGEO":"52349","TxChomage":"7.6"}
,{"CODGEO":"52350","TxChomage":"7.6"}
,{"CODGEO":"52351","TxChomage":"7.6"}
,{"CODGEO":"52352","TxChomage":"7.6"}
,{"CODGEO":"52353","TxChomage":"7.6"}
,{"CODGEO":"52354","TxChomage":"7.6"}
,{"CODGEO":"52355","TxChomage":"7.6"}
,{"CODGEO":"52356","TxChomage":"12.4"}
,{"CODGEO":"52357","TxChomage":"12.4"}
,{"CODGEO":"52358","TxChomage":"7.6"}
,{"CODGEO":"52359","TxChomage":"12.4"}
,{"CODGEO":"52360","TxChomage":"7.6"}
,{"CODGEO":"52362","TxChomage":"7.6"}
,{"CODGEO":"52363","TxChomage":"7.6"}
,{"CODGEO":"52364","TxChomage":"7.6"}
,{"CODGEO":"52365","TxChomage":"7.6"}
,{"CODGEO":"52366","TxChomage":"7.6"}
,{"CODGEO":"52367","TxChomage":"7.6"}
,{"CODGEO":"52369","TxChomage":"7.6"}
,{"CODGEO":"52370","TxChomage":"12.4"}
,{"CODGEO":"52371","TxChomage":"7.6"}
,{"CODGEO":"52372","TxChomage":"7.6"}
,{"CODGEO":"52373","TxChomage":"7.6"}
,{"CODGEO":"52374","TxChomage":"7.6"}
,{"CODGEO":"52375","TxChomage":"7.6"}
,{"CODGEO":"52376","TxChomage":"12.4"}
,{"CODGEO":"52377","TxChomage":"7.6"}
,{"CODGEO":"52378","TxChomage":"12.4"}
,{"CODGEO":"52379","TxChomage":"7.6"}
,{"CODGEO":"52380","TxChomage":"7.6"}
,{"CODGEO":"52383","TxChomage":"7.6"}
,{"CODGEO":"52384","TxChomage":"7.6"}
,{"CODGEO":"52385","TxChomage":"7.6"}
,{"CODGEO":"52386","TxChomage":"12.4"}
,{"CODGEO":"52388","TxChomage":"7.6"}
,{"CODGEO":"52390","TxChomage":"7.6"}
,{"CODGEO":"52391","TxChomage":"12.4"}
,{"CODGEO":"52392","TxChomage":"7.6"}
,{"CODGEO":"52393","TxChomage":"7.6"}
,{"CODGEO":"52394","TxChomage":"7.6"}
,{"CODGEO":"52395","TxChomage":"7.6"}
,{"CODGEO":"52396","TxChomage":"7.6"}
,{"CODGEO":"52397","TxChomage":"7.6"}
,{"CODGEO":"52398","TxChomage":"12.4"}
,{"CODGEO":"52399","TxChomage":"7.6"}
,{"CODGEO":"52400","TxChomage":"7.6"}
,{"CODGEO":"52401","TxChomage":"7.6"}
,{"CODGEO":"52403","TxChomage":"7.6"}
,{"CODGEO":"52405","TxChomage":"7.6"}
,{"CODGEO":"52406","TxChomage":"7.6"}
,{"CODGEO":"52407","TxChomage":"7.6"}
,{"CODGEO":"52411","TxChomage":"12.4"}
,{"CODGEO":"52413","TxChomage":"12.4"}
,{"CODGEO":"52414","TxChomage":"12.4"}
,{"CODGEO":"52415","TxChomage":"7.6"}
,{"CODGEO":"52416","TxChomage":"7.6"}
,{"CODGEO":"52419","TxChomage":"7.6"}
,{"CODGEO":"52420","TxChomage":"7.6"}
,{"CODGEO":"52421","TxChomage":"7.6"}
,{"CODGEO":"52422","TxChomage":"7.6"}
,{"CODGEO":"52423","TxChomage":"7.6"}
,{"CODGEO":"52424","TxChomage":"7.6"}
,{"CODGEO":"52425","TxChomage":"7.6"}
,{"CODGEO":"52426","TxChomage":"12.4"}
,{"CODGEO":"52427","TxChomage":"12.4"}
,{"CODGEO":"52428","TxChomage":"7.6"}
,{"CODGEO":"52429","TxChomage":"12.4"}
,{"CODGEO":"52431","TxChomage":"7.6"}
,{"CODGEO":"52432","TxChomage":"7.6"}
,{"CODGEO":"52433","TxChomage":"7.6"}
,{"CODGEO":"52436","TxChomage":"7.6"}
,{"CODGEO":"52437","TxChomage":"7.6"}
,{"CODGEO":"52438","TxChomage":"7.6"}
,{"CODGEO":"52439","TxChomage":"7.6"}
,{"CODGEO":"52440","TxChomage":"12.4"}
,{"CODGEO":"52442","TxChomage":"12.4"}
,{"CODGEO":"52443","TxChomage":"12.4"}
,{"CODGEO":"52444","TxChomage":"7.6"}
,{"CODGEO":"52445","TxChomage":"7.6"}
,{"CODGEO":"52446","TxChomage":"7.6"}
,{"CODGEO":"52447","TxChomage":"7.6"}
,{"CODGEO":"52448","TxChomage":"12.4"}
,{"CODGEO":"52449","TxChomage":"7.6"}
,{"CODGEO":"52450","TxChomage":"7.6"}
,{"CODGEO":"52452","TxChomage":"7.6"}
,{"CODGEO":"52453","TxChomage":"7.6"}
,{"CODGEO":"52455","TxChomage":"7.6"}
,{"CODGEO":"52456","TxChomage":"12.4"}
,{"CODGEO":"52457","TxChomage":"7.6"}
,{"CODGEO":"52459","TxChomage":"7.6"}
,{"CODGEO":"52461","TxChomage":"7.6"}
,{"CODGEO":"52463","TxChomage":"12.4"}
,{"CODGEO":"52464","TxChomage":"7.6"}
,{"CODGEO":"52467","TxChomage":"7.6"}
,{"CODGEO":"52468","TxChomage":"7.6"}
,{"CODGEO":"52469","TxChomage":"7.6"}
,{"CODGEO":"52470","TxChomage":"7.6"}
,{"CODGEO":"52472","TxChomage":"7.6"}
,{"CODGEO":"52473","TxChomage":"7.6"}
,{"CODGEO":"52474","TxChomage":"7.6"}
,{"CODGEO":"52475","TxChomage":"12.4"}
,{"CODGEO":"52476","TxChomage":"7.6"}
,{"CODGEO":"52479","TxChomage":"12.4"}
,{"CODGEO":"52480","TxChomage":"7.6"}
,{"CODGEO":"52482","TxChomage":"7.6"}
,{"CODGEO":"52483","TxChomage":"7.6"}
,{"CODGEO":"52484","TxChomage":"12.4"}
,{"CODGEO":"52486","TxChomage":"7.6"}
,{"CODGEO":"52487","TxChomage":"12.4"}
,{"CODGEO":"52488","TxChomage":"7.6"}
,{"CODGEO":"52489","TxChomage":"7.6"}
,{"CODGEO":"52490","TxChomage":"12.4"}
,{"CODGEO":"52491","TxChomage":"12.4"}
,{"CODGEO":"52492","TxChomage":"7.6"}
,{"CODGEO":"52493","TxChomage":"7.6"}
,{"CODGEO":"52494","TxChomage":"7.6"}
,{"CODGEO":"52495","TxChomage":"12.4"}
,{"CODGEO":"52497","TxChomage":"12.4"}
,{"CODGEO":"52499","TxChomage":"7.6"}
,{"CODGEO":"52500","TxChomage":"12.4"}
,{"CODGEO":"52502","TxChomage":"12.4"}
,{"CODGEO":"52503","TxChomage":"7.6"}
,{"CODGEO":"52504","TxChomage":"7.6"}
,{"CODGEO":"52505","TxChomage":"7.6"}
,{"CODGEO":"52506","TxChomage":"7.6"}
,{"CODGEO":"52507","TxChomage":"7.6"}
,{"CODGEO":"52509","TxChomage":"7.6"}
,{"CODGEO":"52510","TxChomage":"12.4"}
,{"CODGEO":"52511","TxChomage":"12.4"}
,{"CODGEO":"52512","TxChomage":"12.4"}
,{"CODGEO":"52513","TxChomage":"7.6"}
,{"CODGEO":"52514","TxChomage":"7.6"}
,{"CODGEO":"52515","TxChomage":"7.6"}
,{"CODGEO":"52516","TxChomage":"7.6"}
,{"CODGEO":"52517","TxChomage":"7.6"}
,{"CODGEO":"52518","TxChomage":"7.6"}
,{"CODGEO":"52519","TxChomage":"7.6"}
,{"CODGEO":"52520","TxChomage":"7.6"}
,{"CODGEO":"52522","TxChomage":"7.6"}
,{"CODGEO":"52523","TxChomage":"7.6"}
,{"CODGEO":"52524","TxChomage":"7.6"}
,{"CODGEO":"52525","TxChomage":"12.4"}
,{"CODGEO":"52526","TxChomage":"7.6"}
,{"CODGEO":"52528","TxChomage":"12.4"}
,{"CODGEO":"52529","TxChomage":"7.6"}
,{"CODGEO":"52534","TxChomage":"12.4"}
,{"CODGEO":"52535","TxChomage":"7.6"}
,{"CODGEO":"52536","TxChomage":"7.6"}
,{"CODGEO":"52538","TxChomage":"7.6"}
,{"CODGEO":"52539","TxChomage":"7.6"}
,{"CODGEO":"52540","TxChomage":"7.6"}
,{"CODGEO":"52541","TxChomage":"7.6"}
,{"CODGEO":"52542","TxChomage":"7.6"}
,{"CODGEO":"52543","TxChomage":"12.4"}
,{"CODGEO":"52544","TxChomage":"7.6"}
,{"CODGEO":"52545","TxChomage":"7.6"}
,{"CODGEO":"52546","TxChomage":"7.6"}
,{"CODGEO":"52547","TxChomage":"7.6"}
,{"CODGEO":"52548","TxChomage":"7.6"}
,{"CODGEO":"52549","TxChomage":"7.6"}
,{"CODGEO":"52550","TxChomage":"12.4"}
]}
