{"status":"success","data":[{"CODGEO":"54001","TxChomage":"9.5"}
,{"CODGEO":"54002","TxChomage":"10.4"}
,{"CODGEO":"54003","TxChomage":"9.5"}
,{"CODGEO":"54004","TxChomage":"10.4"}
,{"CODGEO":"54005","TxChomage":"9.5"}
,{"CODGEO":"54006","TxChomage":"9.5"}
,{"CODGEO":"54007","TxChomage":"9.5"}
,{"CODGEO":"54008","TxChomage":"9.5"}
,{"CODGEO":"54009","TxChomage":"10.4"}
,{"CODGEO":"54010","TxChomage":"9.5"}
,{"CODGEO":"54011","TxChomage":"10.8"}
,{"CODGEO":"54012","TxChomage":"9.5"}
,{"CODGEO":"54013","TxChomage":"8.3"}
,{"CODGEO":"54014","TxChomage":"8.3"}
,{"CODGEO":"54015","TxChomage":"10.4"}
,{"CODGEO":"54016","TxChomage":"9.5"}
,{"CODGEO":"54017","TxChomage":"14.2"}
,{"CODGEO":"54018","TxChomage":"10.4"}
,{"CODGEO":"54019","TxChomage":"9.5"}
,{"CODGEO":"54020","TxChomage":"9.5"}
,{"CODGEO":"54021","TxChomage":"9.5"}
,{"CODGEO":"54022","TxChomage":"10.4"}
,{"CODGEO":"54023","TxChomage":"9.5"}
,{"CODGEO":"54024","TxChomage":"9.5"}
,{"CODGEO":"54025","TxChomage":"9.5"}
,{"CODGEO":"54026","TxChomage":"9.5"}
,{"CODGEO":"54027","TxChomage":"9.5"}
,{"CODGEO":"54028","TxChomage":"10.4"}
,{"CODGEO":"54029","TxChomage":"10.3"}
,{"CODGEO":"54030","TxChomage":"8.3"}
,{"CODGEO":"54031","TxChomage":"9.5"}
,{"CODGEO":"54032","TxChomage":"9.5"}
,{"CODGEO":"54033","TxChomage":"10.4"}
,{"CODGEO":"54034","TxChomage":"9.5"}
,{"CODGEO":"54035","TxChomage":"8.3"}
,{"CODGEO":"54036","TxChomage":"10.4"}
,{"CODGEO":"54037","TxChomage":"9.5"}
,{"CODGEO":"54038","TxChomage":"14.2"}
,{"CODGEO":"54039","TxChomage":"14.2"}
,{"CODGEO":"54040","TxChomage":"8.3"}
,{"CODGEO":"54041","TxChomage":"9.5"}
,{"CODGEO":"54042","TxChomage":"9.5"}
,{"CODGEO":"54043","TxChomage":"9.5"}
,{"CODGEO":"54044","TxChomage":"8.3"}
,{"CODGEO":"54045","TxChomage":"9.5"}
,{"CODGEO":"54046","TxChomage":"9.5"}
,{"CODGEO":"54047","TxChomage":"9.5"}
,{"CODGEO":"54048","TxChomage":"10.4"}
,{"CODGEO":"54049","TxChomage":"10.8"}
,{"CODGEO":"54050","TxChomage":"9.5"}
,{"CODGEO":"54051","TxChomage":"10.4"}
,{"CODGEO":"54052","TxChomage":"9.5"}
,{"CODGEO":"54053","TxChomage":"9.5"}
,{"CODGEO":"54054","TxChomage":"9.5"}
,{"CODGEO":"54055","TxChomage":"10.4"}
,{"CODGEO":"54056","TxChomage":"10.8"}
,{"CODGEO":"54057","TxChomage":"9.5"}
,{"CODGEO":"54058","TxChomage":"10.4"}
,{"CODGEO":"54059","TxChomage":"9.5"}
,{"CODGEO":"54060","TxChomage":"9.5"}
,{"CODGEO":"54061","TxChomage":"11.7"}
,{"CODGEO":"54062","TxChomage":"9.5"}
,{"CODGEO":"54063","TxChomage":"9.5"}
,{"CODGEO":"54064","TxChomage":"8.3"}
,{"CODGEO":"54065","TxChomage":"14.2"}
,{"CODGEO":"54066","TxChomage":"10.4"}
,{"CODGEO":"54067","TxChomage":"10.8"}
,{"CODGEO":"54068","TxChomage":"9.5"}
,{"CODGEO":"54069","TxChomage":"10.3"}
,{"CODGEO":"54070","TxChomage":"9.5"}
,{"CODGEO":"54071","TxChomage":"9.5"}
,{"CODGEO":"54072","TxChomage":"9.5"}
,{"CODGEO":"54073","TxChomage":"9.5"}
,{"CODGEO":"54074","TxChomage":"9.5"}
,{"CODGEO":"54075","TxChomage":"14.2"}
,{"CODGEO":"54076","TxChomage":"9.5"}
,{"CODGEO":"54077","TxChomage":"8.3"}
,{"CODGEO":"54078","TxChomage":"11.7"}
,{"CODGEO":"54079","TxChomage":"9.5"}
,{"CODGEO":"54080","TxChomage":"9.5"}
,{"CODGEO":"54081","TxChomage":"10.8"}
,{"CODGEO":"54082","TxChomage":"10.4"}
,{"CODGEO":"54083","TxChomage":"11.7"}
,{"CODGEO":"54084","TxChomage":"10.4"}
,{"CODGEO":"54085","TxChomage":"9.5"}
,{"CODGEO":"54086","TxChomage":"9.5"}
,{"CODGEO":"54087","TxChomage":"10.4"}
,{"CODGEO":"54088","TxChomage":"9.5"}
,{"CODGEO":"54089","TxChomage":"9.5"}
,{"CODGEO":"54090","TxChomage":"9.5"}
,{"CODGEO":"54091","TxChomage":"10.4"}
,{"CODGEO":"54092","TxChomage":"9.5"}
,{"CODGEO":"54093","TxChomage":"10.4"}
,{"CODGEO":"54094","TxChomage":"9.5"}
,{"CODGEO":"54095","TxChomage":"9.5"}
,{"CODGEO":"54096","TxChomage":"10.8"}
,{"CODGEO":"54097","TxChomage":"8.3"}
,{"CODGEO":"54098","TxChomage":"9.5"}
,{"CODGEO":"54099","TxChomage":"10.4"}
,{"CODGEO":"54100","TxChomage":"9.5"}
,{"CODGEO":"54101","TxChomage":"14.2"}
,{"CODGEO":"54102","TxChomage":"9.5"}
,{"CODGEO":"54103","TxChomage":"10.4"}
,{"CODGEO":"54104","TxChomage":"9.5"}
,{"CODGEO":"54105","TxChomage":"9.5"}
,{"CODGEO":"54106","TxChomage":"9.5"}
,{"CODGEO":"54107","TxChomage":"11.7"}
,{"CODGEO":"54108","TxChomage":"9.5"}
,{"CODGEO":"54109","TxChomage":"9.5"}
,{"CODGEO":"54110","TxChomage":"9.5"}
,{"CODGEO":"54111","TxChomage":"9.5"}
,{"CODGEO":"54112","TxChomage":"10.4"}
,{"CODGEO":"54113","TxChomage":"9.5"}
,{"CODGEO":"54114","TxChomage":"9.5"}
,{"CODGEO":"54115","TxChomage":"9.5"}
,{"CODGEO":"54116","TxChomage":"11.7"}
,{"CODGEO":"54117","TxChomage":"9.5"}
,{"CODGEO":"54118","TxChomage":"10.8"}
,{"CODGEO":"54119","TxChomage":"10.4"}
,{"CODGEO":"54120","TxChomage":"9.5"}
,{"CODGEO":"54121","TxChomage":"9.5"}
,{"CODGEO":"54122","TxChomage":"9.5"}
,{"CODGEO":"54123","TxChomage":"9.5"}
,{"CODGEO":"54124","TxChomage":"8.3"}
,{"CODGEO":"54125","TxChomage":"11.7"}
,{"CODGEO":"54126","TxChomage":"9.5"}
,{"CODGEO":"54127","TxChomage":"10.8"}
,{"CODGEO":"54128","TxChomage":"9.5"}
,{"CODGEO":"54129","TxChomage":"8.3"}
,{"CODGEO":"54130","TxChomage":"9.5"}
,{"CODGEO":"54131","TxChomage":"9.5"}
,{"CODGEO":"54132","TxChomage":"9.5"}
,{"CODGEO":"54133","TxChomage":"9.5"}
,{"CODGEO":"54134","TxChomage":"10.8"}
,{"CODGEO":"54135","TxChomage":"9.5"}
,{"CODGEO":"54136","TxChomage":"10.4"}
,{"CODGEO":"54137","TxChomage":"10.8"}
,{"CODGEO":"54138","TxChomage":"10.8"}
,{"CODGEO":"54139","TxChomage":"9.5"}
,{"CODGEO":"54140","TxChomage":"9.5"}
,{"CODGEO":"54141","TxChomage":"9.5"}
,{"CODGEO":"54142","TxChomage":"9.5"}
,{"CODGEO":"54143","TxChomage":"9.5"}
,{"CODGEO":"54144","TxChomage":"9.5"}
,{"CODGEO":"54145","TxChomage":"9.5"}
,{"CODGEO":"54146","TxChomage":"9.5"}
,{"CODGEO":"54147","TxChomage":"9.5"}
,{"CODGEO":"54148","TxChomage":"11.7"}
,{"CODGEO":"54149","TxChomage":"10.8"}
,{"CODGEO":"54150","TxChomage":"9.5"}
,{"CODGEO":"54151","TxChomage":"10.8"}
,{"CODGEO":"54152","TxChomage":"9.5"}
,{"CODGEO":"54153","TxChomage":"10.4"}
,{"CODGEO":"54154","TxChomage":"14.2"}
,{"CODGEO":"54155","TxChomage":"9.5"}
,{"CODGEO":"54156","TxChomage":"9.5"}
,{"CODGEO":"54157","TxChomage":"9.5"}
,{"CODGEO":"54158","TxChomage":"9.5"}
,{"CODGEO":"54159","TxChomage":"9.5"}
,{"CODGEO":"54160","TxChomage":"9.5"}
,{"CODGEO":"54161","TxChomage":"8.3"}
,{"CODGEO":"54162","TxChomage":"9.5"}
,{"CODGEO":"54163","TxChomage":"11.7"}
,{"CODGEO":"54164","TxChomage":"9.5"}
,{"CODGEO":"54165","TxChomage":"9.5"}
,{"CODGEO":"54166","TxChomage":"10.4"}
,{"CODGEO":"54167","TxChomage":"9.5"}
,{"CODGEO":"54168","TxChomage":"9.5"}
,{"CODGEO":"54169","TxChomage":"10.8"}
,{"CODGEO":"54170","TxChomage":"9.5"}
,{"CODGEO":"54171","TxChomage":"10.4"}
,{"CODGEO":"54172","TxChomage":"10.8"}
,{"CODGEO":"54173","TxChomage":"9.5"}
,{"CODGEO":"54174","TxChomage":"9.5"}
,{"CODGEO":"54175","TxChomage":"9.5"}
,{"CODGEO":"54176","TxChomage":"9.5"}
,{"CODGEO":"54177","TxChomage":"11.7"}
,{"CODGEO":"54178","TxChomage":"10.8"}
,{"CODGEO":"54179","TxChomage":"10.4"}
,{"CODGEO":"54180","TxChomage":"9.5"}
,{"CODGEO":"54181","TxChomage":"10.8"}
,{"CODGEO":"54182","TxChomage":"10.4"}
,{"CODGEO":"54183","TxChomage":"9.5"}
,{"CODGEO":"54184","TxChomage":"9.5"}
,{"CODGEO":"54185","TxChomage":"9.5"}
,{"CODGEO":"54186","TxChomage":"9.5"}
,{"CODGEO":"54187","TxChomage":"9.5"}
,{"CODGEO":"54188","TxChomage":"9.5"}
,{"CODGEO":"54189","TxChomage":"9.5"}
,{"CODGEO":"54190","TxChomage":"9.5"}
,{"CODGEO":"54191","TxChomage":"14.2"}
,{"CODGEO":"54192","TxChomage":"9.5"}
,{"CODGEO":"54193","TxChomage":"9.5"}
,{"CODGEO":"54194","TxChomage":"10.8"}
,{"CODGEO":"54195","TxChomage":"9.5"}
,{"CODGEO":"54196","TxChomage":"9.5"}
,{"CODGEO":"54197","TxChomage":"9.5"}
,{"CODGEO":"54198","TxChomage":"10.4"}
,{"CODGEO":"54199","TxChomage":"11.7"}
,{"CODGEO":"54200","TxChomage":"9.5"}
,{"CODGEO":"54201","TxChomage":"14.2"}
,{"CODGEO":"54202","TxChomage":"9.5"}
,{"CODGEO":"54203","TxChomage":"9.5"}
,{"CODGEO":"54204","TxChomage":"9.5"}
,{"CODGEO":"54205","TxChomage":"9.5"}
,{"CODGEO":"54206","TxChomage":"11.7"}
,{"CODGEO":"54207","TxChomage":"9.5"}
,{"CODGEO":"54208","TxChomage":"9.5"}
,{"CODGEO":"54209","TxChomage":"9.5"}
,{"CODGEO":"54210","TxChomage":"11.7"}
,{"CODGEO":"54211","TxChomage":"8.3"}
,{"CODGEO":"54212","TxChomage":"10.8"}
,{"CODGEO":"54213","TxChomage":"10.4"}
,{"CODGEO":"54214","TxChomage":"9.5"}
,{"CODGEO":"54215","TxChomage":"9.5"}
,{"CODGEO":"54216","TxChomage":"9.5"}
,{"CODGEO":"54217","TxChomage":"14.2"}
,{"CODGEO":"54218","TxChomage":"9.5"}
,{"CODGEO":"54219","TxChomage":"9.5"}
,{"CODGEO":"54220","TxChomage":"9.5"}
,{"CODGEO":"54221","TxChomage":"9.5"}
,{"CODGEO":"54222","TxChomage":"9.5"}
,{"CODGEO":"54223","TxChomage":"9.5"}
,{"CODGEO":"54224","TxChomage":"9.5"}
,{"CODGEO":"54225","TxChomage":"9.5"}
,{"CODGEO":"54226","TxChomage":"9.5"}
,{"CODGEO":"54227","TxChomage":"10.4"}
,{"CODGEO":"54228","TxChomage":"9.5"}
,{"CODGEO":"54229","TxChomage":"14.2"}
,{"CODGEO":"54230","TxChomage":"8.3"}
,{"CODGEO":"54231","TxChomage":"10.4"}
,{"CODGEO":"54232","TxChomage":"9.5"}
,{"CODGEO":"54233","TxChomage":"11.7"}
,{"CODGEO":"54234","TxChomage":"10.8"}
,{"CODGEO":"54235","TxChomage":"9.5"}
,{"CODGEO":"54236","TxChomage":"10.8"}
,{"CODGEO":"54237","TxChomage":"9.5"}
,{"CODGEO":"54238","TxChomage":"9.5"}
,{"CODGEO":"54239","TxChomage":"9.5"}
,{"CODGEO":"54240","TxChomage":"9.5"}
,{"CODGEO":"54241","TxChomage":"9.5"}
,{"CODGEO":"54242","TxChomage":"9.5"}
,{"CODGEO":"54243","TxChomage":"14.2"}
,{"CODGEO":"54244","TxChomage":"10.4"}
,{"CODGEO":"54245","TxChomage":"9.5"}
,{"CODGEO":"54246","TxChomage":"8.3"}
,{"CODGEO":"54247","TxChomage":"9.5"}
,{"CODGEO":"54248","TxChomage":"9.5"}
,{"CODGEO":"54249","TxChomage":"10.4"}
,{"CODGEO":"54250","TxChomage":"9.5"}
,{"CODGEO":"54251","TxChomage":"8.3"}
,{"CODGEO":"54252","TxChomage":"9.5"}
,{"CODGEO":"54253","TxChomage":"10.4"}
,{"CODGEO":"54254","TxChomage":"10.8"}
,{"CODGEO":"54255","TxChomage":"9.5"}
,{"CODGEO":"54256","TxChomage":"9.5"}
,{"CODGEO":"54257","TxChomage":"9.5"}
,{"CODGEO":"54258","TxChomage":"9.5"}
,{"CODGEO":"54259","TxChomage":"8.3"}
,{"CODGEO":"54260","TxChomage":"11.7"}
,{"CODGEO":"54261","TxChomage":"10.8"}
,{"CODGEO":"54262","TxChomage":"9.5"}
,{"CODGEO":"54263","TxChomage":"10.4"}
,{"CODGEO":"54264","TxChomage":"9.5"}
,{"CODGEO":"54265","TxChomage":"9.5"}
,{"CODGEO":"54266","TxChomage":"9.5"}
,{"CODGEO":"54268","TxChomage":"9.5"}
,{"CODGEO":"54269","TxChomage":"9.5"}
,{"CODGEO":"54270","TxChomage":"10.8"}
,{"CODGEO":"54271","TxChomage":"8.3"}
,{"CODGEO":"54272","TxChomage":"9.5"}
,{"CODGEO":"54273","TxChomage":"10.4"}
,{"CODGEO":"54274","TxChomage":"9.5"}
,{"CODGEO":"54275","TxChomage":"10.4"}
,{"CODGEO":"54276","TxChomage":"9.5"}
,{"CODGEO":"54277","TxChomage":"10.4"}
,{"CODGEO":"54278","TxChomage":"9.5"}
,{"CODGEO":"54279","TxChomage":"9.5"}
,{"CODGEO":"54280","TxChomage":"10.4"}
,{"CODGEO":"54281","TxChomage":"11.7"}
,{"CODGEO":"54282","TxChomage":"10.8"}
,{"CODGEO":"54283","TxChomage":"10.4"}
,{"CODGEO":"54284","TxChomage":"10.4"}
,{"CODGEO":"54285","TxChomage":"9.5"}
,{"CODGEO":"54286","TxChomage":"10.4"}
,{"CODGEO":"54287","TxChomage":"14.2"}
,{"CODGEO":"54288","TxChomage":"9.5"}
,{"CODGEO":"54289","TxChomage":"9.5"}
,{"CODGEO":"54290","TxChomage":"10.8"}
,{"CODGEO":"54291","TxChomage":"9.5"}
,{"CODGEO":"54292","TxChomage":"9.5"}
,{"CODGEO":"54293","TxChomage":"9.5"}
,{"CODGEO":"54294","TxChomage":"9.5"}
,{"CODGEO":"54295","TxChomage":"10.4"}
,{"CODGEO":"54296","TxChomage":"9.5"}
,{"CODGEO":"54297","TxChomage":"11.7"}
,{"CODGEO":"54298","TxChomage":"9.5"}
,{"CODGEO":"54299","TxChomage":"9.5"}
,{"CODGEO":"54300","TxChomage":"9.5"}
,{"CODGEO":"54301","TxChomage":"9.5"}
,{"CODGEO":"54302","TxChomage":"10.4"}
,{"CODGEO":"54303","TxChomage":"11.7"}
,{"CODGEO":"54304","TxChomage":"9.5"}
,{"CODGEO":"54305","TxChomage":"9.5"}
,{"CODGEO":"54306","TxChomage":"9.5"}
,{"CODGEO":"54307","TxChomage":"9.5"}
,{"CODGEO":"54308","TxChomage":"11.7"}
,{"CODGEO":"54309","TxChomage":"9.5"}
,{"CODGEO":"54310","TxChomage":"9.5"}
,{"CODGEO":"54311","TxChomage":"9.5"}
,{"CODGEO":"54312","TxChomage":"9.5"}
,{"CODGEO":"54313","TxChomage":"9.5"}
,{"CODGEO":"54314","TxChomage":"10.8"}
,{"CODGEO":"54315","TxChomage":"9.5"}
,{"CODGEO":"54316","TxChomage":"9.5"}
,{"CODGEO":"54317","TxChomage":"9.5"}
,{"CODGEO":"54318","TxChomage":"9.5"}
,{"CODGEO":"54320","TxChomage":"9.5"}
,{"CODGEO":"54321","TxChomage":"10.8"}
,{"CODGEO":"54322","TxChomage":"10.8"}
,{"CODGEO":"54323","TxChomage":"10.8"}
,{"CODGEO":"54324","TxChomage":"9.5"}
,{"CODGEO":"54325","TxChomage":"9.5"}
,{"CODGEO":"54326","TxChomage":"10.4"}
,{"CODGEO":"54327","TxChomage":"9.5"}
,{"CODGEO":"54328","TxChomage":"9.5"}
,{"CODGEO":"54329","TxChomage":"11.7"}
,{"CODGEO":"54330","TxChomage":"9.5"}
,{"CODGEO":"54331","TxChomage":"9.5"}
,{"CODGEO":"54332","TxChomage":"9.5"}
,{"CODGEO":"54333","TxChomage":"9.5"}
,{"CODGEO":"54334","TxChomage":"10.4"}
,{"CODGEO":"54335","TxChomage":"9.5"}
,{"CODGEO":"54336","TxChomage":"9.5"}
,{"CODGEO":"54337","TxChomage":"10.3"}
,{"CODGEO":"54338","TxChomage":"9.5"}
,{"CODGEO":"54339","TxChomage":"9.5"}
,{"CODGEO":"54340","TxChomage":"9.5"}
,{"CODGEO":"54341","TxChomage":"10.4"}
,{"CODGEO":"54342","TxChomage":"10.4"}
,{"CODGEO":"54343","TxChomage":"9.5"}
,{"CODGEO":"54344","TxChomage":"9.5"}
,{"CODGEO":"54345","TxChomage":"9.5"}
,{"CODGEO":"54346","TxChomage":"9.5"}
,{"CODGEO":"54348","TxChomage":"9.5"}
,{"CODGEO":"54349","TxChomage":"11.7"}
,{"CODGEO":"54350","TxChomage":"11.7"}
,{"CODGEO":"54351","TxChomage":"9.5"}
,{"CODGEO":"54352","TxChomage":"9.5"}
,{"CODGEO":"54353","TxChomage":"10.4"}
,{"CODGEO":"54354","TxChomage":"9.5"}
,{"CODGEO":"54355","TxChomage":"9.5"}
,{"CODGEO":"54356","TxChomage":"9.5"}
,{"CODGEO":"54357","TxChomage":"9.5"}
,{"CODGEO":"54358","TxChomage":"9.5"}
,{"CODGEO":"54359","TxChomage":"9.5"}
,{"CODGEO":"54360","TxChomage":"9.5"}
,{"CODGEO":"54362","TxChomage":"10.8"}
,{"CODGEO":"54363","TxChomage":"10.4"}
,{"CODGEO":"54364","TxChomage":"9.5"}
,{"CODGEO":"54365","TxChomage":"14.2"}
,{"CODGEO":"54366","TxChomage":"9.5"}
,{"CODGEO":"54367","TxChomage":"10.8"}
,{"CODGEO":"54368","TxChomage":"11.7"}
,{"CODGEO":"54369","TxChomage":"9.5"}
,{"CODGEO":"54370","TxChomage":"9.5"}
,{"CODGEO":"54371","TxChomage":"10.4"}
,{"CODGEO":"54372","TxChomage":"9.5"}
,{"CODGEO":"54373","TxChomage":"11.7"}
,{"CODGEO":"54374","TxChomage":"9.5"}
,{"CODGEO":"54375","TxChomage":"9.5"}
,{"CODGEO":"54376","TxChomage":"9.5"}
,{"CODGEO":"54377","TxChomage":"11.7"}
,{"CODGEO":"54378","TxChomage":"10.8"}
,{"CODGEO":"54379","TxChomage":"9.5"}
,{"CODGEO":"54380","TxChomage":"9.5"}
,{"CODGEO":"54381","TxChomage":"8.3"}
,{"CODGEO":"54382","TxChomage":"10.8"}
,{"CODGEO":"54383","TxChomage":"9.5"}
,{"CODGEO":"54385","TxChomage":"10.8"}
,{"CODGEO":"54386","TxChomage":"9.5"}
,{"CODGEO":"54387","TxChomage":"9.5"}
,{"CODGEO":"54388","TxChomage":"9.5"}
,{"CODGEO":"54389","TxChomage":"10.4"}
,{"CODGEO":"54390","TxChomage":"9.5"}
,{"CODGEO":"54391","TxChomage":"10.4"}
,{"CODGEO":"54392","TxChomage":"9.5"}
,{"CODGEO":"54393","TxChomage":"9.5"}
,{"CODGEO":"54394","TxChomage":"10.4"}
,{"CODGEO":"54395","TxChomage":"9.5"}
,{"CODGEO":"54396","TxChomage":"14.2"}
,{"CODGEO":"54397","TxChomage":"9.5"}
,{"CODGEO":"54398","TxChomage":"8.3"}
,{"CODGEO":"54399","TxChomage":"9.5"}
,{"CODGEO":"54400","TxChomage":"9.5"}
,{"CODGEO":"54401","TxChomage":"8.3"}
,{"CODGEO":"54402","TxChomage":"10.4"}
,{"CODGEO":"54403","TxChomage":"9.5"}
,{"CODGEO":"54404","TxChomage":"9.5"}
,{"CODGEO":"54405","TxChomage":"9.5"}
,{"CODGEO":"54406","TxChomage":"11.7"}
,{"CODGEO":"54407","TxChomage":"9.5"}
,{"CODGEO":"54408","TxChomage":"10.4"}
,{"CODGEO":"54409","TxChomage":"9.5"}
,{"CODGEO":"54410","TxChomage":"10.4"}
,{"CODGEO":"54411","TxChomage":"9.5"}
,{"CODGEO":"54412","TxChomage":"10.8"}
,{"CODGEO":"54413","TxChomage":"10.4"}
,{"CODGEO":"54414","TxChomage":"9.5"}
,{"CODGEO":"54415","TxChomage":"10.4"}
,{"CODGEO":"54416","TxChomage":"10.4"}
,{"CODGEO":"54417","TxChomage":"9.5"}
,{"CODGEO":"54418","TxChomage":"9.5"}
,{"CODGEO":"54419","TxChomage":"8.3"}
,{"CODGEO":"54420","TxChomage":"10.8"}
,{"CODGEO":"54421","TxChomage":"8.3"}
,{"CODGEO":"54422","TxChomage":"11.7"}
,{"CODGEO":"54423","TxChomage":"14.2"}
,{"CODGEO":"54424","TxChomage":"9.5"}
,{"CODGEO":"54425","TxChomage":"10.4"}
,{"CODGEO":"54426","TxChomage":"9.5"}
,{"CODGEO":"54427","TxChomage":"14.2"}
,{"CODGEO":"54428","TxChomage":"10.8"}
,{"CODGEO":"54429","TxChomage":"9.5"}
,{"CODGEO":"54430","TxChomage":"9.5"}
,{"CODGEO":"54431","TxChomage":"9.5"}
,{"CODGEO":"54432","TxChomage":"9.5"}
,{"CODGEO":"54433","TxChomage":"9.5"}
,{"CODGEO":"54434","TxChomage":"9.5"}
,{"CODGEO":"54435","TxChomage":"10.4"}
,{"CODGEO":"54436","TxChomage":"10.4"}
,{"CODGEO":"54437","TxChomage":"9.5"}
,{"CODGEO":"54438","TxChomage":"9.5"}
,{"CODGEO":"54439","TxChomage":"9.5"}
,{"CODGEO":"54440","TxChomage":"10.4"}
,{"CODGEO":"54441","TxChomage":"10.4"}
,{"CODGEO":"54442","TxChomage":"9.5"}
,{"CODGEO":"54443","TxChomage":"14.2"}
,{"CODGEO":"54444","TxChomage":"10.4"}
,{"CODGEO":"54445","TxChomage":"9.5"}
,{"CODGEO":"54446","TxChomage":"9.5"}
,{"CODGEO":"54447","TxChomage":"11.7"}
,{"CODGEO":"54449","TxChomage":"11.7"}
,{"CODGEO":"54450","TxChomage":"14.2"}
,{"CODGEO":"54451","TxChomage":"10.8"}
,{"CODGEO":"54452","TxChomage":"11.7"}
,{"CODGEO":"54453","TxChomage":"10.4"}
,{"CODGEO":"54455","TxChomage":"9.5"}
,{"CODGEO":"54456","TxChomage":"9.5"}
,{"CODGEO":"54457","TxChomage":"11.7"}
,{"CODGEO":"54458","TxChomage":"8.3"}
,{"CODGEO":"54459","TxChomage":"9.5"}
,{"CODGEO":"54460","TxChomage":"9.5"}
,{"CODGEO":"54461","TxChomage":"9.5"}
,{"CODGEO":"54462","TxChomage":"9.5"}
,{"CODGEO":"54463","TxChomage":"9.5"}
,{"CODGEO":"54464","TxChomage":"9.5"}
,{"CODGEO":"54465","TxChomage":"9.5"}
,{"CODGEO":"54466","TxChomage":"9.5"}
,{"CODGEO":"54467","TxChomage":"9.5"}
,{"CODGEO":"54468","TxChomage":"9.5"}
,{"CODGEO":"54469","TxChomage":"10.4"}
,{"CODGEO":"54470","TxChomage":"10.4"}
,{"CODGEO":"54471","TxChomage":"9.5"}
,{"CODGEO":"54472","TxChomage":"11.7"}
,{"CODGEO":"54473","TxChomage":"9.5"}
,{"CODGEO":"54474","TxChomage":"9.5"}
,{"CODGEO":"54475","TxChomage":"9.5"}
,{"CODGEO":"54476","TxChomage":"10.8"}
,{"CODGEO":"54477","TxChomage":"10.4"}
,{"CODGEO":"54478","TxChomage":"10.4"}
,{"CODGEO":"54479","TxChomage":"9.5"}
,{"CODGEO":"54480","TxChomage":"8.3"}
,{"CODGEO":"54481","TxChomage":"8.3"}
,{"CODGEO":"54482","TxChomage":"9.5"}
,{"CODGEO":"54483","TxChomage":"9.5"}
,{"CODGEO":"54484","TxChomage":"8.3"}
,{"CODGEO":"54485","TxChomage":"10.8"}
,{"CODGEO":"54486","TxChomage":"9.5"}
,{"CODGEO":"54487","TxChomage":"9.5"}
,{"CODGEO":"54488","TxChomage":"8.3"}
,{"CODGEO":"54489","TxChomage":"10.8"}
,{"CODGEO":"54490","TxChomage":"9.5"}
,{"CODGEO":"54491","TxChomage":"10.3"}
,{"CODGEO":"54492","TxChomage":"9.5"}
,{"CODGEO":"54493","TxChomage":"10.8"}
,{"CODGEO":"54494","TxChomage":"9.5"}
,{"CODGEO":"54495","TxChomage":"9.5"}
,{"CODGEO":"54496","TxChomage":"9.5"}
,{"CODGEO":"54497","TxChomage":"9.5"}
,{"CODGEO":"54498","TxChomage":"9.5"}
,{"CODGEO":"54499","TxChomage":"9.5"}
,{"CODGEO":"54500","TxChomage":"9.5"}
,{"CODGEO":"54501","TxChomage":"9.5"}
,{"CODGEO":"54502","TxChomage":"9.5"}
,{"CODGEO":"54504","TxChomage":"10.8"}
,{"CODGEO":"54505","TxChomage":"9.5"}
,{"CODGEO":"54506","TxChomage":"9.5"}
,{"CODGEO":"54507","TxChomage":"11.7"}
,{"CODGEO":"54508","TxChomage":"9.5"}
,{"CODGEO":"54509","TxChomage":"9.5"}
,{"CODGEO":"54510","TxChomage":"9.5"}
,{"CODGEO":"54511","TxChomage":"10.4"}
,{"CODGEO":"54512","TxChomage":"8.3"}
,{"CODGEO":"54513","TxChomage":"9.5"}
,{"CODGEO":"54514","TxChomage":"10.8"}
,{"CODGEO":"54515","TxChomage":"9.5"}
,{"CODGEO":"54516","TxChomage":"9.5"}
,{"CODGEO":"54517","TxChomage":"9.5"}
,{"CODGEO":"54518","TxChomage":"10.4"}
,{"CODGEO":"54519","TxChomage":"14.2"}
,{"CODGEO":"54520","TxChomage":"11.7"}
,{"CODGEO":"54521","TxChomage":"10.8"}
,{"CODGEO":"54522","TxChomage":"9.5"}
,{"CODGEO":"54523","TxChomage":"9.5"}
,{"CODGEO":"54524","TxChomage":"10.4"}
,{"CODGEO":"54525","TxChomage":"10.8"}
,{"CODGEO":"54526","TxChomage":"9.5"}
,{"CODGEO":"54527","TxChomage":"9.5"}
,{"CODGEO":"54528","TxChomage":"9.5"}
,{"CODGEO":"54529","TxChomage":"9.5"}
,{"CODGEO":"54530","TxChomage":"9.5"}
,{"CODGEO":"54531","TxChomage":"9.5"}
,{"CODGEO":"54532","TxChomage":"9.5"}
,{"CODGEO":"54533","TxChomage":"10.4"}
,{"CODGEO":"54534","TxChomage":"9.5"}
,{"CODGEO":"54535","TxChomage":"10.4"}
,{"CODGEO":"54536","TxChomage":"10.4"}
,{"CODGEO":"54537","TxChomage":"10.8"}
,{"CODGEO":"54538","TxChomage":"9.5"}
,{"CODGEO":"54539","TxChomage":"14.2"}
,{"CODGEO":"54540","TxChomage":"8.3"}
,{"CODGEO":"54541","TxChomage":"9.5"}
,{"CODGEO":"54542","TxChomage":"10.4"}
,{"CODGEO":"54543","TxChomage":"9.5"}
,{"CODGEO":"54544","TxChomage":"10.4"}
,{"CODGEO":"54545","TxChomage":"9.5"}
,{"CODGEO":"54546","TxChomage":"9.5"}
,{"CODGEO":"54547","TxChomage":"9.5"}
,{"CODGEO":"54548","TxChomage":"9.5"}
,{"CODGEO":"54549","TxChomage":"9.5"}
,{"CODGEO":"54550","TxChomage":"11.7"}
,{"CODGEO":"54551","TxChomage":"11.7"}
,{"CODGEO":"54552","TxChomage":"9.5"}
,{"CODGEO":"54553","TxChomage":"9.5"}
,{"CODGEO":"54554","TxChomage":"9.5"}
,{"CODGEO":"54555","TxChomage":"11.7"}
,{"CODGEO":"54556","TxChomage":"11.7"}
,{"CODGEO":"54557","TxChomage":"9.5"}
,{"CODGEO":"54558","TxChomage":"9.5"}
,{"CODGEO":"54559","TxChomage":"9.5"}
,{"CODGEO":"54560","TxChomage":"14.2"}
,{"CODGEO":"54561","TxChomage":"9.5"}
,{"CODGEO":"54562","TxChomage":"8.3"}
,{"CODGEO":"54563","TxChomage":"9.5"}
,{"CODGEO":"54564","TxChomage":"10.4"}
,{"CODGEO":"54565","TxChomage":"9.5"}
,{"CODGEO":"54566","TxChomage":"9.5"}
,{"CODGEO":"54567","TxChomage":"9.5"}
,{"CODGEO":"54568","TxChomage":"10.8"}
,{"CODGEO":"54569","TxChomage":"9.5"}
,{"CODGEO":"54570","TxChomage":"10.4"}
,{"CODGEO":"54571","TxChomage":"9.5"}
,{"CODGEO":"54572","TxChomage":"10.8"}
,{"CODGEO":"54573","TxChomage":"9.5"}
,{"CODGEO":"54574","TxChomage":"10.8"}
,{"CODGEO":"54575","TxChomage":"10.8"}
,{"CODGEO":"54576","TxChomage":"10.8"}
,{"CODGEO":"54577","TxChomage":"9.5"}
,{"CODGEO":"54578","TxChomage":"9.5"}
,{"CODGEO":"54579","TxChomage":"9.5"}
,{"CODGEO":"54580","TxChomage":"10.8"}
,{"CODGEO":"54581","TxChomage":"10.4"}
,{"CODGEO":"54582","TxChomage":"10.8"}
,{"CODGEO":"54583","TxChomage":"9.5"}
,{"CODGEO":"54584","TxChomage":"9.5"}
,{"CODGEO":"54585","TxChomage":"9.5"}
,{"CODGEO":"54586","TxChomage":"9.5"}
,{"CODGEO":"54587","TxChomage":"9.5"}
,{"CODGEO":"54588","TxChomage":"9.5"}
,{"CODGEO":"54589","TxChomage":"10.4"}
,{"CODGEO":"54590","TxChomage":"10.8"}
,{"CODGEO":"54591","TxChomage":"9.5"}
,{"CODGEO":"54592","TxChomage":"9.5"}
,{"CODGEO":"54593","TxChomage":"10.4"}
,{"CODGEO":"54594","TxChomage":"10.4"}
,{"CODGEO":"54595","TxChomage":"9.5"}
,{"CODGEO":"54596","TxChomage":"9.5"}
,{"CODGEO":"54597","TxChomage":"9.5"}
,{"CODGEO":"54598","TxChomage":"10.4"}
,{"CODGEO":"54599","TxChomage":"10.4"}
,{"CODGEO":"54600","TxChomage":"11.7"}
,{"CODGEO":"54601","TxChomage":"9.5"}
,{"CODGEO":"54602","TxChomage":"10.8"}
]}
