{"status":"success","data":[{"CODGEO":"58001","TxChomage":"8.4"}
,{"CODGEO":"58002","TxChomage":"9.4"}
,{"CODGEO":"58003","TxChomage":"8.4"}
,{"CODGEO":"58004","TxChomage":"8.4"}
,{"CODGEO":"58005","TxChomage":"9.4"}
,{"CODGEO":"58006","TxChomage":"9.4"}
,{"CODGEO":"58007","TxChomage":"9.4"}
,{"CODGEO":"58008","TxChomage":"8.4"}
,{"CODGEO":"58009","TxChomage":"9.4"}
,{"CODGEO":"58010","TxChomage":"8.4"}
,{"CODGEO":"58011","TxChomage":"9.4"}
,{"CODGEO":"58012","TxChomage":"9.4"}
,{"CODGEO":"58013","TxChomage":"9.4"}
,{"CODGEO":"58014","TxChomage":"9.4"}
,{"CODGEO":"58015","TxChomage":"8.4"}
,{"CODGEO":"58016","TxChomage":"9.4"}
,{"CODGEO":"58017","TxChomage":"8.4"}
,{"CODGEO":"58018","TxChomage":"8.4"}
,{"CODGEO":"58019","TxChomage":"8.4"}
,{"CODGEO":"58020","TxChomage":"9.4"}
,{"CODGEO":"58021","TxChomage":"9.4"}
,{"CODGEO":"58022","TxChomage":"9.4"}
,{"CODGEO":"58023","TxChomage":"8.4"}
,{"CODGEO":"58024","TxChomage":"8.4"}
,{"CODGEO":"58025","TxChomage":"9.4"}
,{"CODGEO":"58026","TxChomage":"8.4"}
,{"CODGEO":"58027","TxChomage":"9.4"}
,{"CODGEO":"58028","TxChomage":"9.4"}
,{"CODGEO":"58029","TxChomage":"8.4"}
,{"CODGEO":"58030","TxChomage":"8.4"}
,{"CODGEO":"58031","TxChomage":"9.4"}
,{"CODGEO":"58032","TxChomage":"9.4"}
,{"CODGEO":"58033","TxChomage":"9.4"}
,{"CODGEO":"58034","TxChomage":"8.4"}
,{"CODGEO":"58035","TxChomage":"8.4"}
,{"CODGEO":"58036","TxChomage":"9.4"}
,{"CODGEO":"58037","TxChomage":"8.4"}
,{"CODGEO":"58038","TxChomage":"9.4"}
,{"CODGEO":"58039","TxChomage":"9.4"}
,{"CODGEO":"58040","TxChomage":"8.4"}
,{"CODGEO":"58041","TxChomage":"8.4"}
,{"CODGEO":"58042","TxChomage":"9.4"}
,{"CODGEO":"58043","TxChomage":"8.4"}
,{"CODGEO":"58044","TxChomage":"9.4"}
,{"CODGEO":"58045","TxChomage":"9.4"}
,{"CODGEO":"58046","TxChomage":"9.4"}
,{"CODGEO":"58047","TxChomage":"8.4"}
,{"CODGEO":"58048","TxChomage":"9.4"}
,{"CODGEO":"58049","TxChomage":"8.4"}
,{"CODGEO":"58050","TxChomage":"8.4"}
,{"CODGEO":"58051","TxChomage":"9.4"}
,{"CODGEO":"58052","TxChomage":"8.4"}
,{"CODGEO":"58053","TxChomage":"9.4"}
,{"CODGEO":"58054","TxChomage":"8.4"}
,{"CODGEO":"58055","TxChomage":"9.4"}
,{"CODGEO":"58056","TxChomage":"9.4"}
,{"CODGEO":"58057","TxChomage":"9.4"}
,{"CODGEO":"58058","TxChomage":"9.4"}
,{"CODGEO":"58059","TxChomage":"9.4"}
,{"CODGEO":"58060","TxChomage":"9.4"}
,{"CODGEO":"58061","TxChomage":"9.4"}
,{"CODGEO":"58062","TxChomage":"8.4"}
,{"CODGEO":"58063","TxChomage":"8.4"}
,{"CODGEO":"58064","TxChomage":"9.4"}
,{"CODGEO":"58065","TxChomage":"8.4"}
,{"CODGEO":"58066","TxChomage":"8.4"}
,{"CODGEO":"58067","TxChomage":"9.4"}
,{"CODGEO":"58068","TxChomage":"8.4"}
,{"CODGEO":"58069","TxChomage":"8.4"}
,{"CODGEO":"58070","TxChomage":"8.4"}
,{"CODGEO":"58071","TxChomage":"8.4"}
,{"CODGEO":"58072","TxChomage":"9.4"}
,{"CODGEO":"58073","TxChomage":"9.4"}
,{"CODGEO":"58074","TxChomage":"8.4"}
,{"CODGEO":"58075","TxChomage":"8.4"}
,{"CODGEO":"58076","TxChomage":"8.4"}
,{"CODGEO":"58077","TxChomage":"9.4"}
,{"CODGEO":"58078","TxChomage":"9.4"}
,{"CODGEO":"58079","TxChomage":"9.4"}
,{"CODGEO":"58080","TxChomage":"8.4"}
,{"CODGEO":"58081","TxChomage":"9.4"}
,{"CODGEO":"58082","TxChomage":"8.4"}
,{"CODGEO":"58083","TxChomage":"8.4"}
,{"CODGEO":"58084","TxChomage":"8.4"}
,{"CODGEO":"58085","TxChomage":"9.4"}
,{"CODGEO":"58086","TxChomage":"9.4"}
,{"CODGEO":"58087","TxChomage":"9.4"}
,{"CODGEO":"58088","TxChomage":"9.4"}
,{"CODGEO":"58089","TxChomage":"9.4"}
,{"CODGEO":"58090","TxChomage":"9.4"}
,{"CODGEO":"58092","TxChomage":"8.4"}
,{"CODGEO":"58093","TxChomage":"9.4"}
,{"CODGEO":"58094","TxChomage":"9.4"}
,{"CODGEO":"58095","TxChomage":"9.4"}
,{"CODGEO":"58096","TxChomage":"9.4"}
,{"CODGEO":"58097","TxChomage":"9.4"}
,{"CODGEO":"58098","TxChomage":"9.4"}
,{"CODGEO":"58099","TxChomage":"8.4"}
,{"CODGEO":"58100","TxChomage":"8.4"}
,{"CODGEO":"58101","TxChomage":"9.4"}
,{"CODGEO":"58102","TxChomage":"9.4"}
,{"CODGEO":"58103","TxChomage":"9.4"}
,{"CODGEO":"58104","TxChomage":"9.4"}
,{"CODGEO":"58105","TxChomage":"9.4"}
,{"CODGEO":"58106","TxChomage":"8.4"}
,{"CODGEO":"58107","TxChomage":"8.4"}
,{"CODGEO":"58108","TxChomage":"8.4"}
,{"CODGEO":"58109","TxChomage":"9.4"}
,{"CODGEO":"58110","TxChomage":"8.4"}
,{"CODGEO":"58111","TxChomage":"8.4"}
,{"CODGEO":"58112","TxChomage":"9.4"}
,{"CODGEO":"58113","TxChomage":"9.4"}
,{"CODGEO":"58114","TxChomage":"8.4"}
,{"CODGEO":"58115","TxChomage":"9.4"}
,{"CODGEO":"58116","TxChomage":"9.4"}
,{"CODGEO":"58117","TxChomage":"9.4"}
,{"CODGEO":"58118","TxChomage":"9.4"}
,{"CODGEO":"58119","TxChomage":"9.4"}
,{"CODGEO":"58120","TxChomage":"8.4"}
,{"CODGEO":"58121","TxChomage":"9.4"}
,{"CODGEO":"58122","TxChomage":"9.4"}
,{"CODGEO":"58123","TxChomage":"8.4"}
,{"CODGEO":"58124","TxChomage":"9.4"}
,{"CODGEO":"58125","TxChomage":"8.4"}
,{"CODGEO":"58126","TxChomage":"9.4"}
,{"CODGEO":"58127","TxChomage":"9.4"}
,{"CODGEO":"58128","TxChomage":"8.4"}
,{"CODGEO":"58129","TxChomage":"8.4"}
,{"CODGEO":"58130","TxChomage":"8.4"}
,{"CODGEO":"58131","TxChomage":"9.4"}
,{"CODGEO":"58132","TxChomage":"8.4"}
,{"CODGEO":"58133","TxChomage":"8.4"}
,{"CODGEO":"58134","TxChomage":"9.4"}
,{"CODGEO":"58135","TxChomage":"8.4"}
,{"CODGEO":"58136","TxChomage":"8.4"}
,{"CODGEO":"58137","TxChomage":"9.4"}
,{"CODGEO":"58138","TxChomage":"9.4"}
,{"CODGEO":"58139","TxChomage":"8.4"}
,{"CODGEO":"58140","TxChomage":"8.4"}
,{"CODGEO":"58141","TxChomage":"8.4"}
,{"CODGEO":"58142","TxChomage":"8.4"}
,{"CODGEO":"58143","TxChomage":"9.4"}
,{"CODGEO":"58144","TxChomage":"9.4"}
,{"CODGEO":"58145","TxChomage":"8.4"}
,{"CODGEO":"58146","TxChomage":"9.4"}
,{"CODGEO":"58147","TxChomage":"9.4"}
,{"CODGEO":"58148","TxChomage":"9.4"}
,{"CODGEO":"58149","TxChomage":"8.4"}
,{"CODGEO":"58150","TxChomage":"9.4"}
,{"CODGEO":"58151","TxChomage":"9.4"}
,{"CODGEO":"58152","TxChomage":"9.4"}
,{"CODGEO":"58153","TxChomage":"8.4"}
,{"CODGEO":"58154","TxChomage":"9.4"}
,{"CODGEO":"58155","TxChomage":"9.4"}
,{"CODGEO":"58156","TxChomage":"9.4"}
,{"CODGEO":"58157","TxChomage":"8.4"}
,{"CODGEO":"58158","TxChomage":"9.4"}
,{"CODGEO":"58159","TxChomage":"8.4"}
,{"CODGEO":"58160","TxChomage":"9.4"}
,{"CODGEO":"58161","TxChomage":"8.4"}
,{"CODGEO":"58162","TxChomage":"9.4"}
,{"CODGEO":"58163","TxChomage":"9.4"}
,{"CODGEO":"58164","TxChomage":"9.4"}
,{"CODGEO":"58165","TxChomage":"9.4"}
,{"CODGEO":"58166","TxChomage":"8.4"}
,{"CODGEO":"58167","TxChomage":"8.4"}
,{"CODGEO":"58168","TxChomage":"8.4"}
,{"CODGEO":"58169","TxChomage":"9.4"}
,{"CODGEO":"58170","TxChomage":"9.4"}
,{"CODGEO":"58171","TxChomage":"8.4"}
,{"CODGEO":"58172","TxChomage":"9.4"}
,{"CODGEO":"58173","TxChomage":"8.4"}
,{"CODGEO":"58174","TxChomage":"9.4"}
,{"CODGEO":"58175","TxChomage":"8.4"}
,{"CODGEO":"58176","TxChomage":"9.4"}
,{"CODGEO":"58177","TxChomage":"8.4"}
,{"CODGEO":"58178","TxChomage":"8.4"}
,{"CODGEO":"58179","TxChomage":"8.4"}
,{"CODGEO":"58180","TxChomage":"8.4"}
,{"CODGEO":"58181","TxChomage":"8.4"}
,{"CODGEO":"58182","TxChomage":"8.4"}
,{"CODGEO":"58183","TxChomage":"8.4"}
,{"CODGEO":"58184","TxChomage":"9.4"}
,{"CODGEO":"58185","TxChomage":"8.4"}
,{"CODGEO":"58186","TxChomage":"9.4"}
,{"CODGEO":"58187","TxChomage":"9.4"}
,{"CODGEO":"58188","TxChomage":"9.4"}
,{"CODGEO":"58189","TxChomage":"9.4"}
,{"CODGEO":"58190","TxChomage":"9.4"}
,{"CODGEO":"58191","TxChomage":"8.4"}
,{"CODGEO":"58192","TxChomage":"9.4"}
,{"CODGEO":"58193","TxChomage":"9.4"}
,{"CODGEO":"58194","TxChomage":"9.4"}
,{"CODGEO":"58195","TxChomage":"9.4"}
,{"CODGEO":"58196","TxChomage":"9.4"}
,{"CODGEO":"58197","TxChomage":"9.4"}
,{"CODGEO":"58198","TxChomage":"9.4"}
,{"CODGEO":"58199","TxChomage":"8.4"}
,{"CODGEO":"58200","TxChomage":"9.4"}
,{"CODGEO":"58201","TxChomage":"9.4"}
,{"CODGEO":"58202","TxChomage":"8.4"}
,{"CODGEO":"58203","TxChomage":"9.4"}
,{"CODGEO":"58204","TxChomage":"9.4"}
,{"CODGEO":"58205","TxChomage":"8.4"}
,{"CODGEO":"58206","TxChomage":"9.4"}
,{"CODGEO":"58207","TxChomage":"9.4"}
,{"CODGEO":"58208","TxChomage":"8.4"}
,{"CODGEO":"58209","TxChomage":"9.4"}
,{"CODGEO":"58210","TxChomage":"8.4"}
,{"CODGEO":"58211","TxChomage":"8.4"}
,{"CODGEO":"58212","TxChomage":"9.4"}
,{"CODGEO":"58213","TxChomage":"9.4"}
,{"CODGEO":"58214","TxChomage":"9.4"}
,{"CODGEO":"58215","TxChomage":"9.4"}
,{"CODGEO":"58216","TxChomage":"8.4"}
,{"CODGEO":"58217","TxChomage":"9.4"}
,{"CODGEO":"58218","TxChomage":"9.4"}
,{"CODGEO":"58219","TxChomage":"8.4"}
,{"CODGEO":"58220","TxChomage":"9.4"}
,{"CODGEO":"58221","TxChomage":"8.4"}
,{"CODGEO":"58222","TxChomage":"9.4"}
,{"CODGEO":"58223","TxChomage":"8.4"}
,{"CODGEO":"58224","TxChomage":"9.4"}
,{"CODGEO":"58225","TxChomage":"9.4"}
,{"CODGEO":"58226","TxChomage":"8.4"}
,{"CODGEO":"58227","TxChomage":"9.4"}
,{"CODGEO":"58228","TxChomage":"9.4"}
,{"CODGEO":"58229","TxChomage":"8.4"}
,{"CODGEO":"58230","TxChomage":"9.4"}
,{"CODGEO":"58231","TxChomage":"9.4"}
,{"CODGEO":"58232","TxChomage":"9.4"}
,{"CODGEO":"58233","TxChomage":"8.4"}
,{"CODGEO":"58234","TxChomage":"9.4"}
,{"CODGEO":"58235","TxChomage":"8.4"}
,{"CODGEO":"58236","TxChomage":"9.4"}
,{"CODGEO":"58237","TxChomage":"9.4"}
,{"CODGEO":"58238","TxChomage":"9.4"}
,{"CODGEO":"58239","TxChomage":"9.4"}
,{"CODGEO":"58240","TxChomage":"8.4"}
,{"CODGEO":"58241","TxChomage":"9.4"}
,{"CODGEO":"58242","TxChomage":"9.4"}
,{"CODGEO":"58243","TxChomage":"9.4"}
,{"CODGEO":"58244","TxChomage":"8.4"}
,{"CODGEO":"58245","TxChomage":"9.4"}
,{"CODGEO":"58246","TxChomage":"8.4"}
,{"CODGEO":"58247","TxChomage":"9.4"}
,{"CODGEO":"58248","TxChomage":"9.4"}
,{"CODGEO":"58249","TxChomage":"8.4"}
,{"CODGEO":"58250","TxChomage":"9.4"}
,{"CODGEO":"58251","TxChomage":"9.4"}
,{"CODGEO":"58252","TxChomage":"9.4"}
,{"CODGEO":"58253","TxChomage":"8.4"}
,{"CODGEO":"58254","TxChomage":"9.4"}
,{"CODGEO":"58255","TxChomage":"8.4"}
,{"CODGEO":"58256","TxChomage":"9.4"}
,{"CODGEO":"58257","TxChomage":"8.4"}
,{"CODGEO":"58258","TxChomage":"9.4"}
,{"CODGEO":"58259","TxChomage":"9.4"}
,{"CODGEO":"58260","TxChomage":"9.4"}
,{"CODGEO":"58261","TxChomage":"9.4"}
,{"CODGEO":"58262","TxChomage":"8.4"}
,{"CODGEO":"58263","TxChomage":"9.4"}
,{"CODGEO":"58264","TxChomage":"9.4"}
,{"CODGEO":"58265","TxChomage":"9.4"}
,{"CODGEO":"58266","TxChomage":"8.4"}
,{"CODGEO":"58267","TxChomage":"8.4"}
,{"CODGEO":"58268","TxChomage":"9.4"}
,{"CODGEO":"58269","TxChomage":"9.4"}
,{"CODGEO":"58270","TxChomage":"9.4"}
,{"CODGEO":"58271","TxChomage":"9.4"}
,{"CODGEO":"58272","TxChomage":"8.4"}
,{"CODGEO":"58273","TxChomage":"9.4"}
,{"CODGEO":"58274","TxChomage":"8.4"}
,{"CODGEO":"58275","TxChomage":"8.4"}
,{"CODGEO":"58276","TxChomage":"8.4"}
,{"CODGEO":"58277","TxChomage":"8.4"}
,{"CODGEO":"58278","TxChomage":"9.4"}
,{"CODGEO":"58279","TxChomage":"9.4"}
,{"CODGEO":"58280","TxChomage":"9.4"}
,{"CODGEO":"58281","TxChomage":"9.4"}
,{"CODGEO":"58282","TxChomage":"9.4"}
,{"CODGEO":"58283","TxChomage":"8.4"}
,{"CODGEO":"58284","TxChomage":"9.4"}
,{"CODGEO":"58285","TxChomage":"8.4"}
,{"CODGEO":"58286","TxChomage":"9.4"}
,{"CODGEO":"58287","TxChomage":"8.4"}
,{"CODGEO":"58288","TxChomage":"9.4"}
,{"CODGEO":"58289","TxChomage":"9.4"}
,{"CODGEO":"58290","TxChomage":"9.4"}
,{"CODGEO":"58291","TxChomage":"9.4"}
,{"CODGEO":"58292","TxChomage":"8.4"}
,{"CODGEO":"58293","TxChomage":"9.4"}
,{"CODGEO":"58294","TxChomage":"9.4"}
,{"CODGEO":"58295","TxChomage":"9.4"}
,{"CODGEO":"58296","TxChomage":"9.4"}
,{"CODGEO":"58297","TxChomage":"9.4"}
,{"CODGEO":"58298","TxChomage":"9.4"}
,{"CODGEO":"58299","TxChomage":"9.4"}
,{"CODGEO":"58300","TxChomage":"9.4"}
,{"CODGEO":"58301","TxChomage":"8.4"}
,{"CODGEO":"58302","TxChomage":"9.4"}
,{"CODGEO":"58303","TxChomage":"9.4"}
,{"CODGEO":"58304","TxChomage":"9.4"}
,{"CODGEO":"58305","TxChomage":"8.4"}
,{"CODGEO":"58306","TxChomage":"9.4"}
,{"CODGEO":"58307","TxChomage":"9.4"}
,{"CODGEO":"58308","TxChomage":"9.4"}
,{"CODGEO":"58309","TxChomage":"8.4"}
,{"CODGEO":"58310","TxChomage":"9.4"}
,{"CODGEO":"58311","TxChomage":"9.4"}
,{"CODGEO":"58312","TxChomage":"9.4"}
,{"CODGEO":"58313","TxChomage":"8.4"}
]}
