{"status":"success","data":[{"CODGEO":"60001","TxChomage":"10.4"}
,{"CODGEO":"60002","TxChomage":"10.4"}
,{"CODGEO":"60003","TxChomage":"10.4"}
,{"CODGEO":"60004","TxChomage":"10.4"}
,{"CODGEO":"60005","TxChomage":"11.1"}
,{"CODGEO":"60006","TxChomage":"11.1"}
,{"CODGEO":"60007","TxChomage":"11.1"}
,{"CODGEO":"60008","TxChomage":"11.1"}
,{"CODGEO":"60009","TxChomage":"10.4"}
,{"CODGEO":"60010","TxChomage":"10.4"}
,{"CODGEO":"60011","TxChomage":"10.1"}
,{"CODGEO":"60012","TxChomage":"10.4"}
,{"CODGEO":"60013","TxChomage":"11.1"}
,{"CODGEO":"60014","TxChomage":"11.1"}
,{"CODGEO":"60015","TxChomage":"11.1"}
,{"CODGEO":"60016","TxChomage":"11.1"}
,{"CODGEO":"60017","TxChomage":"11.1"}
,{"CODGEO":"60018","TxChomage":"10.4"}
,{"CODGEO":"60019","TxChomage":"10.1"}
,{"CODGEO":"60020","TxChomage":"11.1"}
,{"CODGEO":"60021","TxChomage":"10.1"}
,{"CODGEO":"60022","TxChomage":"11.1"}
,{"CODGEO":"60023","TxChomage":"10.1"}
,{"CODGEO":"60024","TxChomage":"10.1"}
,{"CODGEO":"60025","TxChomage":"10.1"}
,{"CODGEO":"60026","TxChomage":"10.4"}
,{"CODGEO":"60027","TxChomage":"11.1"}
,{"CODGEO":"60028","TxChomage":"11.1"}
,{"CODGEO":"60029","TxChomage":"10.4"}
,{"CODGEO":"60030","TxChomage":"10.4"}
,{"CODGEO":"60031","TxChomage":"11.1"}
,{"CODGEO":"60032","TxChomage":"10.1"}
,{"CODGEO":"60033","TxChomage":"11.1"}
,{"CODGEO":"60034","TxChomage":"11.1"}
,{"CODGEO":"60035","TxChomage":"10.1"}
,{"CODGEO":"60036","TxChomage":"11.1"}
,{"CODGEO":"60037","TxChomage":"10.1"}
,{"CODGEO":"60038","TxChomage":"10.4"}
,{"CODGEO":"60039","TxChomage":"10.4"}
,{"CODGEO":"60040","TxChomage":"10.1"}
,{"CODGEO":"60041","TxChomage":"10.4"}
,{"CODGEO":"60042","TxChomage":"11.1"}
,{"CODGEO":"60043","TxChomage":"10.1"}
,{"CODGEO":"60044","TxChomage":"11.1"}
,{"CODGEO":"60045","TxChomage":"11.1"}
,{"CODGEO":"60046","TxChomage":"11.1"}
,{"CODGEO":"60047","TxChomage":"11.1"}
,{"CODGEO":"60048","TxChomage":"10.1"}
,{"CODGEO":"60049","TxChomage":"10.4"}
,{"CODGEO":"60050","TxChomage":"10.1"}
,{"CODGEO":"60051","TxChomage":"10.4"}
,{"CODGEO":"60052","TxChomage":"10.1"}
,{"CODGEO":"60053","TxChomage":"10.1"}
,{"CODGEO":"60054","TxChomage":"10.4"}
,{"CODGEO":"60055","TxChomage":"10.1"}
,{"CODGEO":"60056","TxChomage":"11.1"}
,{"CODGEO":"60057","TxChomage":"10.4"}
,{"CODGEO":"60058","TxChomage":"10.4"}
,{"CODGEO":"60059","TxChomage":"10.1"}
,{"CODGEO":"60060","TxChomage":"11.1"}
,{"CODGEO":"60061","TxChomage":"10.1"}
,{"CODGEO":"60062","TxChomage":"10.1"}
,{"CODGEO":"60063","TxChomage":"10.4"}
,{"CODGEO":"60064","TxChomage":"10.1"}
,{"CODGEO":"60065","TxChomage":"10.4"}
,{"CODGEO":"60066","TxChomage":"11.1"}
,{"CODGEO":"60067","TxChomage":"10.1"}
,{"CODGEO":"60068","TxChomage":"10.1"}
,{"CODGEO":"60069","TxChomage":"11.1"}
,{"CODGEO":"60070","TxChomage":"10.1"}
,{"CODGEO":"60071","TxChomage":"10.1"}
,{"CODGEO":"60072","TxChomage":"10.1"}
,{"CODGEO":"60073","TxChomage":"10.4"}
,{"CODGEO":"60074","TxChomage":"11.1"}
,{"CODGEO":"60075","TxChomage":"10.4"}
,{"CODGEO":"60076","TxChomage":"10.4"}
,{"CODGEO":"60077","TxChomage":"10.4"}
,{"CODGEO":"60078","TxChomage":"10.1"}
,{"CODGEO":"60079","TxChomage":"11.1"}
,{"CODGEO":"60080","TxChomage":"10.4"}
,{"CODGEO":"60081","TxChomage":"10.4"}
,{"CODGEO":"60082","TxChomage":"10.4"}
,{"CODGEO":"60083","TxChomage":"11.1"}
,{"CODGEO":"60084","TxChomage":"10.4"}
,{"CODGEO":"60085","TxChomage":"10.4"}
,{"CODGEO":"60086","TxChomage":"11.1"}
,{"CODGEO":"60087","TxChomage":"11.1"}
,{"CODGEO":"60088","TxChomage":"10.4"}
,{"CODGEO":"60089","TxChomage":"10.4"}
,{"CODGEO":"60090","TxChomage":"10.4"}
,{"CODGEO":"60091","TxChomage":"11.1"}
,{"CODGEO":"60092","TxChomage":"11.1"}
,{"CODGEO":"60093","TxChomage":"10.1"}
,{"CODGEO":"60094","TxChomage":"11.1"}
,{"CODGEO":"60095","TxChomage":"10.4"}
,{"CODGEO":"60096","TxChomage":"10.4"}
,{"CODGEO":"60097","TxChomage":"10.4"}
,{"CODGEO":"60098","TxChomage":"10.4"}
,{"CODGEO":"60099","TxChomage":"10.1"}
,{"CODGEO":"60100","TxChomage":"11.1"}
,{"CODGEO":"60101","TxChomage":"11.1"}
,{"CODGEO":"60102","TxChomage":"11.1"}
,{"CODGEO":"60103","TxChomage":"10.4"}
,{"CODGEO":"60104","TxChomage":"10.4"}
,{"CODGEO":"60105","TxChomage":"10.1"}
,{"CODGEO":"60106","TxChomage":"11.1"}
,{"CODGEO":"60107","TxChomage":"11.1"}
,{"CODGEO":"60108","TxChomage":"10.4"}
,{"CODGEO":"60109","TxChomage":"10.4"}
,{"CODGEO":"60110","TxChomage":"10.4"}
,{"CODGEO":"60111","TxChomage":"10.4"}
,{"CODGEO":"60112","TxChomage":"11.1"}
,{"CODGEO":"60113","TxChomage":"10.4"}
,{"CODGEO":"60114","TxChomage":"10.4"}
,{"CODGEO":"60115","TxChomage":"10.4"}
,{"CODGEO":"60116","TxChomage":"11.1"}
,{"CODGEO":"60117","TxChomage":"10.1"}
,{"CODGEO":"60118","TxChomage":"10.1"}
,{"CODGEO":"60119","TxChomage":"10.1"}
,{"CODGEO":"60120","TxChomage":"11.1"}
,{"CODGEO":"60121","TxChomage":"10.1"}
,{"CODGEO":"60122","TxChomage":"10.4"}
,{"CODGEO":"60123","TxChomage":"10.4"}
,{"CODGEO":"60124","TxChomage":"10.1"}
,{"CODGEO":"60125","TxChomage":"10.1"}
,{"CODGEO":"60126","TxChomage":"10.1"}
,{"CODGEO":"60127","TxChomage":"10.1"}
,{"CODGEO":"60128","TxChomage":"10.4"}
,{"CODGEO":"60129","TxChomage":"10.1"}
,{"CODGEO":"60130","TxChomage":"11.1"}
,{"CODGEO":"60131","TxChomage":"10.4"}
,{"CODGEO":"60132","TxChomage":"10.1"}
,{"CODGEO":"60133","TxChomage":"10.4"}
,{"CODGEO":"60134","TxChomage":"11.1"}
,{"CODGEO":"60135","TxChomage":"10.4"}
,{"CODGEO":"60136","TxChomage":"10.4"}
,{"CODGEO":"60137","TxChomage":"11.1"}
,{"CODGEO":"60138","TxChomage":"11.1"}
,{"CODGEO":"60139","TxChomage":"11.1"}
,{"CODGEO":"60140","TxChomage":"10.4"}
,{"CODGEO":"60141","TxChomage":"11.1"}
,{"CODGEO":"60142","TxChomage":"11.1"}
,{"CODGEO":"60143","TxChomage":"10.4"}
,{"CODGEO":"60144","TxChomage":"10.4"}
,{"CODGEO":"60145","TxChomage":"10.1"}
,{"CODGEO":"60146","TxChomage":"10.4"}
,{"CODGEO":"60147","TxChomage":"10.1"}
,{"CODGEO":"60148","TxChomage":"11.1"}
,{"CODGEO":"60149","TxChomage":"10.1"}
,{"CODGEO":"60150","TxChomage":"10.1"}
,{"CODGEO":"60151","TxChomage":"10.1"}
,{"CODGEO":"60152","TxChomage":"10.1"}
,{"CODGEO":"60153","TxChomage":"10.4"}
,{"CODGEO":"60154","TxChomage":"11.1"}
,{"CODGEO":"60155","TxChomage":"11.1"}
,{"CODGEO":"60156","TxChomage":"10.1"}
,{"CODGEO":"60157","TxChomage":"11.1"}
,{"CODGEO":"60158","TxChomage":"10.1"}
,{"CODGEO":"60159","TxChomage":"10.1"}
,{"CODGEO":"60160","TxChomage":"10.1"}
,{"CODGEO":"60161","TxChomage":"10.4"}
,{"CODGEO":"60162","TxChomage":"10.4"}
,{"CODGEO":"60163","TxChomage":"10.4"}
,{"CODGEO":"60164","TxChomage":"10.4"}
,{"CODGEO":"60165","TxChomage":"10.4"}
,{"CODGEO":"60166","TxChomage":"10.1"}
,{"CODGEO":"60167","TxChomage":"10.1"}
,{"CODGEO":"60168","TxChomage":"10.1"}
,{"CODGEO":"60169","TxChomage":"10.4"}
,{"CODGEO":"60170","TxChomage":"11.1"}
,{"CODGEO":"60171","TxChomage":"10.1"}
,{"CODGEO":"60172","TxChomage":"11.1"}
,{"CODGEO":"60173","TxChomage":"11.1"}
,{"CODGEO":"60174","TxChomage":"10.1"}
,{"CODGEO":"60175","TxChomage":"11.1"}
,{"CODGEO":"60176","TxChomage":"11.1"}
,{"CODGEO":"60177","TxChomage":"10.1"}
,{"CODGEO":"60178","TxChomage":"10.4"}
,{"CODGEO":"60179","TxChomage":"11.1"}
,{"CODGEO":"60180","TxChomage":"10.4"}
,{"CODGEO":"60181","TxChomage":"10.1"}
,{"CODGEO":"60182","TxChomage":"10.4"}
,{"CODGEO":"60183","TxChomage":"10.4"}
,{"CODGEO":"60184","TxChomage":"10.1"}
,{"CODGEO":"60185","TxChomage":"11.1"}
,{"CODGEO":"60186","TxChomage":"11.1"}
,{"CODGEO":"60187","TxChomage":"10.4"}
,{"CODGEO":"60188","TxChomage":"10.1"}
,{"CODGEO":"60189","TxChomage":"10.1"}
,{"CODGEO":"60190","TxChomage":"11.1"}
,{"CODGEO":"60191","TxChomage":"10.1"}
,{"CODGEO":"60192","TxChomage":"10.1"}
,{"CODGEO":"60193","TxChomage":"10.4"}
,{"CODGEO":"60194","TxChomage":"10.4"}
,{"CODGEO":"60195","TxChomage":"10.4"}
,{"CODGEO":"60196","TxChomage":"10.4"}
,{"CODGEO":"60197","TxChomage":"11.1"}
,{"CODGEO":"60198","TxChomage":"10.1"}
,{"CODGEO":"60199","TxChomage":"10.4"}
,{"CODGEO":"60200","TxChomage":"10.1"}
,{"CODGEO":"60201","TxChomage":"11.1"}
,{"CODGEO":"60203","TxChomage":"11.1"}
,{"CODGEO":"60204","TxChomage":"10.1"}
,{"CODGEO":"60205","TxChomage":"10.4"}
,{"CODGEO":"60206","TxChomage":"10.1"}
,{"CODGEO":"60207","TxChomage":"11.1"}
,{"CODGEO":"60208","TxChomage":"10.4"}
,{"CODGEO":"60209","TxChomage":"10.4"}
,{"CODGEO":"60210","TxChomage":"11.1"}
,{"CODGEO":"60211","TxChomage":"10.4"}
,{"CODGEO":"60212","TxChomage":"11.1"}
,{"CODGEO":"60213","TxChomage":"11.1"}
,{"CODGEO":"60214","TxChomage":"10.4"}
,{"CODGEO":"60215","TxChomage":"11.1"}
,{"CODGEO":"60216","TxChomage":"11.1"}
,{"CODGEO":"60217","TxChomage":"10.4"}
,{"CODGEO":"60218","TxChomage":"10.4"}
,{"CODGEO":"60219","TxChomage":"10.4"}
,{"CODGEO":"60220","TxChomage":"10.4"}
,{"CODGEO":"60221","TxChomage":"10.4"}
,{"CODGEO":"60222","TxChomage":"10.4"}
,{"CODGEO":"60223","TxChomage":"10.1"}
,{"CODGEO":"60224","TxChomage":"11.1"}
,{"CODGEO":"60225","TxChomage":"11.1"}
,{"CODGEO":"60226","TxChomage":"11.1"}
,{"CODGEO":"60227","TxChomage":"10.1"}
,{"CODGEO":"60228","TxChomage":"10.4"}
,{"CODGEO":"60229","TxChomage":"10.1"}
,{"CODGEO":"60230","TxChomage":"10.4"}
,{"CODGEO":"60231","TxChomage":"11.1"}
,{"CODGEO":"60232","TxChomage":"11.1"}
,{"CODGEO":"60233","TxChomage":"10.4"}
,{"CODGEO":"60234","TxChomage":"11.1"}
,{"CODGEO":"60235","TxChomage":"10.4"}
,{"CODGEO":"60236","TxChomage":"10.1"}
,{"CODGEO":"60237","TxChomage":"10.4"}
,{"CODGEO":"60238","TxChomage":"11.1"}
,{"CODGEO":"60239","TxChomage":"10.4"}
,{"CODGEO":"60240","TxChomage":"10.4"}
,{"CODGEO":"60241","TxChomage":"11.1"}
,{"CODGEO":"60242","TxChomage":"10.4"}
,{"CODGEO":"60243","TxChomage":"10.4"}
,{"CODGEO":"60244","TxChomage":"10.4"}
,{"CODGEO":"60245","TxChomage":"10.4"}
,{"CODGEO":"60246","TxChomage":"10.4"}
,{"CODGEO":"60247","TxChomage":"11.1"}
,{"CODGEO":"60248","TxChomage":"10.4"}
,{"CODGEO":"60249","TxChomage":"11.1"}
,{"CODGEO":"60250","TxChomage":"10.4"}
,{"CODGEO":"60251","TxChomage":"10.4"}
,{"CODGEO":"60252","TxChomage":"11.1"}
,{"CODGEO":"60253","TxChomage":"10.4"}
,{"CODGEO":"60254","TxChomage":"10.1"}
,{"CODGEO":"60255","TxChomage":"10.1"}
,{"CODGEO":"60256","TxChomage":"10.4"}
,{"CODGEO":"60257","TxChomage":"10.4"}
,{"CODGEO":"60258","TxChomage":"10.1"}
,{"CODGEO":"60259","TxChomage":"11.1"}
,{"CODGEO":"60260","TxChomage":"11.1"}
,{"CODGEO":"60261","TxChomage":"11.1"}
,{"CODGEO":"60262","TxChomage":"10.1"}
,{"CODGEO":"60263","TxChomage":"10.1"}
,{"CODGEO":"60264","TxChomage":"10.4"}
,{"CODGEO":"60265","TxChomage":"10.4"}
,{"CODGEO":"60267","TxChomage":"10.4"}
,{"CODGEO":"60268","TxChomage":"11.1"}
,{"CODGEO":"60269","TxChomage":"10.4"}
,{"CODGEO":"60270","TxChomage":"10.1"}
,{"CODGEO":"60271","TxChomage":"10.4"}
,{"CODGEO":"60272","TxChomage":"11.1"}
,{"CODGEO":"60273","TxChomage":"10.1"}
,{"CODGEO":"60274","TxChomage":"10.1"}
,{"CODGEO":"60275","TxChomage":"10.4"}
,{"CODGEO":"60276","TxChomage":"11.1"}
,{"CODGEO":"60277","TxChomage":"10.4"}
,{"CODGEO":"60278","TxChomage":"10.1"}
,{"CODGEO":"60279","TxChomage":"11.1"}
,{"CODGEO":"60280","TxChomage":"10.4"}
,{"CODGEO":"60281","TxChomage":"10.1"}
,{"CODGEO":"60282","TxChomage":"11.1"}
,{"CODGEO":"60283","TxChomage":"10.4"}
,{"CODGEO":"60284","TxChomage":"10.1"}
,{"CODGEO":"60285","TxChomage":"10.1"}
,{"CODGEO":"60286","TxChomage":"10.4"}
,{"CODGEO":"60287","TxChomage":"10.1"}
,{"CODGEO":"60288","TxChomage":"10.4"}
,{"CODGEO":"60289","TxChomage":"10.4"}
,{"CODGEO":"60290","TxChomage":"10.4"}
,{"CODGEO":"60291","TxChomage":"10.1"}
,{"CODGEO":"60292","TxChomage":"10.1"}
,{"CODGEO":"60293","TxChomage":"10.4"}
,{"CODGEO":"60294","TxChomage":"10.1"}
,{"CODGEO":"60295","TxChomage":"10.4"}
,{"CODGEO":"60296","TxChomage":"10.4"}
,{"CODGEO":"60297","TxChomage":"10.4"}
,{"CODGEO":"60298","TxChomage":"10.4"}
,{"CODGEO":"60299","TxChomage":"10.4"}
,{"CODGEO":"60300","TxChomage":"10.4"}
,{"CODGEO":"60301","TxChomage":"10.4"}
,{"CODGEO":"60302","TxChomage":"10.4"}
,{"CODGEO":"60303","TxChomage":"10.4"}
,{"CODGEO":"60304","TxChomage":"10.4"}
,{"CODGEO":"60305","TxChomage":"10.1"}
,{"CODGEO":"60306","TxChomage":"10.4"}
,{"CODGEO":"60307","TxChomage":"10.4"}
,{"CODGEO":"60308","TxChomage":"10.1"}
,{"CODGEO":"60309","TxChomage":"10.4"}
,{"CODGEO":"60310","TxChomage":"10.4"}
,{"CODGEO":"60311","TxChomage":"10.4"}
,{"CODGEO":"60312","TxChomage":"10.4"}
,{"CODGEO":"60313","TxChomage":"10.4"}
,{"CODGEO":"60314","TxChomage":"10.4"}
,{"CODGEO":"60315","TxChomage":"10.4"}
,{"CODGEO":"60316","TxChomage":"10.4"}
,{"CODGEO":"60317","TxChomage":"11.1"}
,{"CODGEO":"60318","TxChomage":"10.1"}
,{"CODGEO":"60319","TxChomage":"10.4"}
,{"CODGEO":"60320","TxChomage":"11.1"}
,{"CODGEO":"60321","TxChomage":"10.4"}
,{"CODGEO":"60322","TxChomage":"10.4"}
,{"CODGEO":"60323","TxChomage":"10.1"}
,{"CODGEO":"60324","TxChomage":"10.1"}
,{"CODGEO":"60325","TxChomage":"10.1"}
,{"CODGEO":"60326","TxChomage":"10.1"}
,{"CODGEO":"60327","TxChomage":"10.4"}
,{"CODGEO":"60328","TxChomage":"10.4"}
,{"CODGEO":"60329","TxChomage":"10.1"}
,{"CODGEO":"60330","TxChomage":"10.4"}
,{"CODGEO":"60331","TxChomage":"10.4"}
,{"CODGEO":"60332","TxChomage":"11.1"}
,{"CODGEO":"60333","TxChomage":"10.4"}
,{"CODGEO":"60334","TxChomage":"10.4"}
,{"CODGEO":"60335","TxChomage":"10.4"}
,{"CODGEO":"60336","TxChomage":"10.4"}
,{"CODGEO":"60337","TxChomage":"10.1"}
,{"CODGEO":"60338","TxChomage":"10.1"}
,{"CODGEO":"60339","TxChomage":"10.4"}
,{"CODGEO":"60340","TxChomage":"10.1"}
,{"CODGEO":"60341","TxChomage":"11.1"}
,{"CODGEO":"60342","TxChomage":"11.1"}
,{"CODGEO":"60343","TxChomage":"10.4"}
,{"CODGEO":"60344","TxChomage":"10.4"}
,{"CODGEO":"60345","TxChomage":"11.1"}
,{"CODGEO":"60346","TxChomage":"11.1"}
,{"CODGEO":"60347","TxChomage":"10.4"}
,{"CODGEO":"60348","TxChomage":"10.1"}
,{"CODGEO":"60350","TxChomage":"10.1"}
,{"CODGEO":"60351","TxChomage":"10.1"}
,{"CODGEO":"60352","TxChomage":"10.4"}
,{"CODGEO":"60353","TxChomage":"10.4"}
,{"CODGEO":"60354","TxChomage":"10.4"}
,{"CODGEO":"60355","TxChomage":"10.4"}
,{"CODGEO":"60356","TxChomage":"10.4"}
,{"CODGEO":"60357","TxChomage":"10.1"}
,{"CODGEO":"60358","TxChomage":"11.1"}
,{"CODGEO":"60359","TxChomage":"10.4"}
,{"CODGEO":"60360","TxChomage":"11.1"}
,{"CODGEO":"60361","TxChomage":"10.4"}
,{"CODGEO":"60362","TxChomage":"10.1"}
,{"CODGEO":"60363","TxChomage":"10.4"}
,{"CODGEO":"60364","TxChomage":"11.1"}
,{"CODGEO":"60365","TxChomage":"10.4"}
,{"CODGEO":"60366","TxChomage":"11.1"}
,{"CODGEO":"60367","TxChomage":"10.4"}
,{"CODGEO":"60368","TxChomage":"10.1"}
,{"CODGEO":"60369","TxChomage":"10.1"}
,{"CODGEO":"60370","TxChomage":"10.4"}
,{"CODGEO":"60371","TxChomage":"10.4"}
,{"CODGEO":"60372","TxChomage":"10.4"}
,{"CODGEO":"60373","TxChomage":"10.1"}
,{"CODGEO":"60374","TxChomage":"11.1"}
,{"CODGEO":"60375","TxChomage":"11.1"}
,{"CODGEO":"60376","TxChomage":"10.4"}
,{"CODGEO":"60377","TxChomage":"10.4"}
,{"CODGEO":"60378","TxChomage":"10.1"}
,{"CODGEO":"60379","TxChomage":"10.1"}
,{"CODGEO":"60380","TxChomage":"11.1"}
,{"CODGEO":"60381","TxChomage":"10.1"}
,{"CODGEO":"60382","TxChomage":"10.1"}
,{"CODGEO":"60383","TxChomage":"10.1"}
,{"CODGEO":"60385","TxChomage":"11.1"}
,{"CODGEO":"60386","TxChomage":"10.1"}
,{"CODGEO":"60387","TxChomage":"10.4"}
,{"CODGEO":"60388","TxChomage":"10.4"}
,{"CODGEO":"60389","TxChomage":"10.1"}
,{"CODGEO":"60390","TxChomage":"10.4"}
,{"CODGEO":"60391","TxChomage":"11.1"}
,{"CODGEO":"60392","TxChomage":"10.1"}
,{"CODGEO":"60393","TxChomage":"11.1"}
,{"CODGEO":"60394","TxChomage":"10.1"}
,{"CODGEO":"60395","TxChomage":"10.4"}
,{"CODGEO":"60396","TxChomage":"10.1"}
,{"CODGEO":"60397","TxChomage":"10.4"}
,{"CODGEO":"60398","TxChomage":"11.1"}
,{"CODGEO":"60399","TxChomage":"10.4"}
,{"CODGEO":"60400","TxChomage":"10.4"}
,{"CODGEO":"60401","TxChomage":"10.4"}
,{"CODGEO":"60402","TxChomage":"10.1"}
,{"CODGEO":"60403","TxChomage":"10.4"}
,{"CODGEO":"60404","TxChomage":"11.1"}
,{"CODGEO":"60405","TxChomage":"10.4"}
,{"CODGEO":"60406","TxChomage":"11.1"}
,{"CODGEO":"60407","TxChomage":"10.4"}
,{"CODGEO":"60408","TxChomage":"10.1"}
,{"CODGEO":"60409","TxChomage":"11.1"}
,{"CODGEO":"60410","TxChomage":"10.1"}
,{"CODGEO":"60411","TxChomage":"10.4"}
,{"CODGEO":"60412","TxChomage":"10.4"}
,{"CODGEO":"60413","TxChomage":"11.1"}
,{"CODGEO":"60414","TxChomage":"11.1"}
,{"CODGEO":"60415","TxChomage":"11.1"}
,{"CODGEO":"60416","TxChomage":"10.1"}
,{"CODGEO":"60417","TxChomage":"10.4"}
,{"CODGEO":"60418","TxChomage":"10.1"}
,{"CODGEO":"60420","TxChomage":"10.4"}
,{"CODGEO":"60421","TxChomage":"11.1"}
,{"CODGEO":"60422","TxChomage":"11.1"}
,{"CODGEO":"60423","TxChomage":"10.1"}
,{"CODGEO":"60424","TxChomage":"10.1"}
,{"CODGEO":"60425","TxChomage":"10.4"}
,{"CODGEO":"60426","TxChomage":"10.4"}
,{"CODGEO":"60427","TxChomage":"10.4"}
,{"CODGEO":"60428","TxChomage":"10.4"}
,{"CODGEO":"60429","TxChomage":"11.1"}
,{"CODGEO":"60430","TxChomage":"10.1"}
,{"CODGEO":"60431","TxChomage":"10.1"}
,{"CODGEO":"60432","TxChomage":"11.1"}
,{"CODGEO":"60433","TxChomage":"10.4"}
,{"CODGEO":"60434","TxChomage":"10.1"}
,{"CODGEO":"60435","TxChomage":"10.4"}
,{"CODGEO":"60436","TxChomage":"10.4"}
,{"CODGEO":"60437","TxChomage":"10.4"}
,{"CODGEO":"60438","TxChomage":"10.1"}
,{"CODGEO":"60439","TxChomage":"11.1"}
,{"CODGEO":"60440","TxChomage":"10.1"}
,{"CODGEO":"60441","TxChomage":"10.1"}
,{"CODGEO":"60442","TxChomage":"10.4"}
,{"CODGEO":"60443","TxChomage":"10.1"}
,{"CODGEO":"60444","TxChomage":"10.4"}
,{"CODGEO":"60445","TxChomage":"10.1"}
,{"CODGEO":"60446","TxChomage":"11.1"}
,{"CODGEO":"60447","TxChomage":"10.1"}
,{"CODGEO":"60448","TxChomage":"11.1"}
,{"CODGEO":"60449","TxChomage":"10.1"}
,{"CODGEO":"60450","TxChomage":"11.1"}
,{"CODGEO":"60451","TxChomage":"11.1"}
,{"CODGEO":"60452","TxChomage":"10.4"}
,{"CODGEO":"60453","TxChomage":"10.4"}
,{"CODGEO":"60454","TxChomage":"10.4"}
,{"CODGEO":"60455","TxChomage":"10.4"}
,{"CODGEO":"60456","TxChomage":"10.1"}
,{"CODGEO":"60457","TxChomage":"10.4"}
,{"CODGEO":"60458","TxChomage":"10.4"}
,{"CODGEO":"60459","TxChomage":"10.1"}
,{"CODGEO":"60460","TxChomage":"10.4"}
,{"CODGEO":"60461","TxChomage":"10.4"}
,{"CODGEO":"60462","TxChomage":"10.4"}
,{"CODGEO":"60463","TxChomage":"11.1"}
,{"CODGEO":"60464","TxChomage":"11.1"}
,{"CODGEO":"60465","TxChomage":"10.4"}
,{"CODGEO":"60466","TxChomage":"11.1"}
,{"CODGEO":"60468","TxChomage":"11.1"}
,{"CODGEO":"60469","TxChomage":"10.4"}
,{"CODGEO":"60470","TxChomage":"10.4"}
,{"CODGEO":"60471","TxChomage":"10.1"}
,{"CODGEO":"60472","TxChomage":"10.4"}
,{"CODGEO":"60473","TxChomage":"11.1"}
,{"CODGEO":"60474","TxChomage":"10.1"}
,{"CODGEO":"60475","TxChomage":"11.1"}
,{"CODGEO":"60476","TxChomage":"10.4"}
,{"CODGEO":"60477","TxChomage":"10.4"}
,{"CODGEO":"60478","TxChomage":"11.1"}
,{"CODGEO":"60479","TxChomage":"11.1"}
,{"CODGEO":"60480","TxChomage":"10.4"}
,{"CODGEO":"60481","TxChomage":"10.1"}
,{"CODGEO":"60482","TxChomage":"11.1"}
,{"CODGEO":"60483","TxChomage":"10.1"}
,{"CODGEO":"60484","TxChomage":"10.4"}
,{"CODGEO":"60485","TxChomage":"10.4"}
,{"CODGEO":"60486","TxChomage":"10.4"}
,{"CODGEO":"60487","TxChomage":"10.4"}
,{"CODGEO":"60488","TxChomage":"10.1"}
,{"CODGEO":"60489","TxChomage":"11.1"}
,{"CODGEO":"60490","TxChomage":"10.4"}
,{"CODGEO":"60491","TxChomage":"10.1"}
,{"CODGEO":"60492","TxChomage":"10.1"}
,{"CODGEO":"60493","TxChomage":"10.4"}
,{"CODGEO":"60494","TxChomage":"11.1"}
,{"CODGEO":"60495","TxChomage":"11.1"}
,{"CODGEO":"60496","TxChomage":"10.4"}
,{"CODGEO":"60497","TxChomage":"10.4"}
,{"CODGEO":"60498","TxChomage":"11.1"}
,{"CODGEO":"60499","TxChomage":"10.1"}
,{"CODGEO":"60500","TxChomage":"11.1"}
,{"CODGEO":"60501","TxChomage":"10.1"}
,{"CODGEO":"60502","TxChomage":"10.1"}
,{"CODGEO":"60503","TxChomage":"10.1"}
,{"CODGEO":"60504","TxChomage":"10.4"}
,{"CODGEO":"60505","TxChomage":"11.1"}
,{"CODGEO":"60506","TxChomage":"10.1"}
,{"CODGEO":"60507","TxChomage":"10.1"}
,{"CODGEO":"60508","TxChomage":"11.1"}
,{"CODGEO":"60509","TxChomage":"11.1"}
,{"CODGEO":"60510","TxChomage":"10.4"}
,{"CODGEO":"60511","TxChomage":"10.1"}
,{"CODGEO":"60512","TxChomage":"10.4"}
,{"CODGEO":"60513","TxChomage":"11.1"}
,{"CODGEO":"60514","TxChomage":"10.4"}
,{"CODGEO":"60515","TxChomage":"10.1"}
,{"CODGEO":"60516","TxChomage":"10.4"}
,{"CODGEO":"60517","TxChomage":"11.1"}
,{"CODGEO":"60518","TxChomage":"10.4"}
,{"CODGEO":"60519","TxChomage":"10.1"}
,{"CODGEO":"60520","TxChomage":"10.4"}
,{"CODGEO":"60521","TxChomage":"10.4"}
,{"CODGEO":"60522","TxChomage":"11.1"}
,{"CODGEO":"60523","TxChomage":"10.4"}
,{"CODGEO":"60524","TxChomage":"11.1"}
,{"CODGEO":"60525","TxChomage":"11.1"}
,{"CODGEO":"60526","TxChomage":"11.1"}
,{"CODGEO":"60527","TxChomage":"11.1"}
,{"CODGEO":"60528","TxChomage":"10.4"}
,{"CODGEO":"60529","TxChomage":"11.1"}
,{"CODGEO":"60530","TxChomage":"10.4"}
,{"CODGEO":"60531","TxChomage":"10.1"}
,{"CODGEO":"60532","TxChomage":"10.4"}
,{"CODGEO":"60533","TxChomage":"10.1"}
,{"CODGEO":"60534","TxChomage":"10.1"}
,{"CODGEO":"60535","TxChomage":"10.4"}
,{"CODGEO":"60536","TxChomage":"11.1"}
,{"CODGEO":"60537","TxChomage":"10.1"}
,{"CODGEO":"60538","TxChomage":"10.1"}
,{"CODGEO":"60539","TxChomage":"11.1"}
,{"CODGEO":"60540","TxChomage":"10.1"}
,{"CODGEO":"60541","TxChomage":"11.1"}
,{"CODGEO":"60542","TxChomage":"10.4"}
,{"CODGEO":"60543","TxChomage":"11.1"}
,{"CODGEO":"60544","TxChomage":"10.4"}
,{"CODGEO":"60545","TxChomage":"10.4"}
,{"CODGEO":"60546","TxChomage":"11.1"}
,{"CODGEO":"60547","TxChomage":"11.1"}
,{"CODGEO":"60548","TxChomage":"11.1"}
,{"CODGEO":"60549","TxChomage":"10.4"}
,{"CODGEO":"60550","TxChomage":"10.4"}
,{"CODGEO":"60551","TxChomage":"11.1"}
,{"CODGEO":"60552","TxChomage":"11.1"}
,{"CODGEO":"60553","TxChomage":"10.1"}
,{"CODGEO":"60554","TxChomage":"11.1"}
,{"CODGEO":"60555","TxChomage":"10.4"}
,{"CODGEO":"60556","TxChomage":"11.1"}
,{"CODGEO":"60557","TxChomage":"10.4"}
,{"CODGEO":"60558","TxChomage":"10.1"}
,{"CODGEO":"60559","TxChomage":"10.4"}
,{"CODGEO":"60560","TxChomage":"11.1"}
,{"CODGEO":"60561","TxChomage":"11.1"}
,{"CODGEO":"60562","TxChomage":"11.1"}
,{"CODGEO":"60563","TxChomage":"10.1"}
,{"CODGEO":"60564","TxChomage":"11.1"}
,{"CODGEO":"60565","TxChomage":"10.4"}
,{"CODGEO":"60566","TxChomage":"10.4"}
,{"CODGEO":"60567","TxChomage":"10.4"}
,{"CODGEO":"60568","TxChomage":"11.1"}
,{"CODGEO":"60569","TxChomage":"10.1"}
,{"CODGEO":"60570","TxChomage":"10.4"}
,{"CODGEO":"60571","TxChomage":"10.4"}
,{"CODGEO":"60572","TxChomage":"10.1"}
,{"CODGEO":"60573","TxChomage":"10.4"}
,{"CODGEO":"60574","TxChomage":"10.4"}
,{"CODGEO":"60575","TxChomage":"10.4"}
,{"CODGEO":"60576","TxChomage":"10.4"}
,{"CODGEO":"60577","TxChomage":"10.4"}
,{"CODGEO":"60578","TxChomage":"10.1"}
,{"CODGEO":"60579","TxChomage":"10.1"}
,{"CODGEO":"60581","TxChomage":"11.1"}
,{"CODGEO":"60582","TxChomage":"10.1"}
,{"CODGEO":"60583","TxChomage":"10.4"}
,{"CODGEO":"60584","TxChomage":"11.1"}
,{"CODGEO":"60585","TxChomage":"10.1"}
,{"CODGEO":"60586","TxChomage":"10.4"}
,{"CODGEO":"60587","TxChomage":"11.1"}
,{"CODGEO":"60588","TxChomage":"10.4"}
,{"CODGEO":"60589","TxChomage":"11.1"}
,{"CODGEO":"60590","TxChomage":"10.4"}
,{"CODGEO":"60591","TxChomage":"10.4"}
,{"CODGEO":"60592","TxChomage":"10.4"}
,{"CODGEO":"60593","TxChomage":"10.1"}
,{"CODGEO":"60594","TxChomage":"10.4"}
,{"CODGEO":"60595","TxChomage":"11.1"}
,{"CODGEO":"60596","TxChomage":"10.4"}
,{"CODGEO":"60597","TxChomage":"10.1"}
,{"CODGEO":"60598","TxChomage":"10.4"}
,{"CODGEO":"60599","TxChomage":"10.4"}
,{"CODGEO":"60600","TxChomage":"10.1"}
,{"CODGEO":"60601","TxChomage":"11.1"}
,{"CODGEO":"60602","TxChomage":"10.4"}
,{"CODGEO":"60603","TxChomage":"10.1"}
,{"CODGEO":"60604","TxChomage":"10.4"}
,{"CODGEO":"60605","TxChomage":"10.4"}
,{"CODGEO":"60608","TxChomage":"10.4"}
,{"CODGEO":"60609","TxChomage":"10.4"}
,{"CODGEO":"60610","TxChomage":"10.1"}
,{"CODGEO":"60611","TxChomage":"10.4"}
,{"CODGEO":"60612","TxChomage":"11.1"}
,{"CODGEO":"60613","TxChomage":"10.4"}
,{"CODGEO":"60614","TxChomage":"10.4"}
,{"CODGEO":"60615","TxChomage":"10.4"}
,{"CODGEO":"60616","TxChomage":"10.4"}
,{"CODGEO":"60617","TxChomage":"10.1"}
,{"CODGEO":"60618","TxChomage":"11.1"}
,{"CODGEO":"60619","TxChomage":"11.1"}
,{"CODGEO":"60620","TxChomage":"10.4"}
,{"CODGEO":"60621","TxChomage":"10.1"}
,{"CODGEO":"60622","TxChomage":"10.4"}
,{"CODGEO":"60623","TxChomage":"10.4"}
,{"CODGEO":"60624","TxChomage":"10.4"}
,{"CODGEO":"60625","TxChomage":"10.1"}
,{"CODGEO":"60626","TxChomage":"10.4"}
,{"CODGEO":"60627","TxChomage":"10.4"}
,{"CODGEO":"60628","TxChomage":"10.4"}
,{"CODGEO":"60629","TxChomage":"10.4"}
,{"CODGEO":"60630","TxChomage":"10.4"}
,{"CODGEO":"60631","TxChomage":"11.1"}
,{"CODGEO":"60632","TxChomage":"10.1"}
,{"CODGEO":"60633","TxChomage":"10.4"}
,{"CODGEO":"60634","TxChomage":"10.4"}
,{"CODGEO":"60635","TxChomage":"11.1"}
,{"CODGEO":"60636","TxChomage":"10.1"}
,{"CODGEO":"60637","TxChomage":"11.1"}
,{"CODGEO":"60638","TxChomage":"11.1"}
,{"CODGEO":"60639","TxChomage":"10.4"}
,{"CODGEO":"60640","TxChomage":"10.4"}
,{"CODGEO":"60641","TxChomage":"10.1"}
,{"CODGEO":"60642","TxChomage":"10.1"}
,{"CODGEO":"60643","TxChomage":"10.1"}
,{"CODGEO":"60644","TxChomage":"10.4"}
,{"CODGEO":"60645","TxChomage":"10.4"}
,{"CODGEO":"60646","TxChomage":"10.4"}
,{"CODGEO":"60647","TxChomage":"10.1"}
,{"CODGEO":"60648","TxChomage":"10.4"}
,{"CODGEO":"60649","TxChomage":"10.4"}
,{"CODGEO":"60650","TxChomage":"11.1"}
,{"CODGEO":"60651","TxChomage":"11.1"}
,{"CODGEO":"60652","TxChomage":"10.4"}
,{"CODGEO":"60653","TxChomage":"11.1"}
,{"CODGEO":"60654","TxChomage":"10.1"}
,{"CODGEO":"60655","TxChomage":"10.1"}
,{"CODGEO":"60656","TxChomage":"11.1"}
,{"CODGEO":"60657","TxChomage":"10.1"}
,{"CODGEO":"60658","TxChomage":"11.1"}
,{"CODGEO":"60659","TxChomage":"10.4"}
,{"CODGEO":"60660","TxChomage":"10.4"}
,{"CODGEO":"60661","TxChomage":"11.1"}
,{"CODGEO":"60662","TxChomage":"10.4"}
,{"CODGEO":"60663","TxChomage":"10.4"}
,{"CODGEO":"60664","TxChomage":"10.4"}
,{"CODGEO":"60665","TxChomage":"10.1"}
,{"CODGEO":"60666","TxChomage":"11.1"}
,{"CODGEO":"60667","TxChomage":"10.1"}
,{"CODGEO":"60668","TxChomage":"10.4"}
,{"CODGEO":"60669","TxChomage":"11.1"}
,{"CODGEO":"60670","TxChomage":"11.1"}
,{"CODGEO":"60671","TxChomage":"11.1"}
,{"CODGEO":"60672","TxChomage":"11.1"}
,{"CODGEO":"60673","TxChomage":"10.4"}
,{"CODGEO":"60674","TxChomage":"10.1"}
,{"CODGEO":"60675","TxChomage":"10.1"}
,{"CODGEO":"60676","TxChomage":"10.1"}
,{"CODGEO":"60677","TxChomage":"10.4"}
,{"CODGEO":"60678","TxChomage":"10.4"}
,{"CODGEO":"60679","TxChomage":"11.1"}
,{"CODGEO":"60680","TxChomage":"11.1"}
,{"CODGEO":"60681","TxChomage":"10.4"}
,{"CODGEO":"60682","TxChomage":"11.1"}
,{"CODGEO":"60683","TxChomage":"11.1"}
,{"CODGEO":"60684","TxChomage":"11.1"}
,{"CODGEO":"60685","TxChomage":"10.4"}
,{"CODGEO":"60686","TxChomage":"11.1"}
,{"CODGEO":"60687","TxChomage":"10.4"}
,{"CODGEO":"60688","TxChomage":"10.4"}
,{"CODGEO":"60689","TxChomage":"10.1"}
,{"CODGEO":"60690","TxChomage":"10.4"}
,{"CODGEO":"60691","TxChomage":"10.4"}
,{"CODGEO":"60692","TxChomage":"10.4"}
,{"CODGEO":"60693","TxChomage":"10.1"}
,{"CODGEO":"60694","TxChomage":"10.4"}
,{"CODGEO":"60695","TxChomage":"11.1"}
,{"CODGEO":"60697","TxChomage":"10.4"}
,{"CODGEO":"60698","TxChomage":"10.1"}
,{"CODGEO":"60699","TxChomage":"10.4"}
,{"CODGEO":"60700","TxChomage":"10.4"}
,{"CODGEO":"60701","TxChomage":"10.4"}
,{"CODGEO":"60702","TxChomage":"11.1"}
,{"CODGEO":"60703","TxChomage":"10.4"}
]}
