{"status":"success","data":[{"CODGEO":"65001","TxChomage":"11.5"}
,{"CODGEO":"65002","TxChomage":"11.5"}
,{"CODGEO":"65003","TxChomage":"11.5"}
,{"CODGEO":"65004","TxChomage":"11.5"}
,{"CODGEO":"65005","TxChomage":"11.5"}
,{"CODGEO":"65006","TxChomage":"11.5"}
,{"CODGEO":"65007","TxChomage":"11.5"}
,{"CODGEO":"65009","TxChomage":"11.5"}
,{"CODGEO":"65010","TxChomage":"11.5"}
,{"CODGEO":"65011","TxChomage":"11.5"}
,{"CODGEO":"65012","TxChomage":"10.8"}
,{"CODGEO":"65013","TxChomage":"11.5"}
,{"CODGEO":"65014","TxChomage":"10.8"}
,{"CODGEO":"65015","TxChomage":"11.5"}
,{"CODGEO":"65016","TxChomage":"11.5"}
,{"CODGEO":"65017","TxChomage":"11.5"}
,{"CODGEO":"65018","TxChomage":"11.5"}
,{"CODGEO":"65019","TxChomage":"11.5"}
,{"CODGEO":"65020","TxChomage":"11.5"}
,{"CODGEO":"65021","TxChomage":"11.5"}
,{"CODGEO":"65022","TxChomage":"11.5"}
,{"CODGEO":"65023","TxChomage":"11.5"}
,{"CODGEO":"65024","TxChomage":"11.5"}
,{"CODGEO":"65025","TxChomage":"11.5"}
,{"CODGEO":"65026","TxChomage":"11.5"}
,{"CODGEO":"65027","TxChomage":"11.5"}
,{"CODGEO":"65028","TxChomage":"11.5"}
,{"CODGEO":"65029","TxChomage":"11.5"}
,{"CODGEO":"65031","TxChomage":"11.5"}
,{"CODGEO":"65032","TxChomage":"11.5"}
,{"CODGEO":"65033","TxChomage":"11.5"}
,{"CODGEO":"65034","TxChomage":"11.5"}
,{"CODGEO":"65035","TxChomage":"11.5"}
,{"CODGEO":"65036","TxChomage":"11.5"}
,{"CODGEO":"65037","TxChomage":"11.5"}
,{"CODGEO":"65038","TxChomage":"11.5"}
,{"CODGEO":"65039","TxChomage":"11.5"}
,{"CODGEO":"65040","TxChomage":"11.5"}
,{"CODGEO":"65041","TxChomage":"11.5"}
,{"CODGEO":"65042","TxChomage":"11.5"}
,{"CODGEO":"65043","TxChomage":"11.5"}
,{"CODGEO":"65044","TxChomage":"11.5"}
,{"CODGEO":"65045","TxChomage":"11.5"}
,{"CODGEO":"65046","TxChomage":"11.5"}
,{"CODGEO":"65047","TxChomage":"11.5"}
,{"CODGEO":"65048","TxChomage":"11.5"}
,{"CODGEO":"65049","TxChomage":"11.5"}
,{"CODGEO":"65050","TxChomage":"11.5"}
,{"CODGEO":"65051","TxChomage":"10.8"}
,{"CODGEO":"65052","TxChomage":"11.5"}
,{"CODGEO":"65053","TxChomage":"10.8"}
,{"CODGEO":"65054","TxChomage":"11.5"}
,{"CODGEO":"65055","TxChomage":"11.5"}
,{"CODGEO":"65056","TxChomage":"11.5"}
,{"CODGEO":"65057","TxChomage":"11.5"}
,{"CODGEO":"65058","TxChomage":"11.5"}
,{"CODGEO":"65059","TxChomage":"11.5"}
,{"CODGEO":"65060","TxChomage":"11.5"}
,{"CODGEO":"65061","TxChomage":"11.5"}
,{"CODGEO":"65062","TxChomage":"11.5"}
,{"CODGEO":"65063","TxChomage":"11.5"}
,{"CODGEO":"65064","TxChomage":"11.5"}
,{"CODGEO":"65065","TxChomage":"11.5"}
,{"CODGEO":"65066","TxChomage":"11.5"}
,{"CODGEO":"65067","TxChomage":"11.5"}
,{"CODGEO":"65068","TxChomage":"11.5"}
,{"CODGEO":"65069","TxChomage":"11.5"}
,{"CODGEO":"65070","TxChomage":"11.5"}
,{"CODGEO":"65071","TxChomage":"11.5"}
,{"CODGEO":"65072","TxChomage":"11.5"}
,{"CODGEO":"65073","TxChomage":"11.5"}
,{"CODGEO":"65074","TxChomage":"11.5"}
,{"CODGEO":"65075","TxChomage":"11.5"}
,{"CODGEO":"65076","TxChomage":"11.5"}
,{"CODGEO":"65077","TxChomage":"11.5"}
,{"CODGEO":"65078","TxChomage":"11.5"}
,{"CODGEO":"65079","TxChomage":"11.5"}
,{"CODGEO":"65080","TxChomage":"11.5"}
,{"CODGEO":"65081","TxChomage":"11.5"}
,{"CODGEO":"65082","TxChomage":"11.5"}
,{"CODGEO":"65083","TxChomage":"11.5"}
,{"CODGEO":"65084","TxChomage":"11.5"}
,{"CODGEO":"65085","TxChomage":"11.5"}
,{"CODGEO":"65086","TxChomage":"11.5"}
,{"CODGEO":"65087","TxChomage":"10.8"}
,{"CODGEO":"65088","TxChomage":"11.5"}
,{"CODGEO":"65089","TxChomage":"11.5"}
,{"CODGEO":"65090","TxChomage":"11.5"}
,{"CODGEO":"65091","TxChomage":"11.5"}
,{"CODGEO":"65092","TxChomage":"11.5"}
,{"CODGEO":"65093","TxChomage":"11.5"}
,{"CODGEO":"65094","TxChomage":"11.5"}
,{"CODGEO":"65095","TxChomage":"11.5"}
,{"CODGEO":"65096","TxChomage":"11.5"}
,{"CODGEO":"65097","TxChomage":"11.5"}
,{"CODGEO":"65098","TxChomage":"11.5"}
,{"CODGEO":"65099","TxChomage":"11.5"}
,{"CODGEO":"65100","TxChomage":"11.5"}
,{"CODGEO":"65101","TxChomage":"11.5"}
,{"CODGEO":"65102","TxChomage":"11.5"}
,{"CODGEO":"65103","TxChomage":"11.5"}
,{"CODGEO":"65104","TxChomage":"11.5"}
,{"CODGEO":"65105","TxChomage":"11.5"}
,{"CODGEO":"65106","TxChomage":"11.5"}
,{"CODGEO":"65107","TxChomage":"11.5"}
,{"CODGEO":"65108","TxChomage":"11.5"}
,{"CODGEO":"65109","TxChomage":"10.8"}
,{"CODGEO":"65110","TxChomage":"11.5"}
,{"CODGEO":"65111","TxChomage":"11.5"}
,{"CODGEO":"65112","TxChomage":"11.5"}
,{"CODGEO":"65113","TxChomage":"11.5"}
,{"CODGEO":"65114","TxChomage":"11.5"}
,{"CODGEO":"65115","TxChomage":"11.5"}
,{"CODGEO":"65116","TxChomage":"11.5"}
,{"CODGEO":"65117","TxChomage":"11.5"}
,{"CODGEO":"65118","TxChomage":"11.5"}
,{"CODGEO":"65119","TxChomage":"11.5"}
,{"CODGEO":"65120","TxChomage":"11.5"}
,{"CODGEO":"65121","TxChomage":"11.5"}
,{"CODGEO":"65122","TxChomage":"11.5"}
,{"CODGEO":"65123","TxChomage":"11.5"}
,{"CODGEO":"65124","TxChomage":"11.5"}
,{"CODGEO":"65125","TxChomage":"11.5"}
,{"CODGEO":"65126","TxChomage":"11.5"}
,{"CODGEO":"65127","TxChomage":"11.5"}
,{"CODGEO":"65128","TxChomage":"11.5"}
,{"CODGEO":"65129","TxChomage":"11.5"}
,{"CODGEO":"65130","TxChomage":"11.5"}
,{"CODGEO":"65131","TxChomage":"11.5"}
,{"CODGEO":"65132","TxChomage":"11.5"}
,{"CODGEO":"65133","TxChomage":"11.5"}
,{"CODGEO":"65134","TxChomage":"8.7"}
,{"CODGEO":"65135","TxChomage":"11.5"}
,{"CODGEO":"65136","TxChomage":"11.5"}
,{"CODGEO":"65137","TxChomage":"11.5"}
,{"CODGEO":"65138","TxChomage":"11.5"}
,{"CODGEO":"65139","TxChomage":"10.8"}
,{"CODGEO":"65140","TxChomage":"11.5"}
,{"CODGEO":"65141","TxChomage":"11.5"}
,{"CODGEO":"65142","TxChomage":"11.5"}
,{"CODGEO":"65143","TxChomage":"11.5"}
,{"CODGEO":"65144","TxChomage":"11.5"}
,{"CODGEO":"65145","TxChomage":"11.5"}
,{"CODGEO":"65146","TxChomage":"11.5"}
,{"CODGEO":"65147","TxChomage":"11.5"}
,{"CODGEO":"65148","TxChomage":"11.5"}
,{"CODGEO":"65149","TxChomage":"11.5"}
,{"CODGEO":"65150","TxChomage":"11.5"}
,{"CODGEO":"65151","TxChomage":"11.5"}
,{"CODGEO":"65153","TxChomage":"11.5"}
,{"CODGEO":"65154","TxChomage":"10.8"}
,{"CODGEO":"65155","TxChomage":"11.5"}
,{"CODGEO":"65156","TxChomage":"11.5"}
,{"CODGEO":"65157","TxChomage":"11.5"}
,{"CODGEO":"65158","TxChomage":"10.8"}
,{"CODGEO":"65159","TxChomage":"11.5"}
,{"CODGEO":"65160","TxChomage":"11.5"}
,{"CODGEO":"65161","TxChomage":"11.5"}
,{"CODGEO":"65162","TxChomage":"11.5"}
,{"CODGEO":"65163","TxChomage":"11.5"}
,{"CODGEO":"65164","TxChomage":"11.5"}
,{"CODGEO":"65165","TxChomage":"11.5"}
,{"CODGEO":"65166","TxChomage":"11.5"}
,{"CODGEO":"65167","TxChomage":"11.5"}
,{"CODGEO":"65168","TxChomage":"11.5"}
,{"CODGEO":"65169","TxChomage":"11.5"}
,{"CODGEO":"65170","TxChomage":"11.5"}
,{"CODGEO":"65171","TxChomage":"11.5"}
,{"CODGEO":"65172","TxChomage":"11.5"}
,{"CODGEO":"65173","TxChomage":"11.5"}
,{"CODGEO":"65174","TxChomage":"11.5"}
,{"CODGEO":"65175","TxChomage":"10.8"}
,{"CODGEO":"65176","TxChomage":"11.5"}
,{"CODGEO":"65177","TxChomage":"11.5"}
,{"CODGEO":"65178","TxChomage":"11.5"}
,{"CODGEO":"65179","TxChomage":"11.5"}
,{"CODGEO":"65180","TxChomage":"11.5"}
,{"CODGEO":"65181","TxChomage":"11.5"}
,{"CODGEO":"65182","TxChomage":"11.5"}
,{"CODGEO":"65183","TxChomage":"11.5"}
,{"CODGEO":"65184","TxChomage":"11.5"}
,{"CODGEO":"65185","TxChomage":"11.5"}
,{"CODGEO":"65186","TxChomage":"10.8"}
,{"CODGEO":"65187","TxChomage":"11.5"}
,{"CODGEO":"65188","TxChomage":"11.5"}
,{"CODGEO":"65189","TxChomage":"11.5"}
,{"CODGEO":"65190","TxChomage":"11.5"}
,{"CODGEO":"65191","TxChomage":"11.5"}
,{"CODGEO":"65192","TxChomage":"11.5"}
,{"CODGEO":"65193","TxChomage":"10.8"}
,{"CODGEO":"65194","TxChomage":"11.5"}
,{"CODGEO":"65195","TxChomage":"11.5"}
,{"CODGEO":"65196","TxChomage":"11.5"}
,{"CODGEO":"65197","TxChomage":"11.5"}
,{"CODGEO":"65198","TxChomage":"11.5"}
,{"CODGEO":"65199","TxChomage":"11.5"}
,{"CODGEO":"65200","TxChomage":"11.5"}
,{"CODGEO":"65201","TxChomage":"11.5"}
,{"CODGEO":"65202","TxChomage":"11.5"}
,{"CODGEO":"65203","TxChomage":"11.5"}
,{"CODGEO":"65204","TxChomage":"11.5"}
,{"CODGEO":"65205","TxChomage":"11.5"}
,{"CODGEO":"65206","TxChomage":"11.5"}
,{"CODGEO":"65207","TxChomage":"11.5"}
,{"CODGEO":"65208","TxChomage":"11.5"}
,{"CODGEO":"65209","TxChomage":"11.5"}
,{"CODGEO":"65210","TxChomage":"11.5"}
,{"CODGEO":"65211","TxChomage":"11.5"}
,{"CODGEO":"65212","TxChomage":"11.5"}
,{"CODGEO":"65213","TxChomage":"8.7"}
,{"CODGEO":"65214","TxChomage":"11.5"}
,{"CODGEO":"65215","TxChomage":"11.5"}
,{"CODGEO":"65216","TxChomage":"11.5"}
,{"CODGEO":"65217","TxChomage":"11.5"}
,{"CODGEO":"65218","TxChomage":"11.5"}
,{"CODGEO":"65219","TxChomage":"11.5"}
,{"CODGEO":"65220","TxChomage":"11.5"}
,{"CODGEO":"65221","TxChomage":"11.5"}
,{"CODGEO":"65222","TxChomage":"11.5"}
,{"CODGEO":"65223","TxChomage":"11.5"}
,{"CODGEO":"65224","TxChomage":"11.5"}
,{"CODGEO":"65225","TxChomage":"11.5"}
,{"CODGEO":"65226","TxChomage":"11.5"}
,{"CODGEO":"65228","TxChomage":"11.5"}
,{"CODGEO":"65229","TxChomage":"10.8"}
,{"CODGEO":"65230","TxChomage":"10.8"}
,{"CODGEO":"65231","TxChomage":"11.5"}
,{"CODGEO":"65232","TxChomage":"11.5"}
,{"CODGEO":"65233","TxChomage":"11.5"}
,{"CODGEO":"65234","TxChomage":"11.5"}
,{"CODGEO":"65235","TxChomage":"11.5"}
,{"CODGEO":"65236","TxChomage":"11.5"}
,{"CODGEO":"65237","TxChomage":"11.5"}
,{"CODGEO":"65238","TxChomage":"11.5"}
,{"CODGEO":"65239","TxChomage":"11.5"}
,{"CODGEO":"65240","TxChomage":"11.5"}
,{"CODGEO":"65241","TxChomage":"11.5"}
,{"CODGEO":"65242","TxChomage":"11.5"}
,{"CODGEO":"65243","TxChomage":"11.5"}
,{"CODGEO":"65244","TxChomage":"11.5"}
,{"CODGEO":"65245","TxChomage":"11.5"}
,{"CODGEO":"65247","TxChomage":"11.5"}
,{"CODGEO":"65248","TxChomage":"11.5"}
,{"CODGEO":"65249","TxChomage":"10.6"}
,{"CODGEO":"65250","TxChomage":"11.5"}
,{"CODGEO":"65251","TxChomage":"11.5"}
,{"CODGEO":"65252","TxChomage":"11.5"}
,{"CODGEO":"65253","TxChomage":"11.5"}
,{"CODGEO":"65254","TxChomage":"11.5"}
,{"CODGEO":"65255","TxChomage":"11.5"}
,{"CODGEO":"65256","TxChomage":"11.5"}
,{"CODGEO":"65257","TxChomage":"11.5"}
,{"CODGEO":"65258","TxChomage":"11.5"}
,{"CODGEO":"65259","TxChomage":"11.5"}
,{"CODGEO":"65260","TxChomage":"11.5"}
,{"CODGEO":"65261","TxChomage":"11.5"}
,{"CODGEO":"65262","TxChomage":"11.5"}
,{"CODGEO":"65263","TxChomage":"11.5"}
,{"CODGEO":"65264","TxChomage":"11.5"}
,{"CODGEO":"65265","TxChomage":"11.5"}
,{"CODGEO":"65266","TxChomage":"11.5"}
,{"CODGEO":"65267","TxChomage":"11.5"}
,{"CODGEO":"65268","TxChomage":"11.5"}
,{"CODGEO":"65269","TxChomage":"11.5"}
,{"CODGEO":"65270","TxChomage":"11.5"}
,{"CODGEO":"65271","TxChomage":"11.5"}
,{"CODGEO":"65272","TxChomage":"11.5"}
,{"CODGEO":"65273","TxChomage":"11.5"}
,{"CODGEO":"65274","TxChomage":"11.5"}
,{"CODGEO":"65275","TxChomage":"11.5"}
,{"CODGEO":"65276","TxChomage":"11.5"}
,{"CODGEO":"65277","TxChomage":"10.8"}
,{"CODGEO":"65278","TxChomage":"11.5"}
,{"CODGEO":"65279","TxChomage":"11.5"}
,{"CODGEO":"65280","TxChomage":"11.5"}
,{"CODGEO":"65281","TxChomage":"11.5"}
,{"CODGEO":"65282","TxChomage":"11.5"}
,{"CODGEO":"65283","TxChomage":"11.5"}
,{"CODGEO":"65284","TxChomage":"11.5"}
,{"CODGEO":"65285","TxChomage":"11.5"}
,{"CODGEO":"65286","TxChomage":"11.5"}
,{"CODGEO":"65287","TxChomage":"10.8"}
,{"CODGEO":"65288","TxChomage":"11.5"}
,{"CODGEO":"65289","TxChomage":"11.5"}
,{"CODGEO":"65290","TxChomage":"11.5"}
,{"CODGEO":"65291","TxChomage":"11.5"}
,{"CODGEO":"65292","TxChomage":"11.5"}
,{"CODGEO":"65293","TxChomage":"11.5"}
,{"CODGEO":"65294","TxChomage":"11.5"}
,{"CODGEO":"65295","TxChomage":"11.5"}
,{"CODGEO":"65296","TxChomage":"11.5"}
,{"CODGEO":"65297","TxChomage":"11.5"}
,{"CODGEO":"65298","TxChomage":"11.5"}
,{"CODGEO":"65299","TxChomage":"11.5"}
,{"CODGEO":"65300","TxChomage":"11.5"}
,{"CODGEO":"65301","TxChomage":"11.5"}
,{"CODGEO":"65303","TxChomage":"11.5"}
,{"CODGEO":"65304","TxChomage":"11.5"}
,{"CODGEO":"65305","TxChomage":"10.8"}
,{"CODGEO":"65306","TxChomage":"11.5"}
,{"CODGEO":"65307","TxChomage":"10.8"}
,{"CODGEO":"65308","TxChomage":"11.5"}
,{"CODGEO":"65309","TxChomage":"11.5"}
,{"CODGEO":"65310","TxChomage":"11.5"}
,{"CODGEO":"65311","TxChomage":"11.5"}
,{"CODGEO":"65312","TxChomage":"11.5"}
,{"CODGEO":"65313","TxChomage":"11.5"}
,{"CODGEO":"65314","TxChomage":"11.5"}
,{"CODGEO":"65315","TxChomage":"11.5"}
,{"CODGEO":"65316","TxChomage":"11.5"}
,{"CODGEO":"65317","TxChomage":"11.5"}
,{"CODGEO":"65318","TxChomage":"11.5"}
,{"CODGEO":"65319","TxChomage":"11.5"}
,{"CODGEO":"65320","TxChomage":"11.5"}
,{"CODGEO":"65321","TxChomage":"11.5"}
,{"CODGEO":"65322","TxChomage":"11.5"}
,{"CODGEO":"65323","TxChomage":"11.5"}
,{"CODGEO":"65324","TxChomage":"11.5"}
,{"CODGEO":"65325","TxChomage":"11.5"}
,{"CODGEO":"65326","TxChomage":"11.5"}
,{"CODGEO":"65327","TxChomage":"11.5"}
,{"CODGEO":"65328","TxChomage":"11.5"}
,{"CODGEO":"65329","TxChomage":"11.5"}
,{"CODGEO":"65330","TxChomage":"11.5"}
,{"CODGEO":"65331","TxChomage":"11.5"}
,{"CODGEO":"65332","TxChomage":"11.5"}
,{"CODGEO":"65333","TxChomage":"11.5"}
,{"CODGEO":"65334","TxChomage":"11.5"}
,{"CODGEO":"65335","TxChomage":"11.5"}
,{"CODGEO":"65336","TxChomage":"11.5"}
,{"CODGEO":"65337","TxChomage":"11.5"}
,{"CODGEO":"65338","TxChomage":"11.5"}
,{"CODGEO":"65339","TxChomage":"11.5"}
,{"CODGEO":"65340","TxChomage":"11.5"}
,{"CODGEO":"65341","TxChomage":"11.5"}
,{"CODGEO":"65342","TxChomage":"11.5"}
,{"CODGEO":"65343","TxChomage":"11.5"}
,{"CODGEO":"65344","TxChomage":"11.5"}
,{"CODGEO":"65345","TxChomage":"11.5"}
,{"CODGEO":"65346","TxChomage":"11.5"}
,{"CODGEO":"65347","TxChomage":"10.8"}
,{"CODGEO":"65348","TxChomage":"11.5"}
,{"CODGEO":"65349","TxChomage":"11.5"}
,{"CODGEO":"65350","TxChomage":"11.5"}
,{"CODGEO":"65351","TxChomage":"11.5"}
,{"CODGEO":"65352","TxChomage":"11.5"}
,{"CODGEO":"65353","TxChomage":"11.5"}
,{"CODGEO":"65354","TxChomage":"11.5"}
,{"CODGEO":"65355","TxChomage":"11.5"}
,{"CODGEO":"65356","TxChomage":"11.5"}
,{"CODGEO":"65357","TxChomage":"11.5"}
,{"CODGEO":"65358","TxChomage":"11.5"}
,{"CODGEO":"65359","TxChomage":"11.5"}
,{"CODGEO":"65360","TxChomage":"11.5"}
,{"CODGEO":"65361","TxChomage":"11.5"}
,{"CODGEO":"65362","TxChomage":"11.5"}
,{"CODGEO":"65363","TxChomage":"11.5"}
,{"CODGEO":"65364","TxChomage":"11.5"}
,{"CODGEO":"65366","TxChomage":"11.5"}
,{"CODGEO":"65367","TxChomage":"11.5"}
,{"CODGEO":"65368","TxChomage":"11.5"}
,{"CODGEO":"65369","TxChomage":"11.5"}
,{"CODGEO":"65370","TxChomage":"11.5"}
,{"CODGEO":"65371","TxChomage":"11.5"}
,{"CODGEO":"65372","TxChomage":"11.5"}
,{"CODGEO":"65373","TxChomage":"11.5"}
,{"CODGEO":"65374","TxChomage":"11.5"}
,{"CODGEO":"65375","TxChomage":"11.5"}
,{"CODGEO":"65376","TxChomage":"11.5"}
,{"CODGEO":"65377","TxChomage":"11.5"}
,{"CODGEO":"65378","TxChomage":"11.5"}
,{"CODGEO":"65379","TxChomage":"11.5"}
,{"CODGEO":"65380","TxChomage":"11.5"}
,{"CODGEO":"65381","TxChomage":"11.5"}
,{"CODGEO":"65382","TxChomage":"10.8"}
,{"CODGEO":"65383","TxChomage":"11.5"}
,{"CODGEO":"65384","TxChomage":"11.5"}
,{"CODGEO":"65385","TxChomage":"11.5"}
,{"CODGEO":"65386","TxChomage":"11.5"}
,{"CODGEO":"65387","TxChomage":"11.5"}
,{"CODGEO":"65388","TxChomage":"11.5"}
,{"CODGEO":"65389","TxChomage":"11.5"}
,{"CODGEO":"65390","TxChomage":"11.5"}
,{"CODGEO":"65391","TxChomage":"10.8"}
,{"CODGEO":"65392","TxChomage":"11.5"}
,{"CODGEO":"65393","TxChomage":"11.5"}
,{"CODGEO":"65394","TxChomage":"11.5"}
,{"CODGEO":"65395","TxChomage":"11.5"}
,{"CODGEO":"65396","TxChomage":"11.5"}
,{"CODGEO":"65397","TxChomage":"11.5"}
,{"CODGEO":"65398","TxChomage":"10.8"}
,{"CODGEO":"65399","TxChomage":"11.5"}
,{"CODGEO":"65400","TxChomage":"11.5"}
,{"CODGEO":"65401","TxChomage":"11.5"}
,{"CODGEO":"65402","TxChomage":"10.8"}
,{"CODGEO":"65403","TxChomage":"11.5"}
,{"CODGEO":"65404","TxChomage":"10.6"}
,{"CODGEO":"65405","TxChomage":"11.5"}
,{"CODGEO":"65406","TxChomage":"11.5"}
,{"CODGEO":"65407","TxChomage":"10.8"}
,{"CODGEO":"65408","TxChomage":"11.5"}
,{"CODGEO":"65409","TxChomage":"11.5"}
,{"CODGEO":"65410","TxChomage":"11.5"}
,{"CODGEO":"65411","TxChomage":"11.5"}
,{"CODGEO":"65412","TxChomage":"11.5"}
,{"CODGEO":"65413","TxChomage":"11.5"}
,{"CODGEO":"65414","TxChomage":"11.5"}
,{"CODGEO":"65415","TxChomage":"11.5"}
,{"CODGEO":"65416","TxChomage":"10.8"}
,{"CODGEO":"65417","TxChomage":"11.5"}
,{"CODGEO":"65418","TxChomage":"11.5"}
,{"CODGEO":"65419","TxChomage":"11.5"}
,{"CODGEO":"65420","TxChomage":"11.5"}
,{"CODGEO":"65421","TxChomage":"11.5"}
,{"CODGEO":"65422","TxChomage":"11.5"}
,{"CODGEO":"65423","TxChomage":"11.5"}
,{"CODGEO":"65424","TxChomage":"11.5"}
,{"CODGEO":"65425","TxChomage":"11.5"}
,{"CODGEO":"65426","TxChomage":"11.5"}
,{"CODGEO":"65427","TxChomage":"10.8"}
,{"CODGEO":"65428","TxChomage":"11.5"}
,{"CODGEO":"65429","TxChomage":"11.5"}
,{"CODGEO":"65430","TxChomage":"11.5"}
,{"CODGEO":"65431","TxChomage":"10.8"}
,{"CODGEO":"65432","TxChomage":"11.5"}
,{"CODGEO":"65433","TxChomage":"11.5"}
,{"CODGEO":"65435","TxChomage":"11.5"}
,{"CODGEO":"65436","TxChomage":"11.5"}
,{"CODGEO":"65437","TxChomage":"11.5"}
,{"CODGEO":"65438","TxChomage":"11.5"}
,{"CODGEO":"65439","TxChomage":"11.5"}
,{"CODGEO":"65440","TxChomage":"11.5"}
,{"CODGEO":"65441","TxChomage":"10.8"}
,{"CODGEO":"65442","TxChomage":"10.6"}
,{"CODGEO":"65443","TxChomage":"11.5"}
,{"CODGEO":"65444","TxChomage":"10.8"}
,{"CODGEO":"65445","TxChomage":"11.5"}
,{"CODGEO":"65446","TxChomage":"11.5"}
,{"CODGEO":"65447","TxChomage":"11.5"}
,{"CODGEO":"65448","TxChomage":"11.5"}
,{"CODGEO":"65449","TxChomage":"11.5"}
,{"CODGEO":"65450","TxChomage":"11.5"}
,{"CODGEO":"65451","TxChomage":"11.5"}
,{"CODGEO":"65452","TxChomage":"11.5"}
,{"CODGEO":"65453","TxChomage":"10.8"}
,{"CODGEO":"65454","TxChomage":"11.5"}
,{"CODGEO":"65455","TxChomage":"11.5"}
,{"CODGEO":"65456","TxChomage":"11.5"}
,{"CODGEO":"65457","TxChomage":"11.5"}
,{"CODGEO":"65458","TxChomage":"11.5"}
,{"CODGEO":"65459","TxChomage":"11.5"}
,{"CODGEO":"65460","TxChomage":"11.5"}
,{"CODGEO":"65461","TxChomage":"11.5"}
,{"CODGEO":"65462","TxChomage":"11.5"}
,{"CODGEO":"65463","TxChomage":"11.5"}
,{"CODGEO":"65464","TxChomage":"11.5"}
,{"CODGEO":"65465","TxChomage":"11.5"}
,{"CODGEO":"65466","TxChomage":"11.5"}
,{"CODGEO":"65467","TxChomage":"11.5"}
,{"CODGEO":"65468","TxChomage":"11.5"}
,{"CODGEO":"65469","TxChomage":"11.5"}
,{"CODGEO":"65470","TxChomage":"11.5"}
,{"CODGEO":"65471","TxChomage":"11.5"}
,{"CODGEO":"65472","TxChomage":"11.5"}
,{"CODGEO":"65473","TxChomage":"11.5"}
,{"CODGEO":"65474","TxChomage":"11.5"}
,{"CODGEO":"65475","TxChomage":"11.5"}
,{"CODGEO":"65476","TxChomage":"11.5"}
,{"CODGEO":"65477","TxChomage":"11.5"}
,{"CODGEO":"65478","TxChomage":"11.5"}
,{"CODGEO":"65479","TxChomage":"11.5"}
,{"CODGEO":"65480","TxChomage":"11.5"}
,{"CODGEO":"65481","TxChomage":"11.5"}
,{"CODGEO":"65482","TxChomage":"11.5"}
]}
