{"status":"success","data":[{"CODGEO":"69001","TxChomage":"9.4"}
,{"CODGEO":"69002","TxChomage":"7.1"}
,{"CODGEO":"69003","TxChomage":"9.4"}
,{"CODGEO":"69004","TxChomage":"7.1"}
,{"CODGEO":"69005","TxChomage":"7.1"}
,{"CODGEO":"69006","TxChomage":"9.4"}
,{"CODGEO":"69007","TxChomage":"8.9"}
,{"CODGEO":"69008","TxChomage":"9.4"}
,{"CODGEO":"69009","TxChomage":"7.1"}
,{"CODGEO":"69010","TxChomage":"9.4"}
,{"CODGEO":"69012","TxChomage":"7.1"}
,{"CODGEO":"69013","TxChomage":"7.1"}
,{"CODGEO":"69014","TxChomage":"9.4"}
,{"CODGEO":"69015","TxChomage":"7.1"}
,{"CODGEO":"69016","TxChomage":"7.1"}
,{"CODGEO":"69017","TxChomage":"7.1"}
,{"CODGEO":"69018","TxChomage":"7.1"}
,{"CODGEO":"69019","TxChomage":"7.1"}
,{"CODGEO":"69020","TxChomage":"7.1"}
,{"CODGEO":"69021","TxChomage":"9.4"}
,{"CODGEO":"69022","TxChomage":"9.4"}
,{"CODGEO":"69023","TxChomage":"7.1"}
,{"CODGEO":"69024","TxChomage":"7.1"}
,{"CODGEO":"69025","TxChomage":"9.4"}
,{"CODGEO":"69026","TxChomage":"7.1"}
,{"CODGEO":"69027","TxChomage":"9.4"}
,{"CODGEO":"69028","TxChomage":"9.4"}
,{"CODGEO":"69029","TxChomage":"9.4"}
,{"CODGEO":"69030","TxChomage":"9.4"}
,{"CODGEO":"69031","TxChomage":"9.4"}
,{"CODGEO":"69032","TxChomage":"9.4"}
,{"CODGEO":"69033","TxChomage":"9.4"}
,{"CODGEO":"69034","TxChomage":"9.4"}
,{"CODGEO":"69035","TxChomage":"7.1"}
,{"CODGEO":"69036","TxChomage":"7.1"}
,{"CODGEO":"69037","TxChomage":"7.1"}
,{"CODGEO":"69038","TxChomage":"9.4"}
,{"CODGEO":"69039","TxChomage":"7.1"}
,{"CODGEO":"69040","TxChomage":"9.4"}
,{"CODGEO":"69041","TxChomage":"9.4"}
,{"CODGEO":"69042","TxChomage":"9.4"}
,{"CODGEO":"69043","TxChomage":"9.4"}
,{"CODGEO":"69044","TxChomage":"9.4"}
,{"CODGEO":"69045","TxChomage":"7.1"}
,{"CODGEO":"69046","TxChomage":"9.4"}
,{"CODGEO":"69047","TxChomage":"7.1"}
,{"CODGEO":"69048","TxChomage":"9.4"}
,{"CODGEO":"69049","TxChomage":"7.1"}
,{"CODGEO":"69050","TxChomage":"7.1"}
,{"CODGEO":"69051","TxChomage":"9.4"}
,{"CODGEO":"69052","TxChomage":"7.1"}
,{"CODGEO":"69053","TxChomage":"7.1"}
,{"CODGEO":"69054","TxChomage":"7.1"}
,{"CODGEO":"69055","TxChomage":"7.1"}
,{"CODGEO":"69056","TxChomage":"7.1"}
,{"CODGEO":"69057","TxChomage":"9.4"}
,{"CODGEO":"69058","TxChomage":"7.1"}
,{"CODGEO":"69059","TxChomage":"7.1"}
,{"CODGEO":"69060","TxChomage":"7.1"}
,{"CODGEO":"69061","TxChomage":"7.1"}
,{"CODGEO":"69062","TxChomage":"9.4"}
,{"CODGEO":"69063","TxChomage":"9.4"}
,{"CODGEO":"69064","TxChomage":"8.9"}
,{"CODGEO":"69065","TxChomage":"7.1"}
,{"CODGEO":"69066","TxChomage":"9.4"}
,{"CODGEO":"69067","TxChomage":"9.4"}
,{"CODGEO":"69068","TxChomage":"9.4"}
,{"CODGEO":"69069","TxChomage":"9.4"}
,{"CODGEO":"69070","TxChomage":"9.4"}
,{"CODGEO":"69071","TxChomage":"7.1"}
,{"CODGEO":"69072","TxChomage":"9.4"}
,{"CODGEO":"69073","TxChomage":"9.4"}
,{"CODGEO":"69074","TxChomage":"7.1"}
,{"CODGEO":"69075","TxChomage":"7.1"}
,{"CODGEO":"69076","TxChomage":"9.4"}
,{"CODGEO":"69077","TxChomage":"7.1"}
,{"CODGEO":"69078","TxChomage":"9.4"}
,{"CODGEO":"69080","TxChomage":"9.4"}
,{"CODGEO":"69081","TxChomage":"9.4"}
,{"CODGEO":"69082","TxChomage":"7.1"}
,{"CODGEO":"69083","TxChomage":"9.4"}
,{"CODGEO":"69084","TxChomage":"7.1"}
,{"CODGEO":"69085","TxChomage":"9.4"}
,{"CODGEO":"69086","TxChomage":"9.4"}
,{"CODGEO":"69087","TxChomage":"9.4"}
,{"CODGEO":"69088","TxChomage":"9.4"}
,{"CODGEO":"69089","TxChomage":"9.4"}
,{"CODGEO":"69090","TxChomage":"7.1"}
,{"CODGEO":"69091","TxChomage":"9.4"}
,{"CODGEO":"69092","TxChomage":"7.1"}
,{"CODGEO":"69093","TxChomage":"7.1"}
,{"CODGEO":"69094","TxChomage":"9.4"}
,{"CODGEO":"69095","TxChomage":"9.4"}
,{"CODGEO":"69096","TxChomage":"9.4"}
,{"CODGEO":"69097","TxChomage":"8.9"}
,{"CODGEO":"69098","TxChomage":"9.4"}
,{"CODGEO":"69099","TxChomage":"9.4"}
,{"CODGEO":"69100","TxChomage":"9.4"}
,{"CODGEO":"69101","TxChomage":"7.1"}
,{"CODGEO":"69102","TxChomage":"9.4"}
,{"CODGEO":"69103","TxChomage":"7.1"}
,{"CODGEO":"69104","TxChomage":"7.1"}
,{"CODGEO":"69105","TxChomage":"7.1"}
,{"CODGEO":"69106","TxChomage":"7.1"}
,{"CODGEO":"69107","TxChomage":"7.1"}
,{"CODGEO":"69108","TxChomage":"7.1"}
,{"CODGEO":"69109","TxChomage":"7.1"}
,{"CODGEO":"69110","TxChomage":"9.4"}
,{"CODGEO":"69111","TxChomage":"7.1"}
,{"CODGEO":"69112","TxChomage":"9.4"}
,{"CODGEO":"69113","TxChomage":"7.1"}
,{"CODGEO":"69114","TxChomage":"7.1"}
,{"CODGEO":"69115","TxChomage":"7.1"}
,{"CODGEO":"69116","TxChomage":"9.4"}
,{"CODGEO":"69117","TxChomage":"7.1"}
,{"CODGEO":"69118","TxChomage":"9.4"}
,{"CODGEO":"69119","TxChomage":"9.4"}
,{"CODGEO":"69120","TxChomage":"9.4"}
,{"CODGEO":"69121","TxChomage":"7.1"}
,{"CODGEO":"69122","TxChomage":"7.1"}
,{"CODGEO":"69123","TxChomage":"9.4"}
,{"CODGEO":"69124","TxChomage":"7.1"}
,{"CODGEO":"69125","TxChomage":"7.1"}
,{"CODGEO":"69126","TxChomage":"7.1"}
,{"CODGEO":"69127","TxChomage":"9.4"}
,{"CODGEO":"69128","TxChomage":"9.4"}
,{"CODGEO":"69129","TxChomage":"9.4"}
,{"CODGEO":"69130","TxChomage":"7.1"}
,{"CODGEO":"69131","TxChomage":"9.4"}
,{"CODGEO":"69132","TxChomage":"9.4"}
,{"CODGEO":"69133","TxChomage":"9.4"}
,{"CODGEO":"69134","TxChomage":"7.1"}
,{"CODGEO":"69135","TxChomage":"7.1"}
,{"CODGEO":"69136","TxChomage":"9.4"}
,{"CODGEO":"69137","TxChomage":"7.1"}
,{"CODGEO":"69138","TxChomage":"9.4"}
,{"CODGEO":"69139","TxChomage":"9.4"}
,{"CODGEO":"69140","TxChomage":"7.1"}
,{"CODGEO":"69141","TxChomage":"9.4"}
,{"CODGEO":"69142","TxChomage":"9.4"}
,{"CODGEO":"69143","TxChomage":"9.4"}
,{"CODGEO":"69144","TxChomage":"9.4"}
,{"CODGEO":"69145","TxChomage":"7.1"}
,{"CODGEO":"69146","TxChomage":"7.1"}
,{"CODGEO":"69147","TxChomage":"9.4"}
,{"CODGEO":"69148","TxChomage":"9.4"}
,{"CODGEO":"69149","TxChomage":"9.4"}
,{"CODGEO":"69150","TxChomage":"7.1"}
,{"CODGEO":"69151","TxChomage":"7.1"}
,{"CODGEO":"69152","TxChomage":"9.4"}
,{"CODGEO":"69153","TxChomage":"9.4"}
,{"CODGEO":"69154","TxChomage":"9.4"}
,{"CODGEO":"69155","TxChomage":"9.4"}
,{"CODGEO":"69156","TxChomage":"7.1"}
,{"CODGEO":"69157","TxChomage":"9.4"}
,{"CODGEO":"69158","TxChomage":"9.4"}
,{"CODGEO":"69159","TxChomage":"7.1"}
,{"CODGEO":"69160","TxChomage":"7.1"}
,{"CODGEO":"69161","TxChomage":"7.1"}
,{"CODGEO":"69162","TxChomage":"7.1"}
,{"CODGEO":"69163","TxChomage":"7.1"}
,{"CODGEO":"69164","TxChomage":"9.4"}
,{"CODGEO":"69165","TxChomage":"7.1"}
,{"CODGEO":"69166","TxChomage":"9.4"}
,{"CODGEO":"69167","TxChomage":"7.1"}
,{"CODGEO":"69168","TxChomage":"9.4"}
,{"CODGEO":"69169","TxChomage":"9.4"}
,{"CODGEO":"69170","TxChomage":"9.4"}
,{"CODGEO":"69171","TxChomage":"9.4"}
,{"CODGEO":"69172","TxChomage":"7.1"}
,{"CODGEO":"69173","TxChomage":"9.4"}
,{"CODGEO":"69174","TxChomage":"9.4"}
,{"CODGEO":"69175","TxChomage":"9.4"}
,{"CODGEO":"69176","TxChomage":"9.4"}
,{"CODGEO":"69177","TxChomage":"9.4"}
,{"CODGEO":"69178","TxChomage":"9.4"}
,{"CODGEO":"69179","TxChomage":"9.4"}
,{"CODGEO":"69180","TxChomage":"9.4"}
,{"CODGEO":"69181","TxChomage":"9.4"}
,{"CODGEO":"69182","TxChomage":"7.1"}
,{"CODGEO":"69183","TxChomage":"9.4"}
,{"CODGEO":"69184","TxChomage":"9.4"}
,{"CODGEO":"69185","TxChomage":"7.1"}
,{"CODGEO":"69186","TxChomage":"7.1"}
,{"CODGEO":"69187","TxChomage":"9.4"}
,{"CODGEO":"69188","TxChomage":"9.4"}
,{"CODGEO":"69189","TxChomage":"8.9"}
,{"CODGEO":"69190","TxChomage":"9.4"}
,{"CODGEO":"69191","TxChomage":"9.4"}
,{"CODGEO":"69192","TxChomage":"7.1"}
,{"CODGEO":"69193","TxChomage":"8.9"}
,{"CODGEO":"69194","TxChomage":"9.4"}
,{"CODGEO":"69195","TxChomage":"9.4"}
,{"CODGEO":"69196","TxChomage":"7.1"}
,{"CODGEO":"69197","TxChomage":"7.1"}
,{"CODGEO":"69198","TxChomage":"7.1"}
,{"CODGEO":"69199","TxChomage":"9.4"}
,{"CODGEO":"69200","TxChomage":"9.4"}
,{"CODGEO":"69201","TxChomage":"9.4"}
,{"CODGEO":"69202","TxChomage":"9.4"}
,{"CODGEO":"69203","TxChomage":"9.4"}
,{"CODGEO":"69204","TxChomage":"9.4"}
,{"CODGEO":"69205","TxChomage":"9.4"}
,{"CODGEO":"69206","TxChomage":"7.1"}
,{"CODGEO":"69207","TxChomage":"7.1"}
,{"CODGEO":"69208","TxChomage":"9.4"}
,{"CODGEO":"69209","TxChomage":"7.1"}
,{"CODGEO":"69210","TxChomage":"7.1"}
,{"CODGEO":"69211","TxChomage":"7.1"}
,{"CODGEO":"69212","TxChomage":"7.1"}
,{"CODGEO":"69213","TxChomage":"9.4"}
,{"CODGEO":"69214","TxChomage":"9.4"}
,{"CODGEO":"69215","TxChomage":"7.1"}
,{"CODGEO":"69216","TxChomage":"9.4"}
,{"CODGEO":"69217","TxChomage":"7.1"}
,{"CODGEO":"69218","TxChomage":"7.1"}
,{"CODGEO":"69219","TxChomage":"9.4"}
,{"CODGEO":"69220","TxChomage":"9.4"}
,{"CODGEO":"69221","TxChomage":"9.4"}
,{"CODGEO":"69222","TxChomage":"7.1"}
,{"CODGEO":"69223","TxChomage":"9.4"}
,{"CODGEO":"69224","TxChomage":"7.1"}
,{"CODGEO":"69225","TxChomage":"9.4"}
,{"CODGEO":"69227","TxChomage":"9.4"}
,{"CODGEO":"69228","TxChomage":"9.4"}
,{"CODGEO":"69229","TxChomage":"7.1"}
,{"CODGEO":"69230","TxChomage":"7.1"}
,{"CODGEO":"69231","TxChomage":"9.4"}
,{"CODGEO":"69233","TxChomage":"9.4"}
,{"CODGEO":"69234","TxChomage":"9.4"}
,{"CODGEO":"69235","TxChomage":"8.9"}
,{"CODGEO":"69236","TxChomage":"9.4"}
,{"CODGEO":"69237","TxChomage":"9.4"}
,{"CODGEO":"69238","TxChomage":"9.4"}
,{"CODGEO":"69239","TxChomage":"7.1"}
,{"CODGEO":"69240","TxChomage":"9.4"}
,{"CODGEO":"69241","TxChomage":"9.4"}
,{"CODGEO":"69242","TxChomage":"7.1"}
,{"CODGEO":"69243","TxChomage":"9.4"}
,{"CODGEO":"69244","TxChomage":"9.4"}
,{"CODGEO":"69245","TxChomage":"7.1"}
,{"CODGEO":"69246","TxChomage":"7.1"}
,{"CODGEO":"69247","TxChomage":"9.4"}
,{"CODGEO":"69248","TxChomage":"9.4"}
,{"CODGEO":"69249","TxChomage":"9.4"}
,{"CODGEO":"69250","TxChomage":"9.4"}
,{"CODGEO":"69251","TxChomage":"7.1"}
,{"CODGEO":"69252","TxChomage":"9.4"}
,{"CODGEO":"69253","TxChomage":"8.9"}
,{"CODGEO":"69254","TxChomage":"9.4"}
,{"CODGEO":"69255","TxChomage":"9.4"}
,{"CODGEO":"69256","TxChomage":"9.4"}
,{"CODGEO":"69257","TxChomage":"7.1"}
,{"CODGEO":"69258","TxChomage":"7.1"}
,{"CODGEO":"69259","TxChomage":"9.4"}
,{"CODGEO":"69260","TxChomage":"9.4"}
,{"CODGEO":"69261","TxChomage":"7.1"}
,{"CODGEO":"69263","TxChomage":"9.4"}
,{"CODGEO":"69264","TxChomage":"7.1"}
,{"CODGEO":"69265","TxChomage":"7.1"}
,{"CODGEO":"69266","TxChomage":"9.4"}
,{"CODGEO":"69267","TxChomage":"7.1"}
,{"CODGEO":"69268","TxChomage":"9.4"}
,{"CODGEO":"69269","TxChomage":"9.4"}
,{"CODGEO":"69270","TxChomage":"9.4"}
,{"CODGEO":"69271","TxChomage":"9.4"}
,{"CODGEO":"69272","TxChomage":"9.4"}
,{"CODGEO":"69273","TxChomage":"9.4"}
,{"CODGEO":"69275","TxChomage":"9.4"}
,{"CODGEO":"69276","TxChomage":"9.4"}
,{"CODGEO":"69277","TxChomage":"9.4"}
,{"CODGEO":"69278","TxChomage":"9.4"}
,{"CODGEO":"69279","TxChomage":"9.4"}
,{"CODGEO":"69280","TxChomage":"9.4"}
,{"CODGEO":"69281","TxChomage":"9.4"}
,{"CODGEO":"69282","TxChomage":"9.4"}
,{"CODGEO":"69283","TxChomage":"9.4"}
,{"CODGEO":"69284","TxChomage":"9.4"}
,{"CODGEO":"69285","TxChomage":"9.4"}
,{"CODGEO":"69286","TxChomage":"9.4"}
,{"CODGEO":"69287","TxChomage":"9.4"}
,{"CODGEO":"69288","TxChomage":"9.4"}
,{"CODGEO":"69289","TxChomage":"9.4"}
,{"CODGEO":"69290","TxChomage":"9.4"}
,{"CODGEO":"69291","TxChomage":"9.4"}
,{"CODGEO":"69292","TxChomage":"9.4"}
,{"CODGEO":"69293","TxChomage":"9.4"}
,{"CODGEO":"69294","TxChomage":"9.4"}
,{"CODGEO":"69295","TxChomage":"9.4"}
,{"CODGEO":"69296","TxChomage":"9.4"}
,{"CODGEO":"69297","TxChomage":"9.4"}
,{"CODGEO":"69298","TxChomage":"9.4"}
,{"CODGEO":"69299","TxChomage":"9.4"}
]}
