{"status":"success","data":[{"CODGEO":"76001","TxChomage":"12.2"}
,{"CODGEO":"76002","TxChomage":"12.2"}
,{"CODGEO":"76004","TxChomage":"9.9"}
,{"CODGEO":"76005","TxChomage":"10.8"}
,{"CODGEO":"76006","TxChomage":"10.8"}
,{"CODGEO":"76007","TxChomage":"10.8"}
,{"CODGEO":"76008","TxChomage":"9.9"}
,{"CODGEO":"76009","TxChomage":"12.2"}
,{"CODGEO":"76010","TxChomage":"10.8"}
,{"CODGEO":"76011","TxChomage":"12.2"}
,{"CODGEO":"76012","TxChomage":"12.2"}
,{"CODGEO":"76013","TxChomage":"12.2"}
,{"CODGEO":"76014","TxChomage":"12.2"}
,{"CODGEO":"76015","TxChomage":"9.9"}
,{"CODGEO":"76016","TxChomage":"10.8"}
,{"CODGEO":"76017","TxChomage":"12.2"}
,{"CODGEO":"76018","TxChomage":"10.8"}
,{"CODGEO":"76019","TxChomage":"9.9"}
,{"CODGEO":"76020","TxChomage":"10.8"}
,{"CODGEO":"76021","TxChomage":"12.2"}
,{"CODGEO":"76022","TxChomage":"12.2"}
,{"CODGEO":"76023","TxChomage":"10.8"}
,{"CODGEO":"76024","TxChomage":"9.9"}
,{"CODGEO":"76025","TxChomage":"10.8"}
,{"CODGEO":"76026","TxChomage":"9.9"}
,{"CODGEO":"76027","TxChomage":"9.9"}
,{"CODGEO":"76028","TxChomage":"10.3"}
,{"CODGEO":"76029","TxChomage":"10.3"}
,{"CODGEO":"76030","TxChomage":"9.9"}
,{"CODGEO":"76031","TxChomage":"12.2"}
,{"CODGEO":"76032","TxChomage":"9.9"}
,{"CODGEO":"76033","TxChomage":"12.2"}
,{"CODGEO":"76034","TxChomage":"10.8"}
,{"CODGEO":"76035","TxChomage":"10.3"}
,{"CODGEO":"76036","TxChomage":"9.9"}
,{"CODGEO":"76037","TxChomage":"9.9"}
,{"CODGEO":"76038","TxChomage":"10.8"}
,{"CODGEO":"76039","TxChomage":"10.8"}
,{"CODGEO":"76040","TxChomage":"9.9"}
,{"CODGEO":"76041","TxChomage":"10.8"}
,{"CODGEO":"76042","TxChomage":"10.3"}
,{"CODGEO":"76043","TxChomage":"10.8"}
,{"CODGEO":"76044","TxChomage":"12.2"}
,{"CODGEO":"76045","TxChomage":"10.8"}
,{"CODGEO":"76046","TxChomage":"10.8"}
,{"CODGEO":"76047","TxChomage":"10.8"}
,{"CODGEO":"76048","TxChomage":"10.8"}
,{"CODGEO":"76049","TxChomage":"9.9"}
,{"CODGEO":"76050","TxChomage":"9.9"}
,{"CODGEO":"76051","TxChomage":"9.9"}
,{"CODGEO":"76052","TxChomage":"9.9"}
,{"CODGEO":"76053","TxChomage":"10.8"}
,{"CODGEO":"76054","TxChomage":"9.9"}
,{"CODGEO":"76055","TxChomage":"10.8"}
,{"CODGEO":"76056","TxChomage":"10.8"}
,{"CODGEO":"76057","TxChomage":"10.8"}
,{"CODGEO":"76058","TxChomage":"10.3"}
,{"CODGEO":"76059","TxChomage":"10.3"}
,{"CODGEO":"76060","TxChomage":"10.8"}
,{"CODGEO":"76062","TxChomage":"10.8"}
,{"CODGEO":"76063","TxChomage":"10.8"}
,{"CODGEO":"76064","TxChomage":"12.2"}
,{"CODGEO":"76065","TxChomage":"10.8"}
,{"CODGEO":"76066","TxChomage":"10.8"}
,{"CODGEO":"76067","TxChomage":"10.8"}
,{"CODGEO":"76068","TxChomage":"12.2"}
,{"CODGEO":"76069","TxChomage":"10.8"}
,{"CODGEO":"76070","TxChomage":"10.8"}
,{"CODGEO":"76071","TxChomage":"9.9"}
,{"CODGEO":"76072","TxChomage":"10.8"}
,{"CODGEO":"76073","TxChomage":"9.9"}
,{"CODGEO":"76074","TxChomage":"10.8"}
,{"CODGEO":"76075","TxChomage":"9.9"}
,{"CODGEO":"76076","TxChomage":"12.2"}
,{"CODGEO":"76077","TxChomage":"10.8"}
,{"CODGEO":"76078","TxChomage":"12.2"}
,{"CODGEO":"76079","TxChomage":"12.2"}
,{"CODGEO":"76080","TxChomage":"12.2"}
,{"CODGEO":"76081","TxChomage":"9.9"}
,{"CODGEO":"76082","TxChomage":"12.2"}
,{"CODGEO":"76083","TxChomage":"12.2"}
,{"CODGEO":"76084","TxChomage":"9.9"}
,{"CODGEO":"76085","TxChomage":"9.9"}
,{"CODGEO":"76086","TxChomage":"10.8"}
,{"CODGEO":"76087","TxChomage":"10.8"}
,{"CODGEO":"76088","TxChomage":"10.8"}
,{"CODGEO":"76089","TxChomage":"10.8"}
,{"CODGEO":"76090","TxChomage":"12.2"}
,{"CODGEO":"76091","TxChomage":"12.2"}
,{"CODGEO":"76092","TxChomage":"12.2"}
,{"CODGEO":"76093","TxChomage":"10.8"}
,{"CODGEO":"76094","TxChomage":"10.8"}
,{"CODGEO":"76095","TxChomage":"10.8"}
,{"CODGEO":"76096","TxChomage":"10.8"}
,{"CODGEO":"76097","TxChomage":"9.9"}
,{"CODGEO":"76098","TxChomage":"9.9"}
,{"CODGEO":"76099","TxChomage":"10.8"}
,{"CODGEO":"76100","TxChomage":"10.8"}
,{"CODGEO":"76101","TxChomage":"10.3"}
,{"CODGEO":"76103","TxChomage":"10.8"}
,{"CODGEO":"76104","TxChomage":"9.9"}
,{"CODGEO":"76105","TxChomage":"10.8"}
,{"CODGEO":"76106","TxChomage":"10.8"}
,{"CODGEO":"76107","TxChomage":"10.8"}
,{"CODGEO":"76108","TxChomage":"10.8"}
,{"CODGEO":"76109","TxChomage":"10.8"}
,{"CODGEO":"76110","TxChomage":"10.8"}
,{"CODGEO":"76111","TxChomage":"10.8"}
,{"CODGEO":"76112","TxChomage":"9.9"}
,{"CODGEO":"76113","TxChomage":"10.8"}
,{"CODGEO":"76114","TxChomage":"12.2"}
,{"CODGEO":"76115","TxChomage":"12.2"}
,{"CODGEO":"76116","TxChomage":"10.8"}
,{"CODGEO":"76117","TxChomage":"12.2"}
,{"CODGEO":"76118","TxChomage":"12.2"}
,{"CODGEO":"76119","TxChomage":"10.8"}
,{"CODGEO":"76120","TxChomage":"10.8"}
,{"CODGEO":"76121","TxChomage":"10.8"}
,{"CODGEO":"76122","TxChomage":"10.3"}
,{"CODGEO":"76123","TxChomage":"10.8"}
,{"CODGEO":"76124","TxChomage":"10.8"}
,{"CODGEO":"76125","TxChomage":"10.8"}
,{"CODGEO":"76126","TxChomage":"10.8"}
,{"CODGEO":"76127","TxChomage":"10.8"}
,{"CODGEO":"76128","TxChomage":"9.9"}
,{"CODGEO":"76129","TxChomage":"10.8"}
,{"CODGEO":"76130","TxChomage":"10.8"}
,{"CODGEO":"76131","TxChomage":"10.8"}
,{"CODGEO":"76132","TxChomage":"10.8"}
,{"CODGEO":"76133","TxChomage":"9.9"}
,{"CODGEO":"76134","TxChomage":"9.9"}
,{"CODGEO":"76135","TxChomage":"10.8"}
,{"CODGEO":"76136","TxChomage":"9.9"}
,{"CODGEO":"76137","TxChomage":"9.9"}
,{"CODGEO":"76138","TxChomage":"10.8"}
,{"CODGEO":"76139","TxChomage":"10.8"}
,{"CODGEO":"76140","TxChomage":"9.9"}
,{"CODGEO":"76141","TxChomage":"12.2"}
,{"CODGEO":"76142","TxChomage":"10.8"}
,{"CODGEO":"76143","TxChomage":"12.2"}
,{"CODGEO":"76144","TxChomage":"10.8"}
,{"CODGEO":"76145","TxChomage":"9.9"}
,{"CODGEO":"76146","TxChomage":"10.8"}
,{"CODGEO":"76147","TxChomage":"10.8"}
,{"CODGEO":"76148","TxChomage":"10.8"}
,{"CODGEO":"76149","TxChomage":"10.8"}
,{"CODGEO":"76151","TxChomage":"9.9"}
,{"CODGEO":"76152","TxChomage":"10.8"}
,{"CODGEO":"76153","TxChomage":"10.8"}
,{"CODGEO":"76154","TxChomage":"10.3"}
,{"CODGEO":"76155","TxChomage":"10.3"}
,{"CODGEO":"76156","TxChomage":"9.9"}
,{"CODGEO":"76157","TxChomage":"10.8"}
,{"CODGEO":"76158","TxChomage":"9.9"}
,{"CODGEO":"76159","TxChomage":"9.9"}
,{"CODGEO":"76160","TxChomage":"10.8"}
,{"CODGEO":"76161","TxChomage":"10.8"}
,{"CODGEO":"76162","TxChomage":"9.9"}
,{"CODGEO":"76163","TxChomage":"10.8"}
,{"CODGEO":"76164","TxChomage":"12.2"}
,{"CODGEO":"76165","TxChomage":"10.8"}
,{"CODGEO":"76166","TxChomage":"10.3"}
,{"CODGEO":"76167","TxChomage":"12.2"}
,{"CODGEO":"76168","TxChomage":"9.9"}
,{"CODGEO":"76169","TxChomage":"12.2"}
,{"CODGEO":"76170","TxChomage":"9.9"}
,{"CODGEO":"76171","TxChomage":"10.8"}
,{"CODGEO":"76172","TxChomage":"9.9"}
,{"CODGEO":"76173","TxChomage":"9.9"}
,{"CODGEO":"76174","TxChomage":"10.8"}
,{"CODGEO":"76175","TxChomage":"9.9"}
,{"CODGEO":"76176","TxChomage":"9.9"}
,{"CODGEO":"76177","TxChomage":"10.8"}
,{"CODGEO":"76178","TxChomage":"10.8"}
,{"CODGEO":"76179","TxChomage":"10.8"}
,{"CODGEO":"76180","TxChomage":"12.2"}
,{"CODGEO":"76181","TxChomage":"12.2"}
,{"CODGEO":"76182","TxChomage":"12.2"}
,{"CODGEO":"76183","TxChomage":"12.2"}
,{"CODGEO":"76184","TxChomage":"9.9"}
,{"CODGEO":"76185","TxChomage":"10.8"}
,{"CODGEO":"76186","TxChomage":"10.8"}
,{"CODGEO":"76187","TxChomage":"12.2"}
,{"CODGEO":"76188","TxChomage":"10.8"}
,{"CODGEO":"76189","TxChomage":"9.9"}
,{"CODGEO":"76190","TxChomage":"9.9"}
,{"CODGEO":"76191","TxChomage":"10.8"}
,{"CODGEO":"76192","TxChomage":"10.3"}
,{"CODGEO":"76193","TxChomage":"10.8"}
,{"CODGEO":"76194","TxChomage":"12.2"}
,{"CODGEO":"76195","TxChomage":"12.2"}
,{"CODGEO":"76196","TxChomage":"12.2"}
,{"CODGEO":"76197","TxChomage":"9.9"}
,{"CODGEO":"76198","TxChomage":"10.8"}
,{"CODGEO":"76199","TxChomage":"10.8"}
,{"CODGEO":"76200","TxChomage":"10.8"}
,{"CODGEO":"76201","TxChomage":"10.8"}
,{"CODGEO":"76202","TxChomage":"9.9"}
,{"CODGEO":"76203","TxChomage":"10.8"}
,{"CODGEO":"76204","TxChomage":"10.8"}
,{"CODGEO":"76205","TxChomage":"9.9"}
,{"CODGEO":"76206","TxChomage":"12.2"}
,{"CODGEO":"76207","TxChomage":"10.3"}
,{"CODGEO":"76208","TxChomage":"10.8"}
,{"CODGEO":"76209","TxChomage":"10.8"}
,{"CODGEO":"76210","TxChomage":"9.9"}
,{"CODGEO":"76211","TxChomage":"10.3"}
,{"CODGEO":"76212","TxChomage":"10.8"}
,{"CODGEO":"76213","TxChomage":"12.2"}
,{"CODGEO":"76214","TxChomage":"9.9"}
,{"CODGEO":"76215","TxChomage":"9.9"}
,{"CODGEO":"76216","TxChomage":"10.8"}
,{"CODGEO":"76217","TxChomage":"9.9"}
,{"CODGEO":"76218","TxChomage":"10.8"}
,{"CODGEO":"76219","TxChomage":"10.8"}
,{"CODGEO":"76220","TxChomage":"9.9"}
,{"CODGEO":"76221","TxChomage":"9.9"}
,{"CODGEO":"76222","TxChomage":"10.8"}
,{"CODGEO":"76223","TxChomage":"10.8"}
,{"CODGEO":"76224","TxChomage":"12.2"}
,{"CODGEO":"76225","TxChomage":"12.2"}
,{"CODGEO":"76226","TxChomage":"12.2"}
,{"CODGEO":"76227","TxChomage":"10.8"}
,{"CODGEO":"76228","TxChomage":"10.8"}
,{"CODGEO":"76229","TxChomage":"10.8"}
,{"CODGEO":"76230","TxChomage":"10.8"}
,{"CODGEO":"76231","TxChomage":"10.8"}
,{"CODGEO":"76232","TxChomage":"12.2"}
,{"CODGEO":"76233","TxChomage":"10.3"}
,{"CODGEO":"76234","TxChomage":"10.8"}
,{"CODGEO":"76235","TxChomage":"9.9"}
,{"CODGEO":"76236","TxChomage":"12.2"}
,{"CODGEO":"76237","TxChomage":"10.8"}
,{"CODGEO":"76238","TxChomage":"12.2"}
,{"CODGEO":"76239","TxChomage":"12.2"}
,{"CODGEO":"76240","TxChomage":"12.2"}
,{"CODGEO":"76241","TxChomage":"9.9"}
,{"CODGEO":"76242","TxChomage":"10.8"}
,{"CODGEO":"76243","TxChomage":"10.8"}
,{"CODGEO":"76244","TxChomage":"10.8"}
,{"CODGEO":"76245","TxChomage":"10.8"}
,{"CODGEO":"76247","TxChomage":"10.8"}
,{"CODGEO":"76248","TxChomage":"10.8"}
,{"CODGEO":"76249","TxChomage":"10.8"}
,{"CODGEO":"76250","TxChomage":"12.2"}
,{"CODGEO":"76251","TxChomage":"10.8"}
,{"CODGEO":"76252","TxChomage":"10.3"}
,{"CODGEO":"76253","TxChomage":"10.8"}
,{"CODGEO":"76254","TxChomage":"12.2"}
,{"CODGEO":"76255","TxChomage":"10.3"}
,{"CODGEO":"76257","TxChomage":"10.3"}
,{"CODGEO":"76258","TxChomage":"12.2"}
,{"CODGEO":"76259","TxChomage":"12.2"}
,{"CODGEO":"76260","TxChomage":"10.8"}
,{"CODGEO":"76261","TxChomage":"10.8"}
,{"CODGEO":"76262","TxChomage":"10.8"}
,{"CODGEO":"76263","TxChomage":"10.8"}
,{"CODGEO":"76264","TxChomage":"10.8"}
,{"CODGEO":"76265","TxChomage":"10.8"}
,{"CODGEO":"76266","TxChomage":"10.3"}
,{"CODGEO":"76267","TxChomage":"10.8"}
,{"CODGEO":"76268","TxChomage":"12.2"}
,{"CODGEO":"76269","TxChomage":"10.8"}
,{"CODGEO":"76270","TxChomage":"12.2"}
,{"CODGEO":"76271","TxChomage":"10.8"}
,{"CODGEO":"76272","TxChomage":"9.9"}
,{"CODGEO":"76273","TxChomage":"10.8"}
,{"CODGEO":"76274","TxChomage":"10.8"}
,{"CODGEO":"76275","TxChomage":"12.2"}
,{"CODGEO":"76276","TxChomage":"10.8"}
,{"CODGEO":"76277","TxChomage":"10.8"}
,{"CODGEO":"76278","TxChomage":"10.3"}
,{"CODGEO":"76279","TxChomage":"12.2"}
,{"CODGEO":"76280","TxChomage":"9.9"}
,{"CODGEO":"76281","TxChomage":"12.2"}
,{"CODGEO":"76282","TxChomage":"10.8"}
,{"CODGEO":"76283","TxChomage":"10.8"}
,{"CODGEO":"76284","TxChomage":"10.8"}
,{"CODGEO":"76285","TxChomage":"10.8"}
,{"CODGEO":"76286","TxChomage":"9.9"}
,{"CODGEO":"76287","TxChomage":"10.8"}
,{"CODGEO":"76288","TxChomage":"9.9"}
,{"CODGEO":"76289","TxChomage":"10.8"}
,{"CODGEO":"76290","TxChomage":"10.8"}
,{"CODGEO":"76291","TxChomage":"12.2"}
,{"CODGEO":"76292","TxChomage":"10.8"}
,{"CODGEO":"76293","TxChomage":"10.8"}
,{"CODGEO":"76294","TxChomage":"9.9"}
,{"CODGEO":"76295","TxChomage":"10.8"}
,{"CODGEO":"76296","TxChomage":"12.2"}
,{"CODGEO":"76297","TxChomage":"10.8"}
,{"CODGEO":"76298","TxChomage":"12.2"}
,{"CODGEO":"76299","TxChomage":"12.2"}
,{"CODGEO":"76300","TxChomage":"12.2"}
,{"CODGEO":"76301","TxChomage":"9.9"}
,{"CODGEO":"76302","TxChomage":"12.2"}
,{"CODGEO":"76303","TxChomage":"12.2"}
,{"CODGEO":"76304","TxChomage":"12.2"}
,{"CODGEO":"76305","TxChomage":"12.2"}
,{"CODGEO":"76306","TxChomage":"9.9"}
,{"CODGEO":"76307","TxChomage":"12.2"}
,{"CODGEO":"76308","TxChomage":"9.9"}
,{"CODGEO":"76309","TxChomage":"9.9"}
,{"CODGEO":"76310","TxChomage":"9.9"}
,{"CODGEO":"76311","TxChomage":"10.8"}
,{"CODGEO":"76312","TxChomage":"10.8"}
,{"CODGEO":"76313","TxChomage":"10.8"}
,{"CODGEO":"76314","TxChomage":"12.2"}
,{"CODGEO":"76315","TxChomage":"9.9"}
,{"CODGEO":"76316","TxChomage":"10.8"}
,{"CODGEO":"76317","TxChomage":"12.2"}
,{"CODGEO":"76318","TxChomage":"12.2"}
,{"CODGEO":"76319","TxChomage":"10.8"}
,{"CODGEO":"76320","TxChomage":"10.3"}
,{"CODGEO":"76321","TxChomage":"9.9"}
,{"CODGEO":"76322","TxChomage":"10.8"}
,{"CODGEO":"76323","TxChomage":"10.8"}
,{"CODGEO":"76324","TxChomage":"9.9"}
,{"CODGEO":"76325","TxChomage":"10.8"}
,{"CODGEO":"76326","TxChomage":"9.9"}
,{"CODGEO":"76327","TxChomage":"9.9"}
,{"CODGEO":"76328","TxChomage":"10.8"}
,{"CODGEO":"76329","TxChomage":"12.2"}
,{"CODGEO":"76330","TxChomage":"9.9"}
,{"CODGEO":"76331","TxChomage":"10.8"}
,{"CODGEO":"76332","TxChomage":"10.8"}
,{"CODGEO":"76333","TxChomage":"10.3"}
,{"CODGEO":"76334","TxChomage":"9.9"}
,{"CODGEO":"76335","TxChomage":"10.8"}
,{"CODGEO":"76336","TxChomage":"9.9"}
,{"CODGEO":"76337","TxChomage":"9.9"}
,{"CODGEO":"76338","TxChomage":"10.8"}
,{"CODGEO":"76339","TxChomage":"10.8"}
,{"CODGEO":"76340","TxChomage":"10.8"}
,{"CODGEO":"76341","TxChomage":"12.2"}
,{"CODGEO":"76342","TxChomage":"12.2"}
,{"CODGEO":"76343","TxChomage":"10.8"}
,{"CODGEO":"76344","TxChomage":"10.3"}
,{"CODGEO":"76345","TxChomage":"10.8"}
,{"CODGEO":"76346","TxChomage":"10.8"}
,{"CODGEO":"76347","TxChomage":"10.8"}
,{"CODGEO":"76348","TxChomage":"10.8"}
,{"CODGEO":"76349","TxChomage":"9.9"}
,{"CODGEO":"76350","TxChomage":"10.8"}
,{"CODGEO":"76351","TxChomage":"12.2"}
,{"CODGEO":"76352","TxChomage":"10.8"}
,{"CODGEO":"76353","TxChomage":"9.9"}
,{"CODGEO":"76354","TxChomage":"10.8"}
,{"CODGEO":"76355","TxChomage":"10.8"}
,{"CODGEO":"76356","TxChomage":"9.9"}
,{"CODGEO":"76357","TxChomage":"12.2"}
,{"CODGEO":"76358","TxChomage":"10.8"}
,{"CODGEO":"76359","TxChomage":"10.8"}
,{"CODGEO":"76360","TxChomage":"10.8"}
,{"CODGEO":"76361","TxChomage":"12.2"}
,{"CODGEO":"76362","TxChomage":"10.8"}
,{"CODGEO":"76363","TxChomage":"10.3"}
,{"CODGEO":"76364","TxChomage":"10.8"}
,{"CODGEO":"76365","TxChomage":"9.9"}
,{"CODGEO":"76366","TxChomage":"10.8"}
,{"CODGEO":"76367","TxChomage":"10.8"}
,{"CODGEO":"76368","TxChomage":"12.2"}
,{"CODGEO":"76369","TxChomage":"10.8"}
,{"CODGEO":"76370","TxChomage":"10.8"}
,{"CODGEO":"76371","TxChomage":"9.9"}
,{"CODGEO":"76372","TxChomage":"10.8"}
,{"CODGEO":"76373","TxChomage":"10.8"}
,{"CODGEO":"76374","TxChomage":"10.3"}
,{"CODGEO":"76375","TxChomage":"9.9"}
,{"CODGEO":"76376","TxChomage":"9.9"}
,{"CODGEO":"76377","TxChomage":"10.8"}
,{"CODGEO":"76378","TxChomage":"10.8"}
,{"CODGEO":"76379","TxChomage":"9.9"}
,{"CODGEO":"76380","TxChomage":"9.9"}
,{"CODGEO":"76381","TxChomage":"10.3"}
,{"CODGEO":"76382","TxChomage":"12.2"}
,{"CODGEO":"76383","TxChomage":"9.9"}
,{"CODGEO":"76384","TxChomage":"12.2"}
,{"CODGEO":"76385","TxChomage":"10.8"}
,{"CODGEO":"76386","TxChomage":"12.2"}
,{"CODGEO":"76387","TxChomage":"10.8"}
,{"CODGEO":"76388","TxChomage":"12.2"}
,{"CODGEO":"76389","TxChomage":"9.9"}
,{"CODGEO":"76390","TxChomage":"12.2"}
,{"CODGEO":"76391","TxChomage":"10.8"}
,{"CODGEO":"76392","TxChomage":"9.9"}
,{"CODGEO":"76393","TxChomage":"10.8"}
,{"CODGEO":"76394","TxChomage":"10.3"}
,{"CODGEO":"76395","TxChomage":"9.9"}
,{"CODGEO":"76396","TxChomage":"10.8"}
,{"CODGEO":"76397","TxChomage":"9.9"}
,{"CODGEO":"76398","TxChomage":"12.2"}
,{"CODGEO":"76399","TxChomage":"10.8"}
,{"CODGEO":"76400","TxChomage":"9.9"}
,{"CODGEO":"76401","TxChomage":"10.8"}
,{"CODGEO":"76402","TxChomage":"10.8"}
,{"CODGEO":"76403","TxChomage":"9.9"}
,{"CODGEO":"76404","TxChomage":"12.2"}
,{"CODGEO":"76405","TxChomage":"9.9"}
,{"CODGEO":"76406","TxChomage":"12.2"}
,{"CODGEO":"76407","TxChomage":"9.9"}
,{"CODGEO":"76408","TxChomage":"12.2"}
,{"CODGEO":"76409","TxChomage":"12.2"}
,{"CODGEO":"76410","TxChomage":"10.8"}
,{"CODGEO":"76411","TxChomage":"10.3"}
,{"CODGEO":"76412","TxChomage":"10.8"}
,{"CODGEO":"76413","TxChomage":"9.9"}
,{"CODGEO":"76414","TxChomage":"9.9"}
,{"CODGEO":"76415","TxChomage":"10.8"}
,{"CODGEO":"76416","TxChomage":"10.8"}
,{"CODGEO":"76417","TxChomage":"10.8"}
,{"CODGEO":"76418","TxChomage":"12.2"}
,{"CODGEO":"76419","TxChomage":"10.8"}
,{"CODGEO":"76420","TxChomage":"10.8"}
,{"CODGEO":"76421","TxChomage":"12.2"}
,{"CODGEO":"76422","TxChomage":"10.3"}
,{"CODGEO":"76423","TxChomage":"10.8"}
,{"CODGEO":"76424","TxChomage":"10.8"}
,{"CODGEO":"76425","TxChomage":"12.2"}
,{"CODGEO":"76426","TxChomage":"10.8"}
,{"CODGEO":"76427","TxChomage":"10.8"}
,{"CODGEO":"76428","TxChomage":"9.9"}
,{"CODGEO":"76429","TxChomage":"10.8"}
,{"CODGEO":"76430","TxChomage":"10.8"}
,{"CODGEO":"76431","TxChomage":"10.8"}
,{"CODGEO":"76432","TxChomage":"10.8"}
,{"CODGEO":"76433","TxChomage":"10.8"}
,{"CODGEO":"76434","TxChomage":"10.8"}
,{"CODGEO":"76435","TxChomage":"10.3"}
,{"CODGEO":"76436","TxChomage":"10.8"}
,{"CODGEO":"76437","TxChomage":"9.9"}
,{"CODGEO":"76438","TxChomage":"10.3"}
,{"CODGEO":"76439","TxChomage":"12.2"}
,{"CODGEO":"76440","TxChomage":"10.8"}
,{"CODGEO":"76441","TxChomage":"10.3"}
,{"CODGEO":"76442","TxChomage":"10.3"}
,{"CODGEO":"76443","TxChomage":"10.8"}
,{"CODGEO":"76444","TxChomage":"10.8"}
,{"CODGEO":"76445","TxChomage":"10.8"}
,{"CODGEO":"76446","TxChomage":"10.8"}
,{"CODGEO":"76447","TxChomage":"12.2"}
,{"CODGEO":"76448","TxChomage":"10.8"}
,{"CODGEO":"76449","TxChomage":"10.8"}
,{"CODGEO":"76450","TxChomage":"10.8"}
,{"CODGEO":"76451","TxChomage":"10.8"}
,{"CODGEO":"76452","TxChomage":"10.8"}
,{"CODGEO":"76453","TxChomage":"10.8"}
,{"CODGEO":"76454","TxChomage":"10.8"}
,{"CODGEO":"76455","TxChomage":"10.8"}
,{"CODGEO":"76456","TxChomage":"10.8"}
,{"CODGEO":"76457","TxChomage":"10.8"}
,{"CODGEO":"76458","TxChomage":"9.9"}
,{"CODGEO":"76459","TxChomage":"10.8"}
,{"CODGEO":"76460","TxChomage":"10.3"}
,{"CODGEO":"76461","TxChomage":"10.8"}
,{"CODGEO":"76462","TxChomage":"10.8"}
,{"CODGEO":"76463","TxChomage":"10.8"}
,{"CODGEO":"76464","TxChomage":"10.8"}
,{"CODGEO":"76465","TxChomage":"10.8"}
,{"CODGEO":"76467","TxChomage":"9.9"}
,{"CODGEO":"76468","TxChomage":"12.2"}
,{"CODGEO":"76469","TxChomage":"10.8"}
,{"CODGEO":"76470","TxChomage":"12.2"}
,{"CODGEO":"76471","TxChomage":"12.2"}
,{"CODGEO":"76472","TxChomage":"9.9"}
,{"CODGEO":"76473","TxChomage":"10.8"}
,{"CODGEO":"76474","TxChomage":"10.8"}
,{"CODGEO":"76475","TxChomage":"10.8"}
,{"CODGEO":"76476","TxChomage":"12.2"}
,{"CODGEO":"76477","TxChomage":"12.2"}
,{"CODGEO":"76478","TxChomage":"9.9"}
,{"CODGEO":"76479","TxChomage":"10.3"}
,{"CODGEO":"76480","TxChomage":"9.9"}
,{"CODGEO":"76481","TxChomage":"12.2"}
,{"CODGEO":"76482","TxChomage":"9.9"}
,{"CODGEO":"76483","TxChomage":"10.8"}
,{"CODGEO":"76484","TxChomage":"10.8"}
,{"CODGEO":"76485","TxChomage":"9.9"}
,{"CODGEO":"76486","TxChomage":"10.8"}
,{"CODGEO":"76487","TxChomage":"9.9"}
,{"CODGEO":"76488","TxChomage":"9.9"}
,{"CODGEO":"76489","TxChomage":"12.2"}
,{"CODGEO":"76490","TxChomage":"12.2"}
,{"CODGEO":"76491","TxChomage":"10.8"}
,{"CODGEO":"76492","TxChomage":"9.9"}
,{"CODGEO":"76493","TxChomage":"9.9"}
,{"CODGEO":"76494","TxChomage":"12.2"}
,{"CODGEO":"76495","TxChomage":"10.8"}
,{"CODGEO":"76496","TxChomage":"9.9"}
,{"CODGEO":"76497","TxChomage":"10.8"}
,{"CODGEO":"76498","TxChomage":"10.8"}
,{"CODGEO":"76499","TxChomage":"12.2"}
,{"CODGEO":"76500","TxChomage":"10.3"}
,{"CODGEO":"76501","TxChomage":"12.2"}
,{"CODGEO":"76502","TxChomage":"10.8"}
,{"CODGEO":"76503","TxChomage":"10.8"}
,{"CODGEO":"76504","TxChomage":"9.9"}
,{"CODGEO":"76505","TxChomage":"10.8"}
,{"CODGEO":"76506","TxChomage":"10.8"}
,{"CODGEO":"76507","TxChomage":"10.3"}
,{"CODGEO":"76508","TxChomage":"12.2"}
,{"CODGEO":"76509","TxChomage":"10.8"}
,{"CODGEO":"76510","TxChomage":"9.9"}
,{"CODGEO":"76511","TxChomage":"10.3"}
,{"CODGEO":"76512","TxChomage":"9.9"}
,{"CODGEO":"76513","TxChomage":"10.8"}
,{"CODGEO":"76514","TxChomage":"10.8"}
,{"CODGEO":"76515","TxChomage":"9.9"}
,{"CODGEO":"76516","TxChomage":"10.8"}
,{"CODGEO":"76517","TxChomage":"10.8"}
,{"CODGEO":"76518","TxChomage":"12.2"}
,{"CODGEO":"76519","TxChomage":"9.9"}
,{"CODGEO":"76520","TxChomage":"10.3"}
,{"CODGEO":"76521","TxChomage":"10.8"}
,{"CODGEO":"76522","TxChomage":"12.2"}
,{"CODGEO":"76523","TxChomage":"10.3"}
,{"CODGEO":"76524","TxChomage":"9.9"}
,{"CODGEO":"76525","TxChomage":"12.2"}
,{"CODGEO":"76526","TxChomage":"9.9"}
,{"CODGEO":"76527","TxChomage":"10.3"}
,{"CODGEO":"76528","TxChomage":"10.3"}
,{"CODGEO":"76529","TxChomage":"12.2"}
,{"CODGEO":"76530","TxChomage":"10.8"}
,{"CODGEO":"76531","TxChomage":"10.8"}
,{"CODGEO":"76532","TxChomage":"10.8"}
,{"CODGEO":"76533","TxChomage":"12.2"}
,{"CODGEO":"76534","TxChomage":"12.2"}
,{"CODGEO":"76535","TxChomage":"10.8"}
,{"CODGEO":"76536","TxChomage":"10.8"}
,{"CODGEO":"76537","TxChomage":"10.8"}
,{"CODGEO":"76538","TxChomage":"10.8"}
,{"CODGEO":"76540","TxChomage":"10.8"}
,{"CODGEO":"76541","TxChomage":"10.8"}
,{"CODGEO":"76542","TxChomage":"10.8"}
,{"CODGEO":"76543","TxChomage":"12.2"}
,{"CODGEO":"76544","TxChomage":"10.8"}
,{"CODGEO":"76545","TxChomage":"9.9"}
,{"CODGEO":"76546","TxChomage":"9.9"}
,{"CODGEO":"76547","TxChomage":"10.8"}
,{"CODGEO":"76548","TxChomage":"10.8"}
,{"CODGEO":"76549","TxChomage":"9.9"}
,{"CODGEO":"76550","TxChomage":"10.8"}
,{"CODGEO":"76551","TxChomage":"12.2"}
,{"CODGEO":"76552","TxChomage":"12.2"}
,{"CODGEO":"76553","TxChomage":"9.9"}
,{"CODGEO":"76554","TxChomage":"10.8"}
,{"CODGEO":"76555","TxChomage":"10.8"}
,{"CODGEO":"76556","TxChomage":"12.2"}
,{"CODGEO":"76557","TxChomage":"12.2"}
,{"CODGEO":"76558","TxChomage":"10.8"}
,{"CODGEO":"76559","TxChomage":"12.2"}
,{"CODGEO":"76560","TxChomage":"10.8"}
,{"CODGEO":"76561","TxChomage":"10.8"}
,{"CODGEO":"76562","TxChomage":"9.9"}
,{"CODGEO":"76563","TxChomage":"12.2"}
,{"CODGEO":"76564","TxChomage":"9.9"}
,{"CODGEO":"76565","TxChomage":"9.9"}
,{"CODGEO":"76566","TxChomage":"10.8"}
,{"CODGEO":"76567","TxChomage":"10.8"}
,{"CODGEO":"76568","TxChomage":"10.8"}
,{"CODGEO":"76569","TxChomage":"9.9"}
,{"CODGEO":"76570","TxChomage":"9.9"}
,{"CODGEO":"76571","TxChomage":"10.8"}
,{"CODGEO":"76572","TxChomage":"9.9"}
,{"CODGEO":"76573","TxChomage":"10.8"}
,{"CODGEO":"76574","TxChomage":"10.8"}
,{"CODGEO":"76575","TxChomage":"10.8"}
,{"CODGEO":"76576","TxChomage":"12.2"}
,{"CODGEO":"76577","TxChomage":"9.9"}
,{"CODGEO":"76578","TxChomage":"10.8"}
,{"CODGEO":"76580","TxChomage":"10.8"}
,{"CODGEO":"76581","TxChomage":"10.8"}
,{"CODGEO":"76582","TxChomage":"9.9"}
,{"CODGEO":"76583","TxChomage":"10.8"}
,{"CODGEO":"76584","TxChomage":"10.8"}
,{"CODGEO":"76585","TxChomage":"12.2"}
,{"CODGEO":"76586","TxChomage":"12.2"}
,{"CODGEO":"76587","TxChomage":"12.2"}
,{"CODGEO":"76588","TxChomage":"10.8"}
,{"CODGEO":"76589","TxChomage":"9.9"}
,{"CODGEO":"76590","TxChomage":"9.9"}
,{"CODGEO":"76591","TxChomage":"10.8"}
,{"CODGEO":"76592","TxChomage":"12.2"}
,{"CODGEO":"76593","TxChomage":"12.2"}
,{"CODGEO":"76594","TxChomage":"10.8"}
,{"CODGEO":"76595","TxChomage":"12.2"}
,{"CODGEO":"76596","TxChomage":"12.2"}
,{"CODGEO":"76597","TxChomage":"9.9"}
,{"CODGEO":"76598","TxChomage":"10.3"}
,{"CODGEO":"76599","TxChomage":"10.8"}
,{"CODGEO":"76600","TxChomage":"12.2"}
,{"CODGEO":"76602","TxChomage":"10.8"}
,{"CODGEO":"76603","TxChomage":"12.2"}
,{"CODGEO":"76604","TxChomage":"9.9"}
,{"CODGEO":"76605","TxChomage":"9.9"}
,{"CODGEO":"76606","TxChomage":"10.3"}
,{"CODGEO":"76607","TxChomage":"12.2"}
,{"CODGEO":"76608","TxChomage":"10.8"}
,{"CODGEO":"76609","TxChomage":"12.2"}
,{"CODGEO":"76610","TxChomage":"10.8"}
,{"CODGEO":"76611","TxChomage":"10.8"}
,{"CODGEO":"76612","TxChomage":"10.3"}
,{"CODGEO":"76613","TxChomage":"9.9"}
,{"CODGEO":"76614","TxChomage":"10.8"}
,{"CODGEO":"76615","TxChomage":"12.2"}
,{"CODGEO":"76616","TxChomage":"12.2"}
,{"CODGEO":"76617","TxChomage":"10.8"}
,{"CODGEO":"76618","TxChomage":"9.9"}
,{"CODGEO":"76619","TxChomage":"10.3"}
,{"CODGEO":"76620","TxChomage":"10.8"}
,{"CODGEO":"76621","TxChomage":"10.8"}
,{"CODGEO":"76622","TxChomage":"12.2"}
,{"CODGEO":"76623","TxChomage":"10.8"}
,{"CODGEO":"76624","TxChomage":"9.9"}
,{"CODGEO":"76625","TxChomage":"10.8"}
,{"CODGEO":"76626","TxChomage":"12.2"}
,{"CODGEO":"76627","TxChomage":"12.2"}
,{"CODGEO":"76628","TxChomage":"10.8"}
,{"CODGEO":"76629","TxChomage":"9.9"}
,{"CODGEO":"76630","TxChomage":"9.9"}
,{"CODGEO":"76631","TxChomage":"10.8"}
,{"CODGEO":"76632","TxChomage":"10.8"}
,{"CODGEO":"76634","TxChomage":"10.8"}
,{"CODGEO":"76635","TxChomage":"9.9"}
,{"CODGEO":"76636","TxChomage":"10.8"}
,{"CODGEO":"76637","TxChomage":"12.2"}
,{"CODGEO":"76638","TxChomage":"10.3"}
,{"CODGEO":"76639","TxChomage":"12.2"}
,{"CODGEO":"76640","TxChomage":"10.8"}
,{"CODGEO":"76641","TxChomage":"9.9"}
,{"CODGEO":"76642","TxChomage":"9.9"}
,{"CODGEO":"76643","TxChomage":"9.9"}
,{"CODGEO":"76644","TxChomage":"10.3"}
,{"CODGEO":"76645","TxChomage":"10.3"}
,{"CODGEO":"76646","TxChomage":"9.9"}
,{"CODGEO":"76647","TxChomage":"12.2"}
,{"CODGEO":"76648","TxChomage":"10.8"}
,{"CODGEO":"76649","TxChomage":"10.8"}
,{"CODGEO":"76650","TxChomage":"12.2"}
,{"CODGEO":"76651","TxChomage":"9.9"}
,{"CODGEO":"76652","TxChomage":"9.9"}
,{"CODGEO":"76653","TxChomage":"10.8"}
,{"CODGEO":"76654","TxChomage":"10.8"}
,{"CODGEO":"76655","TxChomage":"9.9"}
,{"CODGEO":"76656","TxChomage":"10.8"}
,{"CODGEO":"76657","TxChomage":"12.2"}
,{"CODGEO":"76658","TxChomage":"12.2"}
,{"CODGEO":"76659","TxChomage":"10.8"}
,{"CODGEO":"76660","TxChomage":"12.2"}
,{"CODGEO":"76662","TxChomage":"9.9"}
,{"CODGEO":"76663","TxChomage":"12.2"}
,{"CODGEO":"76664","TxChomage":"9.9"}
,{"CODGEO":"76665","TxChomage":"9.9"}
,{"CODGEO":"76666","TxChomage":"10.8"}
,{"CODGEO":"76667","TxChomage":"9.9"}
,{"CODGEO":"76668","TxChomage":"10.8"}
,{"CODGEO":"76669","TxChomage":"12.2"}
,{"CODGEO":"76670","TxChomage":"12.2"}
,{"CODGEO":"76671","TxChomage":"10.3"}
,{"CODGEO":"76672","TxChomage":"10.8"}
,{"CODGEO":"76673","TxChomage":"10.8"}
,{"CODGEO":"76674","TxChomage":"10.8"}
,{"CODGEO":"76675","TxChomage":"10.8"}
,{"CODGEO":"76676","TxChomage":"10.8"}
,{"CODGEO":"76677","TxChomage":"9.9"}
,{"CODGEO":"76678","TxChomage":"10.8"}
,{"CODGEO":"76679","TxChomage":"12.2"}
,{"CODGEO":"76680","TxChomage":"12.2"}
,{"CODGEO":"76681","TxChomage":"10.8"}
,{"CODGEO":"76682","TxChomage":"10.8"}
,{"CODGEO":"76683","TxChomage":"9.9"}
,{"CODGEO":"76684","TxChomage":"12.2"}
,{"CODGEO":"76685","TxChomage":"12.2"}
,{"CODGEO":"76686","TxChomage":"12.2"}
,{"CODGEO":"76688","TxChomage":"12.2"}
,{"CODGEO":"76689","TxChomage":"12.2"}
,{"CODGEO":"76690","TxChomage":"9.9"}
,{"CODGEO":"76691","TxChomage":"10.8"}
,{"CODGEO":"76692","TxChomage":"12.2"}
,{"CODGEO":"76693","TxChomage":"12.2"}
,{"CODGEO":"76694","TxChomage":"9.9"}
,{"CODGEO":"76695","TxChomage":"12.2"}
,{"CODGEO":"76696","TxChomage":"10.3"}
,{"CODGEO":"76697","TxChomage":"9.9"}
,{"CODGEO":"76698","TxChomage":"9.9"}
,{"CODGEO":"76699","TxChomage":"10.8"}
,{"CODGEO":"76700","TxChomage":"10.8"}
,{"CODGEO":"76701","TxChomage":"12.2"}
,{"CODGEO":"76702","TxChomage":"10.8"}
,{"CODGEO":"76703","TxChomage":"10.3"}
,{"CODGEO":"76704","TxChomage":"9.9"}
,{"CODGEO":"76705","TxChomage":"10.8"}
,{"CODGEO":"76706","TxChomage":"12.2"}
,{"CODGEO":"76707","TxChomage":"9.9"}
,{"CODGEO":"76708","TxChomage":"12.2"}
,{"CODGEO":"76709","TxChomage":"10.8"}
,{"CODGEO":"76710","TxChomage":"12.2"}
,{"CODGEO":"76711","TxChomage":"10.3"}
,{"CODGEO":"76712","TxChomage":"12.2"}
,{"CODGEO":"76713","TxChomage":"12.2"}
,{"CODGEO":"76714","TxChomage":"12.2"}
,{"CODGEO":"76715","TxChomage":"12.2"}
,{"CODGEO":"76716","TxChomage":"12.2"}
,{"CODGEO":"76717","TxChomage":"10.8"}
,{"CODGEO":"76718","TxChomage":"10.8"}
,{"CODGEO":"76719","TxChomage":"12.2"}
,{"CODGEO":"76720","TxChomage":"9.9"}
,{"CODGEO":"76721","TxChomage":"10.8"}
,{"CODGEO":"76723","TxChomage":"10.8"}
,{"CODGEO":"76724","TxChomage":"10.8"}
,{"CODGEO":"76725","TxChomage":"12.2"}
,{"CODGEO":"76726","TxChomage":"12.2"}
,{"CODGEO":"76727","TxChomage":"10.8"}
,{"CODGEO":"76728","TxChomage":"10.8"}
,{"CODGEO":"76729","TxChomage":"10.8"}
,{"CODGEO":"76730","TxChomage":"10.8"}
,{"CODGEO":"76731","TxChomage":"9.9"}
,{"CODGEO":"76732","TxChomage":"9.9"}
,{"CODGEO":"76733","TxChomage":"10.8"}
,{"CODGEO":"76734","TxChomage":"12.2"}
,{"CODGEO":"76735","TxChomage":"9.9"}
,{"CODGEO":"76736","TxChomage":"9.9"}
,{"CODGEO":"76737","TxChomage":"10.8"}
,{"CODGEO":"76738","TxChomage":"10.8"}
,{"CODGEO":"76739","TxChomage":"10.3"}
,{"CODGEO":"76740","TxChomage":"10.8"}
,{"CODGEO":"76741","TxChomage":"12.2"}
,{"CODGEO":"76742","TxChomage":"12.2"}
,{"CODGEO":"76743","TxChomage":"10.8"}
,{"CODGEO":"76744","TxChomage":"10.3"}
,{"CODGEO":"76745","TxChomage":"10.3"}
,{"CODGEO":"76746","TxChomage":"12.2"}
,{"CODGEO":"76747","TxChomage":"12.2"}
,{"CODGEO":"76748","TxChomage":"9.9"}
,{"CODGEO":"76749","TxChomage":"9.9"}
,{"CODGEO":"76750","TxChomage":"10.8"}
,{"CODGEO":"76751","TxChomage":"12.2"}
,{"CODGEO":"76752","TxChomage":"10.8"}
,{"CODGEO":"76753","TxChomage":"10.8"}
,{"CODGEO":"76754","TxChomage":"12.2"}
,{"CODGEO":"76755","TxChomage":"12.2"}
,{"CODGEO":"76756","TxChomage":"10.8"}
,{"CODGEO":"76757","TxChomage":"10.8"}
,{"CODGEO":"76758","TxChomage":"10.8"}
,{"CODGEO":"76759","TxChomage":"10.8"}
]}
