{"status":"success","data":[{"CODGEO":"82001","TxChomage":"11.8"}
,{"CODGEO":"82002","TxChomage":"11.8"}
,{"CODGEO":"82003","TxChomage":"11.8"}
,{"CODGEO":"82004","TxChomage":"11.8"}
,{"CODGEO":"82005","TxChomage":"10.6"}
,{"CODGEO":"82006","TxChomage":"11.8"}
,{"CODGEO":"82007","TxChomage":"11.8"}
,{"CODGEO":"82008","TxChomage":"11.8"}
,{"CODGEO":"82009","TxChomage":"11.8"}
,{"CODGEO":"82010","TxChomage":"11.8"}
,{"CODGEO":"82011","TxChomage":"11.8"}
,{"CODGEO":"82012","TxChomage":"11.8"}
,{"CODGEO":"82013","TxChomage":"11.8"}
,{"CODGEO":"82014","TxChomage":"10.6"}
,{"CODGEO":"82015","TxChomage":"11.8"}
,{"CODGEO":"82016","TxChomage":"11.8"}
,{"CODGEO":"82017","TxChomage":"10.6"}
,{"CODGEO":"82018","TxChomage":"11.8"}
,{"CODGEO":"82019","TxChomage":"11.8"}
,{"CODGEO":"82020","TxChomage":"10.6"}
,{"CODGEO":"82021","TxChomage":"11.8"}
,{"CODGEO":"82022","TxChomage":"11.8"}
,{"CODGEO":"82023","TxChomage":"11.8"}
,{"CODGEO":"82024","TxChomage":"11.8"}
,{"CODGEO":"82025","TxChomage":"11.8"}
,{"CODGEO":"82026","TxChomage":"11.8"}
,{"CODGEO":"82027","TxChomage":"10.6"}
,{"CODGEO":"82028","TxChomage":"10.6"}
,{"CODGEO":"82029","TxChomage":"8.5"}
,{"CODGEO":"82030","TxChomage":"11.8"}
,{"CODGEO":"82031","TxChomage":"11.8"}
,{"CODGEO":"82032","TxChomage":"11.8"}
,{"CODGEO":"82033","TxChomage":"11.8"}
,{"CODGEO":"82034","TxChomage":"11.8"}
,{"CODGEO":"82035","TxChomage":"11.8"}
,{"CODGEO":"82036","TxChomage":"10.6"}
,{"CODGEO":"82037","TxChomage":"11.8"}
,{"CODGEO":"82038","TxChomage":"11.8"}
,{"CODGEO":"82039","TxChomage":"11.8"}
,{"CODGEO":"82040","TxChomage":"11.8"}
,{"CODGEO":"82041","TxChomage":"11.8"}
,{"CODGEO":"82042","TxChomage":"11.8"}
,{"CODGEO":"82043","TxChomage":"10.6"}
,{"CODGEO":"82044","TxChomage":"11.8"}
,{"CODGEO":"82045","TxChomage":"11.8"}
,{"CODGEO":"82046","TxChomage":"11.8"}
,{"CODGEO":"82047","TxChomage":"11.8"}
,{"CODGEO":"82048","TxChomage":"10.6"}
,{"CODGEO":"82049","TxChomage":"11.8"}
,{"CODGEO":"82050","TxChomage":"11.8"}
,{"CODGEO":"82051","TxChomage":"11.8"}
,{"CODGEO":"82052","TxChomage":"11.8"}
,{"CODGEO":"82053","TxChomage":"10.6"}
,{"CODGEO":"82054","TxChomage":"11.8"}
,{"CODGEO":"82055","TxChomage":"11.8"}
,{"CODGEO":"82056","TxChomage":"11.8"}
,{"CODGEO":"82057","TxChomage":"10.6"}
,{"CODGEO":"82058","TxChomage":"11.8"}
,{"CODGEO":"82059","TxChomage":"11.8"}
,{"CODGEO":"82060","TxChomage":"11.8"}
,{"CODGEO":"82061","TxChomage":"11.8"}
,{"CODGEO":"82062","TxChomage":"10.6"}
,{"CODGEO":"82063","TxChomage":"11.8"}
,{"CODGEO":"82064","TxChomage":"10.6"}
,{"CODGEO":"82065","TxChomage":"11.8"}
,{"CODGEO":"82066","TxChomage":"11.8"}
,{"CODGEO":"82067","TxChomage":"11.8"}
,{"CODGEO":"82068","TxChomage":"11.8"}
,{"CODGEO":"82069","TxChomage":"8.5"}
,{"CODGEO":"82070","TxChomage":"11.8"}
,{"CODGEO":"82071","TxChomage":"11.8"}
,{"CODGEO":"82072","TxChomage":"11.8"}
,{"CODGEO":"82073","TxChomage":"11.8"}
,{"CODGEO":"82074","TxChomage":"8.7"}
,{"CODGEO":"82075","TxChomage":"10.6"}
,{"CODGEO":"82076","TxChomage":"11.8"}
,{"CODGEO":"82077","TxChomage":"11.8"}
,{"CODGEO":"82078","TxChomage":"11.8"}
,{"CODGEO":"82079","TxChomage":"11.8"}
,{"CODGEO":"82080","TxChomage":"11.8"}
,{"CODGEO":"82081","TxChomage":"11.8"}
,{"CODGEO":"82082","TxChomage":"11.8"}
,{"CODGEO":"82083","TxChomage":"8.7"}
,{"CODGEO":"82084","TxChomage":"11.8"}
,{"CODGEO":"82085","TxChomage":"11.8"}
,{"CODGEO":"82086","TxChomage":"11.8"}
,{"CODGEO":"82087","TxChomage":"11.8"}
,{"CODGEO":"82088","TxChomage":"11.8"}
,{"CODGEO":"82089","TxChomage":"11.8"}
,{"CODGEO":"82090","TxChomage":"11.8"}
,{"CODGEO":"82091","TxChomage":"11.8"}
,{"CODGEO":"82092","TxChomage":"11.8"}
,{"CODGEO":"82093","TxChomage":"11.8"}
,{"CODGEO":"82094","TxChomage":"11.8"}
,{"CODGEO":"82095","TxChomage":"11.8"}
,{"CODGEO":"82096","TxChomage":"11.8"}
,{"CODGEO":"82097","TxChomage":"11.8"}
,{"CODGEO":"82098","TxChomage":"11.8"}
,{"CODGEO":"82099","TxChomage":"11.8"}
,{"CODGEO":"82100","TxChomage":"11.8"}
,{"CODGEO":"82101","TxChomage":"11.8"}
,{"CODGEO":"82102","TxChomage":"11.8"}
,{"CODGEO":"82103","TxChomage":"11.8"}
,{"CODGEO":"82104","TxChomage":"8.7"}
,{"CODGEO":"82105","TxChomage":"10.6"}
,{"CODGEO":"82106","TxChomage":"11.8"}
,{"CODGEO":"82107","TxChomage":"11.8"}
,{"CODGEO":"82108","TxChomage":"11.8"}
,{"CODGEO":"82109","TxChomage":"11.8"}
,{"CODGEO":"82110","TxChomage":"11.8"}
,{"CODGEO":"82111","TxChomage":"11.8"}
,{"CODGEO":"82112","TxChomage":"11.8"}
,{"CODGEO":"82113","TxChomage":"11.8"}
,{"CODGEO":"82114","TxChomage":"10.6"}
,{"CODGEO":"82115","TxChomage":"11.8"}
,{"CODGEO":"82116","TxChomage":"11.8"}
,{"CODGEO":"82117","TxChomage":"11.8"}
,{"CODGEO":"82118","TxChomage":"11.8"}
,{"CODGEO":"82119","TxChomage":"11.8"}
,{"CODGEO":"82120","TxChomage":"11.8"}
,{"CODGEO":"82121","TxChomage":"11.8"}
,{"CODGEO":"82122","TxChomage":"11.8"}
,{"CODGEO":"82123","TxChomage":"11.8"}
,{"CODGEO":"82124","TxChomage":"11.8"}
,{"CODGEO":"82125","TxChomage":"11.8"}
,{"CODGEO":"82126","TxChomage":"11.8"}
,{"CODGEO":"82127","TxChomage":"11.8"}
,{"CODGEO":"82128","TxChomage":"11.8"}
,{"CODGEO":"82129","TxChomage":"11.8"}
,{"CODGEO":"82130","TxChomage":"11.8"}
,{"CODGEO":"82131","TxChomage":"11.8"}
,{"CODGEO":"82132","TxChomage":"11.8"}
,{"CODGEO":"82133","TxChomage":"11.8"}
,{"CODGEO":"82134","TxChomage":"11.8"}
,{"CODGEO":"82135","TxChomage":"10.6"}
,{"CODGEO":"82136","TxChomage":"10.6"}
,{"CODGEO":"82137","TxChomage":"8.5"}
,{"CODGEO":"82138","TxChomage":"11.8"}
,{"CODGEO":"82139","TxChomage":"11.8"}
,{"CODGEO":"82140","TxChomage":"11.8"}
,{"CODGEO":"82141","TxChomage":"11.8"}
,{"CODGEO":"82142","TxChomage":"10.6"}
,{"CODGEO":"82143","TxChomage":"8.7"}
,{"CODGEO":"82144","TxChomage":"11.8"}
,{"CODGEO":"82145","TxChomage":"11.8"}
,{"CODGEO":"82146","TxChomage":"11.8"}
,{"CODGEO":"82147","TxChomage":"8.5"}
,{"CODGEO":"82148","TxChomage":"11.8"}
,{"CODGEO":"82149","TxChomage":"11.8"}
,{"CODGEO":"82150","TxChomage":"11.8"}
,{"CODGEO":"82151","TxChomage":"11.8"}
,{"CODGEO":"82152","TxChomage":"11.8"}
,{"CODGEO":"82153","TxChomage":"11.8"}
,{"CODGEO":"82154","TxChomage":"11.8"}
,{"CODGEO":"82155","TxChomage":"11.8"}
,{"CODGEO":"82156","TxChomage":"11.8"}
,{"CODGEO":"82157","TxChomage":"11.8"}
,{"CODGEO":"82158","TxChomage":"11.8"}
,{"CODGEO":"82159","TxChomage":"11.8"}
,{"CODGEO":"82160","TxChomage":"11.8"}
,{"CODGEO":"82161","TxChomage":"11.8"}
,{"CODGEO":"82162","TxChomage":"11.8"}
,{"CODGEO":"82163","TxChomage":"11.8"}
,{"CODGEO":"82164","TxChomage":"11.8"}
,{"CODGEO":"82165","TxChomage":"11.8"}
,{"CODGEO":"82166","TxChomage":"11.8"}
,{"CODGEO":"82167","TxChomage":"11.8"}
,{"CODGEO":"82168","TxChomage":"11.8"}
,{"CODGEO":"82169","TxChomage":"11.8"}
,{"CODGEO":"82170","TxChomage":"11.8"}
,{"CODGEO":"82171","TxChomage":"11.8"}
,{"CODGEO":"82172","TxChomage":"11.8"}
,{"CODGEO":"82173","TxChomage":"10.6"}
,{"CODGEO":"82174","TxChomage":"11.8"}
,{"CODGEO":"82175","TxChomage":"11.8"}
,{"CODGEO":"82176","TxChomage":"11.8"}
,{"CODGEO":"82177","TxChomage":"10.9"}
,{"CODGEO":"82178","TxChomage":"10.6"}
,{"CODGEO":"82179","TxChomage":"11.8"}
,{"CODGEO":"82180","TxChomage":"11.8"}
,{"CODGEO":"82181","TxChomage":"11.8"}
,{"CODGEO":"82182","TxChomage":"11.8"}
,{"CODGEO":"82183","TxChomage":"11.8"}
,{"CODGEO":"82184","TxChomage":"11.8"}
,{"CODGEO":"82185","TxChomage":"11.8"}
,{"CODGEO":"82186","TxChomage":"11.8"}
,{"CODGEO":"82187","TxChomage":"11.8"}
,{"CODGEO":"82188","TxChomage":"10.6"}
,{"CODGEO":"82189","TxChomage":"11.8"}
,{"CODGEO":"82190","TxChomage":"10.6"}
,{"CODGEO":"82191","TxChomage":"11.8"}
,{"CODGEO":"82192","TxChomage":"11.8"}
,{"CODGEO":"82193","TxChomage":"11.8"}
,{"CODGEO":"82194","TxChomage":"10.6"}
,{"CODGEO":"82195","TxChomage":"11.8"}
]}
