{"status":"success","data":[{"CODGEO":"83001","TxChomage":"10.8"}
,{"CODGEO":"83002","TxChomage":"13.2"}
,{"CODGEO":"83003","TxChomage":"13.2"}
,{"CODGEO":"83004","TxChomage":"13.2"}
,{"CODGEO":"83005","TxChomage":"13.2"}
,{"CODGEO":"83006","TxChomage":"9.7"}
,{"CODGEO":"83007","TxChomage":"13.2"}
,{"CODGEO":"83008","TxChomage":"12.7"}
,{"CODGEO":"83009","TxChomage":"11"}
,{"CODGEO":"83010","TxChomage":"13.2"}
,{"CODGEO":"83011","TxChomage":"13.2"}
,{"CODGEO":"83012","TxChomage":"9.7"}
,{"CODGEO":"83013","TxChomage":"10.8"}
,{"CODGEO":"83014","TxChomage":"13.2"}
,{"CODGEO":"83015","TxChomage":"13.2"}
,{"CODGEO":"83016","TxChomage":"11"}
,{"CODGEO":"83017","TxChomage":"11"}
,{"CODGEO":"83018","TxChomage":"11"}
,{"CODGEO":"83019","TxChomage":"11"}
,{"CODGEO":"83020","TxChomage":"11.9"}
,{"CODGEO":"83021","TxChomage":"12.9"}
,{"CODGEO":"83022","TxChomage":"10.8"}
,{"CODGEO":"83023","TxChomage":"11"}
,{"CODGEO":"83025","TxChomage":"9.7"}
,{"CODGEO":"83026","TxChomage":"11"}
,{"CODGEO":"83027","TxChomage":"12.9"}
,{"CODGEO":"83028","TxChomage":"13.2"}
,{"CODGEO":"83029","TxChomage":"10.8"}
,{"CODGEO":"83030","TxChomage":"11"}
,{"CODGEO":"83031","TxChomage":"13.2"}
,{"CODGEO":"83032","TxChomage":"11"}
,{"CODGEO":"83033","TxChomage":"11"}
,{"CODGEO":"83034","TxChomage":"11"}
,{"CODGEO":"83035","TxChomage":"12.9"}
,{"CODGEO":"83036","TxChomage":"12.7"}
,{"CODGEO":"83037","TxChomage":"11"}
,{"CODGEO":"83038","TxChomage":"13.2"}
,{"CODGEO":"83039","TxChomage":"11"}
,{"CODGEO":"83040","TxChomage":"10.8"}
,{"CODGEO":"83041","TxChomage":"13.2"}
,{"CODGEO":"83042","TxChomage":"12.7"}
,{"CODGEO":"83043","TxChomage":"11"}
,{"CODGEO":"83044","TxChomage":"13.2"}
,{"CODGEO":"83045","TxChomage":"11"}
,{"CODGEO":"83046","TxChomage":"11"}
,{"CODGEO":"83047","TxChomage":"11"}
,{"CODGEO":"83048","TxChomage":"12.7"}
,{"CODGEO":"83049","TxChomage":"11"}
,{"CODGEO":"83050","TxChomage":"13.2"}
,{"CODGEO":"83051","TxChomage":"13.2"}
,{"CODGEO":"83052","TxChomage":"9.7"}
,{"CODGEO":"83053","TxChomage":"11"}
,{"CODGEO":"83054","TxChomage":"11"}
,{"CODGEO":"83055","TxChomage":"10.8"}
,{"CODGEO":"83056","TxChomage":"13.2"}
,{"CODGEO":"83057","TxChomage":"11"}
,{"CODGEO":"83058","TxChomage":"13.2"}
,{"CODGEO":"83059","TxChomage":"11"}
,{"CODGEO":"83060","TxChomage":"9.7"}
,{"CODGEO":"83061","TxChomage":"12.7"}
,{"CODGEO":"83062","TxChomage":"11"}
,{"CODGEO":"83063","TxChomage":"12.7"}
,{"CODGEO":"83064","TxChomage":"11"}
,{"CODGEO":"83065","TxChomage":"12.7"}
,{"CODGEO":"83066","TxChomage":"9.7"}
,{"CODGEO":"83067","TxChomage":"11"}
,{"CODGEO":"83068","TxChomage":"12.7"}
,{"CODGEO":"83069","TxChomage":"11"}
,{"CODGEO":"83070","TxChomage":"11"}
,{"CODGEO":"83071","TxChomage":"11"}
,{"CODGEO":"83072","TxChomage":"13.2"}
,{"CODGEO":"83073","TxChomage":"13.2"}
,{"CODGEO":"83074","TxChomage":"10.8"}
,{"CODGEO":"83075","TxChomage":"13.2"}
,{"CODGEO":"83076","TxChomage":"11"}
,{"CODGEO":"83077","TxChomage":"11"}
,{"CODGEO":"83078","TxChomage":"13.2"}
,{"CODGEO":"83079","TxChomage":"12.7"}
,{"CODGEO":"83080","TxChomage":"10.8"}
,{"CODGEO":"83081","TxChomage":"10.8"}
,{"CODGEO":"83082","TxChomage":"13.2"}
,{"CODGEO":"83083","TxChomage":"11"}
,{"CODGEO":"83084","TxChomage":"9.7"}
,{"CODGEO":"83085","TxChomage":"12.7"}
,{"CODGEO":"83086","TxChomage":"12.7"}
,{"CODGEO":"83087","TxChomage":"12.9"}
,{"CODGEO":"83088","TxChomage":"11"}
,{"CODGEO":"83089","TxChomage":"9.7"}
,{"CODGEO":"83090","TxChomage":"11"}
,{"CODGEO":"83091","TxChomage":"11"}
,{"CODGEO":"83092","TxChomage":"11"}
,{"CODGEO":"83093","TxChomage":"12.9"}
,{"CODGEO":"83094","TxChomage":"12.7"}
,{"CODGEO":"83095","TxChomage":"9.7"}
,{"CODGEO":"83096","TxChomage":"9.7"}
,{"CODGEO":"83097","TxChomage":"9.7"}
,{"CODGEO":"83098","TxChomage":"11"}
,{"CODGEO":"83099","TxChomage":"12.7"}
,{"CODGEO":"83100","TxChomage":"11"}
,{"CODGEO":"83101","TxChomage":"12.7"}
,{"CODGEO":"83102","TxChomage":"13.2"}
,{"CODGEO":"83103","TxChomage":"11"}
,{"CODGEO":"83104","TxChomage":"9.7"}
,{"CODGEO":"83105","TxChomage":"12.9"}
,{"CODGEO":"83106","TxChomage":"11"}
,{"CODGEO":"83107","TxChomage":"12.7"}
,{"CODGEO":"83108","TxChomage":"11"}
,{"CODGEO":"83109","TxChomage":"13.2"}
,{"CODGEO":"83110","TxChomage":"12.9"}
,{"CODGEO":"83111","TxChomage":"11"}
,{"CODGEO":"83112","TxChomage":"12.9"}
,{"CODGEO":"83113","TxChomage":"9.7"}
,{"CODGEO":"83114","TxChomage":"9.7"}
,{"CODGEO":"83115","TxChomage":"12.7"}
,{"CODGEO":"83116","TxChomage":"9.7"}
,{"CODGEO":"83117","TxChomage":"10.8"}
,{"CODGEO":"83118","TxChomage":"12.7"}
,{"CODGEO":"83119","TxChomage":"12.7"}
,{"CODGEO":"83120","TxChomage":"12.9"}
,{"CODGEO":"83121","TxChomage":"13.2"}
,{"CODGEO":"83122","TxChomage":"13.2"}
,{"CODGEO":"83123","TxChomage":"11"}
,{"CODGEO":"83124","TxChomage":"10.8"}
,{"CODGEO":"83125","TxChomage":"9.7"}
,{"CODGEO":"83126","TxChomage":"11"}
,{"CODGEO":"83127","TxChomage":"12.9"}
,{"CODGEO":"83128","TxChomage":"13.2"}
,{"CODGEO":"83129","TxChomage":"11"}
,{"CODGEO":"83130","TxChomage":"11"}
,{"CODGEO":"83131","TxChomage":"11"}
,{"CODGEO":"83132","TxChomage":"11"}
,{"CODGEO":"83133","TxChomage":"10.8"}
,{"CODGEO":"83134","TxChomage":"13.2"}
,{"CODGEO":"83135","TxChomage":"9.7"}
,{"CODGEO":"83136","TxChomage":"13.2"}
,{"CODGEO":"83137","TxChomage":"11"}
,{"CODGEO":"83138","TxChomage":"10.8"}
,{"CODGEO":"83139","TxChomage":"13.2"}
,{"CODGEO":"83140","TxChomage":"12.9"}
,{"CODGEO":"83141","TxChomage":"13.2"}
,{"CODGEO":"83142","TxChomage":"13.2"}
,{"CODGEO":"83143","TxChomage":"11"}
,{"CODGEO":"83144","TxChomage":"11"}
,{"CODGEO":"83145","TxChomage":"9.7"}
,{"CODGEO":"83146","TxChomage":"9.7"}
,{"CODGEO":"83147","TxChomage":"13.2"}
,{"CODGEO":"83148","TxChomage":"13.2"}
,{"CODGEO":"83149","TxChomage":"13.2"}
,{"CODGEO":"83150","TxChomage":"9.7"}
,{"CODGEO":"83151","TxChomage":"11"}
,{"CODGEO":"83152","TxChomage":"11"}
,{"CODGEO":"83153","TxChomage":"11"}
,{"CODGEO":"83154","TxChomage":"13.2"}
]}
