{"status":"success","data":[{"CODGEO":"93001","TxChomage":"8.9"}
,{"CODGEO":"93005","TxChomage":"11.1"}
,{"CODGEO":"93006","TxChomage":"8.9"}
,{"CODGEO":"93007","TxChomage":"11.1"}
,{"CODGEO":"93008","TxChomage":"8.9"}
,{"CODGEO":"93010","TxChomage":"8.9"}
,{"CODGEO":"93013","TxChomage":"11.1"}
,{"CODGEO":"93014","TxChomage":"11.1"}
,{"CODGEO":"93015","TxChomage":"11.1"}
,{"CODGEO":"93027","TxChomage":"11.1"}
,{"CODGEO":"93029","TxChomage":"8.9"}
,{"CODGEO":"93030","TxChomage":"11.1"}
,{"CODGEO":"93031","TxChomage":"8.9"}
,{"CODGEO":"93032","TxChomage":"8.9"}
,{"CODGEO":"93033","TxChomage":"8.9"}
,{"CODGEO":"93039","TxChomage":"8.9"}
,{"CODGEO":"93045","TxChomage":"8.9"}
,{"CODGEO":"93046","TxChomage":"11.1"}
,{"CODGEO":"93047","TxChomage":"11.1"}
,{"CODGEO":"93048","TxChomage":"8.9"}
,{"CODGEO":"93049","TxChomage":"8.9"}
,{"CODGEO":"93050","TxChomage":"8.9"}
,{"CODGEO":"93051","TxChomage":"8.1"}
,{"CODGEO":"93053","TxChomage":"8.9"}
,{"CODGEO":"93055","TxChomage":"8.9"}
,{"CODGEO":"93057","TxChomage":"11.1"}
,{"CODGEO":"93059","TxChomage":"11.1"}
,{"CODGEO":"93061","TxChomage":"8.9"}
,{"CODGEO":"93062","TxChomage":"11.1"}
,{"CODGEO":"93063","TxChomage":"8.9"}
,{"CODGEO":"93064","TxChomage":"8.9"}
,{"CODGEO":"93066","TxChomage":"8.9"}
,{"CODGEO":"93070","TxChomage":"8.9"}
,{"CODGEO":"93071","TxChomage":"11.1"}
,{"CODGEO":"93072","TxChomage":"11.1"}
,{"CODGEO":"93073","TxChomage":"11.1"}
,{"CODGEO":"93074","TxChomage":"11.1"}
,{"CODGEO":"93077","TxChomage":"8.9"}
,{"CODGEO":"93078","TxChomage":"11.1"}
,{"CODGEO":"93079","TxChomage":"11.1"}
]}
