{"status":"success","data":[{"CODGEO":"03001","TxPauvrete":"10.0"}
,{"CODGEO":"03002","TxPauvrete":"null"}
,{"CODGEO":"03003","TxPauvrete":"null"}
,{"CODGEO":"03004","TxPauvrete":"null"}
,{"CODGEO":"03005","TxPauvrete":"null"}
,{"CODGEO":"03006","TxPauvrete":"null"}
,{"CODGEO":"03007","TxPauvrete":"null"}
,{"CODGEO":"03008","TxPauvrete":"null"}
,{"CODGEO":"03009","TxPauvrete":"null"}
,{"CODGEO":"03010","TxPauvrete":"null"}
,{"CODGEO":"03011","TxPauvrete":"null"}
,{"CODGEO":"03012","TxPauvrete":"null"}
,{"CODGEO":"03013","TxPauvrete":"8.1"}
,{"CODGEO":"03014","TxPauvrete":"null"}
,{"CODGEO":"03015","TxPauvrete":"null"}
,{"CODGEO":"03016","TxPauvrete":"null"}
,{"CODGEO":"03017","TxPauvrete":"null"}
,{"CODGEO":"03018","TxPauvrete":"null"}
,{"CODGEO":"03019","TxPauvrete":"null"}
,{"CODGEO":"03020","TxPauvrete":"null"}
,{"CODGEO":"03021","TxPauvrete":"null"}
,{"CODGEO":"03022","TxPauvrete":"null"}
,{"CODGEO":"03023","TxPauvrete":"12.5"}
,{"CODGEO":"03024","TxPauvrete":"null"}
,{"CODGEO":"03025","TxPauvrete":"null"}
,{"CODGEO":"03026","TxPauvrete":"null"}
,{"CODGEO":"03027","TxPauvrete":"null"}
,{"CODGEO":"03028","TxPauvrete":"null"}
,{"CODGEO":"03029","TxPauvrete":"null"}
,{"CODGEO":"03030","TxPauvrete":"null"}
,{"CODGEO":"03031","TxPauvrete":"null"}
,{"CODGEO":"03032","TxPauvrete":"null"}
,{"CODGEO":"03033","TxPauvrete":"null"}
,{"CODGEO":"03034","TxPauvrete":"null"}
,{"CODGEO":"03035","TxPauvrete":"null"}
,{"CODGEO":"03036","TxPauvrete":"14.1"}
,{"CODGEO":"03037","TxPauvrete":"null"}
,{"CODGEO":"03038","TxPauvrete":"null"}
,{"CODGEO":"03039","TxPauvrete":"null"}
,{"CODGEO":"03040","TxPauvrete":"null"}
,{"CODGEO":"03041","TxPauvrete":"null"}
,{"CODGEO":"03042","TxPauvrete":"null"}
,{"CODGEO":"03043","TxPauvrete":"null"}
,{"CODGEO":"03044","TxPauvrete":"null"}
,{"CODGEO":"03045","TxPauvrete":"null"}
,{"CODGEO":"03046","TxPauvrete":"null"}
,{"CODGEO":"03047","TxPauvrete":"null"}
,{"CODGEO":"03048","TxPauvrete":"null"}
,{"CODGEO":"03049","TxPauvrete":"null"}
,{"CODGEO":"03050","TxPauvrete":"null"}
,{"CODGEO":"03051","TxPauvrete":"null"}
,{"CODGEO":"03052","TxPauvrete":"null"}
,{"CODGEO":"03053","TxPauvrete":"null"}
,{"CODGEO":"03054","TxPauvrete":"null"}
,{"CODGEO":"03055","TxPauvrete":"null"}
,{"CODGEO":"03056","TxPauvrete":"null"}
,{"CODGEO":"03057","TxPauvrete":"null"}
,{"CODGEO":"03058","TxPauvrete":"null"}
,{"CODGEO":"03059","TxPauvrete":"null"}
,{"CODGEO":"03060","TxPauvrete":"null"}
,{"CODGEO":"03061","TxPauvrete":"null"}
,{"CODGEO":"03062","TxPauvrete":"null"}
,{"CODGEO":"03063","TxPauvrete":"null"}
,{"CODGEO":"03064","TxPauvrete":"null"}
,{"CODGEO":"03065","TxPauvrete":"null"}
,{"CODGEO":"03066","TxPauvrete":"null"}
,{"CODGEO":"03067","TxPauvrete":"null"}
,{"CODGEO":"03068","TxPauvrete":"null"}
,{"CODGEO":"03069","TxPauvrete":"null"}
,{"CODGEO":"03070","TxPauvrete":"null"}
,{"CODGEO":"03071","TxPauvrete":"null"}
,{"CODGEO":"03072","TxPauvrete":"null"}
,{"CODGEO":"03073","TxPauvrete":"null"}
,{"CODGEO":"03074","TxPauvrete":"null"}
,{"CODGEO":"03075","TxPauvrete":"null"}
,{"CODGEO":"03076","TxPauvrete":"null"}
,{"CODGEO":"03077","TxPauvrete":"null"}
,{"CODGEO":"03078","TxPauvrete":"null"}
,{"CODGEO":"03079","TxPauvrete":"null"}
,{"CODGEO":"03080","TxPauvrete":"null"}
,{"CODGEO":"03081","TxPauvrete":"null"}
,{"CODGEO":"03082","TxPauvrete":"16.1"}
,{"CODGEO":"03083","TxPauvrete":"null"}
,{"CODGEO":"03084","TxPauvrete":"12.8"}
,{"CODGEO":"03085","TxPauvrete":"null"}
,{"CODGEO":"03086","TxPauvrete":"null"}
,{"CODGEO":"03087","TxPauvrete":"null"}
,{"CODGEO":"03088","TxPauvrete":"null"}
,{"CODGEO":"03089","TxPauvrete":"null"}
,{"CODGEO":"03090","TxPauvrete":"null"}
,{"CODGEO":"03091","TxPauvrete":"null"}
,{"CODGEO":"03092","TxPauvrete":"null"}
,{"CODGEO":"03093","TxPauvrete":"null"}
,{"CODGEO":"03094","TxPauvrete":"5.5"}
,{"CODGEO":"03095","TxPauvrete":"17.3"}
,{"CODGEO":"03096","TxPauvrete":"null"}
,{"CODGEO":"03097","TxPauvrete":"null"}
,{"CODGEO":"03098","TxPauvrete":"10.4"}
,{"CODGEO":"03099","TxPauvrete":"null"}
,{"CODGEO":"03100","TxPauvrete":"null"}
,{"CODGEO":"03101","TxPauvrete":"9.8"}
,{"CODGEO":"03102","TxPauvrete":"12.4"}
,{"CODGEO":"03103","TxPauvrete":"null"}
,{"CODGEO":"03104","TxPauvrete":"null"}
,{"CODGEO":"03105","TxPauvrete":"null"}
,{"CODGEO":"03106","TxPauvrete":"null"}
,{"CODGEO":"03107","TxPauvrete":"null"}
,{"CODGEO":"03108","TxPauvrete":"null"}
,{"CODGEO":"03109","TxPauvrete":"null"}
,{"CODGEO":"03110","TxPauvrete":"null"}
,{"CODGEO":"03111","TxPauvrete":"null"}
,{"CODGEO":"03112","TxPauvrete":"null"}
,{"CODGEO":"03113","TxPauvrete":"null"}
,{"CODGEO":"03114","TxPauvrete":"null"}
,{"CODGEO":"03115","TxPauvrete":"null"}
,{"CODGEO":"03116","TxPauvrete":"null"}
,{"CODGEO":"03117","TxPauvrete":"null"}
,{"CODGEO":"03118","TxPauvrete":"15.6"}
,{"CODGEO":"03119","TxPauvrete":"null"}
,{"CODGEO":"03120","TxPauvrete":"null"}
,{"CODGEO":"03121","TxPauvrete":"null"}
,{"CODGEO":"03122","TxPauvrete":"null"}
,{"CODGEO":"03123","TxPauvrete":"null"}
,{"CODGEO":"03124","TxPauvrete":"null"}
,{"CODGEO":"03125","TxPauvrete":"null"}
,{"CODGEO":"03126","TxPauvrete":"null"}
,{"CODGEO":"03127","TxPauvrete":"null"}
,{"CODGEO":"03128","TxPauvrete":"9.5"}
,{"CODGEO":"03129","TxPauvrete":"null"}
,{"CODGEO":"03130","TxPauvrete":"null"}
,{"CODGEO":"03131","TxPauvrete":"null"}
,{"CODGEO":"03132","TxPauvrete":"null"}
,{"CODGEO":"03133","TxPauvrete":"null"}
,{"CODGEO":"03134","TxPauvrete":"null"}
,{"CODGEO":"03135","TxPauvrete":"null"}
,{"CODGEO":"03136","TxPauvrete":"null"}
,{"CODGEO":"03137","TxPauvrete":"null"}
,{"CODGEO":"03138","TxPauvrete":"16.6"}
,{"CODGEO":"03139","TxPauvrete":"null"}
,{"CODGEO":"03140","TxPauvrete":"null"}
,{"CODGEO":"03141","TxPauvrete":"null"}
,{"CODGEO":"03142","TxPauvrete":"null"}
,{"CODGEO":"03143","TxPauvrete":"null"}
,{"CODGEO":"03144","TxPauvrete":"null"}
,{"CODGEO":"03145","TxPauvrete":"null"}
,{"CODGEO":"03146","TxPauvrete":"null"}
,{"CODGEO":"03147","TxPauvrete":"null"}
,{"CODGEO":"03148","TxPauvrete":"null"}
,{"CODGEO":"03149","TxPauvrete":"null"}
,{"CODGEO":"03150","TxPauvrete":"null"}
,{"CODGEO":"03151","TxPauvrete":"null"}
,{"CODGEO":"03152","TxPauvrete":"null"}
,{"CODGEO":"03153","TxPauvrete":"null"}
,{"CODGEO":"03154","TxPauvrete":"null"}
,{"CODGEO":"03155","TxPauvrete":"null"}
,{"CODGEO":"03156","TxPauvrete":"null"}
,{"CODGEO":"03157","TxPauvrete":"null"}
,{"CODGEO":"03158","TxPauvrete":"null"}
,{"CODGEO":"03159","TxPauvrete":"null"}
,{"CODGEO":"03160","TxPauvrete":"null"}
,{"CODGEO":"03161","TxPauvrete":"null"}
,{"CODGEO":"03162","TxPauvrete":"null"}
,{"CODGEO":"03163","TxPauvrete":"null"}
,{"CODGEO":"03164","TxPauvrete":"null"}
,{"CODGEO":"03165","TxPauvrete":"null"}
,{"CODGEO":"03166","TxPauvrete":"null"}
,{"CODGEO":"03167","TxPauvrete":"null"}
,{"CODGEO":"03168","TxPauvrete":"null"}
,{"CODGEO":"03169","TxPauvrete":"null"}
,{"CODGEO":"03170","TxPauvrete":"null"}
,{"CODGEO":"03171","TxPauvrete":"null"}
,{"CODGEO":"03172","TxPauvrete":"null"}
,{"CODGEO":"03173","TxPauvrete":"null"}
,{"CODGEO":"03174","TxPauvrete":"null"}
,{"CODGEO":"03175","TxPauvrete":"null"}
,{"CODGEO":"03176","TxPauvrete":"null"}
,{"CODGEO":"03177","TxPauvrete":"null"}
,{"CODGEO":"03178","TxPauvrete":"null"}
,{"CODGEO":"03179","TxPauvrete":"null"}
,{"CODGEO":"03180","TxPauvrete":"null"}
,{"CODGEO":"03181","TxPauvrete":"null"}
,{"CODGEO":"03182","TxPauvrete":"null"}
,{"CODGEO":"03183","TxPauvrete":"null"}
,{"CODGEO":"03184","TxPauvrete":"null"}
,{"CODGEO":"03185","TxPauvrete":"20.4"}
,{"CODGEO":"03186","TxPauvrete":"null"}
,{"CODGEO":"03187","TxPauvrete":"null"}
,{"CODGEO":"03188","TxPauvrete":"null"}
,{"CODGEO":"03189","TxPauvrete":"null"}
,{"CODGEO":"03190","TxPauvrete":"20.0"}
,{"CODGEO":"03191","TxPauvrete":"null"}
,{"CODGEO":"03192","TxPauvrete":"null"}
,{"CODGEO":"03193","TxPauvrete":"null"}
,{"CODGEO":"03194","TxPauvrete":"null"}
,{"CODGEO":"03195","TxPauvrete":"10.8"}
,{"CODGEO":"03196","TxPauvrete":"null"}
,{"CODGEO":"03197","TxPauvrete":"null"}
,{"CODGEO":"03198","TxPauvrete":"null"}
,{"CODGEO":"03200","TxPauvrete":"null"}
,{"CODGEO":"03201","TxPauvrete":"null"}
,{"CODGEO":"03202","TxPauvrete":"null"}
,{"CODGEO":"03203","TxPauvrete":"null"}
,{"CODGEO":"03204","TxPauvrete":"null"}
,{"CODGEO":"03205","TxPauvrete":"null"}
,{"CODGEO":"03206","TxPauvrete":"null"}
,{"CODGEO":"03207","TxPauvrete":"null"}
,{"CODGEO":"03208","TxPauvrete":"null"}
,{"CODGEO":"03209","TxPauvrete":"null"}
,{"CODGEO":"03210","TxPauvrete":"null"}
,{"CODGEO":"03211","TxPauvrete":"7.9"}
,{"CODGEO":"03212","TxPauvrete":"null"}
,{"CODGEO":"03213","TxPauvrete":"null"}
,{"CODGEO":"03214","TxPauvrete":"null"}
,{"CODGEO":"03215","TxPauvrete":"null"}
,{"CODGEO":"03216","TxPauvrete":"null"}
,{"CODGEO":"03217","TxPauvrete":"null"}
,{"CODGEO":"03218","TxPauvrete":"null"}
,{"CODGEO":"03219","TxPauvrete":"null"}
,{"CODGEO":"03220","TxPauvrete":"null"}
,{"CODGEO":"03221","TxPauvrete":"null"}
,{"CODGEO":"03222","TxPauvrete":"null"}
,{"CODGEO":"03223","TxPauvrete":"null"}
,{"CODGEO":"03224","TxPauvrete":"null"}
,{"CODGEO":"03225","TxPauvrete":"null"}
,{"CODGEO":"03226","TxPauvrete":"null"}
,{"CODGEO":"03227","TxPauvrete":"null"}
,{"CODGEO":"03228","TxPauvrete":"null"}
,{"CODGEO":"03229","TxPauvrete":"null"}
,{"CODGEO":"03230","TxPauvrete":"null"}
,{"CODGEO":"03231","TxPauvrete":"null"}
,{"CODGEO":"03232","TxPauvrete":"null"}
,{"CODGEO":"03233","TxPauvrete":"null"}
,{"CODGEO":"03234","TxPauvrete":"null"}
,{"CODGEO":"03235","TxPauvrete":"null"}
,{"CODGEO":"03236","TxPauvrete":"15.5"}
,{"CODGEO":"03237","TxPauvrete":"null"}
,{"CODGEO":"03238","TxPauvrete":"null"}
,{"CODGEO":"03239","TxPauvrete":"null"}
,{"CODGEO":"03240","TxPauvrete":"null"}
,{"CODGEO":"03241","TxPauvrete":"null"}
,{"CODGEO":"03242","TxPauvrete":"null"}
,{"CODGEO":"03243","TxPauvrete":"null"}
,{"CODGEO":"03244","TxPauvrete":"null"}
,{"CODGEO":"03245","TxPauvrete":"null"}
,{"CODGEO":"03246","TxPauvrete":"null"}
,{"CODGEO":"03247","TxPauvrete":"null"}
,{"CODGEO":"03248","TxPauvrete":"null"}
,{"CODGEO":"03249","TxPauvrete":"null"}
,{"CODGEO":"03250","TxPauvrete":"null"}
,{"CODGEO":"03251","TxPauvrete":"null"}
,{"CODGEO":"03252","TxPauvrete":"null"}
,{"CODGEO":"03253","TxPauvrete":"null"}
,{"CODGEO":"03254","TxPauvrete":"14.1"}
,{"CODGEO":"03255","TxPauvrete":"null"}
,{"CODGEO":"03256","TxPauvrete":"null"}
,{"CODGEO":"03257","TxPauvrete":"null"}
,{"CODGEO":"03258","TxPauvrete":"null"}
,{"CODGEO":"03259","TxPauvrete":"null"}
,{"CODGEO":"03260","TxPauvrete":"null"}
,{"CODGEO":"03261","TxPauvrete":"null"}
,{"CODGEO":"03262","TxPauvrete":"8.1"}
,{"CODGEO":"03263","TxPauvrete":"null"}
,{"CODGEO":"03264","TxPauvrete":"13.9"}
,{"CODGEO":"03265","TxPauvrete":"null"}
,{"CODGEO":"03266","TxPauvrete":"null"}
,{"CODGEO":"03267","TxPauvrete":"null"}
,{"CODGEO":"03268","TxPauvrete":"null"}
,{"CODGEO":"03269","TxPauvrete":"null"}
,{"CODGEO":"03270","TxPauvrete":"null"}
,{"CODGEO":"03271","TxPauvrete":"null"}
,{"CODGEO":"03272","TxPauvrete":"null"}
,{"CODGEO":"03273","TxPauvrete":"null"}
,{"CODGEO":"03274","TxPauvrete":"null"}
,{"CODGEO":"03275","TxPauvrete":"null"}
,{"CODGEO":"03276","TxPauvrete":"null"}
,{"CODGEO":"03277","TxPauvrete":"null"}
,{"CODGEO":"03278","TxPauvrete":"null"}
,{"CODGEO":"03279","TxPauvrete":"null"}
,{"CODGEO":"03280","TxPauvrete":"null"}
,{"CODGEO":"03281","TxPauvrete":"null"}
,{"CODGEO":"03282","TxPauvrete":"null"}
,{"CODGEO":"03283","TxPauvrete":"null"}
,{"CODGEO":"03284","TxPauvrete":"null"}
,{"CODGEO":"03285","TxPauvrete":"null"}
,{"CODGEO":"03286","TxPauvrete":"null"}
,{"CODGEO":"03287","TxPauvrete":"null"}
,{"CODGEO":"03288","TxPauvrete":"null"}
,{"CODGEO":"03289","TxPauvrete":"null"}
,{"CODGEO":"03290","TxPauvrete":"null"}
,{"CODGEO":"03291","TxPauvrete":"null"}
,{"CODGEO":"03292","TxPauvrete":"null"}
,{"CODGEO":"03293","TxPauvrete":"null"}
,{"CODGEO":"03294","TxPauvrete":"null"}
,{"CODGEO":"03295","TxPauvrete":"null"}
,{"CODGEO":"03296","TxPauvrete":"null"}
,{"CODGEO":"03297","TxPauvrete":"null"}
,{"CODGEO":"03298","TxPauvrete":"16.1"}
,{"CODGEO":"03299","TxPauvrete":"null"}
,{"CODGEO":"03300","TxPauvrete":"null"}
,{"CODGEO":"03301","TxPauvrete":"null"}
,{"CODGEO":"03302","TxPauvrete":"null"}
,{"CODGEO":"03303","TxPauvrete":"null"}
,{"CODGEO":"03304","TxPauvrete":"7.7"}
,{"CODGEO":"03305","TxPauvrete":"null"}
,{"CODGEO":"03306","TxPauvrete":"null"}
,{"CODGEO":"03307","TxPauvrete":"null"}
,{"CODGEO":"03308","TxPauvrete":"null"}
,{"CODGEO":"03309","TxPauvrete":"null"}
,{"CODGEO":"03310","TxPauvrete":"20.2"}
,{"CODGEO":"03311","TxPauvrete":"null"}
,{"CODGEO":"03312","TxPauvrete":"null"}
,{"CODGEO":"03313","TxPauvrete":"null"}
,{"CODGEO":"03314","TxPauvrete":"null"}
,{"CODGEO":"03315","TxPauvrete":"null"}
,{"CODGEO":"03316","TxPauvrete":"null"}
,{"CODGEO":"03317","TxPauvrete":"null"}
,{"CODGEO":"03318","TxPauvrete":"null"}
,{"CODGEO":"03319","TxPauvrete":"null"}
,{"CODGEO":"03320","TxPauvrete":"null"}
,{"CODGEO":"03321","TxPauvrete":"9.3"}
]}
