{"status":"success","data":[{"CODGEO":"08001","TxPauvrete":"null"}
,{"CODGEO":"08003","TxPauvrete":"null"}
,{"CODGEO":"08004","TxPauvrete":"null"}
,{"CODGEO":"08005","TxPauvrete":"null"}
,{"CODGEO":"08006","TxPauvrete":"null"}
,{"CODGEO":"08007","TxPauvrete":"null"}
,{"CODGEO":"08008","TxPauvrete":"null"}
,{"CODGEO":"08009","TxPauvrete":"null"}
,{"CODGEO":"08010","TxPauvrete":"null"}
,{"CODGEO":"08011","TxPauvrete":"null"}
,{"CODGEO":"08013","TxPauvrete":"null"}
,{"CODGEO":"08014","TxPauvrete":"null"}
,{"CODGEO":"08015","TxPauvrete":"null"}
,{"CODGEO":"08016","TxPauvrete":"null"}
,{"CODGEO":"08017","TxPauvrete":"null"}
,{"CODGEO":"08018","TxPauvrete":"null"}
,{"CODGEO":"08019","TxPauvrete":"null"}
,{"CODGEO":"08020","TxPauvrete":"null"}
,{"CODGEO":"08021","TxPauvrete":"null"}
,{"CODGEO":"08022","TxPauvrete":"null"}
,{"CODGEO":"08023","TxPauvrete":"null"}
,{"CODGEO":"08024","TxPauvrete":"null"}
,{"CODGEO":"08025","TxPauvrete":"null"}
,{"CODGEO":"08026","TxPauvrete":"null"}
,{"CODGEO":"08027","TxPauvrete":"null"}
,{"CODGEO":"08028","TxPauvrete":"null"}
,{"CODGEO":"08029","TxPauvrete":"null"}
,{"CODGEO":"08030","TxPauvrete":"null"}
,{"CODGEO":"08031","TxPauvrete":"null"}
,{"CODGEO":"08032","TxPauvrete":"null"}
,{"CODGEO":"08033","TxPauvrete":"null"}
,{"CODGEO":"08034","TxPauvrete":"null"}
,{"CODGEO":"08035","TxPauvrete":"null"}
,{"CODGEO":"08036","TxPauvrete":"null"}
,{"CODGEO":"08037","TxPauvrete":"null"}
,{"CODGEO":"08038","TxPauvrete":"null"}
,{"CODGEO":"08039","TxPauvrete":"null"}
,{"CODGEO":"08040","TxPauvrete":"null"}
,{"CODGEO":"08041","TxPauvrete":"null"}
,{"CODGEO":"08042","TxPauvrete":"null"}
,{"CODGEO":"08043","TxPauvrete":"null"}
,{"CODGEO":"08044","TxPauvrete":"null"}
,{"CODGEO":"08045","TxPauvrete":"null"}
,{"CODGEO":"08046","TxPauvrete":"null"}
,{"CODGEO":"08047","TxPauvrete":"null"}
,{"CODGEO":"08048","TxPauvrete":"null"}
,{"CODGEO":"08049","TxPauvrete":"null"}
,{"CODGEO":"08052","TxPauvrete":"null"}
,{"CODGEO":"08053","TxPauvrete":"null"}
,{"CODGEO":"08055","TxPauvrete":"null"}
,{"CODGEO":"08056","TxPauvrete":"null"}
,{"CODGEO":"08057","TxPauvrete":"null"}
,{"CODGEO":"08058","TxPauvrete":"null"}
,{"CODGEO":"08059","TxPauvrete":"null"}
,{"CODGEO":"08060","TxPauvrete":"null"}
,{"CODGEO":"08061","TxPauvrete":"null"}
,{"CODGEO":"08062","TxPauvrete":"null"}
,{"CODGEO":"08063","TxPauvrete":"null"}
,{"CODGEO":"08064","TxPauvrete":"null"}
,{"CODGEO":"08065","TxPauvrete":"null"}
,{"CODGEO":"08066","TxPauvrete":"null"}
,{"CODGEO":"08067","TxPauvrete":"null"}
,{"CODGEO":"08069","TxPauvrete":"null"}
,{"CODGEO":"08070","TxPauvrete":"null"}
,{"CODGEO":"08071","TxPauvrete":"null"}
,{"CODGEO":"08072","TxPauvrete":"null"}
,{"CODGEO":"08073","TxPauvrete":"null"}
,{"CODGEO":"08074","TxPauvrete":"null"}
,{"CODGEO":"08075","TxPauvrete":"null"}
,{"CODGEO":"08076","TxPauvrete":"null"}
,{"CODGEO":"08077","TxPauvrete":"null"}
,{"CODGEO":"08078","TxPauvrete":"null"}
,{"CODGEO":"08079","TxPauvrete":"null"}
,{"CODGEO":"08080","TxPauvrete":"null"}
,{"CODGEO":"08081","TxPauvrete":"27.1"}
,{"CODGEO":"08082","TxPauvrete":"null"}
,{"CODGEO":"08083","TxPauvrete":"null"}
,{"CODGEO":"08084","TxPauvrete":"null"}
,{"CODGEO":"08085","TxPauvrete":"null"}
,{"CODGEO":"08086","TxPauvrete":"null"}
,{"CODGEO":"08087","TxPauvrete":"null"}
,{"CODGEO":"08088","TxPauvrete":"null"}
,{"CODGEO":"08089","TxPauvrete":"null"}
,{"CODGEO":"08090","TxPauvrete":"22.1"}
,{"CODGEO":"08092","TxPauvrete":"null"}
,{"CODGEO":"08094","TxPauvrete":"null"}
,{"CODGEO":"08095","TxPauvrete":"null"}
,{"CODGEO":"08096","TxPauvrete":"null"}
,{"CODGEO":"08097","TxPauvrete":"null"}
,{"CODGEO":"08098","TxPauvrete":"null"}
,{"CODGEO":"08099","TxPauvrete":"null"}
,{"CODGEO":"08100","TxPauvrete":"null"}
,{"CODGEO":"08101","TxPauvrete":"null"}
,{"CODGEO":"08102","TxPauvrete":"null"}
,{"CODGEO":"08103","TxPauvrete":"null"}
,{"CODGEO":"08104","TxPauvrete":"null"}
,{"CODGEO":"08105","TxPauvrete":"26.7"}
,{"CODGEO":"08106","TxPauvrete":"null"}
,{"CODGEO":"08107","TxPauvrete":"null"}
,{"CODGEO":"08109","TxPauvrete":"null"}
,{"CODGEO":"08110","TxPauvrete":"null"}
,{"CODGEO":"08111","TxPauvrete":"null"}
,{"CODGEO":"08113","TxPauvrete":"null"}
,{"CODGEO":"08114","TxPauvrete":"null"}
,{"CODGEO":"08115","TxPauvrete":"null"}
,{"CODGEO":"08116","TxPauvrete":"null"}
,{"CODGEO":"08117","TxPauvrete":"null"}
,{"CODGEO":"08119","TxPauvrete":"null"}
,{"CODGEO":"08120","TxPauvrete":"null"}
,{"CODGEO":"08121","TxPauvrete":"null"}
,{"CODGEO":"08122","TxPauvrete":"null"}
,{"CODGEO":"08123","TxPauvrete":"null"}
,{"CODGEO":"08124","TxPauvrete":"null"}
,{"CODGEO":"08125","TxPauvrete":"null"}
,{"CODGEO":"08126","TxPauvrete":"null"}
,{"CODGEO":"08128","TxPauvrete":"null"}
,{"CODGEO":"08130","TxPauvrete":"null"}
,{"CODGEO":"08131","TxPauvrete":"null"}
,{"CODGEO":"08132","TxPauvrete":"null"}
,{"CODGEO":"08133","TxPauvrete":"null"}
,{"CODGEO":"08134","TxPauvrete":"null"}
,{"CODGEO":"08135","TxPauvrete":"null"}
,{"CODGEO":"08136","TxPauvrete":"null"}
,{"CODGEO":"08137","TxPauvrete":"null"}
,{"CODGEO":"08138","TxPauvrete":"null"}
,{"CODGEO":"08139","TxPauvrete":"null"}
,{"CODGEO":"08140","TxPauvrete":"null"}
,{"CODGEO":"08141","TxPauvrete":"null"}
,{"CODGEO":"08142","TxPauvrete":"15.3"}
,{"CODGEO":"08143","TxPauvrete":"null"}
,{"CODGEO":"08144","TxPauvrete":"null"}
,{"CODGEO":"08145","TxPauvrete":"null"}
,{"CODGEO":"08146","TxPauvrete":"null"}
,{"CODGEO":"08147","TxPauvrete":"null"}
,{"CODGEO":"08148","TxPauvrete":"null"}
,{"CODGEO":"08149","TxPauvrete":"null"}
,{"CODGEO":"08150","TxPauvrete":"null"}
,{"CODGEO":"08151","TxPauvrete":"null"}
,{"CODGEO":"08152","TxPauvrete":"null"}
,{"CODGEO":"08153","TxPauvrete":"null"}
,{"CODGEO":"08154","TxPauvrete":"null"}
,{"CODGEO":"08155","TxPauvrete":"null"}
,{"CODGEO":"08156","TxPauvrete":"null"}
,{"CODGEO":"08158","TxPauvrete":"null"}
,{"CODGEO":"08159","TxPauvrete":"null"}
,{"CODGEO":"08160","TxPauvrete":"null"}
,{"CODGEO":"08161","TxPauvrete":"null"}
,{"CODGEO":"08162","TxPauvrete":"null"}
,{"CODGEO":"08163","TxPauvrete":"null"}
,{"CODGEO":"08164","TxPauvrete":"null"}
,{"CODGEO":"08165","TxPauvrete":"null"}
,{"CODGEO":"08166","TxPauvrete":"null"}
,{"CODGEO":"08167","TxPauvrete":"null"}
,{"CODGEO":"08168","TxPauvrete":"null"}
,{"CODGEO":"08169","TxPauvrete":"null"}
,{"CODGEO":"08170","TxPauvrete":"null"}
,{"CODGEO":"08171","TxPauvrete":"null"}
,{"CODGEO":"08172","TxPauvrete":"null"}
,{"CODGEO":"08173","TxPauvrete":"null"}
,{"CODGEO":"08174","TxPauvrete":"13.3"}
,{"CODGEO":"08175","TxPauvrete":"null"}
,{"CODGEO":"08176","TxPauvrete":"null"}
,{"CODGEO":"08178","TxPauvrete":"null"}
,{"CODGEO":"08179","TxPauvrete":"null"}
,{"CODGEO":"08180","TxPauvrete":"null"}
,{"CODGEO":"08182","TxPauvrete":"null"}
,{"CODGEO":"08183","TxPauvrete":"null"}
,{"CODGEO":"08184","TxPauvrete":"null"}
,{"CODGEO":"08185","TxPauvrete":"22.7"}
,{"CODGEO":"08186","TxPauvrete":"null"}
,{"CODGEO":"08187","TxPauvrete":"null"}
,{"CODGEO":"08188","TxPauvrete":"null"}
,{"CODGEO":"08189","TxPauvrete":"null"}
,{"CODGEO":"08190","TxPauvrete":"23.8"}
,{"CODGEO":"08191","TxPauvrete":"null"}
,{"CODGEO":"08192","TxPauvrete":"null"}
,{"CODGEO":"08193","TxPauvrete":"null"}
,{"CODGEO":"08194","TxPauvrete":"null"}
,{"CODGEO":"08195","TxPauvrete":"null"}
,{"CODGEO":"08196","TxPauvrete":"null"}
,{"CODGEO":"08197","TxPauvrete":"null"}
,{"CODGEO":"08198","TxPauvrete":"null"}
,{"CODGEO":"08199","TxPauvrete":"null"}
,{"CODGEO":"08200","TxPauvrete":"null"}
,{"CODGEO":"08201","TxPauvrete":"null"}
,{"CODGEO":"08202","TxPauvrete":"null"}
,{"CODGEO":"08203","TxPauvrete":"null"}
,{"CODGEO":"08204","TxPauvrete":"null"}
,{"CODGEO":"08205","TxPauvrete":"null"}
,{"CODGEO":"08206","TxPauvrete":"null"}
,{"CODGEO":"08207","TxPauvrete":"null"}
,{"CODGEO":"08208","TxPauvrete":"null"}
,{"CODGEO":"08209","TxPauvrete":"null"}
,{"CODGEO":"08210","TxPauvrete":"null"}
,{"CODGEO":"08211","TxPauvrete":"null"}
,{"CODGEO":"08212","TxPauvrete":"null"}
,{"CODGEO":"08214","TxPauvrete":"null"}
,{"CODGEO":"08215","TxPauvrete":"null"}
,{"CODGEO":"08216","TxPauvrete":"null"}
,{"CODGEO":"08217","TxPauvrete":"null"}
,{"CODGEO":"08218","TxPauvrete":"null"}
,{"CODGEO":"08219","TxPauvrete":"null"}
,{"CODGEO":"08220","TxPauvrete":"null"}
,{"CODGEO":"08222","TxPauvrete":"null"}
,{"CODGEO":"08223","TxPauvrete":"null"}
,{"CODGEO":"08225","TxPauvrete":"null"}
,{"CODGEO":"08226","TxPauvrete":"null"}
,{"CODGEO":"08228","TxPauvrete":"null"}
,{"CODGEO":"08229","TxPauvrete":"null"}
,{"CODGEO":"08230","TxPauvrete":"null"}
,{"CODGEO":"08232","TxPauvrete":"null"}
,{"CODGEO":"08233","TxPauvrete":"null"}
,{"CODGEO":"08234","TxPauvrete":"null"}
,{"CODGEO":"08235","TxPauvrete":"null"}
,{"CODGEO":"08236","TxPauvrete":"null"}
,{"CODGEO":"08237","TxPauvrete":"null"}
,{"CODGEO":"08238","TxPauvrete":"null"}
,{"CODGEO":"08239","TxPauvrete":"null"}
,{"CODGEO":"08240","TxPauvrete":"null"}
,{"CODGEO":"08242","TxPauvrete":"null"}
,{"CODGEO":"08243","TxPauvrete":"null"}
,{"CODGEO":"08244","TxPauvrete":"null"}
,{"CODGEO":"08245","TxPauvrete":"null"}
,{"CODGEO":"08246","TxPauvrete":"null"}
,{"CODGEO":"08247","TxPauvrete":"null"}
,{"CODGEO":"08248","TxPauvrete":"null"}
,{"CODGEO":"08249","TxPauvrete":"null"}
,{"CODGEO":"08250","TxPauvrete":"null"}
,{"CODGEO":"08251","TxPauvrete":"null"}
,{"CODGEO":"08252","TxPauvrete":"null"}
,{"CODGEO":"08254","TxPauvrete":"null"}
,{"CODGEO":"08255","TxPauvrete":"null"}
,{"CODGEO":"08256","TxPauvrete":"null"}
,{"CODGEO":"08257","TxPauvrete":"null"}
,{"CODGEO":"08259","TxPauvrete":"null"}
,{"CODGEO":"08260","TxPauvrete":"null"}
,{"CODGEO":"08261","TxPauvrete":"null"}
,{"CODGEO":"08262","TxPauvrete":"null"}
,{"CODGEO":"08263","TxPauvrete":"null"}
,{"CODGEO":"08264","TxPauvrete":"null"}
,{"CODGEO":"08267","TxPauvrete":"null"}
,{"CODGEO":"08268","TxPauvrete":"null"}
,{"CODGEO":"08269","TxPauvrete":"null"}
,{"CODGEO":"08271","TxPauvrete":"null"}
,{"CODGEO":"08272","TxPauvrete":"null"}
,{"CODGEO":"08273","TxPauvrete":"null"}
,{"CODGEO":"08274","TxPauvrete":"null"}
,{"CODGEO":"08275","TxPauvrete":"null"}
,{"CODGEO":"08276","TxPauvrete":"null"}
,{"CODGEO":"08277","TxPauvrete":"null"}
,{"CODGEO":"08278","TxPauvrete":"null"}
,{"CODGEO":"08279","TxPauvrete":"null"}
,{"CODGEO":"08280","TxPauvrete":"null"}
,{"CODGEO":"08281","TxPauvrete":"null"}
,{"CODGEO":"08282","TxPauvrete":"null"}
,{"CODGEO":"08283","TxPauvrete":"null"}
,{"CODGEO":"08284","TxPauvrete":"null"}
,{"CODGEO":"08286","TxPauvrete":"null"}
,{"CODGEO":"08287","TxPauvrete":"null"}
,{"CODGEO":"08288","TxPauvrete":"null"}
,{"CODGEO":"08289","TxPauvrete":"null"}
,{"CODGEO":"08291","TxPauvrete":"null"}
,{"CODGEO":"08293","TxPauvrete":"null"}
,{"CODGEO":"08294","TxPauvrete":"null"}
,{"CODGEO":"08295","TxPauvrete":"null"}
,{"CODGEO":"08296","TxPauvrete":"null"}
,{"CODGEO":"08297","TxPauvrete":"null"}
,{"CODGEO":"08298","TxPauvrete":"null"}
,{"CODGEO":"08300","TxPauvrete":"null"}
,{"CODGEO":"08301","TxPauvrete":"null"}
,{"CODGEO":"08302","TxPauvrete":"17.8"}
,{"CODGEO":"08303","TxPauvrete":"null"}
,{"CODGEO":"08304","TxPauvrete":"null"}
,{"CODGEO":"08305","TxPauvrete":"null"}
,{"CODGEO":"08306","TxPauvrete":"null"}
,{"CODGEO":"08307","TxPauvrete":"null"}
,{"CODGEO":"08308","TxPauvrete":"null"}
,{"CODGEO":"08309","TxPauvrete":"null"}
,{"CODGEO":"08310","TxPauvrete":"null"}
,{"CODGEO":"08311","TxPauvrete":"18.5"}
,{"CODGEO":"08312","TxPauvrete":"null"}
,{"CODGEO":"08313","TxPauvrete":"null"}
,{"CODGEO":"08314","TxPauvrete":"null"}
,{"CODGEO":"08315","TxPauvrete":"null"}
,{"CODGEO":"08316","TxPauvrete":"null"}
,{"CODGEO":"08317","TxPauvrete":"null"}
,{"CODGEO":"08318","TxPauvrete":"null"}
,{"CODGEO":"08319","TxPauvrete":"null"}
,{"CODGEO":"08320","TxPauvrete":"null"}
,{"CODGEO":"08321","TxPauvrete":"null"}
,{"CODGEO":"08322","TxPauvrete":"null"}
,{"CODGEO":"08323","TxPauvrete":"null"}
,{"CODGEO":"08324","TxPauvrete":"null"}
,{"CODGEO":"08325","TxPauvrete":"null"}
,{"CODGEO":"08326","TxPauvrete":"null"}
,{"CODGEO":"08327","TxPauvrete":"17.4"}
,{"CODGEO":"08328","TxPauvrete":"25.9"}
,{"CODGEO":"08329","TxPauvrete":"null"}
,{"CODGEO":"08330","TxPauvrete":"null"}
,{"CODGEO":"08331","TxPauvrete":"null"}
,{"CODGEO":"08332","TxPauvrete":"null"}
,{"CODGEO":"08333","TxPauvrete":"null"}
,{"CODGEO":"08334","TxPauvrete":"null"}
,{"CODGEO":"08335","TxPauvrete":"null"}
,{"CODGEO":"08336","TxPauvrete":"null"}
,{"CODGEO":"08338","TxPauvrete":"null"}
,{"CODGEO":"08339","TxPauvrete":"null"}
,{"CODGEO":"08340","TxPauvrete":"null"}
,{"CODGEO":"08341","TxPauvrete":"null"}
,{"CODGEO":"08342","TxPauvrete":"null"}
,{"CODGEO":"08343","TxPauvrete":"null"}
,{"CODGEO":"08344","TxPauvrete":"null"}
,{"CODGEO":"08346","TxPauvrete":"null"}
,{"CODGEO":"08347","TxPauvrete":"null"}
,{"CODGEO":"08348","TxPauvrete":"null"}
,{"CODGEO":"08349","TxPauvrete":"null"}
,{"CODGEO":"08350","TxPauvrete":"null"}
,{"CODGEO":"08351","TxPauvrete":"null"}
,{"CODGEO":"08352","TxPauvrete":"null"}
,{"CODGEO":"08353","TxPauvrete":"null"}
,{"CODGEO":"08354","TxPauvrete":"null"}
,{"CODGEO":"08355","TxPauvrete":"null"}
,{"CODGEO":"08356","TxPauvrete":"null"}
,{"CODGEO":"08357","TxPauvrete":"null"}
,{"CODGEO":"08358","TxPauvrete":"null"}
,{"CODGEO":"08360","TxPauvrete":"null"}
,{"CODGEO":"08361","TxPauvrete":"null"}
,{"CODGEO":"08362","TxPauvrete":"22.5"}
,{"CODGEO":"08363","TxPauvrete":"26.2"}
,{"CODGEO":"08364","TxPauvrete":"null"}
,{"CODGEO":"08365","TxPauvrete":"null"}
,{"CODGEO":"08366","TxPauvrete":"null"}
,{"CODGEO":"08367","TxPauvrete":"20.1"}
,{"CODGEO":"08368","TxPauvrete":"null"}
,{"CODGEO":"08369","TxPauvrete":"null"}
,{"CODGEO":"08370","TxPauvrete":"null"}
,{"CODGEO":"08371","TxPauvrete":"null"}
,{"CODGEO":"08372","TxPauvrete":"null"}
,{"CODGEO":"08373","TxPauvrete":"null"}
,{"CODGEO":"08374","TxPauvrete":"null"}
,{"CODGEO":"08375","TxPauvrete":"null"}
,{"CODGEO":"08376","TxPauvrete":"null"}
,{"CODGEO":"08377","TxPauvrete":"null"}
,{"CODGEO":"08378","TxPauvrete":"null"}
,{"CODGEO":"08379","TxPauvrete":"null"}
,{"CODGEO":"08380","TxPauvrete":"null"}
,{"CODGEO":"08381","TxPauvrete":"null"}
,{"CODGEO":"08382","TxPauvrete":"null"}
,{"CODGEO":"08383","TxPauvrete":"null"}
,{"CODGEO":"08384","TxPauvrete":"null"}
,{"CODGEO":"08385","TxPauvrete":"null"}
,{"CODGEO":"08386","TxPauvrete":"null"}
,{"CODGEO":"08387","TxPauvrete":"null"}
,{"CODGEO":"08388","TxPauvrete":"null"}
,{"CODGEO":"08389","TxPauvrete":"null"}
,{"CODGEO":"08390","TxPauvrete":"null"}
,{"CODGEO":"08391","TxPauvrete":"null"}
,{"CODGEO":"08392","TxPauvrete":"null"}
,{"CODGEO":"08393","TxPauvrete":"null"}
,{"CODGEO":"08394","TxPauvrete":"null"}
,{"CODGEO":"08395","TxPauvrete":"null"}
,{"CODGEO":"08396","TxPauvrete":"null"}
,{"CODGEO":"08397","TxPauvrete":"null"}
,{"CODGEO":"08398","TxPauvrete":"null"}
,{"CODGEO":"08399","TxPauvrete":"null"}
,{"CODGEO":"08400","TxPauvrete":"null"}
,{"CODGEO":"08401","TxPauvrete":"null"}
,{"CODGEO":"08402","TxPauvrete":"null"}
,{"CODGEO":"08403","TxPauvrete":"null"}
,{"CODGEO":"08404","TxPauvrete":"null"}
,{"CODGEO":"08405","TxPauvrete":"null"}
,{"CODGEO":"08406","TxPauvrete":"null"}
,{"CODGEO":"08407","TxPauvrete":"null"}
,{"CODGEO":"08408","TxPauvrete":"null"}
,{"CODGEO":"08409","TxPauvrete":"31.1"}
,{"CODGEO":"08410","TxPauvrete":"null"}
,{"CODGEO":"08411","TxPauvrete":"null"}
,{"CODGEO":"08412","TxPauvrete":"null"}
,{"CODGEO":"08413","TxPauvrete":"null"}
,{"CODGEO":"08415","TxPauvrete":"null"}
,{"CODGEO":"08416","TxPauvrete":"null"}
,{"CODGEO":"08417","TxPauvrete":"null"}
,{"CODGEO":"08418","TxPauvrete":"null"}
,{"CODGEO":"08419","TxPauvrete":"null"}
,{"CODGEO":"08420","TxPauvrete":"null"}
,{"CODGEO":"08421","TxPauvrete":"null"}
,{"CODGEO":"08422","TxPauvrete":"null"}
,{"CODGEO":"08424","TxPauvrete":"null"}
,{"CODGEO":"08425","TxPauvrete":"null"}
,{"CODGEO":"08426","TxPauvrete":"null"}
,{"CODGEO":"08427","TxPauvrete":"null"}
,{"CODGEO":"08428","TxPauvrete":"null"}
,{"CODGEO":"08429","TxPauvrete":"null"}
,{"CODGEO":"08430","TxPauvrete":"null"}
,{"CODGEO":"08431","TxPauvrete":"null"}
,{"CODGEO":"08432","TxPauvrete":"null"}
,{"CODGEO":"08433","TxPauvrete":"null"}
,{"CODGEO":"08434","TxPauvrete":"null"}
,{"CODGEO":"08435","TxPauvrete":"null"}
,{"CODGEO":"08436","TxPauvrete":"null"}
,{"CODGEO":"08437","TxPauvrete":"null"}
,{"CODGEO":"08438","TxPauvrete":"null"}
,{"CODGEO":"08439","TxPauvrete":"null"}
,{"CODGEO":"08440","TxPauvrete":"null"}
,{"CODGEO":"08441","TxPauvrete":"null"}
,{"CODGEO":"08443","TxPauvrete":"null"}
,{"CODGEO":"08444","TxPauvrete":"null"}
,{"CODGEO":"08445","TxPauvrete":"null"}
,{"CODGEO":"08446","TxPauvrete":"null"}
,{"CODGEO":"08448","TxPauvrete":"null"}
,{"CODGEO":"08449","TxPauvrete":"null"}
,{"CODGEO":"08450","TxPauvrete":"null"}
,{"CODGEO":"08451","TxPauvrete":"null"}
,{"CODGEO":"08452","TxPauvrete":"null"}
,{"CODGEO":"08453","TxPauvrete":"null"}
,{"CODGEO":"08454","TxPauvrete":"null"}
,{"CODGEO":"08455","TxPauvrete":"null"}
,{"CODGEO":"08456","TxPauvrete":"null"}
,{"CODGEO":"08457","TxPauvrete":"null"}
,{"CODGEO":"08458","TxPauvrete":"null"}
,{"CODGEO":"08459","TxPauvrete":"null"}
,{"CODGEO":"08460","TxPauvrete":"null"}
,{"CODGEO":"08461","TxPauvrete":"null"}
,{"CODGEO":"08462","TxPauvrete":"null"}
,{"CODGEO":"08463","TxPauvrete":"null"}
,{"CODGEO":"08464","TxPauvrete":"null"}
,{"CODGEO":"08465","TxPauvrete":"null"}
,{"CODGEO":"08466","TxPauvrete":"null"}
,{"CODGEO":"08467","TxPauvrete":"null"}
,{"CODGEO":"08468","TxPauvrete":"null"}
,{"CODGEO":"08469","TxPauvrete":"null"}
,{"CODGEO":"08470","TxPauvrete":"null"}
,{"CODGEO":"08471","TxPauvrete":"null"}
,{"CODGEO":"08472","TxPauvrete":"null"}
,{"CODGEO":"08473","TxPauvrete":"null"}
,{"CODGEO":"08475","TxPauvrete":"null"}
,{"CODGEO":"08476","TxPauvrete":"null"}
,{"CODGEO":"08477","TxPauvrete":"null"}
,{"CODGEO":"08478","TxPauvrete":"null"}
,{"CODGEO":"08479","TxPauvrete":"null"}
,{"CODGEO":"08480","TxPauvrete":"14.5"}
,{"CODGEO":"08481","TxPauvrete":"null"}
,{"CODGEO":"08482","TxPauvrete":"null"}
,{"CODGEO":"08483","TxPauvrete":"null"}
,{"CODGEO":"08484","TxPauvrete":"null"}
,{"CODGEO":"08485","TxPauvrete":"null"}
,{"CODGEO":"08486","TxPauvrete":"null"}
,{"CODGEO":"08487","TxPauvrete":"null"}
,{"CODGEO":"08488","TxPauvrete":"24.2"}
,{"CODGEO":"08489","TxPauvrete":"null"}
,{"CODGEO":"08490","TxPauvrete":"22.9"}
,{"CODGEO":"08491","TxPauvrete":"20.1"}
,{"CODGEO":"08492","TxPauvrete":"null"}
,{"CODGEO":"08493","TxPauvrete":"null"}
,{"CODGEO":"08494","TxPauvrete":"null"}
,{"CODGEO":"08496","TxPauvrete":"null"}
,{"CODGEO":"08497","TxPauvrete":"null"}
,{"CODGEO":"08498","TxPauvrete":"null"}
,{"CODGEO":"08499","TxPauvrete":"null"}
,{"CODGEO":"08500","TxPauvrete":"null"}
,{"CODGEO":"08501","TxPauvrete":"null"}
,{"CODGEO":"08502","TxPauvrete":"null"}
,{"CODGEO":"08503","TxPauvrete":"null"}
]}
