{"status":"success","data":[{"CODGEO":"23001","TxPauvrete":"null"}
,{"CODGEO":"23002","TxPauvrete":"null"}
,{"CODGEO":"23003","TxPauvrete":"null"}
,{"CODGEO":"23004","TxPauvrete":"null"}
,{"CODGEO":"23005","TxPauvrete":"null"}
,{"CODGEO":"23006","TxPauvrete":"null"}
,{"CODGEO":"23007","TxPauvrete":"null"}
,{"CODGEO":"23008","TxPauvrete":"23.9"}
,{"CODGEO":"23009","TxPauvrete":"null"}
,{"CODGEO":"23010","TxPauvrete":"null"}
,{"CODGEO":"23011","TxPauvrete":"null"}
,{"CODGEO":"23012","TxPauvrete":"null"}
,{"CODGEO":"23013","TxPauvrete":"null"}
,{"CODGEO":"23014","TxPauvrete":"null"}
,{"CODGEO":"23015","TxPauvrete":"null"}
,{"CODGEO":"23016","TxPauvrete":"null"}
,{"CODGEO":"23017","TxPauvrete":"null"}
,{"CODGEO":"23018","TxPauvrete":"null"}
,{"CODGEO":"23019","TxPauvrete":"null"}
,{"CODGEO":"23020","TxPauvrete":"null"}
,{"CODGEO":"23021","TxPauvrete":"null"}
,{"CODGEO":"23022","TxPauvrete":"null"}
,{"CODGEO":"23023","TxPauvrete":"null"}
,{"CODGEO":"23024","TxPauvrete":"null"}
,{"CODGEO":"23025","TxPauvrete":"null"}
,{"CODGEO":"23026","TxPauvrete":"null"}
,{"CODGEO":"23027","TxPauvrete":"null"}
,{"CODGEO":"23028","TxPauvrete":"null"}
,{"CODGEO":"23029","TxPauvrete":"null"}
,{"CODGEO":"23030","TxPauvrete":"32.1"}
,{"CODGEO":"23031","TxPauvrete":"null"}
,{"CODGEO":"23032","TxPauvrete":"null"}
,{"CODGEO":"23033","TxPauvrete":"null"}
,{"CODGEO":"23034","TxPauvrete":"null"}
,{"CODGEO":"23035","TxPauvrete":"null"}
,{"CODGEO":"23036","TxPauvrete":"null"}
,{"CODGEO":"23037","TxPauvrete":"null"}
,{"CODGEO":"23038","TxPauvrete":"null"}
,{"CODGEO":"23039","TxPauvrete":"null"}
,{"CODGEO":"23040","TxPauvrete":"null"}
,{"CODGEO":"23041","TxPauvrete":"null"}
,{"CODGEO":"23042","TxPauvrete":"null"}
,{"CODGEO":"23043","TxPauvrete":"null"}
,{"CODGEO":"23044","TxPauvrete":"null"}
,{"CODGEO":"23045","TxPauvrete":"null"}
,{"CODGEO":"23046","TxPauvrete":"null"}
,{"CODGEO":"23047","TxPauvrete":"null"}
,{"CODGEO":"23048","TxPauvrete":"null"}
,{"CODGEO":"23049","TxPauvrete":"null"}
,{"CODGEO":"23050","TxPauvrete":"null"}
,{"CODGEO":"23051","TxPauvrete":"null"}
,{"CODGEO":"23052","TxPauvrete":"null"}
,{"CODGEO":"23053","TxPauvrete":"null"}
,{"CODGEO":"23054","TxPauvrete":"null"}
,{"CODGEO":"23055","TxPauvrete":"null"}
,{"CODGEO":"23056","TxPauvrete":"null"}
,{"CODGEO":"23057","TxPauvrete":"null"}
,{"CODGEO":"23058","TxPauvrete":"null"}
,{"CODGEO":"23059","TxPauvrete":"null"}
,{"CODGEO":"23060","TxPauvrete":"null"}
,{"CODGEO":"23061","TxPauvrete":"null"}
,{"CODGEO":"23062","TxPauvrete":"null"}
,{"CODGEO":"23063","TxPauvrete":"null"}
,{"CODGEO":"23064","TxPauvrete":"null"}
,{"CODGEO":"23065","TxPauvrete":"null"}
,{"CODGEO":"23066","TxPauvrete":"null"}
,{"CODGEO":"23067","TxPauvrete":"null"}
,{"CODGEO":"23068","TxPauvrete":"null"}
,{"CODGEO":"23069","TxPauvrete":"null"}
,{"CODGEO":"23070","TxPauvrete":"null"}
,{"CODGEO":"23071","TxPauvrete":"null"}
,{"CODGEO":"23072","TxPauvrete":"null"}
,{"CODGEO":"23073","TxPauvrete":"null"}
,{"CODGEO":"23074","TxPauvrete":"null"}
,{"CODGEO":"23075","TxPauvrete":"null"}
,{"CODGEO":"23076","TxPauvrete":"null"}
,{"CODGEO":"23077","TxPauvrete":"null"}
,{"CODGEO":"23078","TxPauvrete":"null"}
,{"CODGEO":"23079","TxPauvrete":"null"}
,{"CODGEO":"23080","TxPauvrete":"null"}
,{"CODGEO":"23081","TxPauvrete":"null"}
,{"CODGEO":"23082","TxPauvrete":"null"}
,{"CODGEO":"23083","TxPauvrete":"null"}
,{"CODGEO":"23084","TxPauvrete":"null"}
,{"CODGEO":"23086","TxPauvrete":"null"}
,{"CODGEO":"23087","TxPauvrete":"null"}
,{"CODGEO":"23088","TxPauvrete":"null"}
,{"CODGEO":"23089","TxPauvrete":"null"}
,{"CODGEO":"23090","TxPauvrete":"null"}
,{"CODGEO":"23091","TxPauvrete":"null"}
,{"CODGEO":"23092","TxPauvrete":"null"}
,{"CODGEO":"23093","TxPauvrete":"null"}
,{"CODGEO":"23095","TxPauvrete":"null"}
,{"CODGEO":"23096","TxPauvrete":"17.5"}
,{"CODGEO":"23097","TxPauvrete":"null"}
,{"CODGEO":"23098","TxPauvrete":"null"}
,{"CODGEO":"23099","TxPauvrete":"null"}
,{"CODGEO":"23100","TxPauvrete":"null"}
,{"CODGEO":"23101","TxPauvrete":"null"}
,{"CODGEO":"23102","TxPauvrete":"null"}
,{"CODGEO":"23103","TxPauvrete":"null"}
,{"CODGEO":"23104","TxPauvrete":"null"}
,{"CODGEO":"23105","TxPauvrete":"null"}
,{"CODGEO":"23106","TxPauvrete":"null"}
,{"CODGEO":"23107","TxPauvrete":"null"}
,{"CODGEO":"23108","TxPauvrete":"null"}
,{"CODGEO":"23109","TxPauvrete":"null"}
,{"CODGEO":"23110","TxPauvrete":"null"}
,{"CODGEO":"23111","TxPauvrete":"null"}
,{"CODGEO":"23112","TxPauvrete":"null"}
,{"CODGEO":"23113","TxPauvrete":"null"}
,{"CODGEO":"23114","TxPauvrete":"null"}
,{"CODGEO":"23115","TxPauvrete":"null"}
,{"CODGEO":"23116","TxPauvrete":"null"}
,{"CODGEO":"23117","TxPauvrete":"null"}
,{"CODGEO":"23118","TxPauvrete":"null"}
,{"CODGEO":"23119","TxPauvrete":"null"}
,{"CODGEO":"23120","TxPauvrete":"null"}
,{"CODGEO":"23121","TxPauvrete":"null"}
,{"CODGEO":"23122","TxPauvrete":"null"}
,{"CODGEO":"23123","TxPauvrete":"null"}
,{"CODGEO":"23124","TxPauvrete":"null"}
,{"CODGEO":"23125","TxPauvrete":"null"}
,{"CODGEO":"23126","TxPauvrete":"null"}
,{"CODGEO":"23127","TxPauvrete":"null"}
,{"CODGEO":"23128","TxPauvrete":"null"}
,{"CODGEO":"23129","TxPauvrete":"null"}
,{"CODGEO":"23130","TxPauvrete":"null"}
,{"CODGEO":"23131","TxPauvrete":"null"}
,{"CODGEO":"23132","TxPauvrete":"null"}
,{"CODGEO":"23133","TxPauvrete":"null"}
,{"CODGEO":"23134","TxPauvrete":"null"}
,{"CODGEO":"23136","TxPauvrete":"null"}
,{"CODGEO":"23137","TxPauvrete":"null"}
,{"CODGEO":"23138","TxPauvrete":"null"}
,{"CODGEO":"23139","TxPauvrete":"null"}
,{"CODGEO":"23140","TxPauvrete":"null"}
,{"CODGEO":"23141","TxPauvrete":"null"}
,{"CODGEO":"23142","TxPauvrete":"null"}
,{"CODGEO":"23143","TxPauvrete":"null"}
,{"CODGEO":"23144","TxPauvrete":"null"}
,{"CODGEO":"23145","TxPauvrete":"null"}
,{"CODGEO":"23146","TxPauvrete":"null"}
,{"CODGEO":"23147","TxPauvrete":"null"}
,{"CODGEO":"23148","TxPauvrete":"null"}
,{"CODGEO":"23149","TxPauvrete":"null"}
,{"CODGEO":"23150","TxPauvrete":"null"}
,{"CODGEO":"23151","TxPauvrete":"null"}
,{"CODGEO":"23152","TxPauvrete":"null"}
,{"CODGEO":"23154","TxPauvrete":"null"}
,{"CODGEO":"23155","TxPauvrete":"null"}
,{"CODGEO":"23156","TxPauvrete":"null"}
,{"CODGEO":"23157","TxPauvrete":"null"}
,{"CODGEO":"23158","TxPauvrete":"null"}
,{"CODGEO":"23159","TxPauvrete":"null"}
,{"CODGEO":"23160","TxPauvrete":"null"}
,{"CODGEO":"23161","TxPauvrete":"null"}
,{"CODGEO":"23162","TxPauvrete":"null"}
,{"CODGEO":"23164","TxPauvrete":"null"}
,{"CODGEO":"23165","TxPauvrete":"null"}
,{"CODGEO":"23166","TxPauvrete":"null"}
,{"CODGEO":"23167","TxPauvrete":"null"}
,{"CODGEO":"23168","TxPauvrete":"null"}
,{"CODGEO":"23169","TxPauvrete":"null"}
,{"CODGEO":"23170","TxPauvrete":"null"}
,{"CODGEO":"23171","TxPauvrete":"null"}
,{"CODGEO":"23172","TxPauvrete":"null"}
,{"CODGEO":"23173","TxPauvrete":"null"}
,{"CODGEO":"23174","TxPauvrete":"null"}
,{"CODGEO":"23175","TxPauvrete":"null"}
,{"CODGEO":"23176","TxPauvrete":"20.1"}
,{"CODGEO":"23177","TxPauvrete":"null"}
,{"CODGEO":"23178","TxPauvrete":"null"}
,{"CODGEO":"23179","TxPauvrete":"null"}
,{"CODGEO":"23180","TxPauvrete":"null"}
,{"CODGEO":"23181","TxPauvrete":"null"}
,{"CODGEO":"23182","TxPauvrete":"null"}
,{"CODGEO":"23183","TxPauvrete":"null"}
,{"CODGEO":"23184","TxPauvrete":"null"}
,{"CODGEO":"23185","TxPauvrete":"null"}
,{"CODGEO":"23186","TxPauvrete":"null"}
,{"CODGEO":"23187","TxPauvrete":"null"}
,{"CODGEO":"23188","TxPauvrete":"null"}
,{"CODGEO":"23189","TxPauvrete":"null"}
,{"CODGEO":"23190","TxPauvrete":"null"}
,{"CODGEO":"23191","TxPauvrete":"null"}
,{"CODGEO":"23192","TxPauvrete":"null"}
,{"CODGEO":"23193","TxPauvrete":"7.2"}
,{"CODGEO":"23194","TxPauvrete":"null"}
,{"CODGEO":"23195","TxPauvrete":"null"}
,{"CODGEO":"23196","TxPauvrete":"null"}
,{"CODGEO":"23197","TxPauvrete":"null"}
,{"CODGEO":"23198","TxPauvrete":"null"}
,{"CODGEO":"23199","TxPauvrete":"null"}
,{"CODGEO":"23200","TxPauvrete":"null"}
,{"CODGEO":"23201","TxPauvrete":"null"}
,{"CODGEO":"23202","TxPauvrete":"null"}
,{"CODGEO":"23203","TxPauvrete":"null"}
,{"CODGEO":"23204","TxPauvrete":"null"}
,{"CODGEO":"23205","TxPauvrete":"null"}
,{"CODGEO":"23206","TxPauvrete":"null"}
,{"CODGEO":"23207","TxPauvrete":"null"}
,{"CODGEO":"23208","TxPauvrete":"null"}
,{"CODGEO":"23209","TxPauvrete":"null"}
,{"CODGEO":"23210","TxPauvrete":"null"}
,{"CODGEO":"23211","TxPauvrete":"null"}
,{"CODGEO":"23212","TxPauvrete":"null"}
,{"CODGEO":"23213","TxPauvrete":"null"}
,{"CODGEO":"23214","TxPauvrete":"null"}
,{"CODGEO":"23215","TxPauvrete":"null"}
,{"CODGEO":"23216","TxPauvrete":"null"}
,{"CODGEO":"23217","TxPauvrete":"null"}
,{"CODGEO":"23218","TxPauvrete":"null"}
,{"CODGEO":"23219","TxPauvrete":"null"}
,{"CODGEO":"23220","TxPauvrete":"null"}
,{"CODGEO":"23221","TxPauvrete":"null"}
,{"CODGEO":"23222","TxPauvrete":"null"}
,{"CODGEO":"23223","TxPauvrete":"null"}
,{"CODGEO":"23224","TxPauvrete":"null"}
,{"CODGEO":"23225","TxPauvrete":"null"}
,{"CODGEO":"23226","TxPauvrete":"null"}
,{"CODGEO":"23227","TxPauvrete":"null"}
,{"CODGEO":"23228","TxPauvrete":"null"}
,{"CODGEO":"23229","TxPauvrete":"null"}
,{"CODGEO":"23230","TxPauvrete":"null"}
,{"CODGEO":"23231","TxPauvrete":"null"}
,{"CODGEO":"23232","TxPauvrete":"null"}
,{"CODGEO":"23233","TxPauvrete":"null"}
,{"CODGEO":"23234","TxPauvrete":"null"}
,{"CODGEO":"23235","TxPauvrete":"null"}
,{"CODGEO":"23236","TxPauvrete":"null"}
,{"CODGEO":"23237","TxPauvrete":"null"}
,{"CODGEO":"23238","TxPauvrete":"null"}
,{"CODGEO":"23239","TxPauvrete":"null"}
,{"CODGEO":"23240","TxPauvrete":"null"}
,{"CODGEO":"23241","TxPauvrete":"null"}
,{"CODGEO":"23242","TxPauvrete":"null"}
,{"CODGEO":"23243","TxPauvrete":"null"}
,{"CODGEO":"23244","TxPauvrete":"null"}
,{"CODGEO":"23245","TxPauvrete":"7.0"}
,{"CODGEO":"23246","TxPauvrete":"null"}
,{"CODGEO":"23247","TxPauvrete":"null"}
,{"CODGEO":"23248","TxPauvrete":"null"}
,{"CODGEO":"23249","TxPauvrete":"null"}
,{"CODGEO":"23250","TxPauvrete":"null"}
,{"CODGEO":"23251","TxPauvrete":"null"}
,{"CODGEO":"23252","TxPauvrete":"null"}
,{"CODGEO":"23253","TxPauvrete":"null"}
,{"CODGEO":"23254","TxPauvrete":"null"}
,{"CODGEO":"23255","TxPauvrete":"null"}
,{"CODGEO":"23257","TxPauvrete":"null"}
,{"CODGEO":"23258","TxPauvrete":"null"}
,{"CODGEO":"23259","TxPauvrete":"null"}
,{"CODGEO":"23260","TxPauvrete":"null"}
,{"CODGEO":"23261","TxPauvrete":"null"}
,{"CODGEO":"23262","TxPauvrete":"null"}
,{"CODGEO":"23263","TxPauvrete":"null"}
,{"CODGEO":"23264","TxPauvrete":"null"}
,{"CODGEO":"23265","TxPauvrete":"null"}
,{"CODGEO":"23266","TxPauvrete":"null"}
]}
