{"status":"success","data":[{"CODGEO":"2B002","TxPauvrete":"null"}
,{"CODGEO":"2B003","TxPauvrete":"null"}
,{"CODGEO":"2B005","TxPauvrete":"null"}
,{"CODGEO":"2B007","TxPauvrete":"null"}
,{"CODGEO":"2B009","TxPauvrete":"null"}
,{"CODGEO":"2B010","TxPauvrete":"null"}
,{"CODGEO":"2B012","TxPauvrete":"null"}
,{"CODGEO":"2B013","TxPauvrete":"null"}
,{"CODGEO":"2B015","TxPauvrete":"null"}
,{"CODGEO":"2B016","TxPauvrete":"null"}
,{"CODGEO":"2B020","TxPauvrete":"null"}
,{"CODGEO":"2B023","TxPauvrete":"null"}
,{"CODGEO":"2B025","TxPauvrete":"null"}
,{"CODGEO":"2B029","TxPauvrete":"null"}
,{"CODGEO":"2B030","TxPauvrete":"null"}
,{"CODGEO":"2B033","TxPauvrete":"24.5"}
,{"CODGEO":"2B034","TxPauvrete":"null"}
,{"CODGEO":"2B036","TxPauvrete":"null"}
,{"CODGEO":"2B037","TxPauvrete":"14.5"}
,{"CODGEO":"2B039","TxPauvrete":"null"}
,{"CODGEO":"2B042","TxPauvrete":"17.9"}
,{"CODGEO":"2B043","TxPauvrete":"null"}
,{"CODGEO":"2B045","TxPauvrete":"null"}
,{"CODGEO":"2B046","TxPauvrete":"null"}
,{"CODGEO":"2B047","TxPauvrete":"null"}
,{"CODGEO":"2B049","TxPauvrete":"null"}
,{"CODGEO":"2B050","TxPauvrete":"21.8"}
,{"CODGEO":"2B051","TxPauvrete":"null"}
,{"CODGEO":"2B052","TxPauvrete":"null"}
,{"CODGEO":"2B053","TxPauvrete":"null"}
,{"CODGEO":"2B054","TxPauvrete":"null"}
,{"CODGEO":"2B055","TxPauvrete":"null"}
,{"CODGEO":"2B057","TxPauvrete":"null"}
,{"CODGEO":"2B058","TxPauvrete":"null"}
,{"CODGEO":"2B059","TxPauvrete":"null"}
,{"CODGEO":"2B063","TxPauvrete":"null"}
,{"CODGEO":"2B067","TxPauvrete":"null"}
,{"CODGEO":"2B068","TxPauvrete":"null"}
,{"CODGEO":"2B069","TxPauvrete":"null"}
,{"CODGEO":"2B072","TxPauvrete":"null"}
,{"CODGEO":"2B073","TxPauvrete":"null"}
,{"CODGEO":"2B074","TxPauvrete":"null"}
,{"CODGEO":"2B075","TxPauvrete":"null"}
,{"CODGEO":"2B077","TxPauvrete":"null"}
,{"CODGEO":"2B078","TxPauvrete":"null"}
,{"CODGEO":"2B079","TxPauvrete":"null"}
,{"CODGEO":"2B080","TxPauvrete":"null"}
,{"CODGEO":"2B081","TxPauvrete":"null"}
,{"CODGEO":"2B082","TxPauvrete":"null"}
,{"CODGEO":"2B083","TxPauvrete":"null"}
,{"CODGEO":"2B084","TxPauvrete":"null"}
,{"CODGEO":"2B086","TxPauvrete":"null"}
,{"CODGEO":"2B087","TxPauvrete":"null"}
,{"CODGEO":"2B088","TxPauvrete":"null"}
,{"CODGEO":"2B093","TxPauvrete":"null"}
,{"CODGEO":"2B095","TxPauvrete":"null"}
,{"CODGEO":"2B096","TxPauvrete":"22.9"}
,{"CODGEO":"2B097","TxPauvrete":"null"}
,{"CODGEO":"2B101","TxPauvrete":"null"}
,{"CODGEO":"2B102","TxPauvrete":"null"}
,{"CODGEO":"2B105","TxPauvrete":"null"}
,{"CODGEO":"2B106","TxPauvrete":"null"}
,{"CODGEO":"2B107","TxPauvrete":"null"}
,{"CODGEO":"2B109","TxPauvrete":"null"}
,{"CODGEO":"2B110","TxPauvrete":"null"}
,{"CODGEO":"2B111","TxPauvrete":"null"}
,{"CODGEO":"2B112","TxPauvrete":"null"}
,{"CODGEO":"2B113","TxPauvrete":"null"}
,{"CODGEO":"2B116","TxPauvrete":"null"}
,{"CODGEO":"2B120","TxPauvrete":"14.9"}
,{"CODGEO":"2B121","TxPauvrete":"null"}
,{"CODGEO":"2B122","TxPauvrete":"null"}
,{"CODGEO":"2B123","TxPauvrete":"28.5"}
,{"CODGEO":"2B124","TxPauvrete":"null"}
,{"CODGEO":"2B125","TxPauvrete":"null"}
,{"CODGEO":"2B126","TxPauvrete":"null"}
,{"CODGEO":"2B134","TxPauvrete":"27.0"}
,{"CODGEO":"2B135","TxPauvrete":"null"}
,{"CODGEO":"2B136","TxPauvrete":"null"}
,{"CODGEO":"2B137","TxPauvrete":"null"}
,{"CODGEO":"2B138","TxPauvrete":"null"}
,{"CODGEO":"2B140","TxPauvrete":"null"}
,{"CODGEO":"2B143","TxPauvrete":"null"}
,{"CODGEO":"2B145","TxPauvrete":"null"}
,{"CODGEO":"2B147","TxPauvrete":"null"}
,{"CODGEO":"2B148","TxPauvrete":"21.1"}
,{"CODGEO":"2B149","TxPauvrete":"null"}
,{"CODGEO":"2B150","TxPauvrete":"null"}
,{"CODGEO":"2B152","TxPauvrete":"null"}
,{"CODGEO":"2B153","TxPauvrete":"null"}
,{"CODGEO":"2B155","TxPauvrete":"null"}
,{"CODGEO":"2B156","TxPauvrete":"null"}
,{"CODGEO":"2B157","TxPauvrete":"null"}
,{"CODGEO":"2B159","TxPauvrete":"null"}
,{"CODGEO":"2B161","TxPauvrete":"null"}
,{"CODGEO":"2B162","TxPauvrete":"null"}
,{"CODGEO":"2B164","TxPauvrete":"null"}
,{"CODGEO":"2B165","TxPauvrete":"null"}
,{"CODGEO":"2B166","TxPauvrete":"null"}
,{"CODGEO":"2B167","TxPauvrete":"null"}
,{"CODGEO":"2B168","TxPauvrete":"null"}
,{"CODGEO":"2B169","TxPauvrete":"null"}
,{"CODGEO":"2B170","TxPauvrete":"null"}
,{"CODGEO":"2B171","TxPauvrete":"null"}
,{"CODGEO":"2B172","TxPauvrete":"null"}
,{"CODGEO":"2B173","TxPauvrete":"null"}
,{"CODGEO":"2B175","TxPauvrete":"null"}
,{"CODGEO":"2B176","TxPauvrete":"null"}
,{"CODGEO":"2B177","TxPauvrete":"null"}
,{"CODGEO":"2B178","TxPauvrete":"null"}
,{"CODGEO":"2B179","TxPauvrete":"null"}
,{"CODGEO":"2B180","TxPauvrete":"null"}
,{"CODGEO":"2B182","TxPauvrete":"null"}
,{"CODGEO":"2B183","TxPauvrete":"null"}
,{"CODGEO":"2B184","TxPauvrete":"null"}
,{"CODGEO":"2B185","TxPauvrete":"null"}
,{"CODGEO":"2B187","TxPauvrete":"null"}
,{"CODGEO":"2B188","TxPauvrete":"null"}
,{"CODGEO":"2B190","TxPauvrete":"null"}
,{"CODGEO":"2B192","TxPauvrete":"null"}
,{"CODGEO":"2B193","TxPauvrete":"null"}
,{"CODGEO":"2B194","TxPauvrete":"null"}
,{"CODGEO":"2B195","TxPauvrete":"null"}
,{"CODGEO":"2B199","TxPauvrete":"null"}
,{"CODGEO":"2B201","TxPauvrete":"null"}
,{"CODGEO":"2B202","TxPauvrete":"null"}
,{"CODGEO":"2B205","TxPauvrete":"null"}
,{"CODGEO":"2B206","TxPauvrete":"null"}
,{"CODGEO":"2B207","TxPauvrete":"25.0"}
,{"CODGEO":"2B208","TxPauvrete":"null"}
,{"CODGEO":"2B210","TxPauvrete":"null"}
,{"CODGEO":"2B213","TxPauvrete":"null"}
,{"CODGEO":"2B214","TxPauvrete":"null"}
,{"CODGEO":"2B216","TxPauvrete":"null"}
,{"CODGEO":"2B217","TxPauvrete":"null"}
,{"CODGEO":"2B218","TxPauvrete":"null"}
,{"CODGEO":"2B219","TxPauvrete":"null"}
,{"CODGEO":"2B220","TxPauvrete":"null"}
,{"CODGEO":"2B221","TxPauvrete":"null"}
,{"CODGEO":"2B222","TxPauvrete":"null"}
,{"CODGEO":"2B223","TxPauvrete":"null"}
,{"CODGEO":"2B224","TxPauvrete":"null"}
,{"CODGEO":"2B225","TxPauvrete":"null"}
,{"CODGEO":"2B226","TxPauvrete":"null"}
,{"CODGEO":"2B227","TxPauvrete":"null"}
,{"CODGEO":"2B229","TxPauvrete":"null"}
,{"CODGEO":"2B230","TxPauvrete":"null"}
,{"CODGEO":"2B231","TxPauvrete":"null"}
,{"CODGEO":"2B233","TxPauvrete":"null"}
,{"CODGEO":"2B234","TxPauvrete":"null"}
,{"CODGEO":"2B235","TxPauvrete":"null"}
,{"CODGEO":"2B236","TxPauvrete":"null"}
,{"CODGEO":"2B238","TxPauvrete":"null"}
,{"CODGEO":"2B239","TxPauvrete":"null"}
,{"CODGEO":"2B241","TxPauvrete":"null"}
,{"CODGEO":"2B242","TxPauvrete":"null"}
,{"CODGEO":"2B243","TxPauvrete":"null"}
,{"CODGEO":"2B244","TxPauvrete":"null"}
,{"CODGEO":"2B245","TxPauvrete":"null"}
,{"CODGEO":"2B246","TxPauvrete":"null"}
,{"CODGEO":"2B248","TxPauvrete":"null"}
,{"CODGEO":"2B250","TxPauvrete":"null"}
,{"CODGEO":"2B251","TxPauvrete":"24.2"}
,{"CODGEO":"2B252","TxPauvrete":"null"}
,{"CODGEO":"2B255","TxPauvrete":"null"}
,{"CODGEO":"2B256","TxPauvrete":"null"}
,{"CODGEO":"2B257","TxPauvrete":"null"}
,{"CODGEO":"2B260","TxPauvrete":"null"}
,{"CODGEO":"2B261","TxPauvrete":"null"}
,{"CODGEO":"2B263","TxPauvrete":"null"}
,{"CODGEO":"2B264","TxPauvrete":"null"}
,{"CODGEO":"2B265","TxPauvrete":"null"}
,{"CODGEO":"2B267","TxPauvrete":"null"}
,{"CODGEO":"2B273","TxPauvrete":"null"}
,{"CODGEO":"2B274","TxPauvrete":"null"}
,{"CODGEO":"2B275","TxPauvrete":"null"}
,{"CODGEO":"2B277","TxPauvrete":"null"}
,{"CODGEO":"2B280","TxPauvrete":"null"}
,{"CODGEO":"2B281","TxPauvrete":"null"}
,{"CODGEO":"2B283","TxPauvrete":"null"}
,{"CODGEO":"2B286","TxPauvrete":"null"}
,{"CODGEO":"2B287","TxPauvrete":"null"}
,{"CODGEO":"2B289","TxPauvrete":"null"}
,{"CODGEO":"2B290","TxPauvrete":"null"}
,{"CODGEO":"2B291","TxPauvrete":"null"}
,{"CODGEO":"2B292","TxPauvrete":"null"}
,{"CODGEO":"2B293","TxPauvrete":"null"}
,{"CODGEO":"2B296","TxPauvrete":"null"}
,{"CODGEO":"2B297","TxPauvrete":"null"}
,{"CODGEO":"2B298","TxPauvrete":"null"}
,{"CODGEO":"2B299","TxPauvrete":"null"}
,{"CODGEO":"2B301","TxPauvrete":"null"}
,{"CODGEO":"2B302","TxPauvrete":"null"}
,{"CODGEO":"2B303","TxPauvrete":"null"}
,{"CODGEO":"2B304","TxPauvrete":"null"}
,{"CODGEO":"2B305","TxPauvrete":"12.4"}
,{"CODGEO":"2B306","TxPauvrete":"null"}
,{"CODGEO":"2B307","TxPauvrete":"null"}
,{"CODGEO":"2B309","TxPauvrete":"null"}
,{"CODGEO":"2B311","TxPauvrete":"null"}
,{"CODGEO":"2B313","TxPauvrete":"null"}
,{"CODGEO":"2B314","TxPauvrete":"null"}
,{"CODGEO":"2B315","TxPauvrete":"null"}
,{"CODGEO":"2B316","TxPauvrete":"null"}
,{"CODGEO":"2B317","TxPauvrete":"null"}
,{"CODGEO":"2B318","TxPauvrete":"null"}
,{"CODGEO":"2B319","TxPauvrete":"null"}
,{"CODGEO":"2B320","TxPauvrete":"null"}
,{"CODGEO":"2B321","TxPauvrete":"null"}
,{"CODGEO":"2B327","TxPauvrete":"null"}
,{"CODGEO":"2B328","TxPauvrete":"null"}
,{"CODGEO":"2B329","TxPauvrete":"null"}
,{"CODGEO":"2B332","TxPauvrete":"null"}
,{"CODGEO":"2B333","TxPauvrete":"null"}
,{"CODGEO":"2B334","TxPauvrete":"null"}
,{"CODGEO":"2B335","TxPauvrete":"null"}
,{"CODGEO":"2B337","TxPauvrete":"null"}
,{"CODGEO":"2B338","TxPauvrete":"null"}
,{"CODGEO":"2B339","TxPauvrete":"null"}
,{"CODGEO":"2B340","TxPauvrete":"null"}
,{"CODGEO":"2B341","TxPauvrete":"null"}
,{"CODGEO":"2B342","TxPauvrete":"13.7"}
,{"CODGEO":"2B343","TxPauvrete":"null"}
,{"CODGEO":"2B344","TxPauvrete":"null"}
,{"CODGEO":"2B346","TxPauvrete":"31.5"}
,{"CODGEO":"2B347","TxPauvrete":"null"}
,{"CODGEO":"2B350","TxPauvrete":"null"}
,{"CODGEO":"2B352","TxPauvrete":"null"}
,{"CODGEO":"2B353","TxPauvrete":"10.1"}
,{"CODGEO":"2B354","TxPauvrete":"null"}
,{"CODGEO":"2B355","TxPauvrete":"null"}
,{"CODGEO":"2B356","TxPauvrete":"null"}
,{"CODGEO":"2B361","TxPauvrete":"null"}
,{"CODGEO":"2B364","TxPauvrete":"null"}
,{"CODGEO":"2B365","TxPauvrete":"null"}
,{"CODGEO":"2B366","TxPauvrete":"null"}
]}
