{"status":"success","data":[{"CODGEO":"41001","TxPauvrete":"null"}
,{"CODGEO":"41002","TxPauvrete":"null"}
,{"CODGEO":"41003","TxPauvrete":"null"}
,{"CODGEO":"41004","TxPauvrete":"null"}
,{"CODGEO":"41005","TxPauvrete":"null"}
,{"CODGEO":"41006","TxPauvrete":"null"}
,{"CODGEO":"41007","TxPauvrete":"null"}
,{"CODGEO":"41008","TxPauvrete":"null"}
,{"CODGEO":"41009","TxPauvrete":"null"}
,{"CODGEO":"41010","TxPauvrete":"null"}
,{"CODGEO":"41011","TxPauvrete":"null"}
,{"CODGEO":"41012","TxPauvrete":"null"}
,{"CODGEO":"41013","TxPauvrete":"null"}
,{"CODGEO":"41014","TxPauvrete":"null"}
,{"CODGEO":"41015","TxPauvrete":"null"}
,{"CODGEO":"41016","TxPauvrete":"null"}
,{"CODGEO":"41017","TxPauvrete":"null"}
,{"CODGEO":"41018","TxPauvrete":"23.2"}
,{"CODGEO":"41019","TxPauvrete":"null"}
,{"CODGEO":"41020","TxPauvrete":"null"}
,{"CODGEO":"41022","TxPauvrete":"null"}
,{"CODGEO":"41023","TxPauvrete":"null"}
,{"CODGEO":"41024","TxPauvrete":"null"}
,{"CODGEO":"41025","TxPauvrete":"null"}
,{"CODGEO":"41026","TxPauvrete":"null"}
,{"CODGEO":"41027","TxPauvrete":"null"}
,{"CODGEO":"41028","TxPauvrete":"null"}
,{"CODGEO":"41029","TxPauvrete":"null"}
,{"CODGEO":"41030","TxPauvrete":"null"}
,{"CODGEO":"41031","TxPauvrete":"4.6"}
,{"CODGEO":"41032","TxPauvrete":"4.8"}
,{"CODGEO":"41033","TxPauvrete":"null"}
,{"CODGEO":"41034","TxPauvrete":"null"}
,{"CODGEO":"41035","TxPauvrete":"null"}
,{"CODGEO":"41036","TxPauvrete":"null"}
,{"CODGEO":"41037","TxPauvrete":"null"}
,{"CODGEO":"41038","TxPauvrete":"null"}
,{"CODGEO":"41039","TxPauvrete":"null"}
,{"CODGEO":"41040","TxPauvrete":"null"}
,{"CODGEO":"41041","TxPauvrete":"null"}
,{"CODGEO":"41042","TxPauvrete":"null"}
,{"CODGEO":"41043","TxPauvrete":"null"}
,{"CODGEO":"41044","TxPauvrete":"null"}
,{"CODGEO":"41045","TxPauvrete":"null"}
,{"CODGEO":"41046","TxPauvrete":"null"}
,{"CODGEO":"41047","TxPauvrete":"5.9"}
,{"CODGEO":"41048","TxPauvrete":"null"}
,{"CODGEO":"41049","TxPauvrete":"null"}
,{"CODGEO":"41050","TxPauvrete":"null"}
,{"CODGEO":"41051","TxPauvrete":"null"}
,{"CODGEO":"41052","TxPauvrete":"null"}
,{"CODGEO":"41053","TxPauvrete":"null"}
,{"CODGEO":"41054","TxPauvrete":"null"}
,{"CODGEO":"41055","TxPauvrete":"5.1"}
,{"CODGEO":"41056","TxPauvrete":"null"}
,{"CODGEO":"41057","TxPauvrete":"null"}
,{"CODGEO":"41058","TxPauvrete":"null"}
,{"CODGEO":"41059","TxPauvrete":"12.0"}
,{"CODGEO":"41060","TxPauvrete":"null"}
,{"CODGEO":"41061","TxPauvrete":"null"}
,{"CODGEO":"41062","TxPauvrete":"null"}
,{"CODGEO":"41063","TxPauvrete":"null"}
,{"CODGEO":"41064","TxPauvrete":"null"}
,{"CODGEO":"41065","TxPauvrete":"null"}
,{"CODGEO":"41066","TxPauvrete":"null"}
,{"CODGEO":"41067","TxPauvrete":"5.4"}
,{"CODGEO":"41068","TxPauvrete":"null"}
,{"CODGEO":"41069","TxPauvrete":"null"}
,{"CODGEO":"41070","TxPauvrete":"null"}
,{"CODGEO":"41071","TxPauvrete":"null"}
,{"CODGEO":"41072","TxPauvrete":"null"}
,{"CODGEO":"41073","TxPauvrete":"null"}
,{"CODGEO":"41074","TxPauvrete":"null"}
,{"CODGEO":"41075","TxPauvrete":"null"}
,{"CODGEO":"41077","TxPauvrete":"null"}
,{"CODGEO":"41078","TxPauvrete":"null"}
,{"CODGEO":"41079","TxPauvrete":"null"}
,{"CODGEO":"41080","TxPauvrete":"null"}
,{"CODGEO":"41081","TxPauvrete":"null"}
,{"CODGEO":"41082","TxPauvrete":"null"}
,{"CODGEO":"41083","TxPauvrete":"null"}
,{"CODGEO":"41084","TxPauvrete":"null"}
,{"CODGEO":"41085","TxPauvrete":"null"}
,{"CODGEO":"41086","TxPauvrete":"null"}
,{"CODGEO":"41087","TxPauvrete":"null"}
,{"CODGEO":"41088","TxPauvrete":"null"}
,{"CODGEO":"41089","TxPauvrete":"null"}
,{"CODGEO":"41090","TxPauvrete":"null"}
,{"CODGEO":"41091","TxPauvrete":"null"}
,{"CODGEO":"41092","TxPauvrete":"null"}
,{"CODGEO":"41093","TxPauvrete":"null"}
,{"CODGEO":"41094","TxPauvrete":"null"}
,{"CODGEO":"41095","TxPauvrete":"null"}
,{"CODGEO":"41096","TxPauvrete":"null"}
,{"CODGEO":"41097","TxPauvrete":"null"}
,{"CODGEO":"41098","TxPauvrete":"null"}
,{"CODGEO":"41099","TxPauvrete":"null"}
,{"CODGEO":"41100","TxPauvrete":"null"}
,{"CODGEO":"41101","TxPauvrete":"null"}
,{"CODGEO":"41102","TxPauvrete":"null"}
,{"CODGEO":"41103","TxPauvrete":"null"}
,{"CODGEO":"41104","TxPauvrete":"6.5"}
,{"CODGEO":"41105","TxPauvrete":"null"}
,{"CODGEO":"41106","TxPauvrete":"11.0"}
,{"CODGEO":"41107","TxPauvrete":"null"}
,{"CODGEO":"41108","TxPauvrete":"null"}
,{"CODGEO":"41109","TxPauvrete":"null"}
,{"CODGEO":"41110","TxPauvrete":"null"}
,{"CODGEO":"41112","TxPauvrete":"null"}
,{"CODGEO":"41113","TxPauvrete":"null"}
,{"CODGEO":"41114","TxPauvrete":"null"}
,{"CODGEO":"41115","TxPauvrete":"null"}
,{"CODGEO":"41116","TxPauvrete":"null"}
,{"CODGEO":"41118","TxPauvrete":"null"}
,{"CODGEO":"41119","TxPauvrete":"null"}
,{"CODGEO":"41120","TxPauvrete":"null"}
,{"CODGEO":"41121","TxPauvrete":"null"}
,{"CODGEO":"41122","TxPauvrete":"null"}
,{"CODGEO":"41123","TxPauvrete":"null"}
,{"CODGEO":"41124","TxPauvrete":"null"}
,{"CODGEO":"41125","TxPauvrete":"null"}
,{"CODGEO":"41126","TxPauvrete":"null"}
,{"CODGEO":"41127","TxPauvrete":"null"}
,{"CODGEO":"41128","TxPauvrete":"null"}
,{"CODGEO":"41129","TxPauvrete":"null"}
,{"CODGEO":"41130","TxPauvrete":"null"}
,{"CODGEO":"41131","TxPauvrete":"null"}
,{"CODGEO":"41132","TxPauvrete":"null"}
,{"CODGEO":"41133","TxPauvrete":"null"}
,{"CODGEO":"41134","TxPauvrete":"null"}
,{"CODGEO":"41135","TxPauvrete":"null"}
,{"CODGEO":"41136","TxPauvrete":"13.7"}
,{"CODGEO":"41137","TxPauvrete":"null"}
,{"CODGEO":"41138","TxPauvrete":"null"}
,{"CODGEO":"41139","TxPauvrete":"null"}
,{"CODGEO":"41140","TxPauvrete":"null"}
,{"CODGEO":"41141","TxPauvrete":"null"}
,{"CODGEO":"41142","TxPauvrete":"null"}
,{"CODGEO":"41143","TxPauvrete":"null"}
,{"CODGEO":"41144","TxPauvrete":"null"}
,{"CODGEO":"41145","TxPauvrete":"null"}
,{"CODGEO":"41146","TxPauvrete":"null"}
,{"CODGEO":"41147","TxPauvrete":"null"}
,{"CODGEO":"41148","TxPauvrete":"null"}
,{"CODGEO":"41149","TxPauvrete":"10.0"}
,{"CODGEO":"41150","TxPauvrete":"6.7"}
,{"CODGEO":"41151","TxPauvrete":"12.6"}
,{"CODGEO":"41152","TxPauvrete":"null"}
,{"CODGEO":"41153","TxPauvrete":"null"}
,{"CODGEO":"41154","TxPauvrete":"null"}
,{"CODGEO":"41155","TxPauvrete":"null"}
,{"CODGEO":"41156","TxPauvrete":"null"}
,{"CODGEO":"41157","TxPauvrete":"null"}
,{"CODGEO":"41158","TxPauvrete":"7.2"}
,{"CODGEO":"41159","TxPauvrete":"null"}
,{"CODGEO":"41160","TxPauvrete":"null"}
,{"CODGEO":"41161","TxPauvrete":"10.0"}
,{"CODGEO":"41163","TxPauvrete":"null"}
,{"CODGEO":"41164","TxPauvrete":"16.7"}
,{"CODGEO":"41165","TxPauvrete":"null"}
,{"CODGEO":"41166","TxPauvrete":"null"}
,{"CODGEO":"41167","TxPauvrete":"9.4"}
,{"CODGEO":"41168","TxPauvrete":"null"}
,{"CODGEO":"41169","TxPauvrete":"null"}
,{"CODGEO":"41170","TxPauvrete":"null"}
,{"CODGEO":"41171","TxPauvrete":"null"}
,{"CODGEO":"41172","TxPauvrete":"null"}
,{"CODGEO":"41173","TxPauvrete":"null"}
,{"CODGEO":"41174","TxPauvrete":"null"}
,{"CODGEO":"41175","TxPauvrete":"null"}
,{"CODGEO":"41176","TxPauvrete":"null"}
,{"CODGEO":"41177","TxPauvrete":"null"}
,{"CODGEO":"41178","TxPauvrete":"null"}
,{"CODGEO":"41179","TxPauvrete":"null"}
,{"CODGEO":"41180","TxPauvrete":"null"}
,{"CODGEO":"41181","TxPauvrete":"null"}
,{"CODGEO":"41182","TxPauvrete":"null"}
,{"CODGEO":"41183","TxPauvrete":"null"}
,{"CODGEO":"41184","TxPauvrete":"null"}
,{"CODGEO":"41185","TxPauvrete":"11.0"}
,{"CODGEO":"41186","TxPauvrete":"null"}
,{"CODGEO":"41187","TxPauvrete":"null"}
,{"CODGEO":"41188","TxPauvrete":"null"}
,{"CODGEO":"41189","TxPauvrete":"null"}
,{"CODGEO":"41190","TxPauvrete":"null"}
,{"CODGEO":"41191","TxPauvrete":"null"}
,{"CODGEO":"41192","TxPauvrete":"null"}
,{"CODGEO":"41193","TxPauvrete":"null"}
,{"CODGEO":"41194","TxPauvrete":"17.5"}
,{"CODGEO":"41195","TxPauvrete":"null"}
,{"CODGEO":"41196","TxPauvrete":"null"}
,{"CODGEO":"41197","TxPauvrete":"null"}
,{"CODGEO":"41198","TxPauvrete":"20.0"}
,{"CODGEO":"41199","TxPauvrete":"null"}
,{"CODGEO":"41200","TxPauvrete":"null"}
,{"CODGEO":"41201","TxPauvrete":"null"}
,{"CODGEO":"41202","TxPauvrete":"null"}
,{"CODGEO":"41203","TxPauvrete":"null"}
,{"CODGEO":"41204","TxPauvrete":"null"}
,{"CODGEO":"41205","TxPauvrete":"null"}
,{"CODGEO":"41206","TxPauvrete":"null"}
,{"CODGEO":"41207","TxPauvrete":"null"}
,{"CODGEO":"41208","TxPauvrete":"null"}
,{"CODGEO":"41209","TxPauvrete":"null"}
,{"CODGEO":"41210","TxPauvrete":"null"}
,{"CODGEO":"41211","TxPauvrete":"9.9"}
,{"CODGEO":"41212","TxPauvrete":"5.8"}
,{"CODGEO":"41213","TxPauvrete":"null"}
,{"CODGEO":"41214","TxPauvrete":"null"}
,{"CODGEO":"41215","TxPauvrete":"null"}
,{"CODGEO":"41216","TxPauvrete":"null"}
,{"CODGEO":"41217","TxPauvrete":"null"}
,{"CODGEO":"41218","TxPauvrete":"null"}
,{"CODGEO":"41219","TxPauvrete":"null"}
,{"CODGEO":"41220","TxPauvrete":"8.0"}
,{"CODGEO":"41221","TxPauvrete":"null"}
,{"CODGEO":"41222","TxPauvrete":"null"}
,{"CODGEO":"41223","TxPauvrete":"null"}
,{"CODGEO":"41224","TxPauvrete":"null"}
,{"CODGEO":"41225","TxPauvrete":"null"}
,{"CODGEO":"41226","TxPauvrete":"7.5"}
,{"CODGEO":"41228","TxPauvrete":"null"}
,{"CODGEO":"41229","TxPauvrete":"null"}
,{"CODGEO":"41230","TxPauvrete":"null"}
,{"CODGEO":"41231","TxPauvrete":"null"}
,{"CODGEO":"41232","TxPauvrete":"12.3"}
,{"CODGEO":"41233","TxPauvrete":"null"}
,{"CODGEO":"41234","TxPauvrete":"null"}
,{"CODGEO":"41235","TxPauvrete":"null"}
,{"CODGEO":"41236","TxPauvrete":"null"}
,{"CODGEO":"41237","TxPauvrete":"null"}
,{"CODGEO":"41238","TxPauvrete":"9.7"}
,{"CODGEO":"41239","TxPauvrete":"null"}
,{"CODGEO":"41240","TxPauvrete":"null"}
,{"CODGEO":"41241","TxPauvrete":"null"}
,{"CODGEO":"41242","TxPauvrete":"18.0"}
,{"CODGEO":"41243","TxPauvrete":"null"}
,{"CODGEO":"41244","TxPauvrete":"null"}
,{"CODGEO":"41245","TxPauvrete":"null"}
,{"CODGEO":"41246","TxPauvrete":"null"}
,{"CODGEO":"41247","TxPauvrete":"null"}
,{"CODGEO":"41248","TxPauvrete":"null"}
,{"CODGEO":"41249","TxPauvrete":"null"}
,{"CODGEO":"41250","TxPauvrete":"null"}
,{"CODGEO":"41251","TxPauvrete":"null"}
,{"CODGEO":"41252","TxPauvrete":"null"}
,{"CODGEO":"41253","TxPauvrete":"null"}
,{"CODGEO":"41254","TxPauvrete":"null"}
,{"CODGEO":"41255","TxPauvrete":"null"}
,{"CODGEO":"41256","TxPauvrete":"null"}
,{"CODGEO":"41257","TxPauvrete":"null"}
,{"CODGEO":"41258","TxPauvrete":"null"}
,{"CODGEO":"41259","TxPauvrete":"null"}
,{"CODGEO":"41260","TxPauvrete":"null"}
,{"CODGEO":"41261","TxPauvrete":"null"}
,{"CODGEO":"41262","TxPauvrete":"null"}
,{"CODGEO":"41263","TxPauvrete":"null"}
,{"CODGEO":"41264","TxPauvrete":"null"}
,{"CODGEO":"41265","TxPauvrete":"null"}
,{"CODGEO":"41266","TxPauvrete":"null"}
,{"CODGEO":"41267","TxPauvrete":"null"}
,{"CODGEO":"41268","TxPauvrete":"null"}
,{"CODGEO":"41269","TxPauvrete":"18.6"}
,{"CODGEO":"41270","TxPauvrete":"null"}
,{"CODGEO":"41271","TxPauvrete":"null"}
,{"CODGEO":"41272","TxPauvrete":"null"}
,{"CODGEO":"41273","TxPauvrete":"null"}
,{"CODGEO":"41274","TxPauvrete":"null"}
,{"CODGEO":"41275","TxPauvrete":"null"}
,{"CODGEO":"41276","TxPauvrete":"6.5"}
,{"CODGEO":"41277","TxPauvrete":"null"}
,{"CODGEO":"41278","TxPauvrete":"null"}
,{"CODGEO":"41279","TxPauvrete":"null"}
,{"CODGEO":"41280","TxPauvrete":"11.3"}
,{"CODGEO":"41281","TxPauvrete":"null"}
,{"CODGEO":"41282","TxPauvrete":"null"}
,{"CODGEO":"41283","TxPauvrete":"null"}
,{"CODGEO":"41284","TxPauvrete":"null"}
,{"CODGEO":"41285","TxPauvrete":"null"}
,{"CODGEO":"41286","TxPauvrete":"null"}
,{"CODGEO":"41287","TxPauvrete":"null"}
,{"CODGEO":"41288","TxPauvrete":"null"}
,{"CODGEO":"41289","TxPauvrete":"null"}
,{"CODGEO":"41290","TxPauvrete":"null"}
,{"CODGEO":"41291","TxPauvrete":"null"}
,{"CODGEO":"41292","TxPauvrete":"null"}
,{"CODGEO":"41293","TxPauvrete":"null"}
,{"CODGEO":"41294","TxPauvrete":"null"}
,{"CODGEO":"41295","TxPauvrete":"6.4"}
,{"CODGEO":"41296","TxPauvrete":"null"}
,{"CODGEO":"41297","TxPauvrete":"null"}
]}
