{"status":"success","data":[{"CODGEO":"43001","TxPauvrete":"null"}
,{"CODGEO":"43002","TxPauvrete":"null"}
,{"CODGEO":"43003","TxPauvrete":"null"}
,{"CODGEO":"43004","TxPauvrete":"null"}
,{"CODGEO":"43005","TxPauvrete":"null"}
,{"CODGEO":"43006","TxPauvrete":"null"}
,{"CODGEO":"43007","TxPauvrete":"null"}
,{"CODGEO":"43008","TxPauvrete":"null"}
,{"CODGEO":"43009","TxPauvrete":"null"}
,{"CODGEO":"43010","TxPauvrete":"null"}
,{"CODGEO":"43011","TxPauvrete":"null"}
,{"CODGEO":"43012","TxPauvrete":"11.1"}
,{"CODGEO":"43013","TxPauvrete":"null"}
,{"CODGEO":"43014","TxPauvrete":"null"}
,{"CODGEO":"43015","TxPauvrete":"null"}
,{"CODGEO":"43016","TxPauvrete":"null"}
,{"CODGEO":"43017","TxPauvrete":"null"}
,{"CODGEO":"43018","TxPauvrete":"null"}
,{"CODGEO":"43019","TxPauvrete":"null"}
,{"CODGEO":"43020","TxPauvrete":"9.0"}
,{"CODGEO":"43021","TxPauvrete":"null"}
,{"CODGEO":"43022","TxPauvrete":"null"}
,{"CODGEO":"43023","TxPauvrete":"null"}
,{"CODGEO":"43024","TxPauvrete":"null"}
,{"CODGEO":"43025","TxPauvrete":"10.7"}
,{"CODGEO":"43026","TxPauvrete":"null"}
,{"CODGEO":"43027","TxPauvrete":"null"}
,{"CODGEO":"43028","TxPauvrete":"null"}
,{"CODGEO":"43029","TxPauvrete":"null"}
,{"CODGEO":"43030","TxPauvrete":"null"}
,{"CODGEO":"43031","TxPauvrete":"null"}
,{"CODGEO":"43032","TxPauvrete":"null"}
,{"CODGEO":"43033","TxPauvrete":"null"}
,{"CODGEO":"43034","TxPauvrete":"null"}
,{"CODGEO":"43035","TxPauvrete":"null"}
,{"CODGEO":"43036","TxPauvrete":"null"}
,{"CODGEO":"43037","TxPauvrete":"null"}
,{"CODGEO":"43038","TxPauvrete":"null"}
,{"CODGEO":"43039","TxPauvrete":"null"}
,{"CODGEO":"43040","TxPauvrete":"16.8"}
,{"CODGEO":"43041","TxPauvrete":"13.1"}
,{"CODGEO":"43042","TxPauvrete":"null"}
,{"CODGEO":"43043","TxPauvrete":"null"}
,{"CODGEO":"43044","TxPauvrete":"null"}
,{"CODGEO":"43045","TxPauvrete":"null"}
,{"CODGEO":"43046","TxPauvrete":"9.2"}
,{"CODGEO":"43047","TxPauvrete":"null"}
,{"CODGEO":"43048","TxPauvrete":"null"}
,{"CODGEO":"43049","TxPauvrete":"null"}
,{"CODGEO":"43050","TxPauvrete":"null"}
,{"CODGEO":"43051","TxPauvrete":"15.9"}
,{"CODGEO":"43052","TxPauvrete":"null"}
,{"CODGEO":"43053","TxPauvrete":"null"}
,{"CODGEO":"43054","TxPauvrete":"null"}
,{"CODGEO":"43055","TxPauvrete":"null"}
,{"CODGEO":"43056","TxPauvrete":"null"}
,{"CODGEO":"43057","TxPauvrete":"null"}
,{"CODGEO":"43058","TxPauvrete":"null"}
,{"CODGEO":"43059","TxPauvrete":"null"}
,{"CODGEO":"43060","TxPauvrete":"null"}
,{"CODGEO":"43061","TxPauvrete":"null"}
,{"CODGEO":"43062","TxPauvrete":"null"}
,{"CODGEO":"43063","TxPauvrete":"null"}
,{"CODGEO":"43064","TxPauvrete":"null"}
,{"CODGEO":"43065","TxPauvrete":"null"}
,{"CODGEO":"43066","TxPauvrete":"null"}
,{"CODGEO":"43067","TxPauvrete":"null"}
,{"CODGEO":"43068","TxPauvrete":"null"}
,{"CODGEO":"43069","TxPauvrete":"null"}
,{"CODGEO":"43070","TxPauvrete":"null"}
,{"CODGEO":"43071","TxPauvrete":"null"}
,{"CODGEO":"43072","TxPauvrete":"null"}
,{"CODGEO":"43073","TxPauvrete":"null"}
,{"CODGEO":"43074","TxPauvrete":"null"}
,{"CODGEO":"43075","TxPauvrete":"null"}
,{"CODGEO":"43076","TxPauvrete":"null"}
,{"CODGEO":"43077","TxPauvrete":"null"}
,{"CODGEO":"43078","TxPauvrete":"5.9"}
,{"CODGEO":"43079","TxPauvrete":"null"}
,{"CODGEO":"43080","TxPauvrete":"null"}
,{"CODGEO":"43081","TxPauvrete":"null"}
,{"CODGEO":"43082","TxPauvrete":"null"}
,{"CODGEO":"43083","TxPauvrete":"null"}
,{"CODGEO":"43084","TxPauvrete":"null"}
,{"CODGEO":"43085","TxPauvrete":"null"}
,{"CODGEO":"43086","TxPauvrete":"null"}
,{"CODGEO":"43087","TxPauvrete":"11.3"}
,{"CODGEO":"43088","TxPauvrete":"null"}
,{"CODGEO":"43089","TxPauvrete":"13.5"}
,{"CODGEO":"43090","TxPauvrete":"null"}
,{"CODGEO":"43091","TxPauvrete":"null"}
,{"CODGEO":"43092","TxPauvrete":"null"}
,{"CODGEO":"43093","TxPauvrete":"null"}
,{"CODGEO":"43094","TxPauvrete":"null"}
,{"CODGEO":"43095","TxPauvrete":"null"}
,{"CODGEO":"43096","TxPauvrete":"null"}
,{"CODGEO":"43097","TxPauvrete":"null"}
,{"CODGEO":"43098","TxPauvrete":"null"}
,{"CODGEO":"43099","TxPauvrete":"null"}
,{"CODGEO":"43100","TxPauvrete":"null"}
,{"CODGEO":"43101","TxPauvrete":"null"}
,{"CODGEO":"43102","TxPauvrete":"null"}
,{"CODGEO":"43103","TxPauvrete":"null"}
,{"CODGEO":"43104","TxPauvrete":"null"}
,{"CODGEO":"43105","TxPauvrete":"null"}
,{"CODGEO":"43106","TxPauvrete":"null"}
,{"CODGEO":"43107","TxPauvrete":"null"}
,{"CODGEO":"43108","TxPauvrete":"null"}
,{"CODGEO":"43109","TxPauvrete":"null"}
,{"CODGEO":"43110","TxPauvrete":"null"}
,{"CODGEO":"43111","TxPauvrete":"null"}
,{"CODGEO":"43112","TxPauvrete":"15.3"}
,{"CODGEO":"43113","TxPauvrete":"null"}
,{"CODGEO":"43114","TxPauvrete":"null"}
,{"CODGEO":"43115","TxPauvrete":"null"}
,{"CODGEO":"43116","TxPauvrete":"null"}
,{"CODGEO":"43117","TxPauvrete":"null"}
,{"CODGEO":"43118","TxPauvrete":"null"}
,{"CODGEO":"43119","TxPauvrete":"null"}
,{"CODGEO":"43120","TxPauvrete":"null"}
,{"CODGEO":"43121","TxPauvrete":"null"}
,{"CODGEO":"43122","TxPauvrete":"null"}
,{"CODGEO":"43123","TxPauvrete":"null"}
,{"CODGEO":"43124","TxPauvrete":"null"}
,{"CODGEO":"43125","TxPauvrete":"null"}
,{"CODGEO":"43126","TxPauvrete":"null"}
,{"CODGEO":"43127","TxPauvrete":"null"}
,{"CODGEO":"43128","TxPauvrete":"null"}
,{"CODGEO":"43129","TxPauvrete":"null"}
,{"CODGEO":"43130","TxPauvrete":"null"}
,{"CODGEO":"43131","TxPauvrete":"null"}
,{"CODGEO":"43132","TxPauvrete":"null"}
,{"CODGEO":"43133","TxPauvrete":"null"}
,{"CODGEO":"43134","TxPauvrete":"null"}
,{"CODGEO":"43135","TxPauvrete":"null"}
,{"CODGEO":"43136","TxPauvrete":"null"}
,{"CODGEO":"43137","TxPauvrete":"8.6"}
,{"CODGEO":"43138","TxPauvrete":"null"}
,{"CODGEO":"43139","TxPauvrete":"null"}
,{"CODGEO":"43140","TxPauvrete":"null"}
,{"CODGEO":"43141","TxPauvrete":"null"}
,{"CODGEO":"43142","TxPauvrete":"null"}
,{"CODGEO":"43143","TxPauvrete":"null"}
,{"CODGEO":"43144","TxPauvrete":"null"}
,{"CODGEO":"43145","TxPauvrete":"null"}
,{"CODGEO":"43147","TxPauvrete":"null"}
,{"CODGEO":"43148","TxPauvrete":"null"}
,{"CODGEO":"43149","TxPauvrete":"null"}
,{"CODGEO":"43150","TxPauvrete":"null"}
,{"CODGEO":"43151","TxPauvrete":"null"}
,{"CODGEO":"43152","TxPauvrete":"5.8"}
,{"CODGEO":"43153","TxPauvrete":"null"}
,{"CODGEO":"43154","TxPauvrete":"null"}
,{"CODGEO":"43155","TxPauvrete":"null"}
,{"CODGEO":"43156","TxPauvrete":"null"}
,{"CODGEO":"43157","TxPauvrete":"19.8"}
,{"CODGEO":"43158","TxPauvrete":"null"}
,{"CODGEO":"43159","TxPauvrete":"null"}
,{"CODGEO":"43160","TxPauvrete":"null"}
,{"CODGEO":"43162","TxPauvrete":"14.6"}
,{"CODGEO":"43163","TxPauvrete":"null"}
,{"CODGEO":"43164","TxPauvrete":"null"}
,{"CODGEO":"43165","TxPauvrete":"null"}
,{"CODGEO":"43166","TxPauvrete":"null"}
,{"CODGEO":"43167","TxPauvrete":"null"}
,{"CODGEO":"43168","TxPauvrete":"null"}
,{"CODGEO":"43169","TxPauvrete":"null"}
,{"CODGEO":"43170","TxPauvrete":"null"}
,{"CODGEO":"43171","TxPauvrete":"null"}
,{"CODGEO":"43172","TxPauvrete":"null"}
,{"CODGEO":"43173","TxPauvrete":"null"}
,{"CODGEO":"43174","TxPauvrete":"null"}
,{"CODGEO":"43175","TxPauvrete":"null"}
,{"CODGEO":"43176","TxPauvrete":"null"}
,{"CODGEO":"43177","TxPauvrete":"7.8"}
,{"CODGEO":"43178","TxPauvrete":"null"}
,{"CODGEO":"43180","TxPauvrete":"null"}
,{"CODGEO":"43181","TxPauvrete":"null"}
,{"CODGEO":"43182","TxPauvrete":"null"}
,{"CODGEO":"43183","TxPauvrete":"null"}
,{"CODGEO":"43184","TxPauvrete":"4.5"}
,{"CODGEO":"43185","TxPauvrete":"13.3"}
,{"CODGEO":"43186","TxPauvrete":"null"}
,{"CODGEO":"43187","TxPauvrete":"null"}
,{"CODGEO":"43188","TxPauvrete":"null"}
,{"CODGEO":"43189","TxPauvrete":"null"}
,{"CODGEO":"43190","TxPauvrete":"5.4"}
,{"CODGEO":"43191","TxPauvrete":"null"}
,{"CODGEO":"43192","TxPauvrete":"null"}
,{"CODGEO":"43193","TxPauvrete":"null"}
,{"CODGEO":"43194","TxPauvrete":"null"}
,{"CODGEO":"43195","TxPauvrete":"null"}
,{"CODGEO":"43196","TxPauvrete":"null"}
,{"CODGEO":"43197","TxPauvrete":"null"}
,{"CODGEO":"43198","TxPauvrete":"null"}
,{"CODGEO":"43199","TxPauvrete":"null"}
,{"CODGEO":"43200","TxPauvrete":"null"}
,{"CODGEO":"43201","TxPauvrete":"null"}
,{"CODGEO":"43202","TxPauvrete":"null"}
,{"CODGEO":"43203","TxPauvrete":"null"}
,{"CODGEO":"43204","TxPauvrete":"null"}
,{"CODGEO":"43205","TxPauvrete":"8.0"}
,{"CODGEO":"43206","TxPauvrete":"null"}
,{"CODGEO":"43207","TxPauvrete":"null"}
,{"CODGEO":"43208","TxPauvrete":"null"}
,{"CODGEO":"43210","TxPauvrete":"null"}
,{"CODGEO":"43211","TxPauvrete":"7.7"}
,{"CODGEO":"43212","TxPauvrete":"null"}
,{"CODGEO":"43213","TxPauvrete":"9.6"}
,{"CODGEO":"43214","TxPauvrete":"null"}
,{"CODGEO":"43215","TxPauvrete":"null"}
,{"CODGEO":"43216","TxPauvrete":"11.9"}
,{"CODGEO":"43217","TxPauvrete":"null"}
,{"CODGEO":"43218","TxPauvrete":"null"}
,{"CODGEO":"43219","TxPauvrete":"null"}
,{"CODGEO":"43220","TxPauvrete":"null"}
,{"CODGEO":"43221","TxPauvrete":"null"}
,{"CODGEO":"43222","TxPauvrete":"null"}
,{"CODGEO":"43223","TxPauvrete":"null"}
,{"CODGEO":"43224","TxPauvrete":"10.0"}
,{"CODGEO":"43225","TxPauvrete":"null"}
,{"CODGEO":"43226","TxPauvrete":"null"}
,{"CODGEO":"43227","TxPauvrete":"null"}
,{"CODGEO":"43228","TxPauvrete":"null"}
,{"CODGEO":"43229","TxPauvrete":"null"}
,{"CODGEO":"43230","TxPauvrete":"null"}
,{"CODGEO":"43231","TxPauvrete":"null"}
,{"CODGEO":"43232","TxPauvrete":"null"}
,{"CODGEO":"43233","TxPauvrete":"null"}
,{"CODGEO":"43234","TxPauvrete":"null"}
,{"CODGEO":"43236","TxPauvrete":"null"}
,{"CODGEO":"43237","TxPauvrete":"null"}
,{"CODGEO":"43238","TxPauvrete":"null"}
,{"CODGEO":"43239","TxPauvrete":"null"}
,{"CODGEO":"43240","TxPauvrete":"null"}
,{"CODGEO":"43241","TxPauvrete":"null"}
,{"CODGEO":"43242","TxPauvrete":"null"}
,{"CODGEO":"43244","TxPauvrete":"13.4"}
,{"CODGEO":"43245","TxPauvrete":"null"}
,{"CODGEO":"43246","TxPauvrete":"null"}
,{"CODGEO":"43247","TxPauvrete":"null"}
,{"CODGEO":"43249","TxPauvrete":"null"}
,{"CODGEO":"43250","TxPauvrete":"null"}
,{"CODGEO":"43251","TxPauvrete":"10.7"}
,{"CODGEO":"43252","TxPauvrete":"null"}
,{"CODGEO":"43253","TxPauvrete":"null"}
,{"CODGEO":"43254","TxPauvrete":"null"}
,{"CODGEO":"43255","TxPauvrete":"null"}
,{"CODGEO":"43256","TxPauvrete":"null"}
,{"CODGEO":"43257","TxPauvrete":"null"}
,{"CODGEO":"43258","TxPauvrete":"null"}
,{"CODGEO":"43259","TxPauvrete":"null"}
,{"CODGEO":"43260","TxPauvrete":"null"}
,{"CODGEO":"43261","TxPauvrete":"null"}
,{"CODGEO":"43262","TxPauvrete":"null"}
,{"CODGEO":"43263","TxPauvrete":"null"}
,{"CODGEO":"43264","TxPauvrete":"null"}
,{"CODGEO":"43265","TxPauvrete":"null"}
,{"CODGEO":"43267","TxPauvrete":"null"}
,{"CODGEO":"43268","TxPauvrete":"11.0"}
]}
