{"status":"success","data":[{"CODGEO":"48001","TxPauvrete":"null"}
,{"CODGEO":"48002","TxPauvrete":"null"}
,{"CODGEO":"48003","TxPauvrete":"null"}
,{"CODGEO":"48004","TxPauvrete":"null"}
,{"CODGEO":"48005","TxPauvrete":"null"}
,{"CODGEO":"48007","TxPauvrete":"null"}
,{"CODGEO":"48008","TxPauvrete":"null"}
,{"CODGEO":"48009","TxPauvrete":"null"}
,{"CODGEO":"48010","TxPauvrete":"null"}
,{"CODGEO":"48012","TxPauvrete":"null"}
,{"CODGEO":"48013","TxPauvrete":"null"}
,{"CODGEO":"48014","TxPauvrete":"null"}
,{"CODGEO":"48015","TxPauvrete":"null"}
,{"CODGEO":"48016","TxPauvrete":"null"}
,{"CODGEO":"48017","TxPauvrete":"null"}
,{"CODGEO":"48018","TxPauvrete":"null"}
,{"CODGEO":"48019","TxPauvrete":"null"}
,{"CODGEO":"48020","TxPauvrete":"null"}
,{"CODGEO":"48021","TxPauvrete":"null"}
,{"CODGEO":"48022","TxPauvrete":"null"}
,{"CODGEO":"48023","TxPauvrete":"null"}
,{"CODGEO":"48025","TxPauvrete":"null"}
,{"CODGEO":"48026","TxPauvrete":"null"}
,{"CODGEO":"48027","TxPauvrete":"null"}
,{"CODGEO":"48028","TxPauvrete":"null"}
,{"CODGEO":"48029","TxPauvrete":"null"}
,{"CODGEO":"48030","TxPauvrete":"null"}
,{"CODGEO":"48031","TxPauvrete":"null"}
,{"CODGEO":"48032","TxPauvrete":"null"}
,{"CODGEO":"48033","TxPauvrete":"null"}
,{"CODGEO":"48034","TxPauvrete":"null"}
,{"CODGEO":"48036","TxPauvrete":"null"}
,{"CODGEO":"48037","TxPauvrete":"null"}
,{"CODGEO":"48038","TxPauvrete":"null"}
,{"CODGEO":"48039","TxPauvrete":"null"}
,{"CODGEO":"48040","TxPauvrete":"null"}
,{"CODGEO":"48041","TxPauvrete":"null"}
,{"CODGEO":"48042","TxPauvrete":"null"}
,{"CODGEO":"48043","TxPauvrete":"null"}
,{"CODGEO":"48044","TxPauvrete":"null"}
,{"CODGEO":"48045","TxPauvrete":"null"}
,{"CODGEO":"48046","TxPauvrete":"null"}
,{"CODGEO":"48047","TxPauvrete":"null"}
,{"CODGEO":"48048","TxPauvrete":"null"}
,{"CODGEO":"48049","TxPauvrete":"null"}
,{"CODGEO":"48050","TxPauvrete":"null"}
,{"CODGEO":"48051","TxPauvrete":"null"}
,{"CODGEO":"48053","TxPauvrete":"null"}
,{"CODGEO":"48054","TxPauvrete":"null"}
,{"CODGEO":"48055","TxPauvrete":"null"}
,{"CODGEO":"48056","TxPauvrete":"null"}
,{"CODGEO":"48057","TxPauvrete":"null"}
,{"CODGEO":"48058","TxPauvrete":"null"}
,{"CODGEO":"48059","TxPauvrete":"null"}
,{"CODGEO":"48060","TxPauvrete":"null"}
,{"CODGEO":"48061","TxPauvrete":"null"}
,{"CODGEO":"48062","TxPauvrete":"null"}
,{"CODGEO":"48063","TxPauvrete":"null"}
,{"CODGEO":"48064","TxPauvrete":"null"}
,{"CODGEO":"48065","TxPauvrete":"null"}
,{"CODGEO":"48066","TxPauvrete":"null"}
,{"CODGEO":"48067","TxPauvrete":"null"}
,{"CODGEO":"48068","TxPauvrete":"null"}
,{"CODGEO":"48069","TxPauvrete":"null"}
,{"CODGEO":"48070","TxPauvrete":"null"}
,{"CODGEO":"48071","TxPauvrete":"null"}
,{"CODGEO":"48072","TxPauvrete":"null"}
,{"CODGEO":"48073","TxPauvrete":"null"}
,{"CODGEO":"48074","TxPauvrete":"null"}
,{"CODGEO":"48075","TxPauvrete":"null"}
,{"CODGEO":"48076","TxPauvrete":"null"}
,{"CODGEO":"48077","TxPauvrete":"null"}
,{"CODGEO":"48078","TxPauvrete":"null"}
,{"CODGEO":"48079","TxPauvrete":"null"}
,{"CODGEO":"48080","TxPauvrete":"16.8"}
,{"CODGEO":"48081","TxPauvrete":"null"}
,{"CODGEO":"48082","TxPauvrete":"null"}
,{"CODGEO":"48083","TxPauvrete":"null"}
,{"CODGEO":"48084","TxPauvrete":"null"}
,{"CODGEO":"48085","TxPauvrete":"null"}
,{"CODGEO":"48086","TxPauvrete":"null"}
,{"CODGEO":"48087","TxPauvrete":"null"}
,{"CODGEO":"48088","TxPauvrete":"null"}
,{"CODGEO":"48089","TxPauvrete":"null"}
,{"CODGEO":"48090","TxPauvrete":"null"}
,{"CODGEO":"48091","TxPauvrete":"null"}
,{"CODGEO":"48092","TxPauvrete":"14.4"}
,{"CODGEO":"48093","TxPauvrete":"null"}
,{"CODGEO":"48094","TxPauvrete":"null"}
,{"CODGEO":"48095","TxPauvrete":"11.9"}
,{"CODGEO":"48096","TxPauvrete":"null"}
,{"CODGEO":"48097","TxPauvrete":"null"}
,{"CODGEO":"48098","TxPauvrete":"null"}
,{"CODGEO":"48099","TxPauvrete":"null"}
,{"CODGEO":"48100","TxPauvrete":"null"}
,{"CODGEO":"48101","TxPauvrete":"null"}
,{"CODGEO":"48103","TxPauvrete":"null"}
,{"CODGEO":"48104","TxPauvrete":"null"}
,{"CODGEO":"48105","TxPauvrete":"null"}
,{"CODGEO":"48106","TxPauvrete":"null"}
,{"CODGEO":"48107","TxPauvrete":"null"}
,{"CODGEO":"48108","TxPauvrete":"null"}
,{"CODGEO":"48110","TxPauvrete":"null"}
,{"CODGEO":"48111","TxPauvrete":"null"}
,{"CODGEO":"48112","TxPauvrete":"null"}
,{"CODGEO":"48115","TxPauvrete":"null"}
,{"CODGEO":"48116","TxPauvrete":"null"}
,{"CODGEO":"48117","TxPauvrete":"null"}
,{"CODGEO":"48119","TxPauvrete":"null"}
,{"CODGEO":"48120","TxPauvrete":"null"}
,{"CODGEO":"48121","TxPauvrete":"null"}
,{"CODGEO":"48122","TxPauvrete":"null"}
,{"CODGEO":"48123","TxPauvrete":"null"}
,{"CODGEO":"48124","TxPauvrete":"null"}
,{"CODGEO":"48125","TxPauvrete":"null"}
,{"CODGEO":"48126","TxPauvrete":"null"}
,{"CODGEO":"48127","TxPauvrete":"null"}
,{"CODGEO":"48128","TxPauvrete":"null"}
,{"CODGEO":"48129","TxPauvrete":"null"}
,{"CODGEO":"48130","TxPauvrete":"null"}
,{"CODGEO":"48131","TxPauvrete":"null"}
,{"CODGEO":"48132","TxPauvrete":"null"}
,{"CODGEO":"48133","TxPauvrete":"null"}
,{"CODGEO":"48134","TxPauvrete":"null"}
,{"CODGEO":"48135","TxPauvrete":"null"}
,{"CODGEO":"48136","TxPauvrete":"null"}
,{"CODGEO":"48137","TxPauvrete":"null"}
,{"CODGEO":"48138","TxPauvrete":"null"}
,{"CODGEO":"48139","TxPauvrete":"null"}
,{"CODGEO":"48140","TxPauvrete":"12.1"}
,{"CODGEO":"48141","TxPauvrete":"null"}
,{"CODGEO":"48142","TxPauvrete":"null"}
,{"CODGEO":"48144","TxPauvrete":"null"}
,{"CODGEO":"48145","TxPauvrete":"null"}
,{"CODGEO":"48146","TxPauvrete":"null"}
,{"CODGEO":"48147","TxPauvrete":"null"}
,{"CODGEO":"48148","TxPauvrete":"null"}
,{"CODGEO":"48149","TxPauvrete":"null"}
,{"CODGEO":"48150","TxPauvrete":"null"}
,{"CODGEO":"48151","TxPauvrete":"null"}
,{"CODGEO":"48152","TxPauvrete":"null"}
,{"CODGEO":"48153","TxPauvrete":"null"}
,{"CODGEO":"48154","TxPauvrete":"null"}
,{"CODGEO":"48155","TxPauvrete":"null"}
,{"CODGEO":"48156","TxPauvrete":"null"}
,{"CODGEO":"48157","TxPauvrete":"null"}
,{"CODGEO":"48158","TxPauvrete":"null"}
,{"CODGEO":"48160","TxPauvrete":"null"}
,{"CODGEO":"48161","TxPauvrete":"null"}
,{"CODGEO":"48162","TxPauvrete":"null"}
,{"CODGEO":"48163","TxPauvrete":"null"}
,{"CODGEO":"48164","TxPauvrete":"null"}
,{"CODGEO":"48165","TxPauvrete":"null"}
,{"CODGEO":"48166","TxPauvrete":"null"}
,{"CODGEO":"48167","TxPauvrete":"null"}
,{"CODGEO":"48168","TxPauvrete":"null"}
,{"CODGEO":"48169","TxPauvrete":"null"}
,{"CODGEO":"48170","TxPauvrete":"null"}
,{"CODGEO":"48171","TxPauvrete":"null"}
,{"CODGEO":"48172","TxPauvrete":"null"}
,{"CODGEO":"48173","TxPauvrete":"null"}
,{"CODGEO":"48174","TxPauvrete":"null"}
,{"CODGEO":"48175","TxPauvrete":"null"}
,{"CODGEO":"48176","TxPauvrete":"null"}
,{"CODGEO":"48177","TxPauvrete":"null"}
,{"CODGEO":"48178","TxPauvrete":"null"}
,{"CODGEO":"48179","TxPauvrete":"null"}
,{"CODGEO":"48180","TxPauvrete":"null"}
,{"CODGEO":"48181","TxPauvrete":"null"}
,{"CODGEO":"48182","TxPauvrete":"null"}
,{"CODGEO":"48183","TxPauvrete":"null"}
,{"CODGEO":"48184","TxPauvrete":"null"}
,{"CODGEO":"48185","TxPauvrete":"null"}
,{"CODGEO":"48186","TxPauvrete":"null"}
,{"CODGEO":"48187","TxPauvrete":"null"}
,{"CODGEO":"48188","TxPauvrete":"null"}
,{"CODGEO":"48189","TxPauvrete":"null"}
,{"CODGEO":"48190","TxPauvrete":"null"}
,{"CODGEO":"48191","TxPauvrete":"null"}
,{"CODGEO":"48192","TxPauvrete":"null"}
,{"CODGEO":"48193","TxPauvrete":"null"}
,{"CODGEO":"48194","TxPauvrete":"null"}
,{"CODGEO":"48195","TxPauvrete":"null"}
,{"CODGEO":"48197","TxPauvrete":"null"}
,{"CODGEO":"48198","TxPauvrete":"null"}
]}
