{"status":"success","data":[{"CODGEO":"49001","TxPauvrete":"null"}
,{"CODGEO":"49002","TxPauvrete":"13.7"}
,{"CODGEO":"49003","TxPauvrete":"null"}
,{"CODGEO":"49004","TxPauvrete":"4.7"}
,{"CODGEO":"49005","TxPauvrete":"null"}
,{"CODGEO":"49006","TxPauvrete":"null"}
,{"CODGEO":"49007","TxPauvrete":"18.1"}
,{"CODGEO":"49008","TxPauvrete":"null"}
,{"CODGEO":"49009","TxPauvrete":"null"}
,{"CODGEO":"49010","TxPauvrete":"null"}
,{"CODGEO":"49011","TxPauvrete":"null"}
,{"CODGEO":"49012","TxPauvrete":"null"}
,{"CODGEO":"49013","TxPauvrete":"null"}
,{"CODGEO":"49014","TxPauvrete":"null"}
,{"CODGEO":"49015","TxPauvrete":"7.1"}
,{"CODGEO":"49017","TxPauvrete":"null"}
,{"CODGEO":"49018","TxPauvrete":"12.7"}
,{"CODGEO":"49019","TxPauvrete":"null"}
,{"CODGEO":"49020","TxPauvrete":"5.3"}
,{"CODGEO":"49021","TxPauvrete":"10.4"}
,{"CODGEO":"49022","TxPauvrete":"null"}
,{"CODGEO":"49023","TxPauvrete":"7.2"}
,{"CODGEO":"49024","TxPauvrete":"null"}
,{"CODGEO":"49025","TxPauvrete":"null"}
,{"CODGEO":"49026","TxPauvrete":"6.2"}
,{"CODGEO":"49027","TxPauvrete":"8.6"}
,{"CODGEO":"49028","TxPauvrete":"null"}
,{"CODGEO":"49029","TxPauvrete":"null"}
,{"CODGEO":"49030","TxPauvrete":"null"}
,{"CODGEO":"49031","TxPauvrete":"null"}
,{"CODGEO":"49032","TxPauvrete":"null"}
,{"CODGEO":"49033","TxPauvrete":"null"}
,{"CODGEO":"49034","TxPauvrete":"null"}
,{"CODGEO":"49035","TxPauvrete":"4.1"}
,{"CODGEO":"49036","TxPauvrete":"null"}
,{"CODGEO":"49037","TxPauvrete":"null"}
,{"CODGEO":"49038","TxPauvrete":"null"}
,{"CODGEO":"49039","TxPauvrete":"null"}
,{"CODGEO":"49040","TxPauvrete":"null"}
,{"CODGEO":"49041","TxPauvrete":"16.4"}
,{"CODGEO":"49042","TxPauvrete":"5.7"}
,{"CODGEO":"49043","TxPauvrete":"null"}
,{"CODGEO":"49044","TxPauvrete":"null"}
,{"CODGEO":"49045","TxPauvrete":"null"}
,{"CODGEO":"49046","TxPauvrete":"null"}
,{"CODGEO":"49047","TxPauvrete":"null"}
,{"CODGEO":"49048","TxPauvrete":"6.1"}
,{"CODGEO":"49049","TxPauvrete":"null"}
,{"CODGEO":"49050","TxPauvrete":"9.2"}
,{"CODGEO":"49051","TxPauvrete":"null"}
,{"CODGEO":"49052","TxPauvrete":"null"}
,{"CODGEO":"49053","TxPauvrete":"null"}
,{"CODGEO":"49054","TxPauvrete":"14.9"}
,{"CODGEO":"49055","TxPauvrete":"5.6"}
,{"CODGEO":"49056","TxPauvrete":"null"}
,{"CODGEO":"49057","TxPauvrete":"null"}
,{"CODGEO":"49058","TxPauvrete":"null"}
,{"CODGEO":"49059","TxPauvrete":"null"}
,{"CODGEO":"49060","TxPauvrete":"null"}
,{"CODGEO":"49061","TxPauvrete":"null"}
,{"CODGEO":"49062","TxPauvrete":"null"}
,{"CODGEO":"49063","TxPauvrete":"9.4"}
,{"CODGEO":"49064","TxPauvrete":"null"}
,{"CODGEO":"49065","TxPauvrete":"12.8"}
,{"CODGEO":"49066","TxPauvrete":"null"}
,{"CODGEO":"49067","TxPauvrete":"null"}
,{"CODGEO":"49068","TxPauvrete":"null"}
,{"CODGEO":"49069","TxPauvrete":"6.8"}
,{"CODGEO":"49070","TxPauvrete":"null"}
,{"CODGEO":"49071","TxPauvrete":"null"}
,{"CODGEO":"49072","TxPauvrete":"null"}
,{"CODGEO":"49073","TxPauvrete":"null"}
,{"CODGEO":"49074","TxPauvrete":"null"}
,{"CODGEO":"49075","TxPauvrete":"null"}
,{"CODGEO":"49076","TxPauvrete":"null"}
,{"CODGEO":"49077","TxPauvrete":"null"}
,{"CODGEO":"49078","TxPauvrete":"null"}
,{"CODGEO":"49079","TxPauvrete":"null"}
,{"CODGEO":"49080","TxPauvrete":"13.1"}
,{"CODGEO":"49081","TxPauvrete":"null"}
,{"CODGEO":"49082","TxPauvrete":"null"}
,{"CODGEO":"49083","TxPauvrete":"null"}
,{"CODGEO":"49084","TxPauvrete":"null"}
,{"CODGEO":"49085","TxPauvrete":"null"}
,{"CODGEO":"49086","TxPauvrete":"null"}
,{"CODGEO":"49087","TxPauvrete":"null"}
,{"CODGEO":"49088","TxPauvrete":"null"}
,{"CODGEO":"49089","TxPauvrete":"null"}
,{"CODGEO":"49090","TxPauvrete":"null"}
,{"CODGEO":"49091","TxPauvrete":"null"}
,{"CODGEO":"49092","TxPauvrete":"9.6"}
,{"CODGEO":"49093","TxPauvrete":"null"}
,{"CODGEO":"49094","TxPauvrete":"null"}
,{"CODGEO":"49095","TxPauvrete":"null"}
,{"CODGEO":"49096","TxPauvrete":"null"}
,{"CODGEO":"49097","TxPauvrete":"null"}
,{"CODGEO":"49098","TxPauvrete":"null"}
,{"CODGEO":"49099","TxPauvrete":"13.3"}
,{"CODGEO":"49100","TxPauvrete":"null"}
,{"CODGEO":"49101","TxPauvrete":"null"}
,{"CODGEO":"49102","TxPauvrete":"null"}
,{"CODGEO":"49103","TxPauvrete":"9.2"}
,{"CODGEO":"49104","TxPauvrete":"null"}
,{"CODGEO":"49105","TxPauvrete":"null"}
,{"CODGEO":"49106","TxPauvrete":"5.8"}
,{"CODGEO":"49107","TxPauvrete":"null"}
,{"CODGEO":"49108","TxPauvrete":"null"}
,{"CODGEO":"49109","TxPauvrete":"null"}
,{"CODGEO":"49110","TxPauvrete":"null"}
,{"CODGEO":"49111","TxPauvrete":"null"}
,{"CODGEO":"49112","TxPauvrete":"null"}
,{"CODGEO":"49113","TxPauvrete":"null"}
,{"CODGEO":"49114","TxPauvrete":"null"}
,{"CODGEO":"49115","TxPauvrete":"null"}
,{"CODGEO":"49116","TxPauvrete":"null"}
,{"CODGEO":"49117","TxPauvrete":"null"}
,{"CODGEO":"49119","TxPauvrete":"null"}
,{"CODGEO":"49120","TxPauvrete":"null"}
,{"CODGEO":"49121","TxPauvrete":"null"}
,{"CODGEO":"49122","TxPauvrete":"null"}
,{"CODGEO":"49123","TxPauvrete":"null"}
,{"CODGEO":"49125","TxPauvrete":"14.1"}
,{"CODGEO":"49126","TxPauvrete":"5.7"}
,{"CODGEO":"49127","TxPauvrete":"11.5"}
,{"CODGEO":"49128","TxPauvrete":"null"}
,{"CODGEO":"49129","TxPauvrete":"6.1"}
,{"CODGEO":"49130","TxPauvrete":"null"}
,{"CODGEO":"49131","TxPauvrete":"null"}
,{"CODGEO":"49132","TxPauvrete":"null"}
,{"CODGEO":"49133","TxPauvrete":"null"}
,{"CODGEO":"49134","TxPauvrete":"null"}
,{"CODGEO":"49135","TxPauvrete":"6.4"}
,{"CODGEO":"49136","TxPauvrete":"null"}
,{"CODGEO":"49137","TxPauvrete":"null"}
,{"CODGEO":"49138","TxPauvrete":"null"}
,{"CODGEO":"49139","TxPauvrete":"null"}
,{"CODGEO":"49140","TxPauvrete":"null"}
,{"CODGEO":"49141","TxPauvrete":"null"}
,{"CODGEO":"49142","TxPauvrete":"null"}
,{"CODGEO":"49143","TxPauvrete":"null"}
,{"CODGEO":"49144","TxPauvrete":"null"}
,{"CODGEO":"49145","TxPauvrete":"null"}
,{"CODGEO":"49147","TxPauvrete":"null"}
,{"CODGEO":"49148","TxPauvrete":"null"}
,{"CODGEO":"49149","TxPauvrete":"12.9"}
,{"CODGEO":"49150","TxPauvrete":"null"}
,{"CODGEO":"49151","TxPauvrete":"7.0"}
,{"CODGEO":"49153","TxPauvrete":"12.0"}
,{"CODGEO":"49154","TxPauvrete":"null"}
,{"CODGEO":"49155","TxPauvrete":"null"}
,{"CODGEO":"49156","TxPauvrete":"null"}
,{"CODGEO":"49157","TxPauvrete":"null"}
,{"CODGEO":"49158","TxPauvrete":"null"}
,{"CODGEO":"49159","TxPauvrete":"null"}
,{"CODGEO":"49160","TxPauvrete":"null"}
,{"CODGEO":"49161","TxPauvrete":"null"}
,{"CODGEO":"49162","TxPauvrete":"9.8"}
,{"CODGEO":"49163","TxPauvrete":"null"}
,{"CODGEO":"49165","TxPauvrete":"null"}
,{"CODGEO":"49167","TxPauvrete":"5.1"}
,{"CODGEO":"49169","TxPauvrete":"null"}
,{"CODGEO":"49170","TxPauvrete":"null"}
,{"CODGEO":"49171","TxPauvrete":"null"}
,{"CODGEO":"49172","TxPauvrete":"null"}
,{"CODGEO":"49173","TxPauvrete":"null"}
,{"CODGEO":"49174","TxPauvrete":"null"}
,{"CODGEO":"49175","TxPauvrete":"null"}
,{"CODGEO":"49176","TxPauvrete":"8.9"}
,{"CODGEO":"49177","TxPauvrete":"7.4"}
,{"CODGEO":"49178","TxPauvrete":"null"}
,{"CODGEO":"49179","TxPauvrete":"6.3"}
,{"CODGEO":"49180","TxPauvrete":"16.0"}
,{"CODGEO":"49181","TxPauvrete":"null"}
,{"CODGEO":"49182","TxPauvrete":"null"}
,{"CODGEO":"49183","TxPauvrete":"11.3"}
,{"CODGEO":"49184","TxPauvrete":"null"}
,{"CODGEO":"49185","TxPauvrete":"null"}
,{"CODGEO":"49186","TxPauvrete":"null"}
,{"CODGEO":"49187","TxPauvrete":"null"}
,{"CODGEO":"49188","TxPauvrete":"null"}
,{"CODGEO":"49189","TxPauvrete":"null"}
,{"CODGEO":"49190","TxPauvrete":"null"}
,{"CODGEO":"49191","TxPauvrete":"null"}
,{"CODGEO":"49192","TxPauvrete":"6.4"}
,{"CODGEO":"49193","TxPauvrete":"10.5"}
,{"CODGEO":"49194","TxPauvrete":"7.4"}
,{"CODGEO":"49195","TxPauvrete":"null"}
,{"CODGEO":"49196","TxPauvrete":"5.0"}
,{"CODGEO":"49197","TxPauvrete":"null"}
,{"CODGEO":"49198","TxPauvrete":"null"}
,{"CODGEO":"49200","TxPauvrete":"8.3"}
,{"CODGEO":"49201","TxPauvrete":"9.4"}
,{"CODGEO":"49202","TxPauvrete":"null"}
,{"CODGEO":"49204","TxPauvrete":"null"}
,{"CODGEO":"49205","TxPauvrete":"null"}
,{"CODGEO":"49206","TxPauvrete":"6.5"}
,{"CODGEO":"49207","TxPauvrete":"null"}
,{"CODGEO":"49208","TxPauvrete":"null"}
,{"CODGEO":"49209","TxPauvrete":"null"}
,{"CODGEO":"49211","TxPauvrete":"null"}
,{"CODGEO":"49212","TxPauvrete":"7.8"}
,{"CODGEO":"49214","TxPauvrete":"9.0"}
,{"CODGEO":"49215","TxPauvrete":"16.7"}
,{"CODGEO":"49216","TxPauvrete":"null"}
,{"CODGEO":"49217","TxPauvrete":"null"}
,{"CODGEO":"49218","TxPauvrete":"null"}
,{"CODGEO":"49219","TxPauvrete":"null"}
,{"CODGEO":"49220","TxPauvrete":"null"}
,{"CODGEO":"49221","TxPauvrete":"null"}
,{"CODGEO":"49222","TxPauvrete":"5.3"}
,{"CODGEO":"49223","TxPauvrete":"7.4"}
,{"CODGEO":"49224","TxPauvrete":"null"}
,{"CODGEO":"49225","TxPauvrete":"null"}
,{"CODGEO":"49226","TxPauvrete":"null"}
,{"CODGEO":"49227","TxPauvrete":"null"}
,{"CODGEO":"49228","TxPauvrete":"null"}
,{"CODGEO":"49229","TxPauvrete":"null"}
,{"CODGEO":"49230","TxPauvrete":"null"}
,{"CODGEO":"49231","TxPauvrete":"null"}
,{"CODGEO":"49232","TxPauvrete":"null"}
,{"CODGEO":"49233","TxPauvrete":"null"}
,{"CODGEO":"49234","TxPauvrete":"null"}
,{"CODGEO":"49235","TxPauvrete":"null"}
,{"CODGEO":"49236","TxPauvrete":"null"}
,{"CODGEO":"49237","TxPauvrete":"null"}
,{"CODGEO":"49238","TxPauvrete":"5.5"}
,{"CODGEO":"49239","TxPauvrete":"null"}
,{"CODGEO":"49240","TxPauvrete":"null"}
,{"CODGEO":"49241","TxPauvrete":"5.4"}
,{"CODGEO":"49242","TxPauvrete":"null"}
,{"CODGEO":"49243","TxPauvrete":"null"}
,{"CODGEO":"49244","TxPauvrete":"8.4"}
,{"CODGEO":"49246","TxPauvrete":"8.9"}
,{"CODGEO":"49247","TxPauvrete":"4.8"}
,{"CODGEO":"49248","TxPauvrete":"11.9"}
,{"CODGEO":"49249","TxPauvrete":"null"}
,{"CODGEO":"49250","TxPauvrete":"null"}
,{"CODGEO":"49251","TxPauvrete":"null"}
,{"CODGEO":"49252","TxPauvrete":"null"}
,{"CODGEO":"49253","TxPauvrete":"null"}
,{"CODGEO":"49254","TxPauvrete":"null"}
,{"CODGEO":"49256","TxPauvrete":"null"}
,{"CODGEO":"49257","TxPauvrete":"null"}
,{"CODGEO":"49258","TxPauvrete":"null"}
,{"CODGEO":"49259","TxPauvrete":"11.8"}
,{"CODGEO":"49260","TxPauvrete":"null"}
,{"CODGEO":"49261","TxPauvrete":"13.1"}
,{"CODGEO":"49262","TxPauvrete":"null"}
,{"CODGEO":"49263","TxPauvrete":"null"}
,{"CODGEO":"49264","TxPauvrete":"4.7"}
,{"CODGEO":"49265","TxPauvrete":"null"}
,{"CODGEO":"49266","TxPauvrete":"null"}
,{"CODGEO":"49267","TxPauvrete":"9.5"}
,{"CODGEO":"49268","TxPauvrete":"null"}
,{"CODGEO":"49269","TxPauvrete":"4.4"}
,{"CODGEO":"49270","TxPauvrete":"null"}
,{"CODGEO":"49271","TxPauvrete":"7.6"}
,{"CODGEO":"49272","TxPauvrete":"null"}
,{"CODGEO":"49273","TxPauvrete":"null"}
,{"CODGEO":"49274","TxPauvrete":"null"}
,{"CODGEO":"49276","TxPauvrete":"9.4"}
,{"CODGEO":"49277","TxPauvrete":"null"}
,{"CODGEO":"49278","TxPauvrete":"6.5"}
,{"CODGEO":"49279","TxPauvrete":"null"}
,{"CODGEO":"49280","TxPauvrete":"null"}
,{"CODGEO":"49281","TxPauvrete":"null"}
,{"CODGEO":"49282","TxPauvrete":"null"}
,{"CODGEO":"49283","TxPauvrete":"7.7"}
,{"CODGEO":"49284","TxPauvrete":"null"}
,{"CODGEO":"49285","TxPauvrete":"7.5"}
,{"CODGEO":"49288","TxPauvrete":"null"}
,{"CODGEO":"49289","TxPauvrete":"null"}
,{"CODGEO":"49290","TxPauvrete":"null"}
,{"CODGEO":"49291","TxPauvrete":"null"}
,{"CODGEO":"49292","TxPauvrete":"8.8"}
,{"CODGEO":"49294","TxPauvrete":"5.2"}
,{"CODGEO":"49295","TxPauvrete":"null"}
,{"CODGEO":"49296","TxPauvrete":"8.0"}
,{"CODGEO":"49297","TxPauvrete":"null"}
,{"CODGEO":"49298","TxPauvrete":"null"}
,{"CODGEO":"49299","TxPauvrete":"5.1"}
,{"CODGEO":"49300","TxPauvrete":"null"}
,{"CODGEO":"49301","TxPauvrete":"7.4"}
,{"CODGEO":"49302","TxPauvrete":"null"}
,{"CODGEO":"49304","TxPauvrete":"null"}
,{"CODGEO":"49305","TxPauvrete":"null"}
,{"CODGEO":"49306","TxPauvrete":"null"}
,{"CODGEO":"49307","TxPauvrete":"6.7"}
,{"CODGEO":"49308","TxPauvrete":"4.5"}
,{"CODGEO":"49309","TxPauvrete":"null"}
,{"CODGEO":"49310","TxPauvrete":"null"}
,{"CODGEO":"49311","TxPauvrete":"null"}
,{"CODGEO":"49312","TxPauvrete":"null"}
,{"CODGEO":"49313","TxPauvrete":"9.2"}
,{"CODGEO":"49314","TxPauvrete":"null"}
,{"CODGEO":"49315","TxPauvrete":"null"}
,{"CODGEO":"49316","TxPauvrete":"null"}
,{"CODGEO":"49317","TxPauvrete":"null"}
,{"CODGEO":"49318","TxPauvrete":"null"}
,{"CODGEO":"49319","TxPauvrete":"null"}
,{"CODGEO":"49320","TxPauvrete":"null"}
,{"CODGEO":"49321","TxPauvrete":"null"}
,{"CODGEO":"49322","TxPauvrete":"null"}
,{"CODGEO":"49323","TxPauvrete":"5.6"}
,{"CODGEO":"49324","TxPauvrete":"null"}
,{"CODGEO":"49325","TxPauvrete":"null"}
,{"CODGEO":"49326","TxPauvrete":"null"}
,{"CODGEO":"49327","TxPauvrete":"null"}
,{"CODGEO":"49328","TxPauvrete":"17.1"}
,{"CODGEO":"49329","TxPauvrete":"null"}
,{"CODGEO":"49330","TxPauvrete":"null"}
,{"CODGEO":"49331","TxPauvrete":"11.8"}
,{"CODGEO":"49332","TxPauvrete":"7.0"}
,{"CODGEO":"49333","TxPauvrete":"8.5"}
,{"CODGEO":"49334","TxPauvrete":"null"}
,{"CODGEO":"49335","TxPauvrete":"null"}
,{"CODGEO":"49336","TxPauvrete":"null"}
,{"CODGEO":"49337","TxPauvrete":"5.6"}
,{"CODGEO":"49338","TxPauvrete":"null"}
,{"CODGEO":"49339","TxPauvrete":"null"}
,{"CODGEO":"49341","TxPauvrete":"null"}
,{"CODGEO":"49342","TxPauvrete":"null"}
,{"CODGEO":"49343","TxPauvrete":"3.5"}
,{"CODGEO":"49344","TxPauvrete":"null"}
,{"CODGEO":"49345","TxPauvrete":"null"}
,{"CODGEO":"49346","TxPauvrete":"null"}
,{"CODGEO":"49347","TxPauvrete":"5.2"}
,{"CODGEO":"49348","TxPauvrete":"null"}
,{"CODGEO":"49349","TxPauvrete":"null"}
,{"CODGEO":"49350","TxPauvrete":"null"}
,{"CODGEO":"49351","TxPauvrete":"null"}
,{"CODGEO":"49352","TxPauvrete":"null"}
,{"CODGEO":"49353","TxPauvrete":"14.4"}
,{"CODGEO":"49354","TxPauvrete":"null"}
,{"CODGEO":"49355","TxPauvrete":"6.6"}
,{"CODGEO":"49356","TxPauvrete":"null"}
,{"CODGEO":"49358","TxPauvrete":"null"}
,{"CODGEO":"49359","TxPauvrete":"null"}
,{"CODGEO":"49360","TxPauvrete":"null"}
,{"CODGEO":"49361","TxPauvrete":"null"}
,{"CODGEO":"49362","TxPauvrete":"null"}
,{"CODGEO":"49363","TxPauvrete":"null"}
,{"CODGEO":"49364","TxPauvrete":"null"}
,{"CODGEO":"49365","TxPauvrete":"null"}
,{"CODGEO":"49366","TxPauvrete":"null"}
,{"CODGEO":"49367","TxPauvrete":"11.0"}
,{"CODGEO":"49368","TxPauvrete":"null"}
,{"CODGEO":"49369","TxPauvrete":"null"}
,{"CODGEO":"49370","TxPauvrete":"null"}
,{"CODGEO":"49371","TxPauvrete":"null"}
,{"CODGEO":"49373","TxPauvrete":"11.7"}
,{"CODGEO":"49374","TxPauvrete":"null"}
,{"CODGEO":"49375","TxPauvrete":"8.0"}
,{"CODGEO":"49376","TxPauvrete":"null"}
,{"CODGEO":"49377","TxPauvrete":"6.5"}
,{"CODGEO":"49378","TxPauvrete":"12.2"}
,{"CODGEO":"49381","TxPauvrete":"null"}
]}
