{"status":"success","data":[{"CODGEO":"63001","TxPauvrete":"15.1"}
,{"CODGEO":"63002","TxPauvrete":"null"}
,{"CODGEO":"63003","TxPauvrete":"14.6"}
,{"CODGEO":"63004","TxPauvrete":"null"}
,{"CODGEO":"63005","TxPauvrete":"null"}
,{"CODGEO":"63006","TxPauvrete":"null"}
,{"CODGEO":"63007","TxPauvrete":"null"}
,{"CODGEO":"63008","TxPauvrete":"null"}
,{"CODGEO":"63009","TxPauvrete":"null"}
,{"CODGEO":"63010","TxPauvrete":"null"}
,{"CODGEO":"63011","TxPauvrete":"null"}
,{"CODGEO":"63012","TxPauvrete":"null"}
,{"CODGEO":"63013","TxPauvrete":"null"}
,{"CODGEO":"63014","TxPauvrete":"9.6"}
,{"CODGEO":"63015","TxPauvrete":"null"}
,{"CODGEO":"63016","TxPauvrete":"null"}
,{"CODGEO":"63017","TxPauvrete":"null"}
,{"CODGEO":"63018","TxPauvrete":"null"}
,{"CODGEO":"63019","TxPauvrete":"14.0"}
,{"CODGEO":"63020","TxPauvrete":"null"}
,{"CODGEO":"63021","TxPauvrete":"null"}
,{"CODGEO":"63022","TxPauvrete":"13.0"}
,{"CODGEO":"63023","TxPauvrete":"null"}
,{"CODGEO":"63024","TxPauvrete":"null"}
,{"CODGEO":"63025","TxPauvrete":"null"}
,{"CODGEO":"63026","TxPauvrete":"7.2"}
,{"CODGEO":"63027","TxPauvrete":"null"}
,{"CODGEO":"63028","TxPauvrete":"null"}
,{"CODGEO":"63029","TxPauvrete":"null"}
,{"CODGEO":"63030","TxPauvrete":"null"}
,{"CODGEO":"63031","TxPauvrete":"null"}
,{"CODGEO":"63032","TxPauvrete":"7.2"}
,{"CODGEO":"63033","TxPauvrete":"null"}
,{"CODGEO":"63034","TxPauvrete":"null"}
,{"CODGEO":"63035","TxPauvrete":"null"}
,{"CODGEO":"63036","TxPauvrete":"null"}
,{"CODGEO":"63037","TxPauvrete":"null"}
,{"CODGEO":"63038","TxPauvrete":"null"}
,{"CODGEO":"63039","TxPauvrete":"null"}
,{"CODGEO":"63040","TxPauvrete":"12.5"}
,{"CODGEO":"63041","TxPauvrete":"null"}
,{"CODGEO":"63042","TxPauvrete":"6.6"}
,{"CODGEO":"63043","TxPauvrete":"null"}
,{"CODGEO":"63044","TxPauvrete":"null"}
,{"CODGEO":"63045","TxPauvrete":"null"}
,{"CODGEO":"63046","TxPauvrete":"null"}
,{"CODGEO":"63047","TxPauvrete":"null"}
,{"CODGEO":"63048","TxPauvrete":"null"}
,{"CODGEO":"63049","TxPauvrete":"null"}
,{"CODGEO":"63050","TxPauvrete":"12.4"}
,{"CODGEO":"63051","TxPauvrete":"null"}
,{"CODGEO":"63052","TxPauvrete":"null"}
,{"CODGEO":"63053","TxPauvrete":"null"}
,{"CODGEO":"63054","TxPauvrete":"null"}
,{"CODGEO":"63055","TxPauvrete":"null"}
,{"CODGEO":"63056","TxPauvrete":"null"}
,{"CODGEO":"63057","TxPauvrete":"null"}
,{"CODGEO":"63058","TxPauvrete":"null"}
,{"CODGEO":"63059","TxPauvrete":"null"}
,{"CODGEO":"63060","TxPauvrete":"null"}
,{"CODGEO":"63061","TxPauvrete":"null"}
,{"CODGEO":"63062","TxPauvrete":"null"}
,{"CODGEO":"63063","TxPauvrete":"7.5"}
,{"CODGEO":"63064","TxPauvrete":"null"}
,{"CODGEO":"63065","TxPauvrete":"null"}
,{"CODGEO":"63066","TxPauvrete":"null"}
,{"CODGEO":"63067","TxPauvrete":"null"}
,{"CODGEO":"63068","TxPauvrete":"null"}
,{"CODGEO":"63069","TxPauvrete":"6.8"}
,{"CODGEO":"63070","TxPauvrete":"6.0"}
,{"CODGEO":"63071","TxPauvrete":"null"}
,{"CODGEO":"63072","TxPauvrete":"null"}
,{"CODGEO":"63073","TxPauvrete":"null"}
,{"CODGEO":"63074","TxPauvrete":"null"}
,{"CODGEO":"63075","TxPauvrete":"7.5"}
,{"CODGEO":"63076","TxPauvrete":"null"}
,{"CODGEO":"63077","TxPauvrete":"null"}
,{"CODGEO":"63078","TxPauvrete":"null"}
,{"CODGEO":"63079","TxPauvrete":"null"}
,{"CODGEO":"63080","TxPauvrete":"null"}
,{"CODGEO":"63081","TxPauvrete":"null"}
,{"CODGEO":"63082","TxPauvrete":"null"}
,{"CODGEO":"63083","TxPauvrete":"null"}
,{"CODGEO":"63084","TxPauvrete":"null"}
,{"CODGEO":"63085","TxPauvrete":"null"}
,{"CODGEO":"63086","TxPauvrete":"null"}
,{"CODGEO":"63087","TxPauvrete":"null"}
,{"CODGEO":"63088","TxPauvrete":"null"}
,{"CODGEO":"63089","TxPauvrete":"null"}
,{"CODGEO":"63090","TxPauvrete":"null"}
,{"CODGEO":"63091","TxPauvrete":"null"}
,{"CODGEO":"63092","TxPauvrete":"null"}
,{"CODGEO":"63093","TxPauvrete":"null"}
,{"CODGEO":"63094","TxPauvrete":"null"}
,{"CODGEO":"63095","TxPauvrete":"null"}
,{"CODGEO":"63096","TxPauvrete":"null"}
,{"CODGEO":"63097","TxPauvrete":"null"}
,{"CODGEO":"63098","TxPauvrete":"null"}
,{"CODGEO":"63099","TxPauvrete":"5.6"}
,{"CODGEO":"63100","TxPauvrete":"null"}
,{"CODGEO":"63101","TxPauvrete":"null"}
,{"CODGEO":"63102","TxPauvrete":"null"}
,{"CODGEO":"63103","TxPauvrete":"7.9"}
,{"CODGEO":"63104","TxPauvrete":"null"}
,{"CODGEO":"63105","TxPauvrete":"null"}
,{"CODGEO":"63106","TxPauvrete":"null"}
,{"CODGEO":"63107","TxPauvrete":"null"}
,{"CODGEO":"63108","TxPauvrete":"null"}
,{"CODGEO":"63109","TxPauvrete":"null"}
,{"CODGEO":"63110","TxPauvrete":"null"}
,{"CODGEO":"63111","TxPauvrete":"null"}
,{"CODGEO":"63112","TxPauvrete":"null"}
,{"CODGEO":"63113","TxPauvrete":"19.5"}
,{"CODGEO":"63114","TxPauvrete":"null"}
,{"CODGEO":"63115","TxPauvrete":"null"}
,{"CODGEO":"63116","TxPauvrete":"11.3"}
,{"CODGEO":"63117","TxPauvrete":"null"}
,{"CODGEO":"63118","TxPauvrete":"null"}
,{"CODGEO":"63119","TxPauvrete":"null"}
,{"CODGEO":"63120","TxPauvrete":"null"}
,{"CODGEO":"63121","TxPauvrete":"null"}
,{"CODGEO":"63122","TxPauvrete":"null"}
,{"CODGEO":"63123","TxPauvrete":"null"}
,{"CODGEO":"63124","TxPauvrete":"9.7"}
,{"CODGEO":"63125","TxPauvrete":"15.4"}
,{"CODGEO":"63126","TxPauvrete":"null"}
,{"CODGEO":"63127","TxPauvrete":"null"}
,{"CODGEO":"63128","TxPauvrete":"null"}
,{"CODGEO":"63129","TxPauvrete":"null"}
,{"CODGEO":"63130","TxPauvrete":"null"}
,{"CODGEO":"63131","TxPauvrete":"null"}
,{"CODGEO":"63132","TxPauvrete":"null"}
,{"CODGEO":"63133","TxPauvrete":"null"}
,{"CODGEO":"63134","TxPauvrete":"null"}
,{"CODGEO":"63135","TxPauvrete":"null"}
,{"CODGEO":"63136","TxPauvrete":"null"}
,{"CODGEO":"63137","TxPauvrete":"null"}
,{"CODGEO":"63138","TxPauvrete":"null"}
,{"CODGEO":"63139","TxPauvrete":"null"}
,{"CODGEO":"63140","TxPauvrete":"null"}
,{"CODGEO":"63141","TxPauvrete":"null"}
,{"CODGEO":"63142","TxPauvrete":"null"}
,{"CODGEO":"63143","TxPauvrete":"null"}
,{"CODGEO":"63144","TxPauvrete":"null"}
,{"CODGEO":"63145","TxPauvrete":"null"}
,{"CODGEO":"63146","TxPauvrete":"null"}
,{"CODGEO":"63147","TxPauvrete":"null"}
,{"CODGEO":"63148","TxPauvrete":"7.7"}
,{"CODGEO":"63149","TxPauvrete":"null"}
,{"CODGEO":"63150","TxPauvrete":"null"}
,{"CODGEO":"63151","TxPauvrete":"null"}
,{"CODGEO":"63152","TxPauvrete":"null"}
,{"CODGEO":"63153","TxPauvrete":"null"}
,{"CODGEO":"63154","TxPauvrete":"null"}
,{"CODGEO":"63155","TxPauvrete":"null"}
,{"CODGEO":"63156","TxPauvrete":"null"}
,{"CODGEO":"63157","TxPauvrete":"null"}
,{"CODGEO":"63158","TxPauvrete":"null"}
,{"CODGEO":"63159","TxPauvrete":"null"}
,{"CODGEO":"63160","TxPauvrete":"null"}
,{"CODGEO":"63161","TxPauvrete":"null"}
,{"CODGEO":"63162","TxPauvrete":"null"}
,{"CODGEO":"63163","TxPauvrete":"null"}
,{"CODGEO":"63164","TxPauvrete":"10.4"}
,{"CODGEO":"63165","TxPauvrete":"null"}
,{"CODGEO":"63166","TxPauvrete":"null"}
,{"CODGEO":"63167","TxPauvrete":"null"}
,{"CODGEO":"63168","TxPauvrete":"null"}
,{"CODGEO":"63169","TxPauvrete":"null"}
,{"CODGEO":"63170","TxPauvrete":"null"}
,{"CODGEO":"63171","TxPauvrete":"null"}
,{"CODGEO":"63172","TxPauvrete":"null"}
,{"CODGEO":"63173","TxPauvrete":"null"}
,{"CODGEO":"63174","TxPauvrete":"null"}
,{"CODGEO":"63175","TxPauvrete":"null"}
,{"CODGEO":"63176","TxPauvrete":"null"}
,{"CODGEO":"63177","TxPauvrete":"null"}
,{"CODGEO":"63178","TxPauvrete":"13.8"}
,{"CODGEO":"63179","TxPauvrete":"null"}
,{"CODGEO":"63180","TxPauvrete":"null"}
,{"CODGEO":"63181","TxPauvrete":"null"}
,{"CODGEO":"63182","TxPauvrete":"null"}
,{"CODGEO":"63183","TxPauvrete":"null"}
,{"CODGEO":"63184","TxPauvrete":"null"}
,{"CODGEO":"63185","TxPauvrete":"null"}
,{"CODGEO":"63186","TxPauvrete":"null"}
,{"CODGEO":"63187","TxPauvrete":"null"}
,{"CODGEO":"63188","TxPauvrete":"null"}
,{"CODGEO":"63189","TxPauvrete":"null"}
,{"CODGEO":"63190","TxPauvrete":"null"}
,{"CODGEO":"63191","TxPauvrete":"null"}
,{"CODGEO":"63192","TxPauvrete":"null"}
,{"CODGEO":"63193","TxPauvrete":"8.5"}
,{"CODGEO":"63194","TxPauvrete":"null"}
,{"CODGEO":"63195","TxPauvrete":"14.1"}
,{"CODGEO":"63196","TxPauvrete":"null"}
,{"CODGEO":"63197","TxPauvrete":"null"}
,{"CODGEO":"63198","TxPauvrete":"null"}
,{"CODGEO":"63199","TxPauvrete":"null"}
,{"CODGEO":"63200","TxPauvrete":"null"}
,{"CODGEO":"63201","TxPauvrete":"null"}
,{"CODGEO":"63202","TxPauvrete":"null"}
,{"CODGEO":"63203","TxPauvrete":"null"}
,{"CODGEO":"63204","TxPauvrete":"null"}
,{"CODGEO":"63205","TxPauvrete":"null"}
,{"CODGEO":"63206","TxPauvrete":"null"}
,{"CODGEO":"63207","TxPauvrete":"null"}
,{"CODGEO":"63208","TxPauvrete":"null"}
,{"CODGEO":"63209","TxPauvrete":"null"}
,{"CODGEO":"63210","TxPauvrete":"17.3"}
,{"CODGEO":"63211","TxPauvrete":"null"}
,{"CODGEO":"63212","TxPauvrete":"null"}
,{"CODGEO":"63213","TxPauvrete":"4.6"}
,{"CODGEO":"63214","TxPauvrete":"9.0"}
,{"CODGEO":"63215","TxPauvrete":"null"}
,{"CODGEO":"63216","TxPauvrete":"null"}
,{"CODGEO":"63218","TxPauvrete":"null"}
,{"CODGEO":"63219","TxPauvrete":"null"}
,{"CODGEO":"63220","TxPauvrete":"null"}
,{"CODGEO":"63221","TxPauvrete":"null"}
,{"CODGEO":"63222","TxPauvrete":"null"}
,{"CODGEO":"63223","TxPauvrete":"null"}
,{"CODGEO":"63224","TxPauvrete":"null"}
,{"CODGEO":"63225","TxPauvrete":"null"}
,{"CODGEO":"63226","TxPauvrete":"null"}
,{"CODGEO":"63227","TxPauvrete":"6.2"}
,{"CODGEO":"63228","TxPauvrete":"null"}
,{"CODGEO":"63229","TxPauvrete":"null"}
,{"CODGEO":"63230","TxPauvrete":"null"}
,{"CODGEO":"63231","TxPauvrete":"null"}
,{"CODGEO":"63232","TxPauvrete":"null"}
,{"CODGEO":"63233","TxPauvrete":"null"}
,{"CODGEO":"63234","TxPauvrete":"null"}
,{"CODGEO":"63235","TxPauvrete":"null"}
,{"CODGEO":"63236","TxPauvrete":"null"}
,{"CODGEO":"63237","TxPauvrete":"null"}
,{"CODGEO":"63238","TxPauvrete":"null"}
,{"CODGEO":"63239","TxPauvrete":"null"}
,{"CODGEO":"63240","TxPauvrete":"null"}
,{"CODGEO":"63241","TxPauvrete":"null"}
,{"CODGEO":"63242","TxPauvrete":"null"}
,{"CODGEO":"63243","TxPauvrete":"null"}
,{"CODGEO":"63244","TxPauvrete":"null"}
,{"CODGEO":"63245","TxPauvrete":"6.6"}
,{"CODGEO":"63246","TxPauvrete":"null"}
,{"CODGEO":"63247","TxPauvrete":"null"}
,{"CODGEO":"63248","TxPauvrete":"null"}
,{"CODGEO":"63249","TxPauvrete":"null"}
,{"CODGEO":"63250","TxPauvrete":"null"}
,{"CODGEO":"63251","TxPauvrete":"null"}
,{"CODGEO":"63252","TxPauvrete":"null"}
,{"CODGEO":"63253","TxPauvrete":"null"}
,{"CODGEO":"63254","TxPauvrete":"4.8"}
,{"CODGEO":"63255","TxPauvrete":"null"}
,{"CODGEO":"63256","TxPauvrete":"null"}
,{"CODGEO":"63257","TxPauvrete":"null"}
,{"CODGEO":"63258","TxPauvrete":"null"}
,{"CODGEO":"63259","TxPauvrete":"null"}
,{"CODGEO":"63260","TxPauvrete":"null"}
,{"CODGEO":"63261","TxPauvrete":"null"}
,{"CODGEO":"63262","TxPauvrete":"5.2"}
,{"CODGEO":"63263","TxPauvrete":"4.9"}
,{"CODGEO":"63264","TxPauvrete":"null"}
,{"CODGEO":"63265","TxPauvrete":"6.6"}
,{"CODGEO":"63266","TxPauvrete":"null"}
,{"CODGEO":"63267","TxPauvrete":"null"}
,{"CODGEO":"63268","TxPauvrete":"null"}
,{"CODGEO":"63269","TxPauvrete":"null"}
,{"CODGEO":"63270","TxPauvrete":"null"}
,{"CODGEO":"63271","TxPauvrete":"null"}
,{"CODGEO":"63272","TxPauvrete":"4.5"}
,{"CODGEO":"63273","TxPauvrete":"null"}
,{"CODGEO":"63274","TxPauvrete":"null"}
,{"CODGEO":"63275","TxPauvrete":"null"}
,{"CODGEO":"63276","TxPauvrete":"9.2"}
,{"CODGEO":"63277","TxPauvrete":"null"}
,{"CODGEO":"63278","TxPauvrete":"null"}
,{"CODGEO":"63279","TxPauvrete":"null"}
,{"CODGEO":"63280","TxPauvrete":"null"}
,{"CODGEO":"63281","TxPauvrete":"null"}
,{"CODGEO":"63282","TxPauvrete":"null"}
,{"CODGEO":"63283","TxPauvrete":"null"}
,{"CODGEO":"63284","TxPauvrete":"7.5"}
,{"CODGEO":"63285","TxPauvrete":"null"}
,{"CODGEO":"63286","TxPauvrete":"null"}
,{"CODGEO":"63287","TxPauvrete":"null"}
,{"CODGEO":"63288","TxPauvrete":"null"}
,{"CODGEO":"63289","TxPauvrete":"null"}
,{"CODGEO":"63290","TxPauvrete":"null"}
,{"CODGEO":"63291","TxPauvrete":"13.8"}
,{"CODGEO":"63292","TxPauvrete":"null"}
,{"CODGEO":"63293","TxPauvrete":"null"}
,{"CODGEO":"63294","TxPauvrete":"null"}
,{"CODGEO":"63295","TxPauvrete":"null"}
,{"CODGEO":"63296","TxPauvrete":"null"}
,{"CODGEO":"63297","TxPauvrete":"null"}
,{"CODGEO":"63298","TxPauvrete":"null"}
,{"CODGEO":"63299","TxPauvrete":"null"}
,{"CODGEO":"63300","TxPauvrete":"12.4"}
,{"CODGEO":"63301","TxPauvrete":"null"}
,{"CODGEO":"63302","TxPauvrete":"5.3"}
,{"CODGEO":"63303","TxPauvrete":"null"}
,{"CODGEO":"63304","TxPauvrete":"null"}
,{"CODGEO":"63305","TxPauvrete":"null"}
,{"CODGEO":"63306","TxPauvrete":"null"}
,{"CODGEO":"63307","TxPauvrete":"7.1"}
,{"CODGEO":"63308","TxPauvrete":"8.1"}
,{"CODGEO":"63309","TxPauvrete":"null"}
,{"CODGEO":"63310","TxPauvrete":"null"}
,{"CODGEO":"63311","TxPauvrete":"null"}
,{"CODGEO":"63312","TxPauvrete":"null"}
,{"CODGEO":"63313","TxPauvrete":"null"}
,{"CODGEO":"63314","TxPauvrete":"null"}
,{"CODGEO":"63315","TxPauvrete":"null"}
,{"CODGEO":"63317","TxPauvrete":"null"}
,{"CODGEO":"63318","TxPauvrete":"null"}
,{"CODGEO":"63319","TxPauvrete":"null"}
,{"CODGEO":"63320","TxPauvrete":"null"}
,{"CODGEO":"63321","TxPauvrete":"null"}
,{"CODGEO":"63322","TxPauvrete":"4.7"}
,{"CODGEO":"63323","TxPauvrete":"null"}
,{"CODGEO":"63324","TxPauvrete":"null"}
,{"CODGEO":"63325","TxPauvrete":"null"}
,{"CODGEO":"63326","TxPauvrete":"null"}
,{"CODGEO":"63327","TxPauvrete":"4.6"}
,{"CODGEO":"63328","TxPauvrete":"null"}
,{"CODGEO":"63329","TxPauvrete":"null"}
,{"CODGEO":"63330","TxPauvrete":"null"}
,{"CODGEO":"63331","TxPauvrete":"null"}
,{"CODGEO":"63332","TxPauvrete":"null"}
,{"CODGEO":"63333","TxPauvrete":"null"}
,{"CODGEO":"63334","TxPauvrete":"null"}
,{"CODGEO":"63335","TxPauvrete":"null"}
,{"CODGEO":"63336","TxPauvrete":"null"}
,{"CODGEO":"63337","TxPauvrete":"null"}
,{"CODGEO":"63338","TxPauvrete":"18.2"}
,{"CODGEO":"63339","TxPauvrete":"null"}
,{"CODGEO":"63340","TxPauvrete":"null"}
,{"CODGEO":"63341","TxPauvrete":"null"}
,{"CODGEO":"63342","TxPauvrete":"null"}
,{"CODGEO":"63343","TxPauvrete":"null"}
,{"CODGEO":"63344","TxPauvrete":"null"}
,{"CODGEO":"63345","TxPauvrete":"3.8"}
,{"CODGEO":"63346","TxPauvrete":"null"}
,{"CODGEO":"63347","TxPauvrete":"null"}
,{"CODGEO":"63348","TxPauvrete":"null"}
,{"CODGEO":"63349","TxPauvrete":"13.0"}
,{"CODGEO":"63350","TxPauvrete":"null"}
,{"CODGEO":"63351","TxPauvrete":"null"}
,{"CODGEO":"63352","TxPauvrete":"null"}
,{"CODGEO":"63353","TxPauvrete":"null"}
,{"CODGEO":"63354","TxPauvrete":"null"}
,{"CODGEO":"63355","TxPauvrete":"null"}
,{"CODGEO":"63356","TxPauvrete":"null"}
,{"CODGEO":"63357","TxPauvrete":"null"}
,{"CODGEO":"63358","TxPauvrete":"null"}
,{"CODGEO":"63359","TxPauvrete":"null"}
,{"CODGEO":"63360","TxPauvrete":"null"}
,{"CODGEO":"63362","TxPauvrete":"null"}
,{"CODGEO":"63363","TxPauvrete":"null"}
,{"CODGEO":"63364","TxPauvrete":"null"}
,{"CODGEO":"63365","TxPauvrete":"null"}
,{"CODGEO":"63366","TxPauvrete":"null"}
,{"CODGEO":"63367","TxPauvrete":"null"}
,{"CODGEO":"63368","TxPauvrete":"null"}
,{"CODGEO":"63369","TxPauvrete":"null"}
,{"CODGEO":"63370","TxPauvrete":"null"}
,{"CODGEO":"63371","TxPauvrete":"null"}
,{"CODGEO":"63372","TxPauvrete":"null"}
,{"CODGEO":"63373","TxPauvrete":"null"}
,{"CODGEO":"63374","TxPauvrete":"null"}
,{"CODGEO":"63375","TxPauvrete":"null"}
,{"CODGEO":"63376","TxPauvrete":"null"}
,{"CODGEO":"63377","TxPauvrete":"null"}
,{"CODGEO":"63378","TxPauvrete":"null"}
,{"CODGEO":"63379","TxPauvrete":"null"}
,{"CODGEO":"63380","TxPauvrete":"null"}
,{"CODGEO":"63381","TxPauvrete":"null"}
,{"CODGEO":"63382","TxPauvrete":"null"}
,{"CODGEO":"63383","TxPauvrete":"null"}
,{"CODGEO":"63384","TxPauvrete":"null"}
,{"CODGEO":"63385","TxPauvrete":"null"}
,{"CODGEO":"63386","TxPauvrete":"null"}
,{"CODGEO":"63387","TxPauvrete":"null"}
,{"CODGEO":"63388","TxPauvrete":"null"}
,{"CODGEO":"63389","TxPauvrete":"null"}
,{"CODGEO":"63390","TxPauvrete":"null"}
,{"CODGEO":"63391","TxPauvrete":"null"}
,{"CODGEO":"63392","TxPauvrete":"null"}
,{"CODGEO":"63393","TxPauvrete":"null"}
,{"CODGEO":"63394","TxPauvrete":"null"}
,{"CODGEO":"63395","TxPauvrete":"null"}
,{"CODGEO":"63396","TxPauvrete":"null"}
,{"CODGEO":"63397","TxPauvrete":"null"}
,{"CODGEO":"63398","TxPauvrete":"null"}
,{"CODGEO":"63399","TxPauvrete":"null"}
,{"CODGEO":"63400","TxPauvrete":"null"}
,{"CODGEO":"63401","TxPauvrete":"null"}
,{"CODGEO":"63402","TxPauvrete":"null"}
,{"CODGEO":"63403","TxPauvrete":"null"}
,{"CODGEO":"63404","TxPauvrete":"null"}
,{"CODGEO":"63405","TxPauvrete":"null"}
,{"CODGEO":"63406","TxPauvrete":"null"}
,{"CODGEO":"63407","TxPauvrete":"null"}
,{"CODGEO":"63408","TxPauvrete":"null"}
,{"CODGEO":"63409","TxPauvrete":"null"}
,{"CODGEO":"63410","TxPauvrete":"null"}
,{"CODGEO":"63411","TxPauvrete":"null"}
,{"CODGEO":"63412","TxPauvrete":"null"}
,{"CODGEO":"63413","TxPauvrete":"null"}
,{"CODGEO":"63414","TxPauvrete":"null"}
,{"CODGEO":"63415","TxPauvrete":"null"}
,{"CODGEO":"63416","TxPauvrete":"null"}
,{"CODGEO":"63417","TxPauvrete":"6.8"}
,{"CODGEO":"63418","TxPauvrete":"null"}
,{"CODGEO":"63419","TxPauvrete":"null"}
,{"CODGEO":"63420","TxPauvrete":"null"}
,{"CODGEO":"63421","TxPauvrete":"null"}
,{"CODGEO":"63422","TxPauvrete":"null"}
,{"CODGEO":"63423","TxPauvrete":"null"}
,{"CODGEO":"63424","TxPauvrete":"null"}
,{"CODGEO":"63425","TxPauvrete":"null"}
,{"CODGEO":"63426","TxPauvrete":"null"}
,{"CODGEO":"63427","TxPauvrete":"null"}
,{"CODGEO":"63428","TxPauvrete":"null"}
,{"CODGEO":"63429","TxPauvrete":"null"}
,{"CODGEO":"63430","TxPauvrete":"21.3"}
,{"CODGEO":"63431","TxPauvrete":"null"}
,{"CODGEO":"63432","TxPauvrete":"null"}
,{"CODGEO":"63433","TxPauvrete":"null"}
,{"CODGEO":"63434","TxPauvrete":"null"}
,{"CODGEO":"63435","TxPauvrete":"null"}
,{"CODGEO":"63436","TxPauvrete":"null"}
,{"CODGEO":"63437","TxPauvrete":"null"}
,{"CODGEO":"63438","TxPauvrete":"null"}
,{"CODGEO":"63439","TxPauvrete":"null"}
,{"CODGEO":"63440","TxPauvrete":"null"}
,{"CODGEO":"63441","TxPauvrete":"null"}
,{"CODGEO":"63442","TxPauvrete":"null"}
,{"CODGEO":"63443","TxPauvrete":"null"}
,{"CODGEO":"63444","TxPauvrete":"null"}
,{"CODGEO":"63445","TxPauvrete":"null"}
,{"CODGEO":"63446","TxPauvrete":"null"}
,{"CODGEO":"63447","TxPauvrete":"null"}
,{"CODGEO":"63448","TxPauvrete":"null"}
,{"CODGEO":"63449","TxPauvrete":"null"}
,{"CODGEO":"63450","TxPauvrete":"null"}
,{"CODGEO":"63451","TxPauvrete":"null"}
,{"CODGEO":"63452","TxPauvrete":"null"}
,{"CODGEO":"63453","TxPauvrete":"10.2"}
,{"CODGEO":"63454","TxPauvrete":"null"}
,{"CODGEO":"63455","TxPauvrete":"4.9"}
,{"CODGEO":"63456","TxPauvrete":"null"}
,{"CODGEO":"63457","TxPauvrete":"7.0"}
,{"CODGEO":"63458","TxPauvrete":"null"}
,{"CODGEO":"63459","TxPauvrete":"null"}
,{"CODGEO":"63460","TxPauvrete":"null"}
,{"CODGEO":"63461","TxPauvrete":"null"}
,{"CODGEO":"63462","TxPauvrete":"null"}
,{"CODGEO":"63463","TxPauvrete":"null"}
,{"CODGEO":"63464","TxPauvrete":"null"}
,{"CODGEO":"63465","TxPauvrete":"null"}
,{"CODGEO":"63466","TxPauvrete":"null"}
,{"CODGEO":"63467","TxPauvrete":"null"}
,{"CODGEO":"63468","TxPauvrete":"null"}
,{"CODGEO":"63469","TxPauvrete":"null"}
,{"CODGEO":"63470","TxPauvrete":"8.1"}
,{"CODGEO":"63471","TxPauvrete":"null"}
,{"CODGEO":"63472","TxPauvrete":"null"}
,{"CODGEO":"63473","TxPauvrete":"null"}
]}
