{"status":"success","data":[{"CODGEO":"68001","TxPauvrete":"null"}
,{"CODGEO":"68002","TxPauvrete":"null"}
,{"CODGEO":"68004","TxPauvrete":"14.5"}
,{"CODGEO":"68005","TxPauvrete":"null"}
,{"CODGEO":"68006","TxPauvrete":"null"}
,{"CODGEO":"68007","TxPauvrete":"4.7"}
,{"CODGEO":"68008","TxPauvrete":"null"}
,{"CODGEO":"68009","TxPauvrete":"null"}
,{"CODGEO":"68010","TxPauvrete":"null"}
,{"CODGEO":"68011","TxPauvrete":"null"}
,{"CODGEO":"68012","TxPauvrete":"null"}
,{"CODGEO":"68013","TxPauvrete":"null"}
,{"CODGEO":"68014","TxPauvrete":"null"}
,{"CODGEO":"68015","TxPauvrete":"4.6"}
,{"CODGEO":"68016","TxPauvrete":"null"}
,{"CODGEO":"68017","TxPauvrete":"null"}
,{"CODGEO":"68018","TxPauvrete":"null"}
,{"CODGEO":"68019","TxPauvrete":"null"}
,{"CODGEO":"68020","TxPauvrete":"null"}
,{"CODGEO":"68021","TxPauvrete":"4.5"}
,{"CODGEO":"68022","TxPauvrete":"null"}
,{"CODGEO":"68023","TxPauvrete":"null"}
,{"CODGEO":"68024","TxPauvrete":"null"}
,{"CODGEO":"68025","TxPauvrete":"null"}
,{"CODGEO":"68026","TxPauvrete":"null"}
,{"CODGEO":"68027","TxPauvrete":"null"}
,{"CODGEO":"68028","TxPauvrete":"null"}
,{"CODGEO":"68029","TxPauvrete":"null"}
,{"CODGEO":"68030","TxPauvrete":"null"}
,{"CODGEO":"68031","TxPauvrete":"null"}
,{"CODGEO":"68032","TxPauvrete":"null"}
,{"CODGEO":"68033","TxPauvrete":"null"}
,{"CODGEO":"68034","TxPauvrete":"null"}
,{"CODGEO":"68035","TxPauvrete":"null"}
,{"CODGEO":"68036","TxPauvrete":"8.3"}
,{"CODGEO":"68037","TxPauvrete":"null"}
,{"CODGEO":"68038","TxPauvrete":"null"}
,{"CODGEO":"68039","TxPauvrete":"null"}
,{"CODGEO":"68040","TxPauvrete":"null"}
,{"CODGEO":"68041","TxPauvrete":"null"}
,{"CODGEO":"68042","TxPauvrete":"4.8"}
,{"CODGEO":"68043","TxPauvrete":"8.7"}
,{"CODGEO":"68044","TxPauvrete":"null"}
,{"CODGEO":"68045","TxPauvrete":"null"}
,{"CODGEO":"68046","TxPauvrete":"null"}
,{"CODGEO":"68049","TxPauvrete":"null"}
,{"CODGEO":"68050","TxPauvrete":"null"}
,{"CODGEO":"68051","TxPauvrete":"null"}
,{"CODGEO":"68052","TxPauvrete":"null"}
,{"CODGEO":"68054","TxPauvrete":"null"}
,{"CODGEO":"68055","TxPauvrete":"null"}
,{"CODGEO":"68056","TxPauvrete":"6.9"}
,{"CODGEO":"68057","TxPauvrete":"null"}
,{"CODGEO":"68058","TxPauvrete":"10.2"}
,{"CODGEO":"68059","TxPauvrete":"null"}
,{"CODGEO":"68060","TxPauvrete":"null"}
,{"CODGEO":"68061","TxPauvrete":"null"}
,{"CODGEO":"68062","TxPauvrete":"5.6"}
,{"CODGEO":"68063","TxPauvrete":"14.0"}
,{"CODGEO":"68064","TxPauvrete":"null"}
,{"CODGEO":"68065","TxPauvrete":"null"}
,{"CODGEO":"68066","TxPauvrete":"18.3"}
,{"CODGEO":"68067","TxPauvrete":"null"}
,{"CODGEO":"68068","TxPauvrete":"13.6"}
,{"CODGEO":"68069","TxPauvrete":"null"}
,{"CODGEO":"68070","TxPauvrete":"null"}
,{"CODGEO":"68071","TxPauvrete":"null"}
,{"CODGEO":"68072","TxPauvrete":"null"}
,{"CODGEO":"68073","TxPauvrete":"null"}
,{"CODGEO":"68074","TxPauvrete":"null"}
,{"CODGEO":"68075","TxPauvrete":"null"}
,{"CODGEO":"68076","TxPauvrete":"null"}
,{"CODGEO":"68077","TxPauvrete":"null"}
,{"CODGEO":"68078","TxPauvrete":"null"}
,{"CODGEO":"68079","TxPauvrete":"null"}
,{"CODGEO":"68080","TxPauvrete":"null"}
,{"CODGEO":"68081","TxPauvrete":"null"}
,{"CODGEO":"68082","TxPauvrete":"9.1"}
,{"CODGEO":"68083","TxPauvrete":"null"}
,{"CODGEO":"68084","TxPauvrete":"null"}
,{"CODGEO":"68085","TxPauvrete":"null"}
,{"CODGEO":"68086","TxPauvrete":"null"}
,{"CODGEO":"68087","TxPauvrete":"null"}
,{"CODGEO":"68088","TxPauvrete":"null"}
,{"CODGEO":"68089","TxPauvrete":"null"}
,{"CODGEO":"68090","TxPauvrete":"null"}
,{"CODGEO":"68091","TxPauvrete":"4.9"}
,{"CODGEO":"68092","TxPauvrete":"null"}
,{"CODGEO":"68093","TxPauvrete":"null"}
,{"CODGEO":"68094","TxPauvrete":"null"}
,{"CODGEO":"68095","TxPauvrete":"null"}
,{"CODGEO":"68096","TxPauvrete":"null"}
,{"CODGEO":"68097","TxPauvrete":"null"}
,{"CODGEO":"68098","TxPauvrete":"null"}
,{"CODGEO":"68099","TxPauvrete":"null"}
,{"CODGEO":"68100","TxPauvrete":"null"}
,{"CODGEO":"68101","TxPauvrete":"null"}
,{"CODGEO":"68102","TxPauvrete":"null"}
,{"CODGEO":"68103","TxPauvrete":"null"}
,{"CODGEO":"68104","TxPauvrete":"null"}
,{"CODGEO":"68105","TxPauvrete":"null"}
,{"CODGEO":"68106","TxPauvrete":"null"}
,{"CODGEO":"68107","TxPauvrete":"null"}
,{"CODGEO":"68108","TxPauvrete":"null"}
,{"CODGEO":"68109","TxPauvrete":"null"}
,{"CODGEO":"68110","TxPauvrete":"null"}
,{"CODGEO":"68111","TxPauvrete":"null"}
,{"CODGEO":"68112","TxPauvrete":"16.5"}
,{"CODGEO":"68113","TxPauvrete":"null"}
,{"CODGEO":"68114","TxPauvrete":"null"}
,{"CODGEO":"68115","TxPauvrete":"null"}
,{"CODGEO":"68116","TxPauvrete":"null"}
,{"CODGEO":"68117","TxPauvrete":"null"}
,{"CODGEO":"68118","TxPauvrete":"5.3"}
,{"CODGEO":"68119","TxPauvrete":"null"}
,{"CODGEO":"68120","TxPauvrete":"null"}
,{"CODGEO":"68121","TxPauvrete":"null"}
,{"CODGEO":"68122","TxPauvrete":"null"}
,{"CODGEO":"68123","TxPauvrete":"null"}
,{"CODGEO":"68124","TxPauvrete":"null"}
,{"CODGEO":"68125","TxPauvrete":"null"}
,{"CODGEO":"68126","TxPauvrete":"4.7"}
,{"CODGEO":"68127","TxPauvrete":"null"}
,{"CODGEO":"68128","TxPauvrete":"null"}
,{"CODGEO":"68129","TxPauvrete":"null"}
,{"CODGEO":"68130","TxPauvrete":"null"}
,{"CODGEO":"68131","TxPauvrete":"null"}
,{"CODGEO":"68132","TxPauvrete":"null"}
,{"CODGEO":"68133","TxPauvrete":"null"}
,{"CODGEO":"68134","TxPauvrete":"null"}
,{"CODGEO":"68135","TxPauvrete":"3.5"}
,{"CODGEO":"68136","TxPauvrete":"null"}
,{"CODGEO":"68137","TxPauvrete":"null"}
,{"CODGEO":"68138","TxPauvrete":"9.5"}
,{"CODGEO":"68139","TxPauvrete":"null"}
,{"CODGEO":"68140","TxPauvrete":"null"}
,{"CODGEO":"68141","TxPauvrete":"3.4"}
,{"CODGEO":"68142","TxPauvrete":"null"}
,{"CODGEO":"68143","TxPauvrete":"null"}
,{"CODGEO":"68144","TxPauvrete":"null"}
,{"CODGEO":"68145","TxPauvrete":"4.7"}
,{"CODGEO":"68146","TxPauvrete":"null"}
,{"CODGEO":"68147","TxPauvrete":"null"}
,{"CODGEO":"68148","TxPauvrete":"null"}
,{"CODGEO":"68149","TxPauvrete":"14.9"}
,{"CODGEO":"68150","TxPauvrete":"null"}
,{"CODGEO":"68151","TxPauvrete":"null"}
,{"CODGEO":"68152","TxPauvrete":"6.5"}
,{"CODGEO":"68153","TxPauvrete":"null"}
,{"CODGEO":"68154","TxPauvrete":"14.5"}
,{"CODGEO":"68155","TxPauvrete":"8.8"}
,{"CODGEO":"68156","TxPauvrete":"7.6"}
,{"CODGEO":"68157","TxPauvrete":"null"}
,{"CODGEO":"68158","TxPauvrete":"null"}
,{"CODGEO":"68159","TxPauvrete":"null"}
,{"CODGEO":"68160","TxPauvrete":"null"}
,{"CODGEO":"68161","TxPauvrete":"null"}
,{"CODGEO":"68162","TxPauvrete":"8.6"}
,{"CODGEO":"68163","TxPauvrete":"4.1"}
,{"CODGEO":"68164","TxPauvrete":"null"}
,{"CODGEO":"68165","TxPauvrete":"null"}
,{"CODGEO":"68166","TxPauvrete":"10.6"}
,{"CODGEO":"68167","TxPauvrete":"null"}
,{"CODGEO":"68168","TxPauvrete":"null"}
,{"CODGEO":"68169","TxPauvrete":"null"}
,{"CODGEO":"68170","TxPauvrete":"null"}
,{"CODGEO":"68171","TxPauvrete":"null"}
,{"CODGEO":"68172","TxPauvrete":"null"}
,{"CODGEO":"68173","TxPauvrete":"5.7"}
,{"CODGEO":"68174","TxPauvrete":"null"}
,{"CODGEO":"68175","TxPauvrete":"null"}
,{"CODGEO":"68176","TxPauvrete":"null"}
,{"CODGEO":"68177","TxPauvrete":"null"}
,{"CODGEO":"68178","TxPauvrete":"null"}
,{"CODGEO":"68179","TxPauvrete":"null"}
,{"CODGEO":"68180","TxPauvrete":"null"}
,{"CODGEO":"68181","TxPauvrete":"null"}
,{"CODGEO":"68182","TxPauvrete":"null"}
,{"CODGEO":"68183","TxPauvrete":"null"}
,{"CODGEO":"68184","TxPauvrete":"null"}
,{"CODGEO":"68185","TxPauvrete":"null"}
,{"CODGEO":"68186","TxPauvrete":"null"}
,{"CODGEO":"68187","TxPauvrete":"null"}
,{"CODGEO":"68188","TxPauvrete":"null"}
,{"CODGEO":"68189","TxPauvrete":"null"}
,{"CODGEO":"68190","TxPauvrete":"null"}
,{"CODGEO":"68191","TxPauvrete":"null"}
,{"CODGEO":"68192","TxPauvrete":"null"}
,{"CODGEO":"68193","TxPauvrete":"null"}
,{"CODGEO":"68194","TxPauvrete":"null"}
,{"CODGEO":"68195","TxPauvrete":"10.7"}
,{"CODGEO":"68196","TxPauvrete":"null"}
,{"CODGEO":"68197","TxPauvrete":"null"}
,{"CODGEO":"68198","TxPauvrete":"null"}
,{"CODGEO":"68199","TxPauvrete":"null"}
,{"CODGEO":"68200","TxPauvrete":"null"}
,{"CODGEO":"68201","TxPauvrete":"9.4"}
,{"CODGEO":"68202","TxPauvrete":"null"}
,{"CODGEO":"68203","TxPauvrete":"null"}
,{"CODGEO":"68204","TxPauvrete":"null"}
,{"CODGEO":"68205","TxPauvrete":"null"}
,{"CODGEO":"68206","TxPauvrete":"null"}
,{"CODGEO":"68207","TxPauvrete":"null"}
,{"CODGEO":"68208","TxPauvrete":"null"}
,{"CODGEO":"68209","TxPauvrete":"null"}
,{"CODGEO":"68210","TxPauvrete":"null"}
,{"CODGEO":"68211","TxPauvrete":"null"}
,{"CODGEO":"68212","TxPauvrete":"null"}
,{"CODGEO":"68213","TxPauvrete":"null"}
,{"CODGEO":"68214","TxPauvrete":"null"}
,{"CODGEO":"68215","TxPauvrete":"null"}
,{"CODGEO":"68216","TxPauvrete":"null"}
,{"CODGEO":"68217","TxPauvrete":"null"}
,{"CODGEO":"68218","TxPauvrete":"6.5"}
,{"CODGEO":"68219","TxPauvrete":"null"}
,{"CODGEO":"68221","TxPauvrete":"null"}
,{"CODGEO":"68222","TxPauvrete":"null"}
,{"CODGEO":"68223","TxPauvrete":"null"}
,{"CODGEO":"68224","TxPauvrete":"30.1"}
,{"CODGEO":"68225","TxPauvrete":"null"}
,{"CODGEO":"68226","TxPauvrete":"13.9"}
,{"CODGEO":"68227","TxPauvrete":"null"}
,{"CODGEO":"68228","TxPauvrete":"null"}
,{"CODGEO":"68229","TxPauvrete":"null"}
,{"CODGEO":"68230","TxPauvrete":"null"}
,{"CODGEO":"68231","TxPauvrete":"null"}
,{"CODGEO":"68232","TxPauvrete":"null"}
,{"CODGEO":"68233","TxPauvrete":"null"}
,{"CODGEO":"68234","TxPauvrete":"null"}
,{"CODGEO":"68235","TxPauvrete":"null"}
,{"CODGEO":"68237","TxPauvrete":"null"}
,{"CODGEO":"68238","TxPauvrete":"null"}
,{"CODGEO":"68239","TxPauvrete":"null"}
,{"CODGEO":"68240","TxPauvrete":"null"}
,{"CODGEO":"68241","TxPauvrete":"null"}
,{"CODGEO":"68242","TxPauvrete":"null"}
,{"CODGEO":"68243","TxPauvrete":"null"}
,{"CODGEO":"68244","TxPauvrete":"null"}
,{"CODGEO":"68245","TxPauvrete":"null"}
,{"CODGEO":"68246","TxPauvrete":"null"}
,{"CODGEO":"68247","TxPauvrete":"null"}
,{"CODGEO":"68248","TxPauvrete":"null"}
,{"CODGEO":"68249","TxPauvrete":"8.3"}
,{"CODGEO":"68250","TxPauvrete":"null"}
,{"CODGEO":"68251","TxPauvrete":"null"}
,{"CODGEO":"68252","TxPauvrete":"null"}
,{"CODGEO":"68253","TxPauvrete":"null"}
,{"CODGEO":"68254","TxPauvrete":"null"}
,{"CODGEO":"68255","TxPauvrete":"null"}
,{"CODGEO":"68256","TxPauvrete":"11.1"}
,{"CODGEO":"68257","TxPauvrete":"null"}
,{"CODGEO":"68258","TxPauvrete":"5.9"}
,{"CODGEO":"68259","TxPauvrete":"null"}
,{"CODGEO":"68260","TxPauvrete":"null"}
,{"CODGEO":"68261","TxPauvrete":"null"}
,{"CODGEO":"68262","TxPauvrete":"null"}
,{"CODGEO":"68263","TxPauvrete":"null"}
,{"CODGEO":"68264","TxPauvrete":"null"}
,{"CODGEO":"68265","TxPauvrete":"null"}
,{"CODGEO":"68266","TxPauvrete":"null"}
,{"CODGEO":"68267","TxPauvrete":"null"}
,{"CODGEO":"68268","TxPauvrete":"null"}
,{"CODGEO":"68269","TxPauvrete":"11.0"}
,{"CODGEO":"68270","TxPauvrete":"5.2"}
,{"CODGEO":"68271","TxPauvrete":"8.6"}
,{"CODGEO":"68272","TxPauvrete":"null"}
,{"CODGEO":"68273","TxPauvrete":"null"}
,{"CODGEO":"68274","TxPauvrete":"null"}
,{"CODGEO":"68275","TxPauvrete":"null"}
,{"CODGEO":"68276","TxPauvrete":"null"}
,{"CODGEO":"68277","TxPauvrete":"null"}
,{"CODGEO":"68278","TxPauvrete":"8.0"}
,{"CODGEO":"68279","TxPauvrete":"null"}
,{"CODGEO":"68280","TxPauvrete":"null"}
,{"CODGEO":"68281","TxPauvrete":"null"}
,{"CODGEO":"68282","TxPauvrete":"null"}
,{"CODGEO":"68283","TxPauvrete":"null"}
,{"CODGEO":"68284","TxPauvrete":"null"}
,{"CODGEO":"68285","TxPauvrete":"null"}
,{"CODGEO":"68286","TxPauvrete":"2.7"}
,{"CODGEO":"68287","TxPauvrete":"7.2"}
,{"CODGEO":"68288","TxPauvrete":"null"}
,{"CODGEO":"68289","TxPauvrete":"4.5"}
,{"CODGEO":"68290","TxPauvrete":"null"}
,{"CODGEO":"68291","TxPauvrete":"null"}
,{"CODGEO":"68292","TxPauvrete":"10.8"}
,{"CODGEO":"68293","TxPauvrete":"null"}
,{"CODGEO":"68294","TxPauvrete":"null"}
,{"CODGEO":"68295","TxPauvrete":"3.4"}
,{"CODGEO":"68296","TxPauvrete":"null"}
,{"CODGEO":"68297","TxPauvrete":"18.0"}
,{"CODGEO":"68298","TxPauvrete":"20.1"}
,{"CODGEO":"68299","TxPauvrete":"null"}
,{"CODGEO":"68300","TxPauvrete":"7.3"}
,{"CODGEO":"68301","TxPauvrete":"null"}
,{"CODGEO":"68302","TxPauvrete":"null"}
,{"CODGEO":"68303","TxPauvrete":"null"}
,{"CODGEO":"68304","TxPauvrete":"null"}
,{"CODGEO":"68305","TxPauvrete":"null"}
,{"CODGEO":"68306","TxPauvrete":"null"}
,{"CODGEO":"68307","TxPauvrete":"null"}
,{"CODGEO":"68308","TxPauvrete":"null"}
,{"CODGEO":"68309","TxPauvrete":"4.6"}
,{"CODGEO":"68310","TxPauvrete":"null"}
,{"CODGEO":"68311","TxPauvrete":"null"}
,{"CODGEO":"68312","TxPauvrete":"null"}
,{"CODGEO":"68313","TxPauvrete":"null"}
,{"CODGEO":"68314","TxPauvrete":"null"}
,{"CODGEO":"68315","TxPauvrete":"12.0"}
,{"CODGEO":"68316","TxPauvrete":"null"}
,{"CODGEO":"68317","TxPauvrete":"null"}
,{"CODGEO":"68318","TxPauvrete":"5.4"}
,{"CODGEO":"68319","TxPauvrete":"null"}
,{"CODGEO":"68320","TxPauvrete":"null"}
,{"CODGEO":"68321","TxPauvrete":"8.5"}
,{"CODGEO":"68322","TxPauvrete":"null"}
,{"CODGEO":"68323","TxPauvrete":"null"}
,{"CODGEO":"68324","TxPauvrete":"null"}
,{"CODGEO":"68325","TxPauvrete":"null"}
,{"CODGEO":"68326","TxPauvrete":"null"}
,{"CODGEO":"68327","TxPauvrete":"null"}
,{"CODGEO":"68328","TxPauvrete":"null"}
,{"CODGEO":"68329","TxPauvrete":"null"}
,{"CODGEO":"68330","TxPauvrete":"null"}
,{"CODGEO":"68331","TxPauvrete":"null"}
,{"CODGEO":"68332","TxPauvrete":"null"}
,{"CODGEO":"68333","TxPauvrete":"null"}
,{"CODGEO":"68334","TxPauvrete":"15.6"}
,{"CODGEO":"68335","TxPauvrete":"null"}
,{"CODGEO":"68336","TxPauvrete":"null"}
,{"CODGEO":"68337","TxPauvrete":"null"}
,{"CODGEO":"68338","TxPauvrete":"5.9"}
,{"CODGEO":"68340","TxPauvrete":"null"}
,{"CODGEO":"68341","TxPauvrete":"null"}
,{"CODGEO":"68342","TxPauvrete":"null"}
,{"CODGEO":"68343","TxPauvrete":"4.5"}
,{"CODGEO":"68344","TxPauvrete":"null"}
,{"CODGEO":"68345","TxPauvrete":"null"}
,{"CODGEO":"68347","TxPauvrete":"null"}
,{"CODGEO":"68348","TxPauvrete":"12.2"}
,{"CODGEO":"68349","TxPauvrete":"5.9"}
,{"CODGEO":"68350","TxPauvrete":"null"}
,{"CODGEO":"68351","TxPauvrete":"null"}
,{"CODGEO":"68352","TxPauvrete":"12.4"}
,{"CODGEO":"68353","TxPauvrete":"null"}
,{"CODGEO":"68354","TxPauvrete":"null"}
,{"CODGEO":"68355","TxPauvrete":"null"}
,{"CODGEO":"68356","TxPauvrete":"null"}
,{"CODGEO":"68357","TxPauvrete":"null"}
,{"CODGEO":"68358","TxPauvrete":"null"}
,{"CODGEO":"68359","TxPauvrete":"null"}
,{"CODGEO":"68360","TxPauvrete":"null"}
,{"CODGEO":"68361","TxPauvrete":"null"}
,{"CODGEO":"68362","TxPauvrete":"null"}
,{"CODGEO":"68363","TxPauvrete":"null"}
,{"CODGEO":"68364","TxPauvrete":"null"}
,{"CODGEO":"68365","TxPauvrete":"null"}
,{"CODGEO":"68366","TxPauvrete":"null"}
,{"CODGEO":"68367","TxPauvrete":"null"}
,{"CODGEO":"68368","TxPauvrete":"null"}
,{"CODGEO":"68370","TxPauvrete":"null"}
,{"CODGEO":"68371","TxPauvrete":"null"}
,{"CODGEO":"68372","TxPauvrete":"null"}
,{"CODGEO":"68373","TxPauvrete":"null"}
,{"CODGEO":"68374","TxPauvrete":"8.7"}
,{"CODGEO":"68375","TxPauvrete":"10.1"}
,{"CODGEO":"68376","TxPauvrete":"11.9"}
,{"CODGEO":"68377","TxPauvrete":"null"}
,{"CODGEO":"68378","TxPauvrete":"null"}
,{"CODGEO":"68379","TxPauvrete":"null"}
,{"CODGEO":"68380","TxPauvrete":"null"}
,{"CODGEO":"68381","TxPauvrete":"null"}
,{"CODGEO":"68382","TxPauvrete":"null"}
,{"CODGEO":"68383","TxPauvrete":"null"}
,{"CODGEO":"68384","TxPauvrete":"3.2"}
,{"CODGEO":"68385","TxPauvrete":"null"}
,{"CODGEO":"68386","TxPauvrete":"null"}
]}
