{"status":"success","data":[{"CODGEO":"87001","TxPauvrete":"10.6"}
,{"CODGEO":"87002","TxPauvrete":"10.8"}
,{"CODGEO":"87003","TxPauvrete":"null"}
,{"CODGEO":"87004","TxPauvrete":"null"}
,{"CODGEO":"87005","TxPauvrete":"null"}
,{"CODGEO":"87006","TxPauvrete":"null"}
,{"CODGEO":"87007","TxPauvrete":"null"}
,{"CODGEO":"87008","TxPauvrete":"null"}
,{"CODGEO":"87009","TxPauvrete":"null"}
,{"CODGEO":"87011","TxPauvrete":"19.7"}
,{"CODGEO":"87012","TxPauvrete":"null"}
,{"CODGEO":"87013","TxPauvrete":"null"}
,{"CODGEO":"87014","TxPauvrete":"12.5"}
,{"CODGEO":"87015","TxPauvrete":"null"}
,{"CODGEO":"87016","TxPauvrete":"null"}
,{"CODGEO":"87017","TxPauvrete":"null"}
,{"CODGEO":"87018","TxPauvrete":"null"}
,{"CODGEO":"87019","TxPauvrete":"4.7"}
,{"CODGEO":"87020","TxPauvrete":"null"}
,{"CODGEO":"87021","TxPauvrete":"5.2"}
,{"CODGEO":"87022","TxPauvrete":"null"}
,{"CODGEO":"87023","TxPauvrete":"null"}
,{"CODGEO":"87024","TxPauvrete":"null"}
,{"CODGEO":"87025","TxPauvrete":"null"}
,{"CODGEO":"87026","TxPauvrete":"null"}
,{"CODGEO":"87027","TxPauvrete":"null"}
,{"CODGEO":"87028","TxPauvrete":"null"}
,{"CODGEO":"87029","TxPauvrete":"null"}
,{"CODGEO":"87030","TxPauvrete":"null"}
,{"CODGEO":"87031","TxPauvrete":"null"}
,{"CODGEO":"87032","TxPauvrete":"null"}
,{"CODGEO":"87033","TxPauvrete":"null"}
,{"CODGEO":"87034","TxPauvrete":"null"}
,{"CODGEO":"87035","TxPauvrete":"null"}
,{"CODGEO":"87036","TxPauvrete":"null"}
,{"CODGEO":"87037","TxPauvrete":"null"}
,{"CODGEO":"87038","TxPauvrete":"6.4"}
,{"CODGEO":"87039","TxPauvrete":"null"}
,{"CODGEO":"87040","TxPauvrete":"null"}
,{"CODGEO":"87041","TxPauvrete":"16.4"}
,{"CODGEO":"87042","TxPauvrete":"null"}
,{"CODGEO":"87043","TxPauvrete":"null"}
,{"CODGEO":"87044","TxPauvrete":"null"}
,{"CODGEO":"87045","TxPauvrete":"null"}
,{"CODGEO":"87046","TxPauvrete":"null"}
,{"CODGEO":"87047","TxPauvrete":"null"}
,{"CODGEO":"87048","TxPauvrete":"7.6"}
,{"CODGEO":"87049","TxPauvrete":"null"}
,{"CODGEO":"87050","TxPauvrete":"7.2"}
,{"CODGEO":"87051","TxPauvrete":"null"}
,{"CODGEO":"87052","TxPauvrete":"null"}
,{"CODGEO":"87053","TxPauvrete":"null"}
,{"CODGEO":"87054","TxPauvrete":"null"}
,{"CODGEO":"87055","TxPauvrete":"null"}
,{"CODGEO":"87056","TxPauvrete":"null"}
,{"CODGEO":"87057","TxPauvrete":"null"}
,{"CODGEO":"87058","TxPauvrete":"null"}
,{"CODGEO":"87059","TxPauvrete":"null"}
,{"CODGEO":"87060","TxPauvrete":"null"}
,{"CODGEO":"87061","TxPauvrete":"null"}
,{"CODGEO":"87062","TxPauvrete":"null"}
,{"CODGEO":"87063","TxPauvrete":"null"}
,{"CODGEO":"87064","TxPauvrete":"16.7"}
,{"CODGEO":"87065","TxPauvrete":"6.9"}
,{"CODGEO":"87066","TxPauvrete":"null"}
,{"CODGEO":"87067","TxPauvrete":"null"}
,{"CODGEO":"87068","TxPauvrete":"null"}
,{"CODGEO":"87069","TxPauvrete":"null"}
,{"CODGEO":"87070","TxPauvrete":"null"}
,{"CODGEO":"87071","TxPauvrete":"null"}
,{"CODGEO":"87072","TxPauvrete":"null"}
,{"CODGEO":"87073","TxPauvrete":"null"}
,{"CODGEO":"87074","TxPauvrete":"null"}
,{"CODGEO":"87075","TxPauvrete":"7.0"}
,{"CODGEO":"87076","TxPauvrete":"null"}
,{"CODGEO":"87077","TxPauvrete":"null"}
,{"CODGEO":"87078","TxPauvrete":"null"}
,{"CODGEO":"87079","TxPauvrete":"null"}
,{"CODGEO":"87080","TxPauvrete":"null"}
,{"CODGEO":"87081","TxPauvrete":"null"}
,{"CODGEO":"87082","TxPauvrete":"null"}
,{"CODGEO":"87083","TxPauvrete":"null"}
,{"CODGEO":"87084","TxPauvrete":"null"}
,{"CODGEO":"87085","TxPauvrete":"20.6"}
,{"CODGEO":"87086","TxPauvrete":"null"}
,{"CODGEO":"87087","TxPauvrete":"null"}
,{"CODGEO":"87088","TxPauvrete":"null"}
,{"CODGEO":"87089","TxPauvrete":"null"}
,{"CODGEO":"87090","TxPauvrete":"null"}
,{"CODGEO":"87091","TxPauvrete":"null"}
,{"CODGEO":"87092","TxPauvrete":"null"}
,{"CODGEO":"87093","TxPauvrete":"null"}
,{"CODGEO":"87094","TxPauvrete":"null"}
,{"CODGEO":"87095","TxPauvrete":"null"}
,{"CODGEO":"87096","TxPauvrete":"null"}
,{"CODGEO":"87097","TxPauvrete":"null"}
,{"CODGEO":"87099","TxPauvrete":"null"}
,{"CODGEO":"87100","TxPauvrete":"null"}
,{"CODGEO":"87101","TxPauvrete":"null"}
,{"CODGEO":"87103","TxPauvrete":"null"}
,{"CODGEO":"87104","TxPauvrete":"null"}
,{"CODGEO":"87105","TxPauvrete":"null"}
,{"CODGEO":"87106","TxPauvrete":"13.6"}
,{"CODGEO":"87107","TxPauvrete":"null"}
,{"CODGEO":"87108","TxPauvrete":"null"}
,{"CODGEO":"87109","TxPauvrete":"null"}
,{"CODGEO":"87110","TxPauvrete":"11.7"}
,{"CODGEO":"87111","TxPauvrete":"null"}
,{"CODGEO":"87112","TxPauvrete":"null"}
,{"CODGEO":"87113","TxPauvrete":"11.2"}
,{"CODGEO":"87114","TxPauvrete":"8.0"}
,{"CODGEO":"87115","TxPauvrete":"null"}
,{"CODGEO":"87116","TxPauvrete":"null"}
,{"CODGEO":"87117","TxPauvrete":"null"}
,{"CODGEO":"87118","TxPauvrete":"null"}
,{"CODGEO":"87119","TxPauvrete":"null"}
,{"CODGEO":"87120","TxPauvrete":"null"}
,{"CODGEO":"87121","TxPauvrete":"null"}
,{"CODGEO":"87122","TxPauvrete":"null"}
,{"CODGEO":"87123","TxPauvrete":"null"}
,{"CODGEO":"87124","TxPauvrete":"null"}
,{"CODGEO":"87125","TxPauvrete":"6.2"}
,{"CODGEO":"87126","TxPauvrete":"12.6"}
,{"CODGEO":"87127","TxPauvrete":"null"}
,{"CODGEO":"87128","TxPauvrete":"null"}
,{"CODGEO":"87129","TxPauvrete":"null"}
,{"CODGEO":"87130","TxPauvrete":"null"}
,{"CODGEO":"87131","TxPauvrete":"null"}
,{"CODGEO":"87132","TxPauvrete":"null"}
,{"CODGEO":"87133","TxPauvrete":"null"}
,{"CODGEO":"87134","TxPauvrete":"null"}
,{"CODGEO":"87135","TxPauvrete":"null"}
,{"CODGEO":"87136","TxPauvrete":"null"}
,{"CODGEO":"87137","TxPauvrete":"null"}
,{"CODGEO":"87138","TxPauvrete":"null"}
,{"CODGEO":"87139","TxPauvrete":"null"}
,{"CODGEO":"87140","TxPauvrete":"null"}
,{"CODGEO":"87141","TxPauvrete":"null"}
,{"CODGEO":"87142","TxPauvrete":"null"}
,{"CODGEO":"87143","TxPauvrete":"5.9"}
,{"CODGEO":"87144","TxPauvrete":"null"}
,{"CODGEO":"87145","TxPauvrete":"null"}
,{"CODGEO":"87146","TxPauvrete":"null"}
,{"CODGEO":"87147","TxPauvrete":"null"}
,{"CODGEO":"87148","TxPauvrete":"null"}
,{"CODGEO":"87149","TxPauvrete":"null"}
,{"CODGEO":"87150","TxPauvrete":"null"}
,{"CODGEO":"87151","TxPauvrete":"null"}
,{"CODGEO":"87152","TxPauvrete":"null"}
,{"CODGEO":"87153","TxPauvrete":"null"}
,{"CODGEO":"87154","TxPauvrete":"12.0"}
,{"CODGEO":"87155","TxPauvrete":"null"}
,{"CODGEO":"87156","TxPauvrete":"7.1"}
,{"CODGEO":"87157","TxPauvrete":"null"}
,{"CODGEO":"87158","TxPauvrete":"null"}
,{"CODGEO":"87159","TxPauvrete":"null"}
,{"CODGEO":"87160","TxPauvrete":"null"}
,{"CODGEO":"87161","TxPauvrete":"15.5"}
,{"CODGEO":"87162","TxPauvrete":"null"}
,{"CODGEO":"87163","TxPauvrete":"null"}
,{"CODGEO":"87164","TxPauvrete":"null"}
,{"CODGEO":"87165","TxPauvrete":"null"}
,{"CODGEO":"87166","TxPauvrete":"null"}
,{"CODGEO":"87167","TxPauvrete":"null"}
,{"CODGEO":"87168","TxPauvrete":"null"}
,{"CODGEO":"87169","TxPauvrete":"null"}
,{"CODGEO":"87170","TxPauvrete":"null"}
,{"CODGEO":"87172","TxPauvrete":"null"}
,{"CODGEO":"87173","TxPauvrete":"null"}
,{"CODGEO":"87174","TxPauvrete":"null"}
,{"CODGEO":"87176","TxPauvrete":"null"}
,{"CODGEO":"87177","TxPauvrete":"null"}
,{"CODGEO":"87178","TxPauvrete":"8.0"}
,{"CODGEO":"87179","TxPauvrete":"null"}
,{"CODGEO":"87180","TxPauvrete":"null"}
,{"CODGEO":"87181","TxPauvrete":"null"}
,{"CODGEO":"87182","TxPauvrete":"null"}
,{"CODGEO":"87183","TxPauvrete":"null"}
,{"CODGEO":"87184","TxPauvrete":"null"}
,{"CODGEO":"87185","TxPauvrete":"null"}
,{"CODGEO":"87186","TxPauvrete":"null"}
,{"CODGEO":"87187","TxPauvrete":"14.2"}
,{"CODGEO":"87188","TxPauvrete":"null"}
,{"CODGEO":"87189","TxPauvrete":"null"}
,{"CODGEO":"87190","TxPauvrete":"null"}
,{"CODGEO":"87191","TxPauvrete":"null"}
,{"CODGEO":"87192","TxPauvrete":"null"}
,{"CODGEO":"87193","TxPauvrete":"null"}
,{"CODGEO":"87194","TxPauvrete":"null"}
,{"CODGEO":"87195","TxPauvrete":"null"}
,{"CODGEO":"87196","TxPauvrete":"null"}
,{"CODGEO":"87197","TxPauvrete":"null"}
,{"CODGEO":"87198","TxPauvrete":"null"}
,{"CODGEO":"87199","TxPauvrete":"null"}
,{"CODGEO":"87200","TxPauvrete":"null"}
,{"CODGEO":"87201","TxPauvrete":"4.2"}
,{"CODGEO":"87202","TxPauvrete":"5.7"}
,{"CODGEO":"87203","TxPauvrete":"null"}
,{"CODGEO":"87204","TxPauvrete":"null"}
,{"CODGEO":"87205","TxPauvrete":"8.0"}
,{"CODGEO":"87206","TxPauvrete":"null"}
]}
