{"status":"success","data":[{"CODGEO":"88001","TxPauvrete":"null"}
,{"CODGEO":"88002","TxPauvrete":"null"}
,{"CODGEO":"88003","TxPauvrete":"null"}
,{"CODGEO":"88004","TxPauvrete":"null"}
,{"CODGEO":"88005","TxPauvrete":"null"}
,{"CODGEO":"88006","TxPauvrete":"null"}
,{"CODGEO":"88007","TxPauvrete":"null"}
,{"CODGEO":"88008","TxPauvrete":"null"}
,{"CODGEO":"88009","TxPauvrete":"10.7"}
,{"CODGEO":"88010","TxPauvrete":"null"}
,{"CODGEO":"88011","TxPauvrete":"null"}
,{"CODGEO":"88012","TxPauvrete":"null"}
,{"CODGEO":"88013","TxPauvrete":"null"}
,{"CODGEO":"88014","TxPauvrete":"null"}
,{"CODGEO":"88015","TxPauvrete":"null"}
,{"CODGEO":"88016","TxPauvrete":"null"}
,{"CODGEO":"88017","TxPauvrete":"null"}
,{"CODGEO":"88018","TxPauvrete":"null"}
,{"CODGEO":"88019","TxPauvrete":"null"}
,{"CODGEO":"88020","TxPauvrete":"null"}
,{"CODGEO":"88021","TxPauvrete":"null"}
,{"CODGEO":"88022","TxPauvrete":"null"}
,{"CODGEO":"88023","TxPauvrete":"null"}
,{"CODGEO":"88024","TxPauvrete":"null"}
,{"CODGEO":"88025","TxPauvrete":"null"}
,{"CODGEO":"88026","TxPauvrete":"null"}
,{"CODGEO":"88027","TxPauvrete":"null"}
,{"CODGEO":"88028","TxPauvrete":"null"}
,{"CODGEO":"88029","TxPauvrete":"null"}
,{"CODGEO":"88030","TxPauvrete":"null"}
,{"CODGEO":"88031","TxPauvrete":"null"}
,{"CODGEO":"88032","TxPauvrete":"null"}
,{"CODGEO":"88033","TxPauvrete":"null"}
,{"CODGEO":"88035","TxPauvrete":"null"}
,{"CODGEO":"88036","TxPauvrete":"null"}
,{"CODGEO":"88037","TxPauvrete":"null"}
,{"CODGEO":"88038","TxPauvrete":"null"}
,{"CODGEO":"88039","TxPauvrete":"null"}
,{"CODGEO":"88040","TxPauvrete":"null"}
,{"CODGEO":"88041","TxPauvrete":"null"}
,{"CODGEO":"88042","TxPauvrete":"null"}
,{"CODGEO":"88043","TxPauvrete":"null"}
,{"CODGEO":"88044","TxPauvrete":"null"}
,{"CODGEO":"88045","TxPauvrete":"null"}
,{"CODGEO":"88046","TxPauvrete":"null"}
,{"CODGEO":"88047","TxPauvrete":"null"}
,{"CODGEO":"88048","TxPauvrete":"null"}
,{"CODGEO":"88049","TxPauvrete":"null"}
,{"CODGEO":"88050","TxPauvrete":"null"}
,{"CODGEO":"88051","TxPauvrete":"null"}
,{"CODGEO":"88052","TxPauvrete":"null"}
,{"CODGEO":"88053","TxPauvrete":"null"}
,{"CODGEO":"88054","TxPauvrete":"null"}
,{"CODGEO":"88055","TxPauvrete":"null"}
,{"CODGEO":"88056","TxPauvrete":"null"}
,{"CODGEO":"88057","TxPauvrete":"null"}
,{"CODGEO":"88058","TxPauvrete":"null"}
,{"CODGEO":"88059","TxPauvrete":"null"}
,{"CODGEO":"88060","TxPauvrete":"null"}
,{"CODGEO":"88061","TxPauvrete":"null"}
,{"CODGEO":"88062","TxPauvrete":"null"}
,{"CODGEO":"88063","TxPauvrete":"null"}
,{"CODGEO":"88064","TxPauvrete":"null"}
,{"CODGEO":"88065","TxPauvrete":"null"}
,{"CODGEO":"88066","TxPauvrete":"null"}
,{"CODGEO":"88068","TxPauvrete":"null"}
,{"CODGEO":"88069","TxPauvrete":"null"}
,{"CODGEO":"88070","TxPauvrete":"null"}
,{"CODGEO":"88071","TxPauvrete":"null"}
,{"CODGEO":"88073","TxPauvrete":"null"}
,{"CODGEO":"88074","TxPauvrete":"null"}
,{"CODGEO":"88075","TxPauvrete":"9.5"}
,{"CODGEO":"88076","TxPauvrete":"null"}
,{"CODGEO":"88077","TxPauvrete":"null"}
,{"CODGEO":"88078","TxPauvrete":"22.7"}
,{"CODGEO":"88079","TxPauvrete":"null"}
,{"CODGEO":"88080","TxPauvrete":"null"}
,{"CODGEO":"88081","TxPauvrete":"null"}
,{"CODGEO":"88082","TxPauvrete":"null"}
,{"CODGEO":"88083","TxPauvrete":"null"}
,{"CODGEO":"88084","TxPauvrete":"null"}
,{"CODGEO":"88085","TxPauvrete":"null"}
,{"CODGEO":"88086","TxPauvrete":"null"}
,{"CODGEO":"88087","TxPauvrete":"9.8"}
,{"CODGEO":"88088","TxPauvrete":"null"}
,{"CODGEO":"88089","TxPauvrete":"null"}
,{"CODGEO":"88090","TxPauvrete":"21.8"}
,{"CODGEO":"88091","TxPauvrete":"null"}
,{"CODGEO":"88092","TxPauvrete":"null"}
,{"CODGEO":"88093","TxPauvrete":"null"}
,{"CODGEO":"88094","TxPauvrete":"null"}
,{"CODGEO":"88095","TxPauvrete":"null"}
,{"CODGEO":"88096","TxPauvrete":"null"}
,{"CODGEO":"88097","TxPauvrete":"null"}
,{"CODGEO":"88098","TxPauvrete":"null"}
,{"CODGEO":"88099","TxPauvrete":"null"}
,{"CODGEO":"88100","TxPauvrete":"null"}
,{"CODGEO":"88101","TxPauvrete":"null"}
,{"CODGEO":"88102","TxPauvrete":"null"}
,{"CODGEO":"88103","TxPauvrete":"null"}
,{"CODGEO":"88104","TxPauvrete":"null"}
,{"CODGEO":"88105","TxPauvrete":"null"}
,{"CODGEO":"88106","TxPauvrete":"null"}
,{"CODGEO":"88107","TxPauvrete":"null"}
,{"CODGEO":"88108","TxPauvrete":"null"}
,{"CODGEO":"88109","TxPauvrete":"null"}
,{"CODGEO":"88110","TxPauvrete":"null"}
,{"CODGEO":"88111","TxPauvrete":"null"}
,{"CODGEO":"88112","TxPauvrete":"null"}
,{"CODGEO":"88113","TxPauvrete":"null"}
,{"CODGEO":"88114","TxPauvrete":"14.6"}
,{"CODGEO":"88115","TxPauvrete":"null"}
,{"CODGEO":"88116","TxPauvrete":"14.8"}
,{"CODGEO":"88117","TxPauvrete":"null"}
,{"CODGEO":"88118","TxPauvrete":"null"}
,{"CODGEO":"88119","TxPauvrete":"null"}
,{"CODGEO":"88120","TxPauvrete":"null"}
,{"CODGEO":"88121","TxPauvrete":"null"}
,{"CODGEO":"88122","TxPauvrete":"null"}
,{"CODGEO":"88123","TxPauvrete":"null"}
,{"CODGEO":"88124","TxPauvrete":"null"}
,{"CODGEO":"88125","TxPauvrete":"null"}
,{"CODGEO":"88126","TxPauvrete":"null"}
,{"CODGEO":"88127","TxPauvrete":"null"}
,{"CODGEO":"88128","TxPauvrete":"null"}
,{"CODGEO":"88129","TxPauvrete":"null"}
,{"CODGEO":"88130","TxPauvrete":"null"}
,{"CODGEO":"88131","TxPauvrete":"null"}
,{"CODGEO":"88132","TxPauvrete":"null"}
,{"CODGEO":"88133","TxPauvrete":"null"}
,{"CODGEO":"88134","TxPauvrete":"null"}
,{"CODGEO":"88135","TxPauvrete":"null"}
,{"CODGEO":"88136","TxPauvrete":"null"}
,{"CODGEO":"88137","TxPauvrete":"null"}
,{"CODGEO":"88138","TxPauvrete":"null"}
,{"CODGEO":"88139","TxPauvrete":"null"}
,{"CODGEO":"88140","TxPauvrete":"null"}
,{"CODGEO":"88141","TxPauvrete":"null"}
,{"CODGEO":"88142","TxPauvrete":"null"}
,{"CODGEO":"88143","TxPauvrete":"null"}
,{"CODGEO":"88144","TxPauvrete":"null"}
,{"CODGEO":"88145","TxPauvrete":"null"}
,{"CODGEO":"88146","TxPauvrete":"null"}
,{"CODGEO":"88147","TxPauvrete":"null"}
,{"CODGEO":"88148","TxPauvrete":"null"}
,{"CODGEO":"88149","TxPauvrete":"null"}
,{"CODGEO":"88150","TxPauvrete":"null"}
,{"CODGEO":"88151","TxPauvrete":"null"}
,{"CODGEO":"88152","TxPauvrete":"null"}
,{"CODGEO":"88153","TxPauvrete":"null"}
,{"CODGEO":"88154","TxPauvrete":"null"}
,{"CODGEO":"88155","TxPauvrete":"null"}
,{"CODGEO":"88156","TxPauvrete":"null"}
,{"CODGEO":"88157","TxPauvrete":"null"}
,{"CODGEO":"88158","TxPauvrete":"12.9"}
,{"CODGEO":"88159","TxPauvrete":"null"}
,{"CODGEO":"88160","TxPauvrete":"22.4"}
,{"CODGEO":"88161","TxPauvrete":"null"}
,{"CODGEO":"88162","TxPauvrete":"null"}
,{"CODGEO":"88163","TxPauvrete":"null"}
,{"CODGEO":"88164","TxPauvrete":"null"}
,{"CODGEO":"88165","TxPauvrete":"9.6"}
,{"CODGEO":"88166","TxPauvrete":"null"}
,{"CODGEO":"88167","TxPauvrete":"null"}
,{"CODGEO":"88168","TxPauvrete":"null"}
,{"CODGEO":"88169","TxPauvrete":"null"}
,{"CODGEO":"88170","TxPauvrete":"null"}
,{"CODGEO":"88171","TxPauvrete":"null"}
,{"CODGEO":"88172","TxPauvrete":"null"}
,{"CODGEO":"88173","TxPauvrete":"null"}
,{"CODGEO":"88174","TxPauvrete":"null"}
,{"CODGEO":"88175","TxPauvrete":"null"}
,{"CODGEO":"88176","TxPauvrete":"null"}
,{"CODGEO":"88177","TxPauvrete":"null"}
,{"CODGEO":"88178","TxPauvrete":"5.0"}
,{"CODGEO":"88179","TxPauvrete":"null"}
,{"CODGEO":"88180","TxPauvrete":"null"}
,{"CODGEO":"88181","TxPauvrete":"15.2"}
,{"CODGEO":"88182","TxPauvrete":"null"}
,{"CODGEO":"88183","TxPauvrete":"null"}
,{"CODGEO":"88184","TxPauvrete":"null"}
,{"CODGEO":"88185","TxPauvrete":"null"}
,{"CODGEO":"88186","TxPauvrete":"null"}
,{"CODGEO":"88187","TxPauvrete":"null"}
,{"CODGEO":"88188","TxPauvrete":"null"}
,{"CODGEO":"88189","TxPauvrete":"null"}
,{"CODGEO":"88190","TxPauvrete":"null"}
,{"CODGEO":"88192","TxPauvrete":"null"}
,{"CODGEO":"88193","TxPauvrete":"null"}
,{"CODGEO":"88194","TxPauvrete":"null"}
,{"CODGEO":"88195","TxPauvrete":"null"}
,{"CODGEO":"88196","TxPauvrete":"13.4"}
,{"CODGEO":"88197","TxPauvrete":"null"}
,{"CODGEO":"88198","TxPauvrete":"null"}
,{"CODGEO":"88199","TxPauvrete":"null"}
,{"CODGEO":"88200","TxPauvrete":"null"}
,{"CODGEO":"88201","TxPauvrete":"null"}
,{"CODGEO":"88202","TxPauvrete":"null"}
,{"CODGEO":"88203","TxPauvrete":"null"}
,{"CODGEO":"88204","TxPauvrete":"null"}
,{"CODGEO":"88205","TxPauvrete":"null"}
,{"CODGEO":"88206","TxPauvrete":"null"}
,{"CODGEO":"88208","TxPauvrete":"null"}
,{"CODGEO":"88209","TxPauvrete":"17.6"}
,{"CODGEO":"88210","TxPauvrete":"null"}
,{"CODGEO":"88212","TxPauvrete":"null"}
,{"CODGEO":"88213","TxPauvrete":"null"}
,{"CODGEO":"88214","TxPauvrete":"null"}
,{"CODGEO":"88215","TxPauvrete":"null"}
,{"CODGEO":"88216","TxPauvrete":"null"}
,{"CODGEO":"88218","TxPauvrete":"17.5"}
,{"CODGEO":"88219","TxPauvrete":"null"}
,{"CODGEO":"88220","TxPauvrete":"null"}
,{"CODGEO":"88221","TxPauvrete":"null"}
,{"CODGEO":"88222","TxPauvrete":"null"}
,{"CODGEO":"88223","TxPauvrete":"null"}
,{"CODGEO":"88224","TxPauvrete":"null"}
,{"CODGEO":"88225","TxPauvrete":"7.1"}
,{"CODGEO":"88226","TxPauvrete":"null"}
,{"CODGEO":"88227","TxPauvrete":"null"}
,{"CODGEO":"88228","TxPauvrete":"null"}
,{"CODGEO":"88229","TxPauvrete":"null"}
,{"CODGEO":"88230","TxPauvrete":"null"}
,{"CODGEO":"88231","TxPauvrete":"null"}
,{"CODGEO":"88232","TxPauvrete":"null"}
,{"CODGEO":"88233","TxPauvrete":"null"}
,{"CODGEO":"88234","TxPauvrete":"null"}
,{"CODGEO":"88235","TxPauvrete":"null"}
,{"CODGEO":"88236","TxPauvrete":"null"}
,{"CODGEO":"88237","TxPauvrete":"null"}
,{"CODGEO":"88238","TxPauvrete":"null"}
,{"CODGEO":"88239","TxPauvrete":"null"}
,{"CODGEO":"88240","TxPauvrete":"null"}
,{"CODGEO":"88241","TxPauvrete":"null"}
,{"CODGEO":"88242","TxPauvrete":"null"}
,{"CODGEO":"88243","TxPauvrete":"null"}
,{"CODGEO":"88244","TxPauvrete":"null"}
,{"CODGEO":"88245","TxPauvrete":"null"}
,{"CODGEO":"88246","TxPauvrete":"null"}
,{"CODGEO":"88247","TxPauvrete":"null"}
,{"CODGEO":"88248","TxPauvrete":"null"}
,{"CODGEO":"88249","TxPauvrete":"null"}
,{"CODGEO":"88250","TxPauvrete":"null"}
,{"CODGEO":"88251","TxPauvrete":"null"}
,{"CODGEO":"88252","TxPauvrete":"null"}
,{"CODGEO":"88253","TxPauvrete":"null"}
,{"CODGEO":"88254","TxPauvrete":"null"}
,{"CODGEO":"88255","TxPauvrete":"null"}
,{"CODGEO":"88256","TxPauvrete":"null"}
,{"CODGEO":"88257","TxPauvrete":"null"}
,{"CODGEO":"88258","TxPauvrete":"null"}
,{"CODGEO":"88259","TxPauvrete":"null"}
,{"CODGEO":"88260","TxPauvrete":"null"}
,{"CODGEO":"88261","TxPauvrete":"null"}
,{"CODGEO":"88262","TxPauvrete":"null"}
,{"CODGEO":"88263","TxPauvrete":"null"}
,{"CODGEO":"88264","TxPauvrete":"null"}
,{"CODGEO":"88265","TxPauvrete":"null"}
,{"CODGEO":"88266","TxPauvrete":"null"}
,{"CODGEO":"88267","TxPauvrete":"null"}
,{"CODGEO":"88268","TxPauvrete":"null"}
,{"CODGEO":"88269","TxPauvrete":"null"}
,{"CODGEO":"88270","TxPauvrete":"17.4"}
,{"CODGEO":"88271","TxPauvrete":"null"}
,{"CODGEO":"88272","TxPauvrete":"null"}
,{"CODGEO":"88273","TxPauvrete":"null"}
,{"CODGEO":"88274","TxPauvrete":"null"}
,{"CODGEO":"88275","TxPauvrete":"null"}
,{"CODGEO":"88276","TxPauvrete":"null"}
,{"CODGEO":"88277","TxPauvrete":"null"}
,{"CODGEO":"88278","TxPauvrete":"null"}
,{"CODGEO":"88279","TxPauvrete":"null"}
,{"CODGEO":"88280","TxPauvrete":"null"}
,{"CODGEO":"88281","TxPauvrete":"null"}
,{"CODGEO":"88283","TxPauvrete":"null"}
,{"CODGEO":"88284","TxPauvrete":"null"}
,{"CODGEO":"88285","TxPauvrete":"null"}
,{"CODGEO":"88286","TxPauvrete":"null"}
,{"CODGEO":"88287","TxPauvrete":"null"}
,{"CODGEO":"88288","TxPauvrete":"null"}
,{"CODGEO":"88289","TxPauvrete":"null"}
,{"CODGEO":"88290","TxPauvrete":"null"}
,{"CODGEO":"88291","TxPauvrete":"null"}
,{"CODGEO":"88292","TxPauvrete":"null"}
,{"CODGEO":"88293","TxPauvrete":"null"}
,{"CODGEO":"88294","TxPauvrete":"null"}
,{"CODGEO":"88295","TxPauvrete":"null"}
,{"CODGEO":"88296","TxPauvrete":"null"}
,{"CODGEO":"88297","TxPauvrete":"null"}
,{"CODGEO":"88298","TxPauvrete":"null"}
,{"CODGEO":"88299","TxPauvrete":"null"}
,{"CODGEO":"88300","TxPauvrete":"null"}
,{"CODGEO":"88301","TxPauvrete":"null"}
,{"CODGEO":"88302","TxPauvrete":"null"}
,{"CODGEO":"88303","TxPauvrete":"null"}
,{"CODGEO":"88304","TxPauvrete":"21.3"}
,{"CODGEO":"88305","TxPauvrete":"null"}
,{"CODGEO":"88306","TxPauvrete":"null"}
,{"CODGEO":"88307","TxPauvrete":"null"}
,{"CODGEO":"88308","TxPauvrete":"null"}
,{"CODGEO":"88309","TxPauvrete":"null"}
,{"CODGEO":"88310","TxPauvrete":"null"}
,{"CODGEO":"88311","TxPauvrete":"null"}
,{"CODGEO":"88312","TxPauvrete":"null"}
,{"CODGEO":"88313","TxPauvrete":"null"}
,{"CODGEO":"88314","TxPauvrete":"null"}
,{"CODGEO":"88315","TxPauvrete":"null"}
,{"CODGEO":"88316","TxPauvrete":"null"}
,{"CODGEO":"88317","TxPauvrete":"null"}
,{"CODGEO":"88318","TxPauvrete":"null"}
,{"CODGEO":"88319","TxPauvrete":"16.1"}
,{"CODGEO":"88320","TxPauvrete":"null"}
,{"CODGEO":"88321","TxPauvrete":"19.6"}
,{"CODGEO":"88322","TxPauvrete":"null"}
,{"CODGEO":"88324","TxPauvrete":"null"}
,{"CODGEO":"88325","TxPauvrete":"null"}
,{"CODGEO":"88326","TxPauvrete":"null"}
,{"CODGEO":"88327","TxPauvrete":"14.7"}
,{"CODGEO":"88328","TxPauvrete":"null"}
,{"CODGEO":"88330","TxPauvrete":"null"}
,{"CODGEO":"88331","TxPauvrete":"null"}
,{"CODGEO":"88332","TxPauvrete":"null"}
,{"CODGEO":"88333","TxPauvrete":"null"}
,{"CODGEO":"88334","TxPauvrete":"null"}
,{"CODGEO":"88335","TxPauvrete":"null"}
,{"CODGEO":"88336","TxPauvrete":"null"}
,{"CODGEO":"88337","TxPauvrete":"null"}
,{"CODGEO":"88338","TxPauvrete":"null"}
,{"CODGEO":"88340","TxPauvrete":"null"}
,{"CODGEO":"88341","TxPauvrete":"null"}
,{"CODGEO":"88342","TxPauvrete":"null"}
,{"CODGEO":"88343","TxPauvrete":"null"}
,{"CODGEO":"88344","TxPauvrete":"null"}
,{"CODGEO":"88345","TxPauvrete":"null"}
,{"CODGEO":"88346","TxPauvrete":"null"}
,{"CODGEO":"88347","TxPauvrete":"null"}
,{"CODGEO":"88348","TxPauvrete":"null"}
,{"CODGEO":"88349","TxPauvrete":"null"}
,{"CODGEO":"88350","TxPauvrete":"null"}
,{"CODGEO":"88351","TxPauvrete":"null"}
,{"CODGEO":"88352","TxPauvrete":"null"}
,{"CODGEO":"88353","TxPauvrete":"null"}
,{"CODGEO":"88354","TxPauvrete":"null"}
,{"CODGEO":"88355","TxPauvrete":"null"}
,{"CODGEO":"88356","TxPauvrete":"null"}
,{"CODGEO":"88357","TxPauvrete":"null"}
,{"CODGEO":"88358","TxPauvrete":"11.0"}
,{"CODGEO":"88359","TxPauvrete":"null"}
,{"CODGEO":"88360","TxPauvrete":"null"}
,{"CODGEO":"88361","TxPauvrete":"null"}
,{"CODGEO":"88362","TxPauvrete":"null"}
,{"CODGEO":"88363","TxPauvrete":"null"}
,{"CODGEO":"88364","TxPauvrete":"null"}
,{"CODGEO":"88365","TxPauvrete":"null"}
,{"CODGEO":"88366","TxPauvrete":"null"}
,{"CODGEO":"88367","TxPauvrete":"26.5"}
,{"CODGEO":"88368","TxPauvrete":"null"}
,{"CODGEO":"88369","TxPauvrete":"16.4"}
,{"CODGEO":"88370","TxPauvrete":"null"}
,{"CODGEO":"88371","TxPauvrete":"null"}
,{"CODGEO":"88372","TxPauvrete":"20.2"}
,{"CODGEO":"88373","TxPauvrete":"null"}
,{"CODGEO":"88374","TxPauvrete":"null"}
,{"CODGEO":"88375","TxPauvrete":"null"}
,{"CODGEO":"88376","TxPauvrete":"null"}
,{"CODGEO":"88377","TxPauvrete":"null"}
,{"CODGEO":"88378","TxPauvrete":"null"}
,{"CODGEO":"88379","TxPauvrete":"null"}
,{"CODGEO":"88380","TxPauvrete":"null"}
,{"CODGEO":"88381","TxPauvrete":"null"}
,{"CODGEO":"88382","TxPauvrete":"null"}
,{"CODGEO":"88383","TxPauvrete":"19.5"}
,{"CODGEO":"88385","TxPauvrete":"null"}
,{"CODGEO":"88386","TxPauvrete":"null"}
,{"CODGEO":"88387","TxPauvrete":"null"}
,{"CODGEO":"88388","TxPauvrete":"null"}
,{"CODGEO":"88389","TxPauvrete":"null"}
,{"CODGEO":"88390","TxPauvrete":"null"}
,{"CODGEO":"88391","TxPauvrete":"null"}
,{"CODGEO":"88392","TxPauvrete":"null"}
,{"CODGEO":"88393","TxPauvrete":"null"}
,{"CODGEO":"88394","TxPauvrete":"null"}
,{"CODGEO":"88395","TxPauvrete":"null"}
,{"CODGEO":"88398","TxPauvrete":"null"}
,{"CODGEO":"88399","TxPauvrete":"null"}
,{"CODGEO":"88400","TxPauvrete":"null"}
,{"CODGEO":"88401","TxPauvrete":"null"}
,{"CODGEO":"88402","TxPauvrete":"null"}
,{"CODGEO":"88403","TxPauvrete":"null"}
,{"CODGEO":"88404","TxPauvrete":"null"}
,{"CODGEO":"88406","TxPauvrete":"null"}
,{"CODGEO":"88407","TxPauvrete":"null"}
,{"CODGEO":"88408","TxPauvrete":"14.0"}
,{"CODGEO":"88409","TxPauvrete":"10.0"}
,{"CODGEO":"88410","TxPauvrete":"null"}
,{"CODGEO":"88411","TxPauvrete":"null"}
,{"CODGEO":"88412","TxPauvrete":"null"}
,{"CODGEO":"88413","TxPauvrete":"26.1"}
,{"CODGEO":"88415","TxPauvrete":"14.6"}
,{"CODGEO":"88416","TxPauvrete":"null"}
,{"CODGEO":"88417","TxPauvrete":"null"}
,{"CODGEO":"88418","TxPauvrete":"null"}
,{"CODGEO":"88419","TxPauvrete":"null"}
,{"CODGEO":"88421","TxPauvrete":"null"}
,{"CODGEO":"88423","TxPauvrete":"null"}
,{"CODGEO":"88424","TxPauvrete":"8.1"}
,{"CODGEO":"88425","TxPauvrete":"null"}
,{"CODGEO":"88426","TxPauvrete":"null"}
,{"CODGEO":"88427","TxPauvrete":"null"}
,{"CODGEO":"88428","TxPauvrete":"null"}
,{"CODGEO":"88429","TxPauvrete":"9.9"}
,{"CODGEO":"88430","TxPauvrete":"null"}
,{"CODGEO":"88431","TxPauvrete":"null"}
,{"CODGEO":"88432","TxPauvrete":"null"}
,{"CODGEO":"88433","TxPauvrete":"null"}
,{"CODGEO":"88434","TxPauvrete":"null"}
,{"CODGEO":"88435","TxPauvrete":"null"}
,{"CODGEO":"88436","TxPauvrete":"null"}
,{"CODGEO":"88437","TxPauvrete":"null"}
,{"CODGEO":"88438","TxPauvrete":"null"}
,{"CODGEO":"88439","TxPauvrete":"null"}
,{"CODGEO":"88440","TxPauvrete":"null"}
,{"CODGEO":"88441","TxPauvrete":"null"}
,{"CODGEO":"88442","TxPauvrete":"null"}
,{"CODGEO":"88443","TxPauvrete":"null"}
,{"CODGEO":"88444","TxPauvrete":"null"}
,{"CODGEO":"88445","TxPauvrete":"11.3"}
,{"CODGEO":"88446","TxPauvrete":"null"}
,{"CODGEO":"88447","TxPauvrete":"14.8"}
,{"CODGEO":"88448","TxPauvrete":"null"}
,{"CODGEO":"88449","TxPauvrete":"null"}
,{"CODGEO":"88450","TxPauvrete":"null"}
,{"CODGEO":"88451","TxPauvrete":"21.6"}
,{"CODGEO":"88452","TxPauvrete":"null"}
,{"CODGEO":"88453","TxPauvrete":"null"}
,{"CODGEO":"88454","TxPauvrete":"null"}
,{"CODGEO":"88455","TxPauvrete":"null"}
,{"CODGEO":"88456","TxPauvrete":"null"}
,{"CODGEO":"88457","TxPauvrete":"null"}
,{"CODGEO":"88458","TxPauvrete":"null"}
,{"CODGEO":"88459","TxPauvrete":"null"}
,{"CODGEO":"88460","TxPauvrete":"null"}
,{"CODGEO":"88461","TxPauvrete":"null"}
,{"CODGEO":"88462","TxPauvrete":"null"}
,{"CODGEO":"88463","TxPauvrete":"null"}
,{"CODGEO":"88464","TxPauvrete":"null"}
,{"CODGEO":"88465","TxPauvrete":"16.2"}
,{"CODGEO":"88466","TxPauvrete":"null"}
,{"CODGEO":"88467","TxPauvrete":"null"}
,{"CODGEO":"88468","TxPauvrete":"19.5"}
,{"CODGEO":"88469","TxPauvrete":"null"}
,{"CODGEO":"88470","TxPauvrete":"null"}
,{"CODGEO":"88471","TxPauvrete":"null"}
,{"CODGEO":"88472","TxPauvrete":"null"}
,{"CODGEO":"88473","TxPauvrete":"null"}
,{"CODGEO":"88474","TxPauvrete":"null"}
,{"CODGEO":"88475","TxPauvrete":"null"}
,{"CODGEO":"88476","TxPauvrete":"null"}
,{"CODGEO":"88477","TxPauvrete":"null"}
,{"CODGEO":"88478","TxPauvrete":"null"}
,{"CODGEO":"88479","TxPauvrete":"null"}
,{"CODGEO":"88480","TxPauvrete":"null"}
,{"CODGEO":"88481","TxPauvrete":"null"}
,{"CODGEO":"88482","TxPauvrete":"null"}
,{"CODGEO":"88483","TxPauvrete":"7.0"}
,{"CODGEO":"88484","TxPauvrete":"null"}
,{"CODGEO":"88485","TxPauvrete":"null"}
,{"CODGEO":"88486","TxPauvrete":"11.8"}
,{"CODGEO":"88487","TxPauvrete":"14.5"}
,{"CODGEO":"88488","TxPauvrete":"null"}
,{"CODGEO":"88489","TxPauvrete":"null"}
,{"CODGEO":"88490","TxPauvrete":"null"}
,{"CODGEO":"88491","TxPauvrete":"null"}
,{"CODGEO":"88492","TxPauvrete":"null"}
,{"CODGEO":"88493","TxPauvrete":"null"}
,{"CODGEO":"88494","TxPauvrete":"null"}
,{"CODGEO":"88495","TxPauvrete":"null"}
,{"CODGEO":"88496","TxPauvrete":"null"}
,{"CODGEO":"88497","TxPauvrete":"null"}
,{"CODGEO":"88498","TxPauvrete":"null"}
,{"CODGEO":"88499","TxPauvrete":"null"}
,{"CODGEO":"88500","TxPauvrete":"null"}
,{"CODGEO":"88501","TxPauvrete":"null"}
,{"CODGEO":"88502","TxPauvrete":"null"}
,{"CODGEO":"88503","TxPauvrete":"null"}
,{"CODGEO":"88504","TxPauvrete":"null"}
,{"CODGEO":"88505","TxPauvrete":"null"}
,{"CODGEO":"88506","TxPauvrete":"null"}
,{"CODGEO":"88507","TxPauvrete":"null"}
,{"CODGEO":"88508","TxPauvrete":"null"}
,{"CODGEO":"88509","TxPauvrete":"null"}
,{"CODGEO":"88510","TxPauvrete":"null"}
,{"CODGEO":"88511","TxPauvrete":"null"}
,{"CODGEO":"88512","TxPauvrete":"null"}
,{"CODGEO":"88513","TxPauvrete":"15.9"}
,{"CODGEO":"88514","TxPauvrete":"null"}
,{"CODGEO":"88515","TxPauvrete":"null"}
,{"CODGEO":"88516","TxPauvrete":"10.2"}
,{"CODGEO":"88517","TxPauvrete":"null"}
,{"CODGEO":"88518","TxPauvrete":"null"}
,{"CODGEO":"88519","TxPauvrete":"null"}
,{"CODGEO":"88520","TxPauvrete":"null"}
,{"CODGEO":"88521","TxPauvrete":"null"}
,{"CODGEO":"88522","TxPauvrete":"null"}
,{"CODGEO":"88523","TxPauvrete":"null"}
,{"CODGEO":"88524","TxPauvrete":"null"}
,{"CODGEO":"88525","TxPauvrete":"null"}
,{"CODGEO":"88526","TxPauvrete":"null"}
,{"CODGEO":"88527","TxPauvrete":"null"}
,{"CODGEO":"88528","TxPauvrete":"null"}
,{"CODGEO":"88529","TxPauvrete":"null"}
,{"CODGEO":"88530","TxPauvrete":"14.4"}
,{"CODGEO":"88531","TxPauvrete":"null"}
,{"CODGEO":"88532","TxPauvrete":"null"}
]}
