{"status":"success","data":[{"CODGEO":"91001","TxPauvrete":"null"}
,{"CODGEO":"91016","TxPauvrete":"11.0"}
,{"CODGEO":"91017","TxPauvrete":"null"}
,{"CODGEO":"91021","TxPauvrete":"19.4"}
,{"CODGEO":"91022","TxPauvrete":"null"}
,{"CODGEO":"91027","TxPauvrete":"15.0"}
,{"CODGEO":"91035","TxPauvrete":"null"}
,{"CODGEO":"91037","TxPauvrete":"null"}
,{"CODGEO":"91038","TxPauvrete":"null"}
,{"CODGEO":"91041","TxPauvrete":"null"}
,{"CODGEO":"91044","TxPauvrete":"5.0"}
,{"CODGEO":"91045","TxPauvrete":"4.3"}
,{"CODGEO":"91047","TxPauvrete":"null"}
,{"CODGEO":"91064","TxPauvrete":"4.9"}
,{"CODGEO":"91067","TxPauvrete":"null"}
,{"CODGEO":"91069","TxPauvrete":"null"}
,{"CODGEO":"91075","TxPauvrete":"null"}
,{"CODGEO":"91079","TxPauvrete":"null"}
,{"CODGEO":"91080","TxPauvrete":"null"}
,{"CODGEO":"91081","TxPauvrete":"null"}
,{"CODGEO":"91085","TxPauvrete":"5.7"}
,{"CODGEO":"91086","TxPauvrete":"4.1"}
,{"CODGEO":"91093","TxPauvrete":"null"}
,{"CODGEO":"91095","TxPauvrete":"3.5"}
,{"CODGEO":"91097","TxPauvrete":"7.6"}
,{"CODGEO":"91098","TxPauvrete":"null"}
,{"CODGEO":"91099","TxPauvrete":"3.8"}
,{"CODGEO":"91100","TxPauvrete":"null"}
,{"CODGEO":"91103","TxPauvrete":"12.0"}
,{"CODGEO":"91105","TxPauvrete":"6.5"}
,{"CODGEO":"91106","TxPauvrete":"null"}
,{"CODGEO":"91109","TxPauvrete":"null"}
,{"CODGEO":"91111","TxPauvrete":"4.4"}
,{"CODGEO":"91112","TxPauvrete":"null"}
,{"CODGEO":"91114","TxPauvrete":"10.7"}
,{"CODGEO":"91115","TxPauvrete":"4.3"}
,{"CODGEO":"91121","TxPauvrete":"null"}
,{"CODGEO":"91122","TxPauvrete":"4.0"}
,{"CODGEO":"91129","TxPauvrete":"3.4"}
,{"CODGEO":"91130","TxPauvrete":"null"}
,{"CODGEO":"91131","TxPauvrete":"null"}
,{"CODGEO":"91132","TxPauvrete":"null"}
,{"CODGEO":"91135","TxPauvrete":"3.0"}
,{"CODGEO":"91136","TxPauvrete":"7.1"}
,{"CODGEO":"91137","TxPauvrete":"null"}
,{"CODGEO":"91145","TxPauvrete":"null"}
,{"CODGEO":"91148","TxPauvrete":"null"}
,{"CODGEO":"91156","TxPauvrete":"null"}
,{"CODGEO":"91159","TxPauvrete":"null"}
,{"CODGEO":"91161","TxPauvrete":"11.6"}
,{"CODGEO":"91174","TxPauvrete":"25.6"}
,{"CODGEO":"91175","TxPauvrete":"null"}
,{"CODGEO":"91179","TxPauvrete":"5.6"}
,{"CODGEO":"91180","TxPauvrete":"null"}
,{"CODGEO":"91182","TxPauvrete":"20.7"}
,{"CODGEO":"91184","TxPauvrete":"null"}
,{"CODGEO":"91186","TxPauvrete":"null"}
,{"CODGEO":"91191","TxPauvrete":"9.1"}
,{"CODGEO":"91195","TxPauvrete":"null"}
,{"CODGEO":"91198","TxPauvrete":"null"}
,{"CODGEO":"91200","TxPauvrete":"13.0"}
,{"CODGEO":"91201","TxPauvrete":"9.7"}
,{"CODGEO":"91204","TxPauvrete":"null"}
,{"CODGEO":"91207","TxPauvrete":"14.4"}
,{"CODGEO":"91215","TxPauvrete":"22.3"}
,{"CODGEO":"91216","TxPauvrete":"6.1"}
,{"CODGEO":"91222","TxPauvrete":"null"}
,{"CODGEO":"91223","TxPauvrete":"19.5"}
,{"CODGEO":"91225","TxPauvrete":"3.1"}
,{"CODGEO":"91226","TxPauvrete":"5.9"}
,{"CODGEO":"91228","TxPauvrete":"26.1"}
,{"CODGEO":"91232","TxPauvrete":"7.9"}
,{"CODGEO":"91235","TxPauvrete":"15.4"}
,{"CODGEO":"91240","TxPauvrete":"null"}
,{"CODGEO":"91243","TxPauvrete":"null"}
,{"CODGEO":"91244","TxPauvrete":"null"}
,{"CODGEO":"91247","TxPauvrete":"null"}
,{"CODGEO":"91248","TxPauvrete":"null"}
,{"CODGEO":"91249","TxPauvrete":"3.3"}
,{"CODGEO":"91272","TxPauvrete":"3.4"}
,{"CODGEO":"91273","TxPauvrete":"null"}
,{"CODGEO":"91274","TxPauvrete":"null"}
,{"CODGEO":"91275","TxPauvrete":"4.8"}
,{"CODGEO":"91284","TxPauvrete":"null"}
,{"CODGEO":"91286","TxPauvrete":"44.5"}
,{"CODGEO":"91292","TxPauvrete":"null"}
,{"CODGEO":"91293","TxPauvrete":"null"}
,{"CODGEO":"91294","TxPauvrete":"null"}
,{"CODGEO":"91312","TxPauvrete":"5.5"}
,{"CODGEO":"91315","TxPauvrete":"3.8"}
,{"CODGEO":"91318","TxPauvrete":"null"}
,{"CODGEO":"91319","TxPauvrete":"null"}
,{"CODGEO":"91326","TxPauvrete":"12.4"}
,{"CODGEO":"91330","TxPauvrete":"3.5"}
,{"CODGEO":"91332","TxPauvrete":"null"}
,{"CODGEO":"91333","TxPauvrete":"7.0"}
,{"CODGEO":"91338","TxPauvrete":"3.9"}
,{"CODGEO":"91339","TxPauvrete":"8.2"}
,{"CODGEO":"91340","TxPauvrete":"6.0"}
,{"CODGEO":"91345","TxPauvrete":"12.7"}
,{"CODGEO":"91347","TxPauvrete":"7.9"}
,{"CODGEO":"91359","TxPauvrete":"6.8"}
,{"CODGEO":"91363","TxPauvrete":"4.5"}
,{"CODGEO":"91374","TxPauvrete":"null"}
,{"CODGEO":"91376","TxPauvrete":"3.9"}
,{"CODGEO":"91377","TxPauvrete":"13.7"}
,{"CODGEO":"91378","TxPauvrete":"null"}
,{"CODGEO":"91386","TxPauvrete":"5.0"}
,{"CODGEO":"91390","TxPauvrete":"6.8"}
,{"CODGEO":"91393","TxPauvrete":"null"}
,{"CODGEO":"91399","TxPauvrete":"null"}
,{"CODGEO":"91405","TxPauvrete":"7.0"}
,{"CODGEO":"91408","TxPauvrete":"null"}
,{"CODGEO":"91411","TxPauvrete":"null"}
,{"CODGEO":"91412","TxPauvrete":"null"}
,{"CODGEO":"91414","TxPauvrete":"null"}
,{"CODGEO":"91421","TxPauvrete":"14.0"}
,{"CODGEO":"91425","TxPauvrete":"8.0"}
,{"CODGEO":"91432","TxPauvrete":"8.9"}
,{"CODGEO":"91433","TxPauvrete":"4.2"}
,{"CODGEO":"91434","TxPauvrete":"9.2"}
,{"CODGEO":"91435","TxPauvrete":"null"}
,{"CODGEO":"91441","TxPauvrete":"null"}
,{"CODGEO":"91457","TxPauvrete":"3.8"}
,{"CODGEO":"91458","TxPauvrete":"3.8"}
,{"CODGEO":"91461","TxPauvrete":"5.2"}
,{"CODGEO":"91463","TxPauvrete":"null"}
,{"CODGEO":"91468","TxPauvrete":"null"}
,{"CODGEO":"91469","TxPauvrete":"null"}
,{"CODGEO":"91471","TxPauvrete":"4.9"}
,{"CODGEO":"91473","TxPauvrete":"null"}
,{"CODGEO":"91477","TxPauvrete":"7.7"}
,{"CODGEO":"91479","TxPauvrete":"6.7"}
,{"CODGEO":"91482","TxPauvrete":"null"}
,{"CODGEO":"91494","TxPauvrete":"3.6"}
,{"CODGEO":"91495","TxPauvrete":"null"}
,{"CODGEO":"91507","TxPauvrete":"null"}
,{"CODGEO":"91508","TxPauvrete":"null"}
,{"CODGEO":"91511","TxPauvrete":"8.9"}
,{"CODGEO":"91514","TxPauvrete":"11.3"}
,{"CODGEO":"91519","TxPauvrete":"null"}
,{"CODGEO":"91521","TxPauvrete":"18.8"}
,{"CODGEO":"91525","TxPauvrete":"null"}
,{"CODGEO":"91526","TxPauvrete":"null"}
,{"CODGEO":"91533","TxPauvrete":"null"}
,{"CODGEO":"91534","TxPauvrete":"2.8"}
,{"CODGEO":"91538","TxPauvrete":"null"}
,{"CODGEO":"91540","TxPauvrete":"6.3"}
,{"CODGEO":"91544","TxPauvrete":"null"}
,{"CODGEO":"91546","TxPauvrete":"null"}
,{"CODGEO":"91547","TxPauvrete":"null"}
,{"CODGEO":"91549","TxPauvrete":"13.6"}
,{"CODGEO":"91552","TxPauvrete":"11.5"}
,{"CODGEO":"91553","TxPauvrete":"4.5"}
,{"CODGEO":"91556","TxPauvrete":"null"}
,{"CODGEO":"91560","TxPauvrete":"null"}
,{"CODGEO":"91568","TxPauvrete":"null"}
,{"CODGEO":"91570","TxPauvrete":"11.7"}
,{"CODGEO":"91573","TxPauvrete":"5.6"}
,{"CODGEO":"91577","TxPauvrete":"5.4"}
,{"CODGEO":"91578","TxPauvrete":"null"}
,{"CODGEO":"91579","TxPauvrete":"2.3"}
,{"CODGEO":"91581","TxPauvrete":"null"}
,{"CODGEO":"91587","TxPauvrete":"5.9"}
,{"CODGEO":"91589","TxPauvrete":"11.0"}
,{"CODGEO":"91593","TxPauvrete":"null"}
,{"CODGEO":"91599","TxPauvrete":"null"}
,{"CODGEO":"91600","TxPauvrete":"5.0"}
,{"CODGEO":"91602","TxPauvrete":"null"}
,{"CODGEO":"91613","TxPauvrete":"null"}
,{"CODGEO":"91617","TxPauvrete":"4.3"}
,{"CODGEO":"91619","TxPauvrete":"null"}
,{"CODGEO":"91629","TxPauvrete":"null"}
,{"CODGEO":"91630","TxPauvrete":"null"}
,{"CODGEO":"91631","TxPauvrete":"4.9"}
,{"CODGEO":"91634","TxPauvrete":"null"}
,{"CODGEO":"91635","TxPauvrete":"null"}
,{"CODGEO":"91639","TxPauvrete":"null"}
,{"CODGEO":"91645","TxPauvrete":"5.4"}
,{"CODGEO":"91648","TxPauvrete":"3.2"}
,{"CODGEO":"91649","TxPauvrete":"5.0"}
,{"CODGEO":"91654","TxPauvrete":"null"}
,{"CODGEO":"91657","TxPauvrete":"18.2"}
,{"CODGEO":"91659","TxPauvrete":"7.4"}
,{"CODGEO":"91661","TxPauvrete":"4.7"}
,{"CODGEO":"91662","TxPauvrete":"null"}
,{"CODGEO":"91665","TxPauvrete":"6.8"}
,{"CODGEO":"91666","TxPauvrete":"3.7"}
,{"CODGEO":"91667","TxPauvrete":"4.6"}
,{"CODGEO":"91671","TxPauvrete":"null"}
,{"CODGEO":"91679","TxPauvrete":"null"}
,{"CODGEO":"91685","TxPauvrete":"4.3"}
,{"CODGEO":"91687","TxPauvrete":"14.6"}
,{"CODGEO":"91689","TxPauvrete":"4.7"}
,{"CODGEO":"91691","TxPauvrete":"7.1"}
,{"CODGEO":"91692","TxPauvrete":"19.6"}
]}
