{"status":"success","data":[{"abstentions":"25530","pourcent_blancs_ins":"3.68","pourcent_nuls_ins":"1.23","pourcent_exp_vot":"89.79","votants":"23615","pourcent_exp_ins":"43.15","blancs":"1807","resultats":[{"pourcent_voix_exp":"75.21","voix":"15948","binome":"M. BOUVET Jean-Pierre et Mme DEVESA Brigitte","pourcent_voix_ins":"32.45","code_nuance":"BC-UD","numero_panneau":"2"},{"pourcent_voix_exp":"24.79","voix":"5257","binome":"Mme LAURENT Pascale et M. PIANO Jérémie","pourcent_voix_ins":"10.7","code_nuance":"BC-FN","numero_panneau":"5"}],"code":"1","pourcent_nuls_vot":"2.55","lib":"Aix-en-Provence","pourcent_blancs_vot":"7.65","nuls":"603","pourcent_vot_ins":"48.05","inscrits":"49145","exprimes":"21205","pourcent_abs_ins":"51.95"}
,{"abstentions":"22299","pourcent_blancs_ins":"3.11","pourcent_nuls_ins":"1.22","pourcent_exp_vot":"90.46","votants":"18495","pourcent_exp_ins":"41.01","blancs":"1268","resultats":[{"pourcent_voix_exp":"68.91","voix":"11529","binome":"Mme BRUNET Danièle et M. PERRIN Jean-Marc","pourcent_voix_ins":"28.26","code_nuance":"BC-UD","numero_panneau":"3"},{"pourcent_voix_exp":"31.09","voix":"5202","binome":"M. RAFFARD DE BRIENNE Olivier et Mme ROUVIER Catherine","pourcent_voix_ins":"12.75","code_nuance":"BC-FN","numero_panneau":"2"}],"code":"1","pourcent_nuls_vot":"2.68","lib":"Aix-en-Provence","pourcent_blancs_vot":"6.86","nuls":"496","pourcent_vot_ins":"45.34","inscrits":"40794","exprimes":"16731","pourcent_abs_ins":"54.66"}
,{"abstentions":"7410","pourcent_blancs_ins":"3.58","pourcent_nuls_ins":"1.93","pourcent_exp_vot":"90.27","votants":"9656","pourcent_exp_ins":"51.07","blancs":"611","resultats":[{"pourcent_voix_exp":"51.78","voix":"4513","binome":"M. GENZANA Bruno et Mme MIQUELLY Véronique","pourcent_voix_ins":"26.44","code_nuance":"BC-UD","numero_panneau":"5"},{"pourcent_voix_exp":"48.22","voix":"4203","binome":"M. GONZALEZ José et Mme SEGUIN Véronique","pourcent_voix_ins":"24.63","code_nuance":"BC-FN","numero_panneau":"7"}],"code":"2","pourcent_nuls_vot":"3.41","lib":"Allauch","pourcent_blancs_vot":"6.33","nuls":"329","pourcent_vot_ins":"56.58","inscrits":"17066","exprimes":"8716","pourcent_abs_ins":"43.42"}
,{"abstentions":"4252","pourcent_blancs_ins":"4.04","pourcent_nuls_ins":"1.3","pourcent_exp_vot":"89.67","votants":"4541","pourcent_exp_ins":"46.31","blancs":"355","resultats":[{"pourcent_voix_exp":"52.31","voix":"2130","binome":"M. GENZANA Bruno et Mme MIQUELLY Véronique","pourcent_voix_ins":"24.22","code_nuance":"BC-UD","numero_panneau":"5"},{"pourcent_voix_exp":"47.69","voix":"1942","binome":"M. GONZALEZ José et Mme SEGUIN Véronique","pourcent_voix_ins":"22.09","code_nuance":"BC-FN","numero_panneau":"7"}],"code":"7","pourcent_nuls_vot":"2.51","lib":"Auriol","pourcent_blancs_vot":"7.82","nuls":"114","pourcent_vot_ins":"51.64","inscrits":"8793","exprimes":"4072","pourcent_abs_ins":"48.36"}
,{"abstentions":"604","pourcent_blancs_ins":"6.48","pourcent_nuls_ins":"0.88","pourcent_exp_vot":"86.75","votants":"755","pourcent_exp_ins":"48.2","blancs":"88","resultats":[{"pourcent_voix_exp":"61.83","voix":"405","binome":"M. GENZANA Bruno et Mme MIQUELLY Véronique","pourcent_voix_ins":"29.8","code_nuance":"BC-UD","numero_panneau":"5"},{"pourcent_voix_exp":"38.17","voix":"250","binome":"M. GONZALEZ José et Mme SEGUIN Véronique","pourcent_voix_ins":"18.4","code_nuance":"BC-FN","numero_panneau":"7"}],"code":"13","pourcent_nuls_vot":"1.59","lib":"Belcodène","pourcent_blancs_vot":"11.66","nuls":"12","pourcent_vot_ins":"55.56","inscrits":"1359","exprimes":"655","pourcent_abs_ins":"44.44"}
,{"abstentions":"1988","pourcent_blancs_ins":"4.13","pourcent_nuls_ins":"1.39","pourcent_exp_vot":"89.8","votants":"2344","pourcent_exp_ins":"48.59","blancs":"179","resultats":[{"pourcent_voix_exp":"54.44","voix":"1146","binome":"M. GENZANA Bruno et Mme MIQUELLY Véronique","pourcent_voix_ins":"26.45","code_nuance":"BC-UD","numero_panneau":"5"},{"pourcent_voix_exp":"45.56","voix":"959","binome":"M. GONZALEZ José et Mme SEGUIN Véronique","pourcent_voix_ins":"22.14","code_nuance":"BC-FN","numero_panneau":"7"}],"code":"16","pourcent_nuls_vot":"2.56","lib":"La Bouilladisse","pourcent_blancs_vot":"7.64","nuls":"60","pourcent_vot_ins":"54.11","inscrits":"4332","exprimes":"2105","pourcent_abs_ins":"45.89"}
,{"abstentions":"910","pourcent_blancs_ins":"4.07","pourcent_nuls_ins":"1.53","pourcent_exp_vot":"89.19","votants":"981","pourcent_exp_ins":"46.27","blancs":"77","resultats":[{"pourcent_voix_exp":"59.77","voix":"523","binome":"M. GENZANA Bruno et Mme MIQUELLY Véronique","pourcent_voix_ins":"27.66","code_nuance":"BC-UD","numero_panneau":"5"},{"pourcent_voix_exp":"40.23","voix":"352","binome":"M. GONZALEZ José et Mme SEGUIN Véronique","pourcent_voix_ins":"18.61","code_nuance":"BC-FN","numero_panneau":"7"}],"code":"20","pourcent_nuls_vot":"2.96","lib":"Cadolive","pourcent_blancs_vot":"7.85","nuls":"29","pourcent_vot_ins":"51.88","inscrits":"1891","exprimes":"875","pourcent_abs_ins":"48.12"}
,{"abstentions":"1159","pourcent_blancs_ins":"3.98","pourcent_nuls_ins":"1.26","pourcent_exp_vot":"90.33","votants":"1376","pourcent_exp_ins":"49.03","blancs":"101","resultats":[{"pourcent_voix_exp":"54.06","voix":"672","binome":"M. GENZANA Bruno et Mme MIQUELLY Véronique","pourcent_voix_ins":"26.51","code_nuance":"BC-UD","numero_panneau":"5"},{"pourcent_voix_exp":"45.94","voix":"571","binome":"M. GONZALEZ José et Mme SEGUIN Véronique","pourcent_voix_ins":"22.52","code_nuance":"BC-FN","numero_panneau":"7"}],"code":"31","pourcent_nuls_vot":"2.33","lib":"La Destrousse","pourcent_blancs_vot":"7.34","nuls":"32","pourcent_vot_ins":"54.28","inscrits":"2535","exprimes":"1243","pourcent_abs_ins":"45.72"}
,{"abstentions":"1437","pourcent_blancs_ins":"4.79","pourcent_nuls_ins":"2.11","pourcent_exp_vot":"87.38","votants":"1735","pourcent_exp_ins":"47.79","blancs":"152","resultats":[{"pourcent_voix_exp":"56.53","voix":"857","binome":"M. GENZANA Bruno et Mme MIQUELLY Véronique","pourcent_voix_ins":"27.02","code_nuance":"BC-UD","numero_panneau":"5"},{"pourcent_voix_exp":"43.47","voix":"659","binome":"M. GONZALEZ José et Mme SEGUIN Véronique","pourcent_voix_ins":"20.78","code_nuance":"BC-FN","numero_panneau":"7"}],"code":"46","pourcent_nuls_vot":"3.86","lib":"Gréasque","pourcent_blancs_vot":"8.76","nuls":"67","pourcent_vot_ins":"54.7","inscrits":"3172","exprimes":"1516","pourcent_abs_ins":"45.3"}
,{"abstentions":"2503","pourcent_blancs_ins":"3.61","pourcent_nuls_ins":"0.91","pourcent_exp_vot":"90.34","votants":"2204","pourcent_exp_ins":"42.3","blancs":"170","resultats":[{"pourcent_voix_exp":"49.97","voix":"995","binome":"M. GENZANA Bruno et Mme MIQUELLY Véronique","pourcent_voix_ins":"21.14","code_nuance":"BC-UD","numero_panneau":"5"},{"pourcent_voix_exp":"50.03","voix":"996","binome":"M. GONZALEZ José et Mme SEGUIN Véronique","pourcent_voix_ins":"21.16","code_nuance":"BC-FN","numero_panneau":"7"}],"code":"73","pourcent_nuls_vot":"1.95","lib":"Peypin","pourcent_blancs_vot":"7.71","nuls":"43","pourcent_vot_ins":"46.82","inscrits":"4707","exprimes":"1991","pourcent_abs_ins":"53.18"}
,{"abstentions":"4586","pourcent_blancs_ins":"2.65","pourcent_nuls_ins":"1.1","pourcent_exp_vot":"92.47","votants":"4541","pourcent_exp_ins":"46.01","blancs":"242","resultats":[{"pourcent_voix_exp":"50.99","voix":"2141","binome":"M. GENZANA Bruno et Mme MIQUELLY Véronique","pourcent_voix_ins":"23.46","code_nuance":"BC-UD","numero_panneau":"5"},{"pourcent_voix_exp":"49.01","voix":"2058","binome":"M. GONZALEZ José et Mme SEGUIN Véronique","pourcent_voix_ins":"22.55","code_nuance":"BC-FN","numero_panneau":"7"}],"code":"75","pourcent_nuls_vot":"2.2","lib":"Plan-de-Cuques","pourcent_blancs_vot":"5.33","nuls":"100","pourcent_vot_ins":"49.75","inscrits":"9127","exprimes":"4199","pourcent_abs_ins":"50.25"}
,{"abstentions":"1202","pourcent_blancs_ins":"4.56","pourcent_nuls_ins":"1.38","pourcent_exp_vot":"88.07","votants":"1190","pourcent_exp_ins":"43.81","blancs":"109","resultats":[{"pourcent_voix_exp":"54.87","voix":"575","binome":"M. GENZANA Bruno et Mme MIQUELLY Véronique","pourcent_voix_ins":"24.04","code_nuance":"BC-UD","numero_panneau":"5"},{"pourcent_voix_exp":"45.13","voix":"473","binome":"M. GONZALEZ José et Mme SEGUIN Véronique","pourcent_voix_ins":"19.77","code_nuance":"BC-FN","numero_panneau":"7"}],"code":"101","pourcent_nuls_vot":"2.77","lib":"Saint-Savournin","pourcent_blancs_vot":"9.16","nuls":"33","pourcent_vot_ins":"49.75","inscrits":"2392","exprimes":"1048","pourcent_abs_ins":"50.25"}
,{"abstentions":"17385","pourcent_blancs_ins":"2.61","pourcent_nuls_ins":"1.41","pourcent_exp_vot":"92.43","votants":"19754","pourcent_exp_ins":"49.16","blancs":"971","resultats":[{"pourcent_voix_exp":"54.47","voix":"9946","binome":"M. KOUKAS Nicolas et Mme RAOUX Aurore","pourcent_voix_ins":"26.78","code_nuance":"BC-COM","numero_panneau":"3"},{"pourcent_voix_exp":"45.53","voix":"8312","binome":"M. MAGINI Jean-Pierre et Mme VILLANOVE Valérie","pourcent_voix_ins":"22.38","code_nuance":"BC-FN","numero_panneau":"4"}],"code":"4","pourcent_nuls_vot":"2.66","lib":"Arles","pourcent_blancs_vot":"4.92","nuls":"525","pourcent_vot_ins":"53.19","inscrits":"37139","exprimes":"18258","pourcent_abs_ins":"46.81"}
,{"abstentions":"2677","pourcent_blancs_ins":"1.92","pourcent_nuls_ins":"2.48","pourcent_exp_vot":"92.4","votants":"3685","pourcent_exp_ins":"53.52","blancs":"122","resultats":[{"pourcent_voix_exp":"56.39","voix":"1920","binome":"M. KOUKAS Nicolas et Mme RAOUX Aurore","pourcent_voix_ins":"30.18","code_nuance":"BC-COM","numero_panneau":"3"},{"pourcent_voix_exp":"43.61","voix":"1485","binome":"M. MAGINI Jean-Pierre et Mme VILLANOVE Valérie","pourcent_voix_ins":"23.34","code_nuance":"BC-FN","numero_panneau":"4"}],"code":"78","pourcent_nuls_vot":"4.29","lib":"Port-Saint-Louis-du-Rhône","pourcent_blancs_vot":"3.31","nuls":"158","pourcent_vot_ins":"57.92","inscrits":"6362","exprimes":"3405","pourcent_abs_ins":"42.08"}
,{"abstentions":"1152","pourcent_blancs_ins":"5.89","pourcent_nuls_ins":"1.59","pourcent_exp_vot":"86.95","votants":"1548","pourcent_exp_ins":"49.85","blancs":"159","resultats":[{"pourcent_voix_exp":"26.52","voix":"357","binome":"M. KOUKAS Nicolas et Mme RAOUX Aurore","pourcent_voix_ins":"13.22","code_nuance":"BC-COM","numero_panneau":"3"},{"pourcent_voix_exp":"73.48","voix":"989","binome":"M. MAGINI Jean-Pierre et Mme VILLANOVE Valérie","pourcent_voix_ins":"36.63","code_nuance":"BC-FN","numero_panneau":"4"}],"code":"96","pourcent_nuls_vot":"2.78","lib":"Saintes-Maries-de-la-Mer","pourcent_blancs_vot":"10.27","nuls":"43","pourcent_vot_ins":"57.33","inscrits":"2700","exprimes":"1346","pourcent_abs_ins":"42.67"}
,{"abstentions":"15929","pourcent_blancs_ins":"0.99","pourcent_nuls_ins":"0.49","pourcent_exp_vot":"97.14","votants":"17118","pourcent_exp_ins":"50.32","blancs":"328","resultats":[{"pourcent_voix_exp":"30.84","voix":"5128","binome":"Mme HARKANE Stéphanie et M. RAYS Frédéric","pourcent_voix_ins":"15.52","code_nuance":"BC-UG","numero_panneau":"2"},{"pourcent_voix_exp":"43.6","voix":"7250","binome":"Mme BARTHÉLÉMY Sylvia et M. GAZAY Gérard","pourcent_voix_ins":"21.94","code_nuance":"BC-UD","numero_panneau":"3"}],"code":"5","pourcent_nuls_vot":"0.94","lib":"Aubagne","pourcent_blancs_vot":"1.92","nuls":"161","pourcent_vot_ins":"51.8","inscrits":"33047","exprimes":"16629","pourcent_abs_ins":"48.2"}
,{"abstentions":"2482","pourcent_blancs_ins":"1.21","pourcent_nuls_ins":"0.64","pourcent_exp_vot":"96.36","votants":"2554","pourcent_exp_ins":"48.87","blancs":"61","resultats":[{"pourcent_voix_exp":"33.93","voix":"835","binome":"Mme HARKANE Stéphanie et M. RAYS Frédéric","pourcent_voix_ins":"16.58","code_nuance":"BC-UG","numero_panneau":"2"},{"pourcent_voix_exp":"31.21","voix":"768","binome":"Mme BARTHÉLÉMY Sylvia et M. GAZAY Gérard","pourcent_voix_ins":"15.25","code_nuance":"BC-UD","numero_panneau":"3"}],"code":"70","pourcent_nuls_vot":"1.25","lib":"La Penne-sur-Huveaune","pourcent_blancs_vot":"2.39","nuls":"32","pourcent_vot_ins":"50.71","inscrits":"5036","exprimes":"2461","pourcent_abs_ins":"49.29"}
,{"abstentions":"2799","pourcent_blancs_ins":"1.16","pourcent_nuls_ins":"0.46","pourcent_exp_vot":"97.24","votants":"3944","pourcent_exp_ins":"56.87","blancs":"78","resultats":[{"pourcent_voix_exp":"38.04","voix":"1459","binome":"Mme HARKANE Stéphanie et M. RAYS Frédéric","pourcent_voix_ins":"21.64","code_nuance":"BC-UG","numero_panneau":"2"},{"pourcent_voix_exp":"32.99","voix":"1265","binome":"Mme BARTHÉLÉMY Sylvia et M. GAZAY Gérard","pourcent_voix_ins":"18.76","code_nuance":"BC-UD","numero_panneau":"3"}],"code":"86","pourcent_nuls_vot":"0.79","lib":"Roquevaire","pourcent_blancs_vot":"1.98","nuls":"31","pourcent_vot_ins":"58.49","inscrits":"6743","exprimes":"3835","pourcent_abs_ins":"41.51"}
,{"abstentions":"3824","pourcent_blancs_ins":"1.61","pourcent_nuls_ins":"0.81","pourcent_exp_vot":"95.85","votants":"5353","pourcent_exp_ins":"55.91","blancs":"148","resultats":[{"pourcent_voix_exp":"56.77","voix":"2913","binome":"M. MARTINET Mario et Mme OLANDA Danielle","pourcent_voix_ins":"31.74","code_nuance":"BC-SOC","numero_panneau":"1"},{"pourcent_voix_exp":"9.49","voix":"487","binome":"Mme ARIAS Julie et M. FILIPPI Claude","pourcent_voix_ins":"5.31","code_nuance":"BC-UD","numero_panneau":"5"}],"code":"14","pourcent_nuls_vot":"1.38","lib":"Berre-l'Etang","pourcent_blancs_vot":"2.76","nuls":"74","pourcent_vot_ins":"58.33","inscrits":"9177","exprimes":"5131","pourcent_abs_ins":"41.67"}
,{"abstentions":"469","pourcent_blancs_ins":"2.53","pourcent_nuls_ins":"0","pourcent_exp_vot":"95.72","votants":"677","pourcent_exp_ins":"56.54","blancs":"29","resultats":[{"pourcent_voix_exp":"22.53","voix":"146","binome":"M. MARTINET Mario et Mme OLANDA Danielle","pourcent_voix_ins":"12.74","code_nuance":"BC-SOC","numero_panneau":"1"},{"pourcent_voix_exp":"40.74","voix":"264","binome":"Mme ARIAS Julie et M. FILIPPI Claude","pourcent_voix_ins":"23.04","code_nuance":"BC-UD","numero_panneau":"5"}],"code":"29","pourcent_nuls_vot":"0","lib":"Cornillon-Confoux","pourcent_blancs_vot":"4.28","nuls":"0","pourcent_vot_ins":"59.08","inscrits":"1146","exprimes":"648","pourcent_abs_ins":"40.92"}
,{"abstentions":"2846","pourcent_blancs_ins":"1.84","pourcent_nuls_ins":"0.54","pourcent_exp_vot":"95.54","votants":"3253","pourcent_exp_ins":"50.96","blancs":"112","resultats":[{"pourcent_voix_exp":"36.97","voix":"1149","binome":"M. MARTINET Mario et Mme OLANDA Danielle","pourcent_voix_ins":"18.84","code_nuance":"BC-SOC","numero_panneau":"1"},{"pourcent_voix_exp":"24.03","voix":"747","binome":"Mme ARIAS Julie et M. FILIPPI Claude","pourcent_voix_ins":"12.25","code_nuance":"BC-UD","numero_panneau":"5"}],"code":"37","pourcent_nuls_vot":"1.01","lib":"La Fare-les-Oliviers","pourcent_blancs_vot":"3.44","nuls":"33","pourcent_vot_ins":"53.34","inscrits":"6099","exprimes":"3108","pourcent_abs_ins":"46.66"}
,{"abstentions":"3022","pourcent_blancs_ins":"1.44","pourcent_nuls_ins":"0.53","pourcent_exp_vot":"96.51","votants":"3923","pourcent_exp_ins":"54.51","blancs":"100","resultats":[{"pourcent_voix_exp":"18.52","voix":"701","binome":"M. MARTINET Mario et Mme OLANDA Danielle","pourcent_voix_ins":"10.09","code_nuance":"BC-SOC","numero_panneau":"1"},{"pourcent_voix_exp":"44.59","voix":"1688","binome":"Mme ARIAS Julie et M. FILIPPI Claude","pourcent_voix_ins":"24.31","code_nuance":"BC-UD","numero_panneau":"5"}],"code":"51","pourcent_nuls_vot":"0.94","lib":"Lançon-Provence","pourcent_blancs_vot":"2.55","nuls":"37","pourcent_vot_ins":"56.49","inscrits":"6945","exprimes":"3786","pourcent_abs_ins":"43.51"}
,{"abstentions":"4956","pourcent_blancs_ins":"1.48","pourcent_nuls_ins":"0.56","pourcent_exp_vot":"95.84","votants":"4731","pourcent_exp_ins":"46.8","blancs":"143","resultats":[{"pourcent_voix_exp":"26.03","voix":"1180","binome":"M. MARTINET Mario et Mme OLANDA Danielle","pourcent_voix_ins":"12.18","code_nuance":"BC-SOC","numero_panneau":"1"},{"pourcent_voix_exp":"28.16","voix":"1277","binome":"Mme ARIAS Julie et M. FILIPPI Claude","pourcent_voix_ins":"13.18","code_nuance":"BC-UD","numero_panneau":"5"}],"code":"81","pourcent_nuls_vot":"1.14","lib":"Rognac","pourcent_blancs_vot":"3.02","nuls":"54","pourcent_vot_ins":"48.84","inscrits":"9687","exprimes":"4534","pourcent_abs_ins":"51.16"}
,{"abstentions":"2718","pourcent_blancs_ins":"1.83","pourcent_nuls_ins":"1.12","pourcent_exp_vot":"94.58","votants":"3249","pourcent_exp_ins":"51.5","blancs":"109","resultats":[{"pourcent_voix_exp":"32.12","voix":"987","binome":"M. MARTINET Mario et Mme OLANDA Danielle","pourcent_voix_ins":"16.54","code_nuance":"BC-SOC","numero_panneau":"1"},{"pourcent_voix_exp":"25.51","voix":"784","binome":"Mme ARIAS Julie et M. FILIPPI Claude","pourcent_voix_ins":"13.14","code_nuance":"BC-UD","numero_panneau":"5"}],"code":"92","pourcent_nuls_vot":"2.06","lib":"Saint-Chamas","pourcent_blancs_vot":"3.35","nuls":"67","pourcent_vot_ins":"54.45","inscrits":"5967","exprimes":"3073","pourcent_abs_ins":"45.55"}
,{"abstentions":"2887","pourcent_blancs_ins":"2.3","pourcent_nuls_ins":"0.74","pourcent_exp_vot":"94.77","votants":"4019","pourcent_exp_ins":"55.15","blancs":"159","resultats":[{"pourcent_voix_exp":"33.16","voix":"1263","binome":"M. MARTINET Mario et Mme OLANDA Danielle","pourcent_voix_ins":"18.29","code_nuance":"BC-SOC","numero_panneau":"1"},{"pourcent_voix_exp":"31.01","voix":"1181","binome":"Mme ARIAS Julie et M. FILIPPI Claude","pourcent_voix_ins":"17.1","code_nuance":"BC-UD","numero_panneau":"5"}],"code":"112","pourcent_nuls_vot":"1.27","lib":"Velaux","pourcent_blancs_vot":"3.96","nuls":"51","pourcent_vot_ins":"58.2","inscrits":"6906","exprimes":"3809","pourcent_abs_ins":"41.8"}
,{"abstentions":"1878","pourcent_blancs_ins":"1.83","pourcent_nuls_ins":"0.56","pourcent_exp_vot":"95.86","votants":"2559","pourcent_exp_ins":"55.29","blancs":"81","resultats":[{"pourcent_voix_exp":"21.12","voix":"518","binome":"M. MARTINET Mario et Mme OLANDA Danielle","pourcent_voix_ins":"11.67","code_nuance":"BC-SOC","numero_panneau":"1"},{"pourcent_voix_exp":"54.83","voix":"1345","binome":"Mme ARIAS Julie et M. FILIPPI Claude","pourcent_voix_ins":"30.31","code_nuance":"BC-UD","numero_panneau":"5"}],"code":"114","pourcent_nuls_vot":"0.98","lib":"Ventabren","pourcent_blancs_vot":"3.17","nuls":"25","pourcent_vot_ins":"57.67","inscrits":"4437","exprimes":"2453","pourcent_abs_ins":"42.33"}
,{"abstentions":"1194","pourcent_blancs_ins":"1.58","pourcent_nuls_ins":"0.74","pourcent_exp_vot":"95.85","votants":"1519","pourcent_exp_ins":"53.67","blancs":"43","resultats":[{"pourcent_voix_exp":"36.61","voix":"533","binome":"M. MARTINET Mario et Mme OLANDA Danielle","pourcent_voix_ins":"19.65","code_nuance":"BC-SOC","numero_panneau":"1"},{"pourcent_voix_exp":"28.43","voix":"414","binome":"Mme ARIAS Julie et M. FILIPPI Claude","pourcent_voix_ins":"15.26","code_nuance":"BC-UD","numero_panneau":"5"}],"code":"118","pourcent_nuls_vot":"1.32","lib":"Coudoux","pourcent_blancs_vot":"2.83","nuls":"20","pourcent_vot_ins":"55.99","inscrits":"2713","exprimes":"1456","pourcent_abs_ins":"44.01"}
,{"abstentions":"1357","pourcent_blancs_ins":"3.74","pourcent_nuls_ins":"1.41","pourcent_exp_vot":"90.92","votants":"1773","pourcent_exp_ins":"51.5","blancs":"117","resultats":[{"pourcent_voix_exp":"51.92","voix":"837","binome":"Mme CHABAUD Corinne et M. LIMOUSIN Lucien","pourcent_voix_ins":"26.74","code_nuance":"BC-UD","numero_panneau":"2"},{"pourcent_voix_exp":"48.08","voix":"775","binome":"M. LAUPIES Frédéric et Mme TERMINET Françoise","pourcent_voix_ins":"24.76","code_nuance":"BC-FN","numero_panneau":"5"}],"code":"10","pourcent_nuls_vot":"2.48","lib":"Barbentane","pourcent_blancs_vot":"6.6","nuls":"44","pourcent_vot_ins":"56.65","inscrits":"3130","exprimes":"1612","pourcent_abs_ins":"43.35"}
,{"abstentions":"475","pourcent_blancs_ins":"2.17","pourcent_nuls_ins":"1.32","pourcent_exp_vot":"94.49","votants":"817","pourcent_exp_ins":"59.75","blancs":"28","resultats":[{"pourcent_voix_exp":"54.15","voix":"418","binome":"Mme CHABAUD Corinne et M. LIMOUSIN Lucien","pourcent_voix_ins":"32.35","code_nuance":"BC-UD","numero_panneau":"2"},{"pourcent_voix_exp":"45.85","voix":"354","binome":"M. LAUPIES Frédéric et Mme TERMINET Françoise","pourcent_voix_ins":"27.4","code_nuance":"BC-FN","numero_panneau":"5"}],"code":"17","pourcent_nuls_vot":"2.08","lib":"Boulbon","pourcent_blancs_vot":"3.43","nuls":"17","pourcent_vot_ins":"63.24","inscrits":"1292","exprimes":"772","pourcent_abs_ins":"36.76"}
,{"abstentions":"1557","pourcent_blancs_ins":"2.39","pourcent_nuls_ins":"1.01","pourcent_exp_vot":"93.36","votants":"1626","pourcent_exp_ins":"47.69","blancs":"76","resultats":[{"pourcent_voix_exp":"48.95","voix":"743","binome":"Mme CHABAUD Corinne et M. LIMOUSIN Lucien","pourcent_voix_ins":"23.34","code_nuance":"BC-UD","numero_panneau":"2"},{"pourcent_voix_exp":"51.05","voix":"775","binome":"M. LAUPIES Frédéric et Mme TERMINET Françoise","pourcent_voix_ins":"24.35","code_nuance":"BC-FN","numero_panneau":"5"}],"code":"18","pourcent_nuls_vot":"1.97","lib":"Cabannes","pourcent_blancs_vot":"4.67","nuls":"32","pourcent_vot_ins":"51.08","inscrits":"3183","exprimes":"1518","pourcent_abs_ins":"48.92"}
,{"abstentions":"4192","pourcent_blancs_ins":"2.66","pourcent_nuls_ins":"1.24","pourcent_exp_vot":"93.38","votants":"6031","pourcent_exp_ins":"55.09","blancs":"272","resultats":[{"pourcent_voix_exp":"54.53","voix":"3071","binome":"Mme CHABAUD Corinne et M. LIMOUSIN Lucien","pourcent_voix_ins":"30.04","code_nuance":"BC-UD","numero_panneau":"2"},{"pourcent_voix_exp":"45.47","voix":"2561","binome":"M. LAUPIES Frédéric et Mme TERMINET Françoise","pourcent_voix_ins":"25.05","code_nuance":"BC-FN","numero_panneau":"5"}],"code":"27","pourcent_nuls_vot":"2.11","lib":"Châteaurenard","pourcent_blancs_vot":"4.51","nuls":"127","pourcent_vot_ins":"58.99","inscrits":"10223","exprimes":"5632","pourcent_abs_ins":"41.01"}
,{"abstentions":"1616","pourcent_blancs_ins":"2.92","pourcent_nuls_ins":"1.36","pourcent_exp_vot":"91.84","votants":"1776","pourcent_exp_ins":"48.08","blancs":"99","resultats":[{"pourcent_voix_exp":"50.34","voix":"821","binome":"Mme CHABAUD Corinne et M. LIMOUSIN Lucien","pourcent_voix_ins":"24.2","code_nuance":"BC-UD","numero_panneau":"2"},{"pourcent_voix_exp":"49.66","voix":"810","binome":"M. LAUPIES Frédéric et Mme TERMINET Françoise","pourcent_voix_ins":"23.88","code_nuance":"BC-FN","numero_panneau":"5"}],"code":"36","pourcent_nuls_vot":"2.59","lib":"Eyragues","pourcent_blancs_vot":"5.57","nuls":"46","pourcent_vot_ins":"52.36","inscrits":"3392","exprimes":"1631","pourcent_abs_ins":"47.64"}
,{"abstentions":"1764","pourcent_blancs_ins":"2.77","pourcent_nuls_ins":"1.44","pourcent_exp_vot":"91.93","votants":"1921","pourcent_exp_ins":"47.92","blancs":"102","resultats":[{"pourcent_voix_exp":"45.98","voix":"812","binome":"Mme CHABAUD Corinne et M. LIMOUSIN Lucien","pourcent_voix_ins":"22.04","code_nuance":"BC-UD","numero_panneau":"2"},{"pourcent_voix_exp":"54.02","voix":"954","binome":"M. LAUPIES Frédéric et Mme TERMINET Françoise","pourcent_voix_ins":"25.89","code_nuance":"BC-FN","numero_panneau":"5"}],"code":"45","pourcent_nuls_vot":"2.76","lib":"Graveson","pourcent_blancs_vot":"5.31","nuls":"53","pourcent_vot_ins":"52.13","inscrits":"3685","exprimes":"1766","pourcent_abs_ins":"47.87"}
,{"abstentions":"863","pourcent_blancs_ins":"2.92","pourcent_nuls_ins":"0.99","pourcent_exp_vot":"92.57","votants":"955","pourcent_exp_ins":"48.62","blancs":"53","resultats":[{"pourcent_voix_exp":"48.76","voix":"431","binome":"Mme CHABAUD Corinne et M. LIMOUSIN Lucien","pourcent_voix_ins":"23.71","code_nuance":"BC-UD","numero_panneau":"2"},{"pourcent_voix_exp":"51.24","voix":"453","binome":"M. LAUPIES Frédéric et Mme TERMINET Françoise","pourcent_voix_ins":"24.92","code_nuance":"BC-FN","numero_panneau":"5"}],"code":"52","pourcent_nuls_vot":"1.88","lib":"Maillane","pourcent_blancs_vot":"5.55","nuls":"18","pourcent_vot_ins":"52.53","inscrits":"1818","exprimes":"884","pourcent_abs_ins":"47.47"}
,{"abstentions":"50","pourcent_blancs_ins":"3.54","pourcent_nuls_ins":"0","pourcent_exp_vot":"95.27","votants":"148","pourcent_exp_ins":"71.21","blancs":"7","resultats":[{"pourcent_voix_exp":"58.16","voix":"82","binome":"Mme CHABAUD Corinne et M. LIMOUSIN Lucien","pourcent_voix_ins":"41.41","code_nuance":"BC-UD","numero_panneau":"2"},{"pourcent_voix_exp":"41.84","voix":"59","binome":"M. LAUPIES Frédéric et Mme TERMINET Françoise","pourcent_voix_ins":"29.8","code_nuance":"BC-FN","numero_panneau":"5"}],"code":"61","pourcent_nuls_vot":"0","lib":"Saint-Pierre-de-Mézoargues","pourcent_blancs_vot":"4.73","nuls":"0","pourcent_vot_ins":"74.75","inscrits":"198","exprimes":"141","pourcent_abs_ins":"25.25"}
,{"abstentions":"788","pourcent_blancs_ins":"3.28","pourcent_nuls_ins":"1.54","pourcent_exp_vot":"92.23","votants":"1287","pourcent_exp_ins":"57.2","blancs":"68","resultats":[{"pourcent_voix_exp":"64.03","voix":"760","binome":"Mme CHABAUD Corinne et M. LIMOUSIN Lucien","pourcent_voix_ins":"36.63","code_nuance":"BC-UD","numero_panneau":"2"},{"pourcent_voix_exp":"35.97","voix":"427","binome":"M. LAUPIES Frédéric et Mme TERMINET Françoise","pourcent_voix_ins":"20.58","code_nuance":"BC-FN","numero_panneau":"5"}],"code":"64","pourcent_nuls_vot":"2.49","lib":"Mollégès","pourcent_blancs_vot":"5.28","nuls":"32","pourcent_vot_ins":"62.02","inscrits":"2075","exprimes":"1187","pourcent_abs_ins":"37.98"}
,{"abstentions":"2017","pourcent_blancs_ins":"3.53","pourcent_nuls_ins":"2.32","pourcent_exp_vot":"89.29","votants":"2427","pourcent_exp_ins":"48.76","blancs":"157","resultats":[{"pourcent_voix_exp":"56.44","voix":"1223","binome":"Mme CHABAUD Corinne et M. LIMOUSIN Lucien","pourcent_voix_ins":"27.52","code_nuance":"BC-UD","numero_panneau":"2"},{"pourcent_voix_exp":"43.56","voix":"944","binome":"M. LAUPIES Frédéric et Mme TERMINET Françoise","pourcent_voix_ins":"21.24","code_nuance":"BC-FN","numero_panneau":"5"}],"code":"66","pourcent_nuls_vot":"4.24","lib":"Noves","pourcent_blancs_vot":"6.47","nuls":"103","pourcent_vot_ins":"54.61","inscrits":"4444","exprimes":"2167","pourcent_abs_ins":"45.39"}
,{"abstentions":"1004","pourcent_blancs_ins":"3.39","pourcent_nuls_ins":"1.12","pourcent_exp_vot":"91.84","votants":"1237","pourcent_exp_ins":"50.69","blancs":"76","resultats":[{"pourcent_voix_exp":"49.56","voix":"563","binome":"Mme CHABAUD Corinne et M. LIMOUSIN Lucien","pourcent_voix_ins":"25.12","code_nuance":"BC-UD","numero_panneau":"2"},{"pourcent_voix_exp":"50.44","voix":"573","binome":"M. LAUPIES Frédéric et Mme TERMINET Françoise","pourcent_voix_ins":"25.57","code_nuance":"BC-FN","numero_panneau":"5"}],"code":"76","pourcent_nuls_vot":"2.02","lib":"Plan-d'Orgon","pourcent_blancs_vot":"6.14","nuls":"25","pourcent_vot_ins":"55.2","inscrits":"2241","exprimes":"1136","pourcent_abs_ins":"44.8"}
,{"abstentions":"1245","pourcent_blancs_ins":"3.83","pourcent_nuls_ins":"1.21","pourcent_exp_vot":"91.62","votants":"1885","pourcent_exp_ins":"55.18","blancs":"120","resultats":[{"pourcent_voix_exp":"51.82","voix":"895","binome":"Mme CHABAUD Corinne et M. LIMOUSIN Lucien","pourcent_voix_ins":"28.59","code_nuance":"BC-UD","numero_panneau":"2"},{"pourcent_voix_exp":"48.18","voix":"832","binome":"M. LAUPIES Frédéric et Mme TERMINET Françoise","pourcent_voix_ins":"26.58","code_nuance":"BC-FN","numero_panneau":"5"}],"code":"83","pourcent_nuls_vot":"2.02","lib":"Rognonas","pourcent_blancs_vot":"6.37","nuls":"38","pourcent_vot_ins":"60.22","inscrits":"3130","exprimes":"1727","pourcent_abs_ins":"39.78"}
,{"abstentions":"1207","pourcent_blancs_ins":"1.92","pourcent_nuls_ins":"1.4","pourcent_exp_vot":"93.57","votants":"1291","pourcent_exp_ins":"48.36","blancs":"48","resultats":[{"pourcent_voix_exp":"48.92","voix":"591","binome":"Mme CHABAUD Corinne et M. LIMOUSIN Lucien","pourcent_voix_ins":"23.66","code_nuance":"BC-UD","numero_panneau":"2"},{"pourcent_voix_exp":"51.08","voix":"617","binome":"M. LAUPIES Frédéric et Mme TERMINET Françoise","pourcent_voix_ins":"24.7","code_nuance":"BC-FN","numero_panneau":"5"}],"code":"89","pourcent_nuls_vot":"2.71","lib":"Saint-Andiol","pourcent_blancs_vot":"3.72","nuls":"35","pourcent_vot_ins":"51.68","inscrits":"2498","exprimes":"1208","pourcent_abs_ins":"48.32"}
,{"abstentions":"4288","pourcent_blancs_ins":"1.92","pourcent_nuls_ins":"1.22","pourcent_exp_vot":"94.33","votants":"5330","pourcent_exp_ins":"52.28","blancs":"185","resultats":[{"pourcent_voix_exp":"49.26","voix":"2477","binome":"Mme CHABAUD Corinne et M. LIMOUSIN Lucien","pourcent_voix_ins":"25.75","code_nuance":"BC-UD","numero_panneau":"2"},{"pourcent_voix_exp":"50.74","voix":"2551","binome":"M. LAUPIES Frédéric et Mme TERMINET Françoise","pourcent_voix_ins":"26.52","code_nuance":"BC-FN","numero_panneau":"5"}],"code":"108","pourcent_nuls_vot":"2.2","lib":"Tarascon","pourcent_blancs_vot":"3.47","nuls":"117","pourcent_vot_ins":"55.42","inscrits":"9618","exprimes":"5028","pourcent_abs_ins":"44.58"}
,{"abstentions":"188","pourcent_blancs_ins":"3.62","pourcent_nuls_ins":"2.3","pourcent_exp_vot":"91.43","votants":"420","pourcent_exp_ins":"63.16","blancs":"22","resultats":[{"pourcent_voix_exp":"61.2","voix":"235","binome":"Mme CHABAUD Corinne et M. LIMOUSIN Lucien","pourcent_voix_ins":"38.65","code_nuance":"BC-UD","numero_panneau":"2"},{"pourcent_voix_exp":"38.8","voix":"149","binome":"M. LAUPIES Frédéric et Mme TERMINET Françoise","pourcent_voix_ins":"24.51","code_nuance":"BC-FN","numero_panneau":"5"}],"code":"116","pourcent_nuls_vot":"3.33","lib":"Verquières","pourcent_blancs_vot":"5.24","nuls":"14","pourcent_vot_ins":"69.08","inscrits":"608","exprimes":"384","pourcent_abs_ins":"30.92"}
,{"abstentions":"3252","pourcent_blancs_ins":"2.63","pourcent_nuls_ins":"0.98","pourcent_exp_vot":"93.04","votants":"3504","pourcent_exp_ins":"48.25","blancs":"178","resultats":[{"pourcent_voix_exp":"73.83","voix":"2407","binome":"M. BORÉ Patrick et Mme MILON Danielle","pourcent_voix_ins":"35.63","code_nuance":"BC-UD","numero_panneau":"3"},{"pourcent_voix_exp":"26.17","voix":"853","binome":"M. BRATKOV Vesselin et Mme LEGUEM Laurence","pourcent_voix_ins":"12.63","code_nuance":"BC-FN","numero_panneau":"2"}],"code":"22","pourcent_nuls_vot":"1.88","lib":"Cassis","pourcent_blancs_vot":"5.08","nuls":"66","pourcent_vot_ins":"51.87","inscrits":"6756","exprimes":"3260","pourcent_abs_ins":"48.13"}
,{"abstentions":"1733","pourcent_blancs_ins":"3.89","pourcent_nuls_ins":"1.62","pourcent_exp_vot":"89.51","votants":"1917","pourcent_exp_ins":"47.01","blancs":"142","resultats":[{"pourcent_voix_exp":"60.37","voix":"1036","binome":"M. BORÉ Patrick et Mme MILON Danielle","pourcent_voix_ins":"28.38","code_nuance":"BC-UD","numero_panneau":"3"},{"pourcent_voix_exp":"39.63","voix":"680","binome":"M. BRATKOV Vesselin et Mme LEGUEM Laurence","pourcent_voix_ins":"18.63","code_nuance":"BC-FN","numero_panneau":"2"}],"code":"23","pourcent_nuls_vot":"3.08","lib":"Ceyreste","pourcent_blancs_vot":"7.41","nuls":"59","pourcent_vot_ins":"52.52","inscrits":"3650","exprimes":"1716","pourcent_abs_ins":"47.48"}
,{"abstentions":"14028","pourcent_blancs_ins":"3.2","pourcent_nuls_ins":"1.83","pourcent_exp_vot":"89.88","votants":"13888","pourcent_exp_ins":"44.72","blancs":"894","resultats":[{"pourcent_voix_exp":"62.93","voix":"7855","binome":"M. BORÉ Patrick et Mme MILON Danielle","pourcent_voix_ins":"28.14","code_nuance":"BC-UD","numero_panneau":"3"},{"pourcent_voix_exp":"37.07","voix":"4628","binome":"M. BRATKOV Vesselin et Mme LEGUEM Laurence","pourcent_voix_ins":"16.58","code_nuance":"BC-FN","numero_panneau":"2"}],"code":"28","pourcent_nuls_vot":"3.68","lib":"La Ciotat","pourcent_blancs_vot":"6.44","nuls":"511","pourcent_vot_ins":"49.75","inscrits":"27916","exprimes":"12483","pourcent_abs_ins":"50.25"}
,{"abstentions":"1731","pourcent_blancs_ins":"4.03","pourcent_nuls_ins":"2.1","pourcent_exp_vot":"88.4","votants":"1940","pourcent_exp_ins":"46.72","blancs":"148","resultats":[{"pourcent_voix_exp":"49.33","voix":"846","binome":"M. BORÉ Patrick et Mme MILON Danielle","pourcent_voix_ins":"23.05","code_nuance":"BC-UD","numero_panneau":"3"},{"pourcent_voix_exp":"50.67","voix":"869","binome":"M. BRATKOV Vesselin et Mme LEGUEM Laurence","pourcent_voix_ins":"23.67","code_nuance":"BC-FN","numero_panneau":"2"}],"code":"30","pourcent_nuls_vot":"3.97","lib":"Cuges-les-Pins","pourcent_blancs_vot":"7.63","nuls":"77","pourcent_vot_ins":"52.85","inscrits":"3671","exprimes":"1715","pourcent_abs_ins":"47.15"}
,{"abstentions":"2502","pourcent_blancs_ins":"3.28","pourcent_nuls_ins":"1.16","pourcent_exp_vot":"91.96","votants":"3085","pourcent_exp_ins":"50.78","blancs":"183","resultats":[{"pourcent_voix_exp":"71.48","voix":"2028","binome":"M. BORÉ Patrick et Mme MILON Danielle","pourcent_voix_ins":"36.3","code_nuance":"BC-UD","numero_panneau":"3"},{"pourcent_voix_exp":"28.52","voix":"809","binome":"M. BRATKOV Vesselin et Mme LEGUEM Laurence","pourcent_voix_ins":"14.48","code_nuance":"BC-FN","numero_panneau":"2"}],"code":"42","pourcent_nuls_vot":"2.11","lib":"Gémenos","pourcent_blancs_vot":"5.93","nuls":"65","pourcent_vot_ins":"55.22","inscrits":"5587","exprimes":"2837","pourcent_abs_ins":"44.78"}
,{"abstentions":"2173","pourcent_blancs_ins":"3.86","pourcent_nuls_ins":"2.13","pourcent_exp_vot":"87.95","votants":"2149","pourcent_exp_ins":"43.73","blancs":"167","resultats":[{"pourcent_voix_exp":"57.67","voix":"1090","binome":"M. BORÉ Patrick et Mme MILON Danielle","pourcent_voix_ins":"25.22","code_nuance":"BC-UD","numero_panneau":"3"},{"pourcent_voix_exp":"42.33","voix":"800","binome":"M. BRATKOV Vesselin et Mme LEGUEM Laurence","pourcent_voix_ins":"18.51","code_nuance":"BC-FN","numero_panneau":"2"}],"code":"85","pourcent_nuls_vot":"4.28","lib":"Roquefort-la-Bédoule","pourcent_blancs_vot":"7.77","nuls":"92","pourcent_vot_ins":"49.72","inscrits":"4322","exprimes":"1890","pourcent_abs_ins":"50.28"}
,{"abstentions":"2974","pourcent_blancs_ins":"1.85","pourcent_nuls_ins":"0.75","pourcent_exp_vot":"94.43","votants":"2601","pourcent_exp_ins":"44.05","blancs":"103","resultats":[{"pourcent_voix_exp":"53.54","voix":"1315","binome":"M. BORÉ Patrick et Mme MILON Danielle","pourcent_voix_ins":"23.59","code_nuance":"BC-UD","numero_panneau":"3"},{"pourcent_voix_exp":"46.46","voix":"1141","binome":"M. BRATKOV Vesselin et Mme LEGUEM Laurence","pourcent_voix_ins":"20.47","code_nuance":"BC-FN","numero_panneau":"2"}],"code":"119","pourcent_nuls_vot":"1.61","lib":"Carnoux-en-Provence","pourcent_blancs_vot":"3.96","nuls":"42","pourcent_vot_ins":"46.65","inscrits":"5575","exprimes":"2456","pourcent_abs_ins":"53.35"}
,{"abstentions":"8462","pourcent_blancs_ins":"1.65","pourcent_nuls_ins":"1.16","pourcent_exp_vot":"94.14","votants":"7779","pourcent_exp_ins":"45.09","blancs":"268","resultats":[{"pourcent_voix_exp":"56.33","voix":"4125","binome":"Mme INAUDI Rosy et M. JORDA Claude","pourcent_voix_ins":"25.4","code_nuance":"BC-DVG","numero_panneau":"4"},{"pourcent_voix_exp":"43.67","voix":"3198","binome":"Mme FORNERONE Martine et M. FUSONE Maximilien","pourcent_voix_ins":"19.69","code_nuance":"BC-FN","numero_panneau":"1"}],"code":"41","pourcent_nuls_vot":"2.42","lib":"Gardanne","pourcent_blancs_vot":"3.45","nuls":"188","pourcent_vot_ins":"47.9","inscrits":"16241","exprimes":"7323","pourcent_abs_ins":"52.1"}
,{"abstentions":"1908","pourcent_blancs_ins":"4.28","pourcent_nuls_ins":"1.11","pourcent_exp_vot":"89.62","votants":"2061","pourcent_exp_ins":"46.54","blancs":"170","resultats":[{"pourcent_voix_exp":"50.46","voix":"932","binome":"Mme INAUDI Rosy et M. JORDA Claude","pourcent_voix_ins":"23.48","code_nuance":"BC-DVG","numero_panneau":"4"},{"pourcent_voix_exp":"49.54","voix":"915","binome":"Mme FORNERONE Martine et M. FUSONE Maximilien","pourcent_voix_ins":"23.05","code_nuance":"BC-FN","numero_panneau":"1"}],"code":"62","pourcent_nuls_vot":"2.13","lib":"Mimet","pourcent_blancs_vot":"8.25","nuls":"44","pourcent_vot_ins":"51.93","inscrits":"3969","exprimes":"1847","pourcent_abs_ins":"48.07"}
,{"abstentions":"8819","pourcent_blancs_ins":"3.05","pourcent_nuls_ins":"0.98","pourcent_exp_vot":"91.96","votants":"8880","pourcent_exp_ins":"46.14","blancs":"540","resultats":[{"pourcent_voix_exp":"46.46","voix":"3794","binome":"Mme INAUDI Rosy et M. JORDA Claude","pourcent_voix_ins":"21.44","code_nuance":"BC-DVG","numero_panneau":"4"},{"pourcent_voix_exp":"53.54","voix":"4372","binome":"Mme FORNERONE Martine et M. FUSONE Maximilien","pourcent_voix_ins":"24.7","code_nuance":"BC-FN","numero_panneau":"1"}],"code":"71","pourcent_nuls_vot":"1.96","lib":"Les Pennes-Mirabeau","pourcent_blancs_vot":"6.08","nuls":"174","pourcent_vot_ins":"50.17","inscrits":"17699","exprimes":"8166","pourcent_abs_ins":"49.83"}
,{"abstentions":"4094","pourcent_blancs_ins":"1.91","pourcent_nuls_ins":"0.76","pourcent_exp_vot":"94.81","votants":"4337","pourcent_exp_ins":"48.77","blancs":"161","resultats":[{"pourcent_voix_exp":"52.53","voix":"2160","binome":"Mme INAUDI Rosy et M. JORDA Claude","pourcent_voix_ins":"25.62","code_nuance":"BC-DVG","numero_panneau":"4"},{"pourcent_voix_exp":"47.47","voix":"1952","binome":"Mme FORNERONE Martine et M. FUSONE Maximilien","pourcent_voix_ins":"23.15","code_nuance":"BC-FN","numero_panneau":"1"}],"code":"106","pourcent_nuls_vot":"1.48","lib":"Septèmes-les-Vallons","pourcent_blancs_vot":"3.71","nuls":"64","pourcent_vot_ins":"51.44","inscrits":"8431","exprimes":"4112","pourcent_abs_ins":"48.56"}
,{"abstentions":"2005","pourcent_blancs_ins":"3.99","pourcent_nuls_ins":"0.96","pourcent_exp_vot":"91.02","votants":"2460","pourcent_exp_ins":"50.15","blancs":"178","resultats":[{"pourcent_voix_exp":"50.29","voix":"1126","binome":"Mme INAUDI Rosy et M. JORDA Claude","pourcent_voix_ins":"25.22","code_nuance":"BC-DVG","numero_panneau":"4"},{"pourcent_voix_exp":"49.71","voix":"1113","binome":"Mme FORNERONE Martine et M. FUSONE Maximilien","pourcent_voix_ins":"24.93","code_nuance":"BC-FN","numero_panneau":"1"}],"code":"107","pourcent_nuls_vot":"1.75","lib":"Simiane-Collongue","pourcent_blancs_vot":"7.24","nuls":"43","pourcent_vot_ins":"55.1","inscrits":"4465","exprimes":"2239","pourcent_abs_ins":"44.9"}
,{"abstentions":"5687","pourcent_blancs_ins":"1.69","pourcent_nuls_ins":"1.13","pourcent_exp_vot":"94.91","votants":"7055","pourcent_exp_ins":"52.55","blancs":"215","resultats":[{"pourcent_voix_exp":"60.57","voix":"4056","binome":"Mme JOULIA Nicole et M. RAIMONDI René","pourcent_voix_ins":"31.83","code_nuance":"BC-SOC","numero_panneau":"3"},{"pourcent_voix_exp":"39.43","voix":"2640","binome":"Mme IORIO Véronique et M. MEXIS Adrien","pourcent_voix_ins":"20.72","code_nuance":"BC-FN","numero_panneau":"1"}],"code":"39","pourcent_nuls_vot":"2.04","lib":"Fos-sur-Mer","pourcent_blancs_vot":"3.05","nuls":"144","pourcent_vot_ins":"55.37","inscrits":"12742","exprimes":"6696","pourcent_abs_ins":"44.63"}
,{"abstentions":"11299","pourcent_blancs_ins":"2.91","pourcent_nuls_ins":"1.39","pourcent_exp_vot":"93.06","votants":"18346","pourcent_exp_ins":"57.59","blancs":"862","resultats":[{"pourcent_voix_exp":"55.33","voix":"9447","binome":"Mme JOULIA Nicole et M. RAIMONDI René","pourcent_voix_ins":"31.87","code_nuance":"BC-SOC","numero_panneau":"3"},{"pourcent_voix_exp":"44.67","voix":"7626","binome":"Mme IORIO Véronique et M. MEXIS Adrien","pourcent_voix_ins":"25.72","code_nuance":"BC-FN","numero_panneau":"1"}],"code":"47","pourcent_nuls_vot":"2.24","lib":"Istres","pourcent_blancs_vot":"4.7","nuls":"411","pourcent_vot_ins":"61.89","inscrits":"29645","exprimes":"17073","pourcent_abs_ins":"38.11"}
,{"abstentions":"2181","pourcent_blancs_ins":"4.67","pourcent_nuls_ins":"1.24","pourcent_exp_vot":"89.11","votants":"2590","pourcent_exp_ins":"48.38","blancs":"223","resultats":[{"pourcent_voix_exp":"48.96","voix":"1130","binome":"Mme JOULIA Nicole et M. RAIMONDI René","pourcent_voix_ins":"23.68","code_nuance":"BC-SOC","numero_panneau":"3"},{"pourcent_voix_exp":"51.04","voix":"1178","binome":"Mme IORIO Véronique et M. MEXIS Adrien","pourcent_voix_ins":"24.69","code_nuance":"BC-FN","numero_panneau":"1"}],"code":"98","pourcent_nuls_vot":"2.28","lib":"Saint-Mitre-les-Remparts","pourcent_blancs_vot":"8.61","nuls":"59","pourcent_vot_ins":"54.29","inscrits":"4771","exprimes":"2308","pourcent_abs_ins":"45.71"}
,{"abstentions":"2679","pourcent_blancs_ins":"2.15","pourcent_nuls_ins":"0.75","pourcent_exp_vot":"94.45","votants":"2939","pourcent_exp_ins":"49.41","blancs":"121","resultats":[{"pourcent_voix_exp":"59.65","voix":"1656","binome":"Mme GUARINO Valérie et M. LE DISSES Eric","pourcent_voix_ins":"29.48","code_nuance":"BC-UD","numero_panneau":"4"},{"pourcent_voix_exp":"40.35","voix":"1120","binome":"Mme CHEVALIER Laure et M. CROS Richard","pourcent_voix_ins":"19.94","code_nuance":"BC-FN","numero_panneau":"5"}],"code":"21","pourcent_nuls_vot":"1.43","lib":"Carry-le-Rouet","pourcent_blancs_vot":"4.12","nuls":"42","pourcent_vot_ins":"52.31","inscrits":"5618","exprimes":"2776","pourcent_abs_ins":"47.69"}
,{"abstentions":"4425","pourcent_blancs_ins":"3.51","pourcent_nuls_ins":"2","pourcent_exp_vot":"90.22","votants":"5697","pourcent_exp_ins":"50.78","blancs":"355","resultats":[{"pourcent_voix_exp":"54.71","voix":"2812","binome":"Mme GUARINO Valérie et M. LE DISSES Eric","pourcent_voix_ins":"27.78","code_nuance":"BC-UD","numero_panneau":"4"},{"pourcent_voix_exp":"45.29","voix":"2328","binome":"Mme CHEVALIER Laure et M. CROS Richard","pourcent_voix_ins":"23","code_nuance":"BC-FN","numero_panneau":"5"}],"code":"26","pourcent_nuls_vot":"3.55","lib":"Châteauneuf-les-Martigues","pourcent_blancs_vot":"6.23","nuls":"202","pourcent_vot_ins":"56.28","inscrits":"10122","exprimes":"5140","pourcent_abs_ins":"43.72"}
,{"abstentions":"2113","pourcent_blancs_ins":"3.62","pourcent_nuls_ins":"1.09","pourcent_exp_vot":"90.92","votants":"2279","pourcent_exp_ins":"47.18","blancs":"159","resultats":[{"pourcent_voix_exp":"53.04","voix":"1099","binome":"Mme GUARINO Valérie et M. LE DISSES Eric","pourcent_voix_ins":"25.02","code_nuance":"BC-UD","numero_panneau":"4"},{"pourcent_voix_exp":"46.96","voix":"973","binome":"Mme CHEVALIER Laure et M. CROS Richard","pourcent_voix_ins":"22.15","code_nuance":"BC-FN","numero_panneau":"5"}],"code":"33","pourcent_nuls_vot":"2.11","lib":"Ensuès-la-Redonne","pourcent_blancs_vot":"6.98","nuls":"48","pourcent_vot_ins":"51.89","inscrits":"4392","exprimes":"2072","pourcent_abs_ins":"48.11"}
,{"abstentions":"4110","pourcent_blancs_ins":"2.25","pourcent_nuls_ins":"0.7","pourcent_exp_vot":"93.7","votants":"3618","pourcent_exp_ins":"43.87","blancs":"174","resultats":[{"pourcent_voix_exp":"46.14","voix":"1564","binome":"Mme GUARINO Valérie et M. LE DISSES Eric","pourcent_voix_ins":"20.24","code_nuance":"BC-UD","numero_panneau":"4"},{"pourcent_voix_exp":"53.86","voix":"1826","binome":"Mme CHEVALIER Laure et M. CROS Richard","pourcent_voix_ins":"23.63","code_nuance":"BC-FN","numero_panneau":"5"}],"code":"43","pourcent_nuls_vot":"1.49","lib":"Gignac-la-Nerthe","pourcent_blancs_vot":"4.81","nuls":"54","pourcent_vot_ins":"46.82","inscrits":"7728","exprimes":"3390","pourcent_abs_ins":"53.18"}
,{"abstentions":"11104","pourcent_blancs_ins":"2.29","pourcent_nuls_ins":"0","pourcent_exp_vot":"95.39","votants":"10988","pourcent_exp_ins":"47.45","blancs":"506","resultats":[{"pourcent_voix_exp":"59.81","voix":"6269","binome":"Mme GUARINO Valérie et M. LE DISSES Eric","pourcent_voix_ins":"28.38","code_nuance":"BC-UD","numero_panneau":"4"},{"pourcent_voix_exp":"40.19","voix":"4213","binome":"Mme CHEVALIER Laure et M. CROS Richard","pourcent_voix_ins":"19.07","code_nuance":"BC-FN","numero_panneau":"5"}],"code":"54","pourcent_nuls_vot":"0","lib":"Marignane","pourcent_blancs_vot":"4.61","nuls":"0","pourcent_vot_ins":"49.74","inscrits":"22092","exprimes":"10482","pourcent_abs_ins":"50.26"}
,{"abstentions":"2019","pourcent_blancs_ins":"2.88","pourcent_nuls_ins":"2.52","pourcent_exp_vot":"89.33","votants":"2072","pourcent_exp_ins":"45.25","blancs":"118","resultats":[{"pourcent_voix_exp":"54.51","voix":"1009","binome":"Mme GUARINO Valérie et M. LE DISSES Eric","pourcent_voix_ins":"24.66","code_nuance":"BC-UD","numero_panneau":"4"},{"pourcent_voix_exp":"45.49","voix":"842","binome":"Mme CHEVALIER Laure et M. CROS Richard","pourcent_voix_ins":"20.58","code_nuance":"BC-FN","numero_panneau":"5"}],"code":"88","pourcent_nuls_vot":"4.97","lib":"Le Rove","pourcent_blancs_vot":"5.69","nuls":"103","pourcent_vot_ins":"50.65","inscrits":"4091","exprimes":"1851","pourcent_abs_ins":"49.35"}
,{"abstentions":"3201","pourcent_blancs_ins":"2.78","pourcent_nuls_ins":"0.91","pourcent_exp_vot":"93.1","votants":"3695","pourcent_exp_ins":"49.88","blancs":"192","resultats":[{"pourcent_voix_exp":"57.44","voix":"1976","binome":"Mme GUARINO Valérie et M. LE DISSES Eric","pourcent_voix_ins":"28.65","code_nuance":"BC-UD","numero_panneau":"4"},{"pourcent_voix_exp":"42.56","voix":"1464","binome":"Mme CHEVALIER Laure et M. CROS Richard","pourcent_voix_ins":"21.23","code_nuance":"BC-FN","numero_panneau":"5"}],"code":"104","pourcent_nuls_vot":"1.71","lib":"Sausset-les-Pins","pourcent_blancs_vot":"5.2","nuls":"63","pourcent_vot_ins":"53.58","inscrits":"6896","exprimes":"3440","pourcent_abs_ins":"46.42"}
,{"abstentions":"20656","pourcent_blancs_ins":"3.24","pourcent_nuls_ins":"0.93","pourcent_exp_vot":"91.04","votants":"17939","pourcent_exp_ins":"42.31","blancs":"1249","resultats":[{"pourcent_voix_exp":"67.01","voix":"10943","binome":"M. PAYAN Benoît et Mme RUBIROLA Michèle","pourcent_voix_ins":"28.35","code_nuance":"BC-UG","numero_panneau":"2"},{"pourcent_voix_exp":"32.99","voix":"5388","binome":"Mme DELAYE Laurence et M. LUC Jean-François","pourcent_voix_ins":"13.96","code_nuance":"BC-FN","numero_panneau":"6"}],"code":"55","pourcent_nuls_vot":"2","lib":"Marseille","pourcent_blancs_vot":"6.96","nuls":"359","pourcent_vot_ins":"46.48","inscrits":"38595","exprimes":"16331","pourcent_abs_ins":"53.52"}
,{"abstentions":"16803","pourcent_blancs_ins":"3.06","pourcent_nuls_ins":"1.2","pourcent_exp_vot":"89.87","votants":"12177","pourcent_exp_ins":"37.76","blancs":"886","resultats":[{"pourcent_voix_exp":"68.04","voix":"7446","binome":"M. GUERINI Jean-Noël et Mme NARDUCCI Lisette","pourcent_voix_ins":"25.69","code_nuance":"BC-DVG","numero_panneau":"5"},{"pourcent_voix_exp":"31.96","voix":"3498","binome":"M. DUPUIS Joël et Mme MARTI Jeanne","pourcent_voix_ins":"12.07","code_nuance":"BC-FN","numero_panneau":"2"}],"code":"55","pourcent_nuls_vot":"2.85","lib":"Marseille","pourcent_blancs_vot":"7.28","nuls":"347","pourcent_vot_ins":"42.02","inscrits":"28980","exprimes":"10944","pourcent_abs_ins":"57.98"}
,{"abstentions":"16100","pourcent_blancs_ins":"2.06","pourcent_nuls_ins":"1.09","pourcent_exp_vot":"93.18","votants":"13813","pourcent_exp_ins":"43.03","blancs":"615","resultats":[{"pourcent_voix_exp":"59.81","voix":"7698","binome":"M. JIBRAYEL Henri et Mme SPORTIELLO Josette","pourcent_voix_ins":"25.73","code_nuance":"BC-SOC","numero_panneau":"3"},{"pourcent_voix_exp":"40.19","voix":"5173","binome":"Mme GRECH Sophie et M. MARANDAT Bernard","pourcent_voix_ins":"17.29","code_nuance":"BC-FN","numero_panneau":"6"}],"code":"55","pourcent_nuls_vot":"2.37","lib":"Marseille","pourcent_blancs_vot":"4.45","nuls":"327","pourcent_vot_ins":"46.18","inscrits":"29913","exprimes":"12871","pourcent_abs_ins":"53.82"}
,{"abstentions":"18604","pourcent_blancs_ins":"1.69","pourcent_nuls_ins":"0.71","pourcent_exp_vot":"94.3","votants":"13537","pourcent_exp_ins":"39.72","blancs":"543","resultats":[{"pourcent_voix_exp":"55.06","voix":"7028","binome":"M. BENARIOUA Rébia et Mme DI MARINO Anne","pourcent_voix_ins":"21.87","code_nuance":"BC-SOC","numero_panneau":"3"},{"pourcent_voix_exp":"44.94","voix":"5737","binome":"M. CUPOLATI Paul et Mme FARKAS Monique","pourcent_voix_ins":"17.85","code_nuance":"BC-FN","numero_panneau":"2"}],"code":"55","pourcent_nuls_vot":"1.69","lib":"Marseille","pourcent_blancs_vot":"4.01","nuls":"229","pourcent_vot_ins":"42.12","inscrits":"32141","exprimes":"12765","pourcent_abs_ins":"57.88"}
,{"abstentions":"19410","pourcent_blancs_ins":"2.55","pourcent_nuls_ins":"1.25","pourcent_exp_vot":"91.64","votants":"16139","pourcent_exp_ins":"41.6","blancs":"906","resultats":[{"pourcent_voix_exp":"54.42","voix":"8048","binome":"Mme HADJ-CHIKH Haouaria et M. ROSSI Denis","pourcent_voix_ins":"22.64","code_nuance":"BC-UG","numero_panneau":"4"},{"pourcent_voix_exp":"45.58","voix":"6742","binome":"Mme D'ANGIO Sandrine et M. MAGGIO Antoine","pourcent_voix_ins":"18.97","code_nuance":"BC-FN","numero_panneau":"1"}],"code":"55","pourcent_nuls_vot":"2.74","lib":"Marseille","pourcent_blancs_vot":"5.61","nuls":"443","pourcent_vot_ins":"45.4","inscrits":"35549","exprimes":"14790","pourcent_abs_ins":"54.6"}
,{"abstentions":"20097","pourcent_blancs_ins":"2.85","pourcent_nuls_ins":"0.82","pourcent_exp_vot":"92.81","votants":"20942","pourcent_exp_ins":"47.36","blancs":"1170","resultats":[{"pourcent_voix_exp":"50.25","voix":"9767","binome":"M. MASSE Christophe et Mme TRANCHIDA Geneviève","pourcent_voix_ins":"23.8","code_nuance":"BC-SOC","numero_panneau":"2"},{"pourcent_voix_exp":"49.75","voix":"9669","binome":"M. DUDIEUZÈRE Cédric et Mme MUSTACHIA Marie","pourcent_voix_ins":"23.56","code_nuance":"BC-FN","numero_panneau":"5"}],"code":"55","pourcent_nuls_vot":"1.6","lib":"Marseille","pourcent_blancs_vot":"5.59","nuls":"336","pourcent_vot_ins":"51.03","inscrits":"41039","exprimes":"19436","pourcent_abs_ins":"48.97"}
,{"abstentions":"26545","pourcent_blancs_ins":"2.79","pourcent_nuls_ins":"1.41","pourcent_exp_vot":"91.71","votants":"27253","pourcent_exp_ins":"46.46","blancs":"1502","resultats":[{"pourcent_voix_exp":"58.21","voix":"14548","binome":"Mme PUSTORINO Marine et M. REY Maurice","pourcent_voix_ins":"27.04","code_nuance":"BC-UD","numero_panneau":"4"},{"pourcent_voix_exp":"41.79","voix":"10445","binome":"M. BARAT Loïc et Mme PHILIPPE Élisabeth","pourcent_voix_ins":"19.42","code_nuance":"BC-FN","numero_panneau":"6"}],"code":"55","pourcent_nuls_vot":"2.78","lib":"Marseille","pourcent_blancs_vot":"5.51","nuls":"758","pourcent_vot_ins":"50.66","inscrits":"53798","exprimes":"24993","pourcent_abs_ins":"49.34"}
,{"abstentions":"24558","pourcent_blancs_ins":"2.44","pourcent_nuls_ins":"1.09","pourcent_exp_vot":"92.33","votants":"20969","pourcent_exp_ins":"42.53","blancs":"1113","resultats":[{"pourcent_voix_exp":"56.73","voix":"10984","binome":"Mme CARREGA Sylvie et M. SANTELLI Thierry","pourcent_voix_ins":"24.13","code_nuance":"BC-UD","numero_panneau":"4"},{"pourcent_voix_exp":"43.27","voix":"8377","binome":"M. COMAS Laurent et Mme ORTEGA Anaïs","pourcent_voix_ins":"18.4","code_nuance":"BC-FN","numero_panneau":"7"}],"code":"55","pourcent_nuls_vot":"2.36","lib":"Marseille","pourcent_blancs_vot":"5.31","nuls":"495","pourcent_vot_ins":"46.06","inscrits":"45527","exprimes":"19361","pourcent_abs_ins":"53.94"}
,{"abstentions":"24990","pourcent_blancs_ins":"3.43","pourcent_nuls_ins":"1.1","pourcent_exp_vot":"90.71","votants":"23801","pourcent_exp_ins":"44.25","blancs":"1674","resultats":[{"pourcent_voix_exp":"63.33","voix":"13672","binome":"Mme CARADEC Laure-Agnès et M. REAULT Didier","pourcent_voix_ins":"28.02","code_nuance":"BC-UD","numero_panneau":"4"},{"pourcent_voix_exp":"36.67","voix":"7918","binome":"M. CATANEO Michel et Mme SICARD Caroline","pourcent_voix_ins":"16.23","code_nuance":"BC-FN","numero_panneau":"2"}],"code":"55","pourcent_nuls_vot":"2.26","lib":"Marseille","pourcent_blancs_vot":"7.03","nuls":"537","pourcent_vot_ins":"48.78","inscrits":"48791","exprimes":"21590","pourcent_abs_ins":"51.22"}
,{"abstentions":"25021","pourcent_blancs_ins":"2.61","pourcent_nuls_ins":"1.13","pourcent_exp_vot":"92.2","votants":"23010","pourcent_exp_ins":"44.17","blancs":"1254","resultats":[{"pourcent_voix_exp":"65.76","voix":"13952","binome":"M. ROYER-PERREAUT Lionel et Mme VASSAL Martine","pourcent_voix_ins":"29.05","code_nuance":"BC-UD","numero_panneau":"6"},{"pourcent_voix_exp":"34.24","voix":"7263","binome":"M. MAUNIER Marcel et Mme TRANI Jocelyne","pourcent_voix_ins":"15.12","code_nuance":"BC-FN","numero_panneau":"3"}],"code":"55","pourcent_nuls_vot":"2.35","lib":"Marseille","pourcent_blancs_vot":"5.45","nuls":"541","pourcent_vot_ins":"47.91","inscrits":"48031","exprimes":"21215","pourcent_abs_ins":"52.09"}
,{"abstentions":"21205","pourcent_blancs_ins":"4.18","pourcent_nuls_ins":"1.53","pourcent_exp_vot":"87.59","votants":"18058","pourcent_exp_ins":"40.28","blancs":"1640","resultats":[{"pourcent_voix_exp":"65.07","voix":"10292","binome":"Mme BIAGGI Solange et M. DI NOCERA Maurice","pourcent_voix_ins":"26.21","code_nuance":"BC-UD","numero_panneau":"5"},{"pourcent_voix_exp":"34.93","voix":"5525","binome":"M. BAUMANN Jean Pierre et Mme KERBRAT Danielle","pourcent_voix_ins":"14.07","code_nuance":"BC-FN","numero_panneau":"2"}],"code":"55","pourcent_nuls_vot":"3.33","lib":"Marseille","pourcent_blancs_vot":"9.08","nuls":"601","pourcent_vot_ins":"45.99","inscrits":"39263","exprimes":"15817","pourcent_abs_ins":"54.01"}
,{"abstentions":"25814","pourcent_blancs_ins":"3.38","pourcent_nuls_ins":"1.02","pourcent_exp_vot":"90.73","votants":"23283","pourcent_exp_ins":"43.03","blancs":"1658","resultats":[{"pourcent_voix_exp":"70.03","voix":"14794","binome":"Mme BERNASCONI Sabine et M. MORAINE Yves","pourcent_voix_ins":"30.13","code_nuance":"BC-UD","numero_panneau":"1"},{"pourcent_voix_exp":"29.97","voix":"6330","binome":"M. GERONIMO Éric et Mme PARODI Clémence","pourcent_voix_ins":"12.89","code_nuance":"BC-FN","numero_panneau":"4"}],"code":"55","pourcent_nuls_vot":"2.15","lib":"Marseille","pourcent_blancs_vot":"7.12","nuls":"501","pourcent_vot_ins":"47.42","inscrits":"49097","exprimes":"21124","pourcent_abs_ins":"52.58"}
,{"abstentions":"14855","pourcent_blancs_ins":"3.06","pourcent_nuls_ins":"1.3","pourcent_exp_vot":"92.31","votants":"19401","pourcent_exp_ins":"52.28","blancs":"1048","resultats":[{"pourcent_voix_exp":"57.42","voix":"10284","binome":"M. FRAU Gérard et Mme SANTORU-JOLY Evelyne","pourcent_voix_ins":"30.02","code_nuance":"BC-COM","numero_panneau":"3"},{"pourcent_voix_exp":"42.58","voix":"7625","binome":"M. FOUQUART Emmanuel et Mme LAURENT Nadine","pourcent_voix_ins":"22.26","code_nuance":"BC-FN","numero_panneau":"4"}],"code":"56","pourcent_nuls_vot":"2.29","lib":"Martigues","pourcent_blancs_vot":"5.4","nuls":"444","pourcent_vot_ins":"56.64","inscrits":"34256","exprimes":"17909","pourcent_abs_ins":"43.36"}
,{"abstentions":"5643","pourcent_blancs_ins":"1.3","pourcent_nuls_ins":"0.84","pourcent_exp_vot":"95.9","votants":"6193","pourcent_exp_ins":"50.18","blancs":"154","resultats":[{"pourcent_voix_exp":"62.47","voix":"3710","binome":"M. FRAU Gérard et Mme SANTORU-JOLY Evelyne","pourcent_voix_ins":"31.35","code_nuance":"BC-COM","numero_panneau":"3"},{"pourcent_voix_exp":"37.53","voix":"2229","binome":"M. FOUQUART Emmanuel et Mme LAURENT Nadine","pourcent_voix_ins":"18.83","code_nuance":"BC-FN","numero_panneau":"4"}],"code":"77","pourcent_nuls_vot":"1.61","lib":"Port-de-Bouc","pourcent_blancs_vot":"2.49","nuls":"100","pourcent_vot_ins":"52.32","inscrits":"11836","exprimes":"5939","pourcent_abs_ins":"47.68"}
,{"abstentions":"802","pourcent_blancs_ins":"1.56","pourcent_nuls_ins":"0.36","pourcent_exp_vot":"96.71","votants":"1123","pourcent_exp_ins":"56.42","blancs":"30","resultats":[{"pourcent_voix_exp":"35.36","voix":"384","binome":"Mme GENTE-CEAGLIO Hélène et M. GERARD Jacky","pourcent_voix_ins":"19.95","code_nuance":"BC-DVG","numero_panneau":"4"},{"pourcent_voix_exp":"31.58","voix":"343","binome":"Mme BLANC Claire et M. MONTÉCOT Pascal","pourcent_voix_ins":"17.82","code_nuance":"BC-UD","numero_panneau":"2"}],"code":"3","pourcent_nuls_vot":"0.62","lib":"Alleins","pourcent_blancs_vot":"2.67","nuls":"7","pourcent_vot_ins":"58.34","inscrits":"1925","exprimes":"1086","pourcent_abs_ins":"41.66"}
,{"abstentions":"143","pourcent_blancs_ins":"2.7","pourcent_nuls_ins":"0.68","pourcent_exp_vot":"95.02","votants":"301","pourcent_exp_ins":"64.41","blancs":"12","resultats":[{"pourcent_voix_exp":"36.71","voix":"105","binome":"Mme GENTE-CEAGLIO Hélène et M. GERARD Jacky","pourcent_voix_ins":"23.65","code_nuance":"BC-DVG","numero_panneau":"4"},{"pourcent_voix_exp":"42.66","voix":"122","binome":"Mme BLANC Claire et M. MONTÉCOT Pascal","pourcent_voix_ins":"27.48","code_nuance":"BC-UD","numero_panneau":"2"}],"code":"8","pourcent_nuls_vot":"1","lib":"Aurons","pourcent_blancs_vot":"3.99","nuls":"3","pourcent_vot_ins":"67.79","inscrits":"444","exprimes":"286","pourcent_abs_ins":"32.21"}
,{"abstentions":"285","pourcent_blancs_ins":"1.68","pourcent_nuls_ins":"1.12","pourcent_exp_vot":"95.35","votants":"430","pourcent_exp_ins":"57.34","blancs":"12","resultats":[{"pourcent_voix_exp":"22.44","voix":"92","binome":"Mme GENTE-CEAGLIO Hélène et M. GERARD Jacky","pourcent_voix_ins":"12.87","code_nuance":"BC-DVG","numero_panneau":"4"},{"pourcent_voix_exp":"47.32","voix":"194","binome":"Mme BLANC Claire et M. MONTÉCOT Pascal","pourcent_voix_ins":"27.13","code_nuance":"BC-UD","numero_panneau":"2"}],"code":"9","pourcent_nuls_vot":"1.86","lib":"La Barben","pourcent_blancs_vot":"2.79","nuls":"8","pourcent_vot_ins":"60.14","inscrits":"715","exprimes":"410","pourcent_abs_ins":"39.86"}
,{"abstentions":"781","pourcent_blancs_ins":"1.25","pourcent_nuls_ins":"0.27","pourcent_exp_vot":"97.34","votants":"1053","pourcent_exp_ins":"55.89","blancs":"23","resultats":[{"pourcent_voix_exp":"49.27","voix":"505","binome":"Mme GENTE-CEAGLIO Hélène et M. GERARD Jacky","pourcent_voix_ins":"27.54","code_nuance":"BC-DVG","numero_panneau":"4"},{"pourcent_voix_exp":"24.2","voix":"248","binome":"Mme BLANC Claire et M. MONTÉCOT Pascal","pourcent_voix_ins":"13.52","code_nuance":"BC-UD","numero_panneau":"2"}],"code":"24","pourcent_nuls_vot":"0.47","lib":"Charleval","pourcent_blancs_vot":"2.18","nuls":"5","pourcent_vot_ins":"57.42","inscrits":"1834","exprimes":"1025","pourcent_abs_ins":"42.58"}
,{"abstentions":"3318","pourcent_blancs_ins":"1.2","pourcent_nuls_ins":"0.19","pourcent_exp_vot":"97.23","votants":"3358","pourcent_exp_ins":"48.91","blancs":"80","resultats":[{"pourcent_voix_exp":"30.23","voix":"987","binome":"Mme GENTE-CEAGLIO Hélène et M. GERARD Jacky","pourcent_voix_ins":"14.78","code_nuance":"BC-DVG","numero_panneau":"4"},{"pourcent_voix_exp":"47.11","voix":"1538","binome":"Mme BLANC Claire et M. MONTÉCOT Pascal","pourcent_voix_ins":"23.04","code_nuance":"BC-UD","numero_panneau":"2"}],"code":"32","pourcent_nuls_vot":"0.39","lib":"Eguilles","pourcent_blancs_vot":"2.38","nuls":"13","pourcent_vot_ins":"50.3","inscrits":"6676","exprimes":"3265","pourcent_abs_ins":"49.7"}
,{"abstentions":"3157","pourcent_blancs_ins":"1.16","pourcent_nuls_ins":"0.47","pourcent_exp_vot":"97.18","votants":"4332","pourcent_exp_ins":"56.22","blancs":"87","resultats":[{"pourcent_voix_exp":"44.18","voix":"1860","binome":"Mme GENTE-CEAGLIO Hélène et M. GERARD Jacky","pourcent_voix_ins":"24.84","code_nuance":"BC-DVG","numero_panneau":"4"},{"pourcent_voix_exp":"33.42","voix":"1407","binome":"Mme BLANC Claire et M. MONTÉCOT Pascal","pourcent_voix_ins":"18.79","code_nuance":"BC-UD","numero_panneau":"2"}],"code":"50","pourcent_nuls_vot":"0.81","lib":"Lambesc","pourcent_blancs_vot":"2.01","nuls":"35","pourcent_vot_ins":"57.84","inscrits":"7489","exprimes":"4210","pourcent_abs_ins":"42.16"}
,{"abstentions":"2323","pourcent_blancs_ins":"0.95","pourcent_nuls_ins":"0.38","pourcent_exp_vot":"97.49","votants":"2634","pourcent_exp_ins":"51.81","blancs":"47","resultats":[{"pourcent_voix_exp":"42.72","voix":"1097","binome":"Mme GENTE-CEAGLIO Hélène et M. GERARD Jacky","pourcent_voix_ins":"22.13","code_nuance":"BC-DVG","numero_panneau":"4"},{"pourcent_voix_exp":"27.8","voix":"714","binome":"Mme BLANC Claire et M. MONTÉCOT Pascal","pourcent_voix_ins":"14.4","code_nuance":"BC-UD","numero_panneau":"2"}],"code":"53","pourcent_nuls_vot":"0.72","lib":"Mallemort","pourcent_blancs_vot":"1.78","nuls":"19","pourcent_vot_ins":"53.14","inscrits":"4957","exprimes":"2568","pourcent_abs_ins":"46.86"}
,{"abstentions":"3487","pourcent_blancs_ins":"1.16","pourcent_nuls_ins":"0.47","pourcent_exp_vot":"97.26","votants":"5072","pourcent_exp_ins":"57.64","blancs":"99","resultats":[{"pourcent_voix_exp":"26.58","voix":"1311","binome":"Mme GENTE-CEAGLIO Hélène et M. GERARD Jacky","pourcent_voix_ins":"15.32","code_nuance":"BC-DVG","numero_panneau":"4"},{"pourcent_voix_exp":"52.44","voix":"2587","binome":"Mme BLANC Claire et M. MONTÉCOT Pascal","pourcent_voix_ins":"30.23","code_nuance":"BC-UD","numero_panneau":"2"}],"code":"69","pourcent_nuls_vot":"0.79","lib":"Pélissanne","pourcent_blancs_vot":"1.95","nuls":"40","pourcent_vot_ins":"59.26","inscrits":"8559","exprimes":"4933","pourcent_abs_ins":"40.74"}
,{"abstentions":"1702","pourcent_blancs_ins":"0.86","pourcent_nuls_ins":"0.31","pourcent_exp_vot":"97.89","votants":"2135","pourcent_exp_ins":"54.47","blancs":"33","resultats":[{"pourcent_voix_exp":"43.21","voix":"903","binome":"Mme GENTE-CEAGLIO Hélène et M. GERARD Jacky","pourcent_voix_ins":"23.53","code_nuance":"BC-DVG","numero_panneau":"4"},{"pourcent_voix_exp":"33.3","voix":"696","binome":"Mme BLANC Claire et M. MONTÉCOT Pascal","pourcent_voix_ins":"18.14","code_nuance":"BC-UD","numero_panneau":"2"}],"code":"82","pourcent_nuls_vot":"0.56","lib":"Rognes","pourcent_blancs_vot":"1.55","nuls":"12","pourcent_vot_ins":"55.64","inscrits":"3837","exprimes":"2090","pourcent_abs_ins":"44.36"}
,{"abstentions":"1525","pourcent_blancs_ins":"0.9","pourcent_nuls_ins":"0.64","pourcent_exp_vot":"97.23","votants":"1916","pourcent_exp_ins":"54.14","blancs":"31","resultats":[{"pourcent_voix_exp":"44.98","voix":"838","binome":"Mme GENTE-CEAGLIO Hélène et M. GERARD Jacky","pourcent_voix_ins":"24.35","code_nuance":"BC-DVG","numero_panneau":"4"},{"pourcent_voix_exp":"32.21","voix":"600","binome":"Mme BLANC Claire et M. MONTÉCOT Pascal","pourcent_voix_ins":"17.44","code_nuance":"BC-UD","numero_panneau":"2"}],"code":"84","pourcent_nuls_vot":"1.15","lib":"La Roque-d'Anthéron","pourcent_blancs_vot":"1.62","nuls":"22","pourcent_vot_ins":"55.68","inscrits":"3441","exprimes":"1863","pourcent_abs_ins":"44.32"}
,{"abstentions":"1831","pourcent_blancs_ins":"1.37","pourcent_nuls_ins":"0.42","pourcent_exp_vot":"97.07","votants":"2899","pourcent_exp_ins":"59.49","blancs":"65","resultats":[{"pourcent_voix_exp":"46.48","voix":"1308","binome":"Mme GENTE-CEAGLIO Hélène et M. GERARD Jacky","pourcent_voix_ins":"27.65","code_nuance":"BC-DVG","numero_panneau":"4"},{"pourcent_voix_exp":"33.33","voix":"938","binome":"Mme BLANC Claire et M. MONTÉCOT Pascal","pourcent_voix_ins":"19.83","code_nuance":"BC-UD","numero_panneau":"2"}],"code":"91","pourcent_nuls_vot":"0.69","lib":"Saint-Cannat","pourcent_blancs_vot":"2.24","nuls":"20","pourcent_vot_ins":"61.29","inscrits":"4730","exprimes":"2814","pourcent_abs_ins":"38.71"}
,{"abstentions":"99","pourcent_blancs_ins":"1.22","pourcent_nuls_ins":"0.41","pourcent_exp_vot":"97.26","votants":"146","pourcent_exp_ins":"57.96","blancs":"3","resultats":[{"pourcent_voix_exp":"43.66","voix":"62","binome":"Mme GENTE-CEAGLIO Hélène et M. GERARD Jacky","pourcent_voix_ins":"25.31","code_nuance":"BC-DVG","numero_panneau":"4"},{"pourcent_voix_exp":"33.1","voix":"47","binome":"Mme BLANC Claire et M. MONTÉCOT Pascal","pourcent_voix_ins":"19.18","code_nuance":"BC-UD","numero_panneau":"2"}],"code":"93","pourcent_nuls_vot":"0.68","lib":"Saint-Estève-Janson","pourcent_blancs_vot":"2.05","nuls":"1","pourcent_vot_ins":"59.59","inscrits":"245","exprimes":"142","pourcent_abs_ins":"40.41"}
,{"abstentions":"589","pourcent_blancs_ins":"1.01","pourcent_nuls_ins":"0.78","pourcent_exp_vot":"96.69","votants":"694","pourcent_exp_ins":"52.3","blancs":"13","resultats":[{"pourcent_voix_exp":"38","voix":"255","binome":"Mme GENTE-CEAGLIO Hélène et M. GERARD Jacky","pourcent_voix_ins":"19.88","code_nuance":"BC-DVG","numero_panneau":"4"},{"pourcent_voix_exp":"31.15","voix":"209","binome":"Mme BLANC Claire et M. MONTÉCOT Pascal","pourcent_voix_ins":"16.29","code_nuance":"BC-UD","numero_panneau":"2"}],"code":"115","pourcent_nuls_vot":"1.44","lib":"Vernègues","pourcent_blancs_vot":"1.87","nuls":"10","pourcent_vot_ins":"54.09","inscrits":"1283","exprimes":"671","pourcent_abs_ins":"45.91"}
,{"abstentions":"471","pourcent_blancs_ins":"7.59","pourcent_nuls_ins":"2.26","pourcent_exp_vot":"84.09","votants":"767","pourcent_exp_ins":"52.1","blancs":"94","resultats":[{"pourcent_voix_exp":"55.66","voix":"359","binome":"Mme CALLET Marie-Pierre et M. PONS Henri","pourcent_voix_ins":"29","code_nuance":"BC-UD","numero_panneau":"4"},{"pourcent_voix_exp":"44.34","voix":"286","binome":"Mme BUISSON Gisèle et M. DELCROIX José","pourcent_voix_ins":"23.1","code_nuance":"BC-FN","numero_panneau":"6"}],"code":"6","pourcent_nuls_vot":"3.65","lib":"Aureille","pourcent_blancs_vot":"12.26","nuls":"28","pourcent_vot_ins":"61.95","inscrits":"1238","exprimes":"645","pourcent_abs_ins":"38.05"}
,{"abstentions":"181","pourcent_blancs_ins":"3.37","pourcent_nuls_ins":"2.85","pourcent_exp_vot":"88.29","votants":"205","pourcent_exp_ins":"46.89","blancs":"13","resultats":[{"pourcent_voix_exp":"70.17","voix":"127","binome":"Mme CALLET Marie-Pierre et M. PONS Henri","pourcent_voix_ins":"32.9","code_nuance":"BC-UD","numero_panneau":"4"},{"pourcent_voix_exp":"29.83","voix":"54","binome":"Mme BUISSON Gisèle et M. DELCROIX José","pourcent_voix_ins":"13.99","code_nuance":"BC-FN","numero_panneau":"6"}],"code":"11","pourcent_nuls_vot":"5.37","lib":"Les Baux-de-Provence","pourcent_blancs_vot":"6.34","nuls":"11","pourcent_vot_ins":"53.11","inscrits":"386","exprimes":"181","pourcent_abs_ins":"46.89"}
,{"abstentions":"632","pourcent_blancs_ins":"3.53","pourcent_nuls_ins":"1.48","pourcent_exp_vot":"91.57","votants":"925","pourcent_exp_ins":"54.4","blancs":"55","resultats":[{"pourcent_voix_exp":"63.64","voix":"539","binome":"Mme CALLET Marie-Pierre et M. PONS Henri","pourcent_voix_ins":"34.62","code_nuance":"BC-UD","numero_panneau":"4"},{"pourcent_voix_exp":"36.36","voix":"308","binome":"Mme BUISSON Gisèle et M. DELCROIX José","pourcent_voix_ins":"19.78","code_nuance":"BC-FN","numero_panneau":"6"}],"code":"34","pourcent_nuls_vot":"2.49","lib":"Eygalières","pourcent_blancs_vot":"5.95","nuls":"23","pourcent_vot_ins":"59.41","inscrits":"1557","exprimes":"847","pourcent_abs_ins":"40.59"}
,{"abstentions":"2413","pourcent_blancs_ins":"2.65","pourcent_nuls_ins":"1.13","pourcent_exp_vot":"93.56","votants":"3433","pourcent_exp_ins":"54.94","blancs":"155","resultats":[{"pourcent_voix_exp":"67.28","voix":"2161","binome":"Mme CALLET Marie-Pierre et M. PONS Henri","pourcent_voix_ins":"36.97","code_nuance":"BC-UD","numero_panneau":"4"},{"pourcent_voix_exp":"32.72","voix":"1051","binome":"Mme BUISSON Gisèle et M. DELCROIX José","pourcent_voix_ins":"17.98","code_nuance":"BC-FN","numero_panneau":"6"}],"code":"35","pourcent_nuls_vot":"1.92","lib":"Eyguières","pourcent_blancs_vot":"4.52","nuls":"66","pourcent_vot_ins":"58.72","inscrits":"5846","exprimes":"3212","pourcent_abs_ins":"41.28"}
,{"abstentions":"1298","pourcent_blancs_ins":"4.13","pourcent_nuls_ins":"1.45","pourcent_exp_vot":"90.57","votants":"1876","pourcent_exp_ins":"53.53","blancs":"131","resultats":[{"pourcent_voix_exp":"61.57","voix":"1046","binome":"Mme CALLET Marie-Pierre et M. PONS Henri","pourcent_voix_ins":"32.96","code_nuance":"BC-UD","numero_panneau":"4"},{"pourcent_voix_exp":"38.43","voix":"653","binome":"Mme BUISSON Gisèle et M. DELCROIX José","pourcent_voix_ins":"20.57","code_nuance":"BC-FN","numero_panneau":"6"}],"code":"38","pourcent_nuls_vot":"2.45","lib":"Fontvieille","pourcent_blancs_vot":"6.98","nuls":"46","pourcent_vot_ins":"59.11","inscrits":"3174","exprimes":"1699","pourcent_abs_ins":"40.89"}
,{"abstentions":"619","pourcent_blancs_ins":"3.95","pourcent_nuls_ins":"1.94","pourcent_exp_vot":"90.15","votants":"924","pourcent_exp_ins":"53.99","blancs":"61","resultats":[{"pourcent_voix_exp":"56.66","voix":"472","binome":"Mme CALLET Marie-Pierre et M. PONS Henri","pourcent_voix_ins":"30.59","code_nuance":"BC-UD","numero_panneau":"4"},{"pourcent_voix_exp":"43.34","voix":"361","binome":"Mme BUISSON Gisèle et M. DELCROIX José","pourcent_voix_ins":"23.4","code_nuance":"BC-FN","numero_panneau":"6"}],"code":"49","pourcent_nuls_vot":"3.25","lib":"Lamanon","pourcent_blancs_vot":"6.6","nuls":"30","pourcent_vot_ins":"59.88","inscrits":"1543","exprimes":"833","pourcent_abs_ins":"40.12"}
,{"abstentions":"175","pourcent_blancs_ins":"3.96","pourcent_nuls_ins":"1.73","pourcent_exp_vot":"89.96","votants":"229","pourcent_exp_ins":"50.99","blancs":"16","resultats":[{"pourcent_voix_exp":"59.71","voix":"123","binome":"Mme CALLET Marie-Pierre et M. PONS Henri","pourcent_voix_ins":"30.45","code_nuance":"BC-UD","numero_panneau":"4"},{"pourcent_voix_exp":"40.29","voix":"83","binome":"Mme BUISSON Gisèle et M. DELCROIX José","pourcent_voix_ins":"20.54","code_nuance":"BC-FN","numero_panneau":"6"}],"code":"57","pourcent_nuls_vot":"3.06","lib":"Mas-Blanc-des-Alpilles","pourcent_blancs_vot":"6.99","nuls":"7","pourcent_vot_ins":"56.68","inscrits":"404","exprimes":"206","pourcent_abs_ins":"43.32"}
,{"abstentions":"674","pourcent_blancs_ins":"3.99","pourcent_nuls_ins":"1.46","pourcent_exp_vot":"91.23","votants":"1106","pourcent_exp_ins":"56.69","blancs":"71","resultats":[{"pourcent_voix_exp":"74.23","voix":"749","binome":"Mme CALLET Marie-Pierre et M. PONS Henri","pourcent_voix_ins":"42.08","code_nuance":"BC-UD","numero_panneau":"4"},{"pourcent_voix_exp":"25.77","voix":"260","binome":"Mme BUISSON Gisèle et M. DELCROIX José","pourcent_voix_ins":"14.61","code_nuance":"BC-FN","numero_panneau":"6"}],"code":"58","pourcent_nuls_vot":"2.35","lib":"Maussane-les-Alpilles","pourcent_blancs_vot":"6.42","nuls":"26","pourcent_vot_ins":"62.13","inscrits":"1780","exprimes":"1009","pourcent_abs_ins":"37.87"}
,{"abstentions":"1150","pourcent_blancs_ins":"4.84","pourcent_nuls_ins":"2.49","pourcent_exp_vot":"87.32","votants":"1577","pourcent_exp_ins":"50.5","blancs":"132","resultats":[{"pourcent_voix_exp":"52.07","voix":"717","binome":"Mme CALLET Marie-Pierre et M. PONS Henri","pourcent_voix_ins":"26.29","code_nuance":"BC-UD","numero_panneau":"4"},{"pourcent_voix_exp":"47.93","voix":"660","binome":"Mme BUISSON Gisèle et M. DELCROIX José","pourcent_voix_ins":"24.2","code_nuance":"BC-FN","numero_panneau":"6"}],"code":"65","pourcent_nuls_vot":"4.31","lib":"Mouriès","pourcent_blancs_vot":"8.37","nuls":"68","pourcent_vot_ins":"57.83","inscrits":"2727","exprimes":"1377","pourcent_abs_ins":"42.17"}
,{"abstentions":"1065","pourcent_blancs_ins":"3.25","pourcent_nuls_ins":"1.41","pourcent_exp_vot":"90.36","votants":"996","pourcent_exp_ins":"43.67","blancs":"67","resultats":[{"pourcent_voix_exp":"51.56","voix":"464","binome":"Mme CALLET Marie-Pierre et M. PONS Henri","pourcent_voix_ins":"22.51","code_nuance":"BC-UD","numero_panneau":"4"},{"pourcent_voix_exp":"48.44","voix":"436","binome":"Mme BUISSON Gisèle et M. DELCROIX José","pourcent_voix_ins":"21.15","code_nuance":"BC-FN","numero_panneau":"6"}],"code":"67","pourcent_nuls_vot":"2.91","lib":"Orgon","pourcent_blancs_vot":"6.73","nuls":"29","pourcent_vot_ins":"48.33","inscrits":"2061","exprimes":"900","pourcent_abs_ins":"51.67"}
,{"abstentions":"680","pourcent_blancs_ins":"4.37","pourcent_nuls_ins":"1.15","pourcent_exp_vot":"89.26","votants":"717","pourcent_exp_ins":"45.81","blancs":"61","resultats":[{"pourcent_voix_exp":"67.34","voix":"431","binome":"Mme CALLET Marie-Pierre et M. PONS Henri","pourcent_voix_ins":"30.85","code_nuance":"BC-UD","numero_panneau":"4"},{"pourcent_voix_exp":"32.66","voix":"209","binome":"Mme BUISSON Gisèle et M. DELCROIX José","pourcent_voix_ins":"14.96","code_nuance":"BC-FN","numero_panneau":"6"}],"code":"68","pourcent_nuls_vot":"2.23","lib":"Paradou","pourcent_blancs_vot":"8.51","nuls":"16","pourcent_vot_ins":"51.32","inscrits":"1397","exprimes":"640","pourcent_abs_ins":"48.68"}
,{"abstentions":"770","pourcent_blancs_ins":"3.07","pourcent_nuls_ins":"1.3","pourcent_exp_vot":"92.7","votants":"1151","pourcent_exp_ins":"55.54","blancs":"59","resultats":[{"pourcent_voix_exp":"58.58","voix":"625","binome":"Mme CALLET Marie-Pierre et M. PONS Henri","pourcent_voix_ins":"32.54","code_nuance":"BC-UD","numero_panneau":"4"},{"pourcent_voix_exp":"41.42","voix":"442","binome":"Mme BUISSON Gisèle et M. DELCROIX José","pourcent_voix_ins":"23.01","code_nuance":"BC-FN","numero_panneau":"6"}],"code":"94","pourcent_nuls_vot":"2.17","lib":"Saint-Etienne-du-Grès","pourcent_blancs_vot":"5.13","nuls":"25","pourcent_vot_ins":"59.92","inscrits":"1921","exprimes":"1067","pourcent_abs_ins":"40.08"}
,{"abstentions":"3827","pourcent_blancs_ins":"4.73","pourcent_nuls_ins":"4.13","pourcent_exp_vot":"83.93","votants":"4697","pourcent_exp_ins":"46.25","blancs":"403","resultats":[{"pourcent_voix_exp":"61.19","voix":"2412","binome":"Mme CALLET Marie-Pierre et M. PONS Henri","pourcent_voix_ins":"28.3","code_nuance":"BC-UD","numero_panneau":"4"},{"pourcent_voix_exp":"38.81","voix":"1530","binome":"Mme BUISSON Gisèle et M. DELCROIX José","pourcent_voix_ins":"17.95","code_nuance":"BC-FN","numero_panneau":"6"}],"code":"100","pourcent_nuls_vot":"7.49","lib":"Saint-Rémy-de-Provence","pourcent_blancs_vot":"8.58","nuls":"352","pourcent_vot_ins":"55.1","inscrits":"8524","exprimes":"3942","pourcent_abs_ins":"44.9"}
,{"abstentions":"6444","pourcent_blancs_ins":"2.61","pourcent_nuls_ins":"1.76","pourcent_exp_vot":"91.71","votants":"7178","pourcent_exp_ins":"48.33","blancs":"355","resultats":[{"pourcent_voix_exp":"63.71","voix":"4194","binome":"Mme CALLET Marie-Pierre et M. PONS Henri","pourcent_voix_ins":"30.79","code_nuance":"BC-UD","numero_panneau":"4"},{"pourcent_voix_exp":"36.29","voix":"2389","binome":"Mme BUISSON Gisèle et M. DELCROIX José","pourcent_voix_ins":"17.54","code_nuance":"BC-FN","numero_panneau":"6"}],"code":"103","pourcent_nuls_vot":"3.34","lib":"Salon-de-Provence","pourcent_blancs_vot":"4.95","nuls":"240","pourcent_vot_ins":"52.69","inscrits":"13622","exprimes":"6583","pourcent_abs_ins":"47.31"}
,{"abstentions":"2086","pourcent_blancs_ins":"2.85","pourcent_nuls_ins":"1.23","pourcent_exp_vot":"92.68","votants":"2624","pourcent_exp_ins":"51.63","blancs":"134","resultats":[{"pourcent_voix_exp":"50.45","voix":"1227","binome":"Mme CALLET Marie-Pierre et M. PONS Henri","pourcent_voix_ins":"26.05","code_nuance":"BC-UD","numero_panneau":"4"},{"pourcent_voix_exp":"49.55","voix":"1205","binome":"Mme BUISSON Gisèle et M. DELCROIX José","pourcent_voix_ins":"25.58","code_nuance":"BC-FN","numero_panneau":"6"}],"code":"105","pourcent_nuls_vot":"2.21","lib":"Sénas","pourcent_blancs_vot":"5.11","nuls":"58","pourcent_vot_ins":"55.71","inscrits":"4710","exprimes":"2432","pourcent_abs_ins":"44.29"}
,{"abstentions":"1593","pourcent_blancs_ins":"2.71","pourcent_nuls_ins":"2.16","pourcent_exp_vot":"91.74","votants":"2288","pourcent_exp_ins":"54.08","blancs":"105","resultats":[{"pourcent_voix_exp":"58.46","voix":"1227","binome":"Mme AMSELEM Martine et M. VIGOUROUX Frédéric","pourcent_voix_ins":"31.62","code_nuance":"BC-UG","numero_panneau":"3"},{"pourcent_voix_exp":"41.54","voix":"872","binome":"M. ADAM Philippe et Mme ESPALLARDO Béatrix","pourcent_voix_ins":"22.47","code_nuance":"BC-FN","numero_panneau":"1"}],"code":"44","pourcent_nuls_vot":"3.67","lib":"Grans","pourcent_blancs_vot":"4.59","nuls":"84","pourcent_vot_ins":"58.95","inscrits":"3881","exprimes":"2099","pourcent_abs_ins":"41.05"}
,{"abstentions":"7072","pourcent_blancs_ins":"1.5","pourcent_nuls_ins":"1.09","pourcent_exp_vot":"95.39","votants":"9084","pourcent_exp_ins":"53.63","blancs":"243","resultats":[{"pourcent_voix_exp":"56.39","voix":"4886","binome":"Mme AMSELEM Martine et M. VIGOUROUX Frédéric","pourcent_voix_ins":"30.24","code_nuance":"BC-UG","numero_panneau":"3"},{"pourcent_voix_exp":"43.61","voix":"3779","binome":"M. ADAM Philippe et Mme ESPALLARDO Béatrix","pourcent_voix_ins":"23.39","code_nuance":"BC-FN","numero_panneau":"1"}],"code":"63","pourcent_nuls_vot":"1.94","lib":"Miramas","pourcent_blancs_vot":"2.68","nuls":"176","pourcent_vot_ins":"56.23","inscrits":"16156","exprimes":"8665","pourcent_abs_ins":"43.77"}
,{"abstentions":"3886","pourcent_blancs_ins":"2.85","pourcent_nuls_ins":"1.32","pourcent_exp_vot":"92.84","votants":"5434","pourcent_exp_ins":"54.13","blancs":"266","resultats":[{"pourcent_voix_exp":"53.16","voix":"2682","binome":"Mme AMSELEM Martine et M. VIGOUROUX Frédéric","pourcent_voix_ins":"28.78","code_nuance":"BC-UG","numero_panneau":"3"},{"pourcent_voix_exp":"46.84","voix":"2363","binome":"M. ADAM Philippe et Mme ESPALLARDO Béatrix","pourcent_voix_ins":"25.35","code_nuance":"BC-FN","numero_panneau":"1"}],"code":"97","pourcent_nuls_vot":"2.26","lib":"Saint-Martin-de-Crau","pourcent_blancs_vot":"4.9","nuls":"123","pourcent_vot_ins":"58.3","inscrits":"9320","exprimes":"5045","pourcent_abs_ins":"41.7"}
,{"abstentions":"8217","pourcent_blancs_ins":"3.7","pourcent_nuls_ins":"1.7","pourcent_exp_vot":"89.4","votants":"8527","pourcent_exp_ins":"45.53","blancs":"620","resultats":[{"pourcent_voix_exp":"48.52","voix":"3699","binome":"Mme AMSELEM Martine et M. VIGOUROUX Frédéric","pourcent_voix_ins":"22.09","code_nuance":"BC-UG","numero_panneau":"3"},{"pourcent_voix_exp":"51.48","voix":"3924","binome":"M. ADAM Philippe et Mme ESPALLARDO Béatrix","pourcent_voix_ins":"23.44","code_nuance":"BC-FN","numero_panneau":"1"}],"code":"103","pourcent_nuls_vot":"3.33","lib":"Salon-de-Provence","pourcent_blancs_vot":"7.27","nuls":"284","pourcent_vot_ins":"50.93","inscrits":"16744","exprimes":"7623","pourcent_abs_ins":"49.07"}
,{"abstentions":"192","pourcent_blancs_ins":"4.92","pourcent_nuls_ins":"0","pourcent_exp_vot":"91.37","votants":"255","pourcent_exp_ins":"52.13","blancs":"22","resultats":[{"pourcent_voix_exp":"75.97","voix":"177","binome":"M. FERAUD Jean-Claude et Mme SAEZ Patricia","pourcent_voix_ins":"39.6","code_nuance":"BC-UD","numero_panneau":"1"},{"pourcent_voix_exp":"24.03","voix":"56","binome":"Mme GRECH Emilie et M. MOUSSET Jean Alexandre","pourcent_voix_ins":"12.53","code_nuance":"BC-FN","numero_panneau":"3"}],"code":"12","pourcent_nuls_vot":"0","lib":"Beaurecueil","pourcent_blancs_vot":"8.63","nuls":"0","pourcent_vot_ins":"57.05","inscrits":"447","exprimes":"233","pourcent_abs_ins":"42.95"}
,{"abstentions":"900","pourcent_blancs_ins":"2.15","pourcent_nuls_ins":"3.31","pourcent_exp_vot":"89.14","votants":"912","pourcent_exp_ins":"44.87","blancs":"39","resultats":[{"pourcent_voix_exp":"70.85","voix":"576","binome":"M. FERAUD Jean-Claude et Mme SAEZ Patricia","pourcent_voix_ins":"31.79","code_nuance":"BC-UD","numero_panneau":"1"},{"pourcent_voix_exp":"29.15","voix":"237","binome":"Mme GRECH Emilie et M. MOUSSET Jean Alexandre","pourcent_voix_ins":"13.08","code_nuance":"BC-FN","numero_panneau":"3"}],"code":"25","pourcent_nuls_vot":"6.58","lib":"Châteauneuf-le-Rouge","pourcent_blancs_vot":"4.28","nuls":"60","pourcent_vot_ins":"50.33","inscrits":"1812","exprimes":"813","pourcent_abs_ins":"49.67"}
,{"abstentions":"3551","pourcent_blancs_ins":"3.51","pourcent_nuls_ins":"1.29","pourcent_exp_vot":"90.51","votants":"3634","pourcent_exp_ins":"45.78","blancs":"252","resultats":[{"pourcent_voix_exp":"64.79","voix":"2131","binome":"M. FERAUD Jean-Claude et Mme SAEZ Patricia","pourcent_voix_ins":"29.66","code_nuance":"BC-UD","numero_panneau":"1"},{"pourcent_voix_exp":"35.21","voix":"1158","binome":"Mme GRECH Emilie et M. MOUSSET Jean Alexandre","pourcent_voix_ins":"16.12","code_nuance":"BC-FN","numero_panneau":"3"}],"code":"40","pourcent_nuls_vot":"2.56","lib":"Fuveau","pourcent_blancs_vot":"6.93","nuls":"93","pourcent_vot_ins":"50.58","inscrits":"7185","exprimes":"3289","pourcent_abs_ins":"49.42"}
,{"abstentions":"1876","pourcent_blancs_ins":"0.64","pourcent_nuls_ins":"4.46","pourcent_exp_vot":"89.76","votants":"1866","pourcent_exp_ins":"44.76","blancs":"24","resultats":[{"pourcent_voix_exp":"55.16","voix":"924","binome":"M. FERAUD Jean-Claude et Mme SAEZ Patricia","pourcent_voix_ins":"24.69","code_nuance":"BC-UD","numero_panneau":"1"},{"pourcent_voix_exp":"44.84","voix":"751","binome":"Mme GRECH Emilie et M. MOUSSET Jean Alexandre","pourcent_voix_ins":"20.07","code_nuance":"BC-FN","numero_panneau":"3"}],"code":"48","pourcent_nuls_vot":"8.95","lib":"Jouques","pourcent_blancs_vot":"1.29","nuls":"167","pourcent_vot_ins":"49.87","inscrits":"3742","exprimes":"1675","pourcent_abs_ins":"50.13"}
,{"abstentions":"1471","pourcent_blancs_ins":"4.21","pourcent_nuls_ins":"0.93","pourcent_exp_vot":"89.57","votants":"1428","pourcent_exp_ins":"44.12","blancs":"122","resultats":[{"pourcent_voix_exp":"60.2","voix":"770","binome":"M. FERAUD Jean-Claude et Mme SAEZ Patricia","pourcent_voix_ins":"26.56","code_nuance":"BC-UD","numero_panneau":"1"},{"pourcent_voix_exp":"39.8","voix":"509","binome":"Mme GRECH Emilie et M. MOUSSET Jean Alexandre","pourcent_voix_ins":"17.56","code_nuance":"BC-FN","numero_panneau":"3"}],"code":"59","pourcent_nuls_vot":"1.89","lib":"Meyrargues","pourcent_blancs_vot":"8.54","nuls":"27","pourcent_vot_ins":"49.26","inscrits":"2899","exprimes":"1279","pourcent_abs_ins":"50.74"}
,{"abstentions":"2180","pourcent_blancs_ins":"2.71","pourcent_nuls_ins":"1.55","pourcent_exp_vot":"91.38","votants":"2135","pourcent_exp_ins":"45.21","blancs":"117","resultats":[{"pourcent_voix_exp":"53.82","voix":"1050","binome":"M. FERAUD Jean-Claude et Mme SAEZ Patricia","pourcent_voix_ins":"24.33","code_nuance":"BC-UD","numero_panneau":"1"},{"pourcent_voix_exp":"46.18","voix":"901","binome":"Mme GRECH Emilie et M. MOUSSET Jean Alexandre","pourcent_voix_ins":"20.88","code_nuance":"BC-FN","numero_panneau":"3"}],"code":"60","pourcent_nuls_vot":"3.14","lib":"Meyreuil","pourcent_blancs_vot":"5.48","nuls":"67","pourcent_vot_ins":"49.48","inscrits":"4315","exprimes":"1951","pourcent_abs_ins":"50.52"}
,{"abstentions":"1192","pourcent_blancs_ins":"4.39","pourcent_nuls_ins":"2.18","pourcent_exp_vot":"87.56","votants":"1334","pourcent_exp_ins":"46.24","blancs":"111","resultats":[{"pourcent_voix_exp":"63.53","voix":"742","binome":"M. FERAUD Jean-Claude et Mme SAEZ Patricia","pourcent_voix_ins":"29.37","code_nuance":"BC-UD","numero_panneau":"1"},{"pourcent_voix_exp":"36.47","voix":"426","binome":"Mme GRECH Emilie et M. MOUSSET Jean Alexandre","pourcent_voix_ins":"16.86","code_nuance":"BC-FN","numero_panneau":"3"}],"code":"72","pourcent_nuls_vot":"4.12","lib":"Peynier","pourcent_blancs_vot":"8.32","nuls":"55","pourcent_vot_ins":"52.81","inscrits":"2526","exprimes":"1168","pourcent_abs_ins":"47.19"}
,{"abstentions":"1829","pourcent_blancs_ins":"2.45","pourcent_nuls_ins":"1.2","pourcent_exp_vot":"92.55","votants":"1759","pourcent_exp_ins":"45.37","blancs":"88","resultats":[{"pourcent_voix_exp":"60.75","voix":"989","binome":"M. FERAUD Jean-Claude et Mme SAEZ Patricia","pourcent_voix_ins":"27.56","code_nuance":"BC-UD","numero_panneau":"1"},{"pourcent_voix_exp":"39.25","voix":"639","binome":"Mme GRECH Emilie et M. MOUSSET Jean Alexandre","pourcent_voix_ins":"17.81","code_nuance":"BC-FN","numero_panneau":"3"}],"code":"74","pourcent_nuls_vot":"2.44","lib":"Peyrolles-en-Provence","pourcent_blancs_vot":"5","nuls":"43","pourcent_vot_ins":"49.02","inscrits":"3588","exprimes":"1628","pourcent_abs_ins":"50.98"}
,{"abstentions":"512","pourcent_blancs_ins":"5.74","pourcent_nuls_ins":"1.6","pourcent_exp_vot":"87.07","votants":"673","pourcent_exp_ins":"49.45","blancs":"68","resultats":[{"pourcent_voix_exp":"62.46","voix":"366","binome":"M. FERAUD Jean-Claude et Mme SAEZ Patricia","pourcent_voix_ins":"30.89","code_nuance":"BC-UD","numero_panneau":"1"},{"pourcent_voix_exp":"37.54","voix":"220","binome":"Mme GRECH Emilie et M. MOUSSET Jean Alexandre","pourcent_voix_ins":"18.57","code_nuance":"BC-FN","numero_panneau":"3"}],"code":"79","pourcent_nuls_vot":"2.82","lib":"Puyloubier","pourcent_blancs_vot":"10.1","nuls":"19","pourcent_vot_ins":"56.79","inscrits":"1185","exprimes":"586","pourcent_abs_ins":"43.21"}
,{"abstentions":"2099","pourcent_blancs_ins":"5.3","pourcent_nuls_ins":"1.64","pourcent_exp_vot":"86.39","votants":"2182","pourcent_exp_ins":"44.03","blancs":"227","resultats":[{"pourcent_voix_exp":"62.02","voix":"1169","binome":"M. FERAUD Jean-Claude et Mme SAEZ Patricia","pourcent_voix_ins":"27.31","code_nuance":"BC-UD","numero_panneau":"1"},{"pourcent_voix_exp":"37.98","voix":"716","binome":"Mme GRECH Emilie et M. MOUSSET Jean Alexandre","pourcent_voix_ins":"16.73","code_nuance":"BC-FN","numero_panneau":"3"}],"code":"80","pourcent_nuls_vot":"3.21","lib":"Le Puy-Sainte-Réparade","pourcent_blancs_vot":"10.4","nuls":"70","pourcent_vot_ins":"50.97","inscrits":"4281","exprimes":"1885","pourcent_abs_ins":"49.03"}
,{"abstentions":"1653","pourcent_blancs_ins":"6.95","pourcent_nuls_ins":"2.21","pourcent_exp_vot":"82.73","votants":"1870","pourcent_exp_ins":"43.91","blancs":"245","resultats":[{"pourcent_voix_exp":"64.64","voix":"1000","binome":"M. FERAUD Jean-Claude et Mme SAEZ Patricia","pourcent_voix_ins":"28.38","code_nuance":"BC-UD","numero_panneau":"1"},{"pourcent_voix_exp":"35.36","voix":"547","binome":"Mme GRECH Emilie et M. MOUSSET Jean Alexandre","pourcent_voix_ins":"15.53","code_nuance":"BC-FN","numero_panneau":"3"}],"code":"87","pourcent_nuls_vot":"4.17","lib":"Rousset","pourcent_blancs_vot":"13.1","nuls":"78","pourcent_vot_ins":"53.08","inscrits":"3523","exprimes":"1547","pourcent_abs_ins":"46.92"}
,{"abstentions":"56","pourcent_blancs_ins":"7.35","pourcent_nuls_ins":"1.47","pourcent_exp_vot":"85","votants":"80","pourcent_exp_ins":"50","blancs":"10","resultats":[{"pourcent_voix_exp":"77.94","voix":"53","binome":"M. FERAUD Jean-Claude et Mme SAEZ Patricia","pourcent_voix_ins":"38.97","code_nuance":"BC-UD","numero_panneau":"1"},{"pourcent_voix_exp":"22.06","voix":"15","binome":"Mme GRECH Emilie et M. MOUSSET Jean Alexandre","pourcent_voix_ins":"11.03","code_nuance":"BC-FN","numero_panneau":"3"}],"code":"90","pourcent_nuls_vot":"2.5","lib":"Saint-Antonin-sur-Bayon","pourcent_blancs_vot":"12.5","nuls":"2","pourcent_vot_ins":"58.82","inscrits":"136","exprimes":"68","pourcent_abs_ins":"41.18"}
,{"abstentions":"411","pourcent_blancs_ins":"4.18","pourcent_nuls_ins":"1.39","pourcent_exp_vot":"90.02","votants":"521","pourcent_exp_ins":"50.32","blancs":"39","resultats":[{"pourcent_voix_exp":"79.74","voix":"374","binome":"M. FERAUD Jean-Claude et Mme SAEZ Patricia","pourcent_voix_ins":"40.13","code_nuance":"BC-UD","numero_panneau":"1"},{"pourcent_voix_exp":"20.26","voix":"95","binome":"Mme GRECH Emilie et M. MOUSSET Jean Alexandre","pourcent_voix_ins":"10.19","code_nuance":"BC-FN","numero_panneau":"3"}],"code":"95","pourcent_nuls_vot":"2.5","lib":"Saint-Marc-Jaumegarde","pourcent_blancs_vot":"7.49","nuls":"13","pourcent_vot_ins":"55.9","inscrits":"932","exprimes":"469","pourcent_abs_ins":"44.1"}
,{"abstentions":"272","pourcent_blancs_ins":"5.96","pourcent_nuls_ins":"0","pourcent_exp_vot":"90.14","votants":"416","pourcent_exp_ins":"54.51","blancs":"41","resultats":[{"pourcent_voix_exp":"47.73","voix":"179","binome":"M. FERAUD Jean-Claude et Mme SAEZ Patricia","pourcent_voix_ins":"26.02","code_nuance":"BC-UD","numero_panneau":"1"},{"pourcent_voix_exp":"52.27","voix":"196","binome":"Mme GRECH Emilie et M. MOUSSET Jean Alexandre","pourcent_voix_ins":"28.49","code_nuance":"BC-FN","numero_panneau":"3"}],"code":"99","pourcent_nuls_vot":"0","lib":"Saint-Paul-lès-Durance","pourcent_blancs_vot":"9.86","nuls":"0","pourcent_vot_ins":"60.47","inscrits":"688","exprimes":"375","pourcent_abs_ins":"39.53"}
,{"abstentions":"1094","pourcent_blancs_ins":"2.49","pourcent_nuls_ins":"0.76","pourcent_exp_vot":"92.64","votants":"870","pourcent_exp_ins":"41.04","blancs":"49","resultats":[{"pourcent_voix_exp":"75.19","voix":"606","binome":"M. FERAUD Jean-Claude et Mme SAEZ Patricia","pourcent_voix_ins":"30.86","code_nuance":"BC-UD","numero_panneau":"1"},{"pourcent_voix_exp":"24.81","voix":"200","binome":"Mme GRECH Emilie et M. MOUSSET Jean Alexandre","pourcent_voix_ins":"10.18","code_nuance":"BC-FN","numero_panneau":"3"}],"code":"109","pourcent_nuls_vot":"1.72","lib":"Le Tholonet","pourcent_blancs_vot":"5.63","nuls":"15","pourcent_vot_ins":"44.3","inscrits":"1964","exprimes":"806","pourcent_abs_ins":"55.7"}
,{"abstentions":"3758","pourcent_blancs_ins":"4.02","pourcent_nuls_ins":"1.63","pourcent_exp_vot":"89.49","votants":"4377","pourcent_exp_ins":"48.15","blancs":"327","resultats":[{"pourcent_voix_exp":"61.32","voix":"2402","binome":"M. FERAUD Jean-Claude et Mme SAEZ Patricia","pourcent_voix_ins":"29.53","code_nuance":"BC-UD","numero_panneau":"1"},{"pourcent_voix_exp":"38.68","voix":"1515","binome":"Mme GRECH Emilie et M. MOUSSET Jean Alexandre","pourcent_voix_ins":"18.62","code_nuance":"BC-FN","numero_panneau":"3"}],"code":"110","pourcent_nuls_vot":"3.04","lib":"Trets","pourcent_blancs_vot":"7.47","nuls":"133","pourcent_vot_ins":"53.8","inscrits":"8135","exprimes":"3917","pourcent_abs_ins":"46.2"}
,{"abstentions":"300","pourcent_blancs_ins":"7.87","pourcent_nuls_ins":"2","pourcent_exp_vot":"82.71","votants":"399","pourcent_exp_ins":"47.21","blancs":"55","resultats":[{"pourcent_voix_exp":"66.97","voix":"221","binome":"M. FERAUD Jean-Claude et Mme SAEZ Patricia","pourcent_voix_ins":"31.62","code_nuance":"BC-UD","numero_panneau":"1"},{"pourcent_voix_exp":"33.03","voix":"109","binome":"Mme GRECH Emilie et M. MOUSSET Jean Alexandre","pourcent_voix_ins":"15.59","code_nuance":"BC-FN","numero_panneau":"3"}],"code":"111","pourcent_nuls_vot":"3.51","lib":"Vauvenargues","pourcent_blancs_vot":"13.78","nuls":"14","pourcent_vot_ins":"57.08","inscrits":"699","exprimes":"330","pourcent_abs_ins":"42.92"}
,{"abstentions":"3275","pourcent_blancs_ins":"5","pourcent_nuls_ins":"1.51","pourcent_exp_vot":"87.87","votants":"3801","pourcent_exp_ins":"47.2","blancs":"354","resultats":[{"pourcent_voix_exp":"69.55","voix":"2323","binome":"M. FERAUD Jean-Claude et Mme SAEZ Patricia","pourcent_voix_ins":"32.83","code_nuance":"BC-UD","numero_panneau":"1"},{"pourcent_voix_exp":"30.45","voix":"1017","binome":"Mme GRECH Emilie et M. MOUSSET Jean Alexandre","pourcent_voix_ins":"14.37","code_nuance":"BC-FN","numero_panneau":"3"}],"code":"113","pourcent_nuls_vot":"2.82","lib":"Venelles","pourcent_blancs_vot":"9.31","nuls":"107","pourcent_vot_ins":"53.72","inscrits":"7076","exprimes":"3340","pourcent_abs_ins":"46.28"}
,{"abstentions":"5448","pourcent_blancs_ins":"2.72","pourcent_nuls_ins":"1.45","pourcent_exp_vot":"92.24","votants":"6340","pourcent_exp_ins":"49.61","blancs":"321","resultats":[{"pourcent_voix_exp":"72.32","voix":"4229","binome":"Mme DALBIN Sandra et M. MALLIE Richard","pourcent_voix_ins":"35.88","code_nuance":"BC-UD","numero_panneau":"5"},{"pourcent_voix_exp":"27.68","voix":"1619","binome":"Mme RAFFENNE Danielle et M. SANCHEZ Philippe","pourcent_voix_ins":"13.73","code_nuance":"BC-FN","numero_panneau":"4"}],"code":"15","pourcent_nuls_vot":"2.7","lib":"Bouc-Bel-Air","pourcent_blancs_vot":"5.06","nuls":"171","pourcent_vot_ins":"53.78","inscrits":"11788","exprimes":"5848","pourcent_abs_ins":"46.22"}
,{"abstentions":"3827","pourcent_blancs_ins":"3.51","pourcent_nuls_ins":"1.37","pourcent_exp_vot":"90.59","votants":"4124","pourcent_exp_ins":"46.99","blancs":"279","resultats":[{"pourcent_voix_exp":"67.26","voix":"2513","binome":"Mme DALBIN Sandra et M. MALLIE Richard","pourcent_voix_ins":"31.61","code_nuance":"BC-UD","numero_panneau":"5"},{"pourcent_voix_exp":"32.74","voix":"1223","binome":"Mme RAFFENNE Danielle et M. SANCHEZ Philippe","pourcent_voix_ins":"15.38","code_nuance":"BC-FN","numero_panneau":"4"}],"code":"19","pourcent_nuls_vot":"2.64","lib":"Cabriès","pourcent_blancs_vot":"6.77","nuls":"109","pourcent_vot_ins":"51.87","inscrits":"7951","exprimes":"3736","pourcent_abs_ins":"48.13"}
,{"abstentions":"2739","pourcent_blancs_ins":"1.99","pourcent_nuls_ins":"0.94","pourcent_exp_vot":"93.64","votants":"2344","pourcent_exp_ins":"43.18","blancs":"101","resultats":[{"pourcent_voix_exp":"41.96","voix":"921","binome":"Mme DALBIN Sandra et M. MALLIE Richard","pourcent_voix_ins":"18.12","code_nuance":"BC-UD","numero_panneau":"5"},{"pourcent_voix_exp":"58.04","voix":"1274","binome":"Mme RAFFENNE Danielle et M. SANCHEZ Philippe","pourcent_voix_ins":"25.06","code_nuance":"BC-FN","numero_panneau":"4"}],"code":"102","pourcent_nuls_vot":"2.05","lib":"Saint-Victoret","pourcent_blancs_vot":"4.31","nuls":"48","pourcent_vot_ins":"46.11","inscrits":"5083","exprimes":"2195","pourcent_abs_ins":"53.89"}
,{"abstentions":"12602","pourcent_blancs_ins":"2.71","pourcent_nuls_ins":"0.93","pourcent_exp_vot":"92.19","votants":"11052","pourcent_exp_ins":"43.08","blancs":"642","resultats":[{"pourcent_voix_exp":"51.9","voix":"5288","binome":"Mme DALBIN Sandra et M. MALLIE Richard","pourcent_voix_ins":"22.36","code_nuance":"BC-UD","numero_panneau":"5"},{"pourcent_voix_exp":"48.1","voix":"4901","binome":"Mme RAFFENNE Danielle et M. SANCHEZ Philippe","pourcent_voix_ins":"20.72","code_nuance":"BC-FN","numero_panneau":"4"}],"code":"117","pourcent_nuls_vot":"2","lib":"Vitrolles","pourcent_blancs_vot":"5.81","nuls":"221","pourcent_vot_ins":"46.72","inscrits":"23654","exprimes":"10189","pourcent_abs_ins":"53.28"}
]}
