{"status":"success","data":[{"abstentions":"233","pourcent_blancs_ins":"1.99","pourcent_nuls_ins":"1.99","pourcent_exp_vot":"93.82","votants":"421","pourcent_exp_ins":"60.4","blancs":"13","resultats":[{"pourcent_voix_exp":"56.71","voix":"224","binome":"Mme AULAS Marie-Dominique et M. ROCHOUX Philippe","pourcent_voix_ins":"34.25","code_nuance":"BC-MDM","numero_panneau":"2"},{"pourcent_voix_exp":"43.29","voix":"171","binome":"Mme FABRE Valérie et M. POURQUIER Jean-Paul","pourcent_voix_ins":"26.15","code_nuance":"BC-UMP","numero_panneau":"4"}],"code":"17","pourcent_nuls_vot":"3.09","lib":"Banassac","pourcent_blancs_vot":"3.09","nuls":"13","pourcent_vot_ins":"64.37","inscrits":"654","exprimes":"395","pourcent_abs_ins":"35.63"}
,{"abstentions":"38","pourcent_blancs_ins":"9.85","pourcent_nuls_ins":"3.03","pourcent_exp_vot":"81.91","votants":"94","pourcent_exp_ins":"58.33","blancs":"13","resultats":[{"pourcent_voix_exp":"51.95","voix":"40","binome":"Mme AULAS Marie-Dominique et M. ROCHOUX Philippe","pourcent_voix_ins":"30.3","code_nuance":"BC-MDM","numero_panneau":"2"},{"pourcent_voix_exp":"48.05","voix":"37","binome":"Mme FABRE Valérie et M. POURQUIER Jean-Paul","pourcent_voix_ins":"28.03","code_nuance":"BC-UMP","numero_panneau":"4"}],"code":"33","pourcent_nuls_vot":"4.26","lib":"Canilhac","pourcent_blancs_vot":"13.83","nuls":"4","pourcent_vot_ins":"71.21","inscrits":"132","exprimes":"77","pourcent_abs_ins":"28.79"}
,{"abstentions":"382","pourcent_blancs_ins":"1.96","pourcent_nuls_ins":"2.16","pourcent_exp_vot":"94.44","votants":"1097","pourcent_exp_ins":"70.05","blancs":"29","resultats":[{"pourcent_voix_exp":"35.91","voix":"372","binome":"Mme AULAS Marie-Dominique et M. ROCHOUX Philippe","pourcent_voix_ins":"25.15","code_nuance":"BC-MDM","numero_panneau":"2"},{"pourcent_voix_exp":"64.09","voix":"664","binome":"Mme FABRE Valérie et M. POURQUIER Jean-Paul","pourcent_voix_ins":"44.9","code_nuance":"BC-UMP","numero_panneau":"4"}],"code":"34","pourcent_nuls_vot":"2.92","lib":"La Canourgue","pourcent_blancs_vot":"2.64","nuls":"32","pourcent_vot_ins":"74.17","inscrits":"1479","exprimes":"1036","pourcent_abs_ins":"25.83"}
,{"abstentions":"329","pourcent_blancs_ins":"4.16","pourcent_nuls_ins":"3.31","pourcent_exp_vot":"89.15","votants":"728","pourcent_exp_ins":"61.4","blancs":"44","resultats":[{"pourcent_voix_exp":"69.34","voix":"450","binome":"Mme AULAS Marie-Dominique et M. ROCHOUX Philippe","pourcent_voix_ins":"42.57","code_nuance":"BC-MDM","numero_panneau":"2"},{"pourcent_voix_exp":"30.66","voix":"199","binome":"Mme FABRE Valérie et M. POURQUIER Jean-Paul","pourcent_voix_ins":"18.83","code_nuance":"BC-UMP","numero_panneau":"4"}],"code":"39","pourcent_nuls_vot":"4.81","lib":"Chanac","pourcent_blancs_vot":"6.04","nuls":"35","pourcent_vot_ins":"68.87","inscrits":"1057","exprimes":"649","pourcent_abs_ins":"31.13"}
,{"abstentions":"27","pourcent_blancs_ins":"0","pourcent_nuls_ins":"0.88","pourcent_exp_vot":"98.85","votants":"87","pourcent_exp_ins":"75.44","blancs":"0","resultats":[{"pourcent_voix_exp":"65.12","voix":"56","binome":"Mme AULAS Marie-Dominique et M. ROCHOUX Philippe","pourcent_voix_ins":"49.12","code_nuance":"BC-MDM","numero_panneau":"2"},{"pourcent_voix_exp":"34.88","voix":"30","binome":"Mme FABRE Valérie et M. POURQUIER Jean-Paul","pourcent_voix_ins":"26.32","code_nuance":"BC-UMP","numero_panneau":"4"}],"code":"85","pourcent_nuls_vot":"1.15","lib":"Laval-du-Tarn","pourcent_blancs_vot":"0","nuls":"1","pourcent_vot_ins":"76.32","inscrits":"114","exprimes":"86","pourcent_abs_ins":"23.68"}
,{"abstentions":"36","pourcent_blancs_ins":"5.73","pourcent_nuls_ins":"0","pourcent_exp_vot":"92.56","votants":"121","pourcent_exp_ins":"71.34","blancs":"9","resultats":[{"pourcent_voix_exp":"33.93","voix":"38","binome":"Mme AULAS Marie-Dominique et M. ROCHOUX Philippe","pourcent_voix_ins":"24.2","code_nuance":"BC-MDM","numero_panneau":"2"},{"pourcent_voix_exp":"66.07","voix":"74","binome":"Mme FABRE Valérie et M. POURQUIER Jean-Paul","pourcent_voix_ins":"47.13","code_nuance":"BC-UMP","numero_panneau":"4"}],"code":"88","pourcent_nuls_vot":"0","lib":"La Malène","pourcent_blancs_vot":"7.44","nuls":"0","pourcent_vot_ins":"77.07","inscrits":"157","exprimes":"112","pourcent_abs_ins":"22.93"}
,{"abstentions":"54","pourcent_blancs_ins":"1.21","pourcent_nuls_ins":"0.91","pourcent_exp_vot":"97.47","votants":"277","pourcent_exp_ins":"81.57","blancs":"4","resultats":[{"pourcent_voix_exp":"15.19","voix":"41","binome":"Mme AULAS Marie-Dominique et M. ROCHOUX Philippe","pourcent_voix_ins":"12.39","code_nuance":"BC-MDM","numero_panneau":"2"},{"pourcent_voix_exp":"84.81","voix":"229","binome":"Mme FABRE Valérie et M. POURQUIER Jean-Paul","pourcent_voix_ins":"69.18","code_nuance":"BC-UMP","numero_panneau":"4"}],"code":"94","pourcent_nuls_vot":"1.08","lib":"Le Massegros","pourcent_blancs_vot":"1.44","nuls":"3","pourcent_vot_ins":"83.69","inscrits":"331","exprimes":"270","pourcent_abs_ins":"16.31"}
,{"abstentions":"12","pourcent_blancs_ins":"0","pourcent_nuls_ins":"1.85","pourcent_exp_vot":"97.92","votants":"96","pourcent_exp_ins":"87.04","blancs":"0","resultats":[{"pourcent_voix_exp":"39.36","voix":"37","binome":"Mme AULAS Marie-Dominique et M. ROCHOUX Philippe","pourcent_voix_ins":"34.26","code_nuance":"BC-MDM","numero_panneau":"2"},{"pourcent_voix_exp":"60.64","voix":"57","binome":"Mme FABRE Valérie et M. POURQUIER Jean-Paul","pourcent_voix_ins":"52.78","code_nuance":"BC-UMP","numero_panneau":"4"}],"code":"125","pourcent_nuls_vot":"2.08","lib":"Le Recoux","pourcent_blancs_vot":"0","nuls":"2","pourcent_vot_ins":"88.89","inscrits":"108","exprimes":"94","pourcent_abs_ins":"11.11"}
,{"abstentions":"221","pourcent_blancs_ins":"5.68","pourcent_nuls_ins":"3.13","pourcent_exp_vot":"84.48","votants":"290","pourcent_exp_ins":"47.95","blancs":"29","resultats":[{"pourcent_voix_exp":"53.88","voix":"132","binome":"Mme AULAS Marie-Dominique et M. ROCHOUX Philippe","pourcent_voix_ins":"25.83","code_nuance":"BC-MDM","numero_panneau":"2"},{"pourcent_voix_exp":"46.12","voix":"113","binome":"Mme FABRE Valérie et M. POURQUIER Jean-Paul","pourcent_voix_ins":"22.11","code_nuance":"BC-UMP","numero_panneau":"4"}],"code":"146","pourcent_nuls_vot":"5.52","lib":"Sainte-Enimie","pourcent_blancs_vot":"10","nuls":"16","pourcent_vot_ins":"56.75","inscrits":"511","exprimes":"245","pourcent_abs_ins":"43.25"}
,{"abstentions":"61","pourcent_blancs_ins":"0.83","pourcent_nuls_ins":"5.37","pourcent_exp_vot":"91.71","votants":"181","pourcent_exp_ins":"68.6","blancs":"2","resultats":[{"pourcent_voix_exp":"33.73","voix":"56","binome":"Mme AULAS Marie-Dominique et M. ROCHOUX Philippe","pourcent_voix_ins":"23.14","code_nuance":"BC-MDM","numero_panneau":"2"},{"pourcent_voix_exp":"66.27","voix":"110","binome":"Mme FABRE Valérie et M. POURQUIER Jean-Paul","pourcent_voix_ins":"45.45","code_nuance":"BC-UMP","numero_panneau":"4"}],"code":"154","pourcent_nuls_vot":"7.18","lib":"Saint-Georges-de-Lévéjac","pourcent_blancs_vot":"1.1","nuls":"13","pourcent_vot_ins":"74.79","inscrits":"242","exprimes":"166","pourcent_abs_ins":"25.21"}
,{"abstentions":"20","pourcent_blancs_ins":"1.56","pourcent_nuls_ins":"3.13","pourcent_exp_vot":"93.18","votants":"44","pourcent_exp_ins":"64.06","blancs":"1","resultats":[{"pourcent_voix_exp":"51.22","voix":"21","binome":"Mme AULAS Marie-Dominique et M. ROCHOUX Philippe","pourcent_voix_ins":"32.81","code_nuance":"BC-MDM","numero_panneau":"2"},{"pourcent_voix_exp":"48.78","voix":"20","binome":"Mme FABRE Valérie et M. POURQUIER Jean-Paul","pourcent_voix_ins":"31.25","code_nuance":"BC-UMP","numero_panneau":"4"}],"code":"180","pourcent_nuls_vot":"4.55","lib":"Saint-Rome-de-Dolan","pourcent_blancs_vot":"2.27","nuls":"2","pourcent_vot_ins":"68.75","inscrits":"64","exprimes":"41","pourcent_abs_ins":"31.25"}
,{"abstentions":"27","pourcent_blancs_ins":"4.65","pourcent_nuls_ins":"4.65","pourcent_exp_vot":"86.44","votants":"59","pourcent_exp_ins":"59.3","blancs":"4","resultats":[{"pourcent_voix_exp":"33.33","voix":"17","binome":"Mme AULAS Marie-Dominique et M. ROCHOUX Philippe","pourcent_voix_ins":"19.77","code_nuance":"BC-MDM","numero_panneau":"2"},{"pourcent_voix_exp":"66.67","voix":"34","binome":"Mme FABRE Valérie et M. POURQUIER Jean-Paul","pourcent_voix_ins":"39.53","code_nuance":"BC-UMP","numero_panneau":"4"}],"code":"181","pourcent_nuls_vot":"6.78","lib":"Saint-Saturnin","pourcent_blancs_vot":"6.78","nuls":"4","pourcent_vot_ins":"68.6","inscrits":"86","exprimes":"51","pourcent_abs_ins":"31.4"}
,{"abstentions":"12","pourcent_blancs_ins":"1.22","pourcent_nuls_ins":"1.22","pourcent_exp_vot":"97.14","votants":"70","pourcent_exp_ins":"82.93","blancs":"1","resultats":[{"pourcent_voix_exp":"32.35","voix":"22","binome":"Mme AULAS Marie-Dominique et M. ROCHOUX Philippe","pourcent_voix_ins":"26.83","code_nuance":"BC-MDM","numero_panneau":"2"},{"pourcent_voix_exp":"67.65","voix":"46","binome":"Mme FABRE Valérie et M. POURQUIER Jean-Paul","pourcent_voix_ins":"56.1","code_nuance":"BC-UMP","numero_panneau":"4"}],"code":"191","pourcent_nuls_vot":"1.43","lib":"La Tieule","pourcent_blancs_vot":"1.43","nuls":"1","pourcent_vot_ins":"85.37","inscrits":"82","exprimes":"68","pourcent_abs_ins":"14.63"}
,{"abstentions":"20","pourcent_blancs_ins":"0","pourcent_nuls_ins":"0","pourcent_exp_vot":"100","votants":"83","pourcent_exp_ins":"80.58","blancs":"0","resultats":[{"pourcent_voix_exp":"14.46","voix":"12","binome":"Mme AULAS Marie-Dominique et M. ROCHOUX Philippe","pourcent_voix_ins":"11.65","code_nuance":"BC-MDM","numero_panneau":"2"},{"pourcent_voix_exp":"85.54","voix":"71","binome":"Mme FABRE Valérie et M. POURQUIER Jean-Paul","pourcent_voix_ins":"68.93","code_nuance":"BC-UMP","numero_panneau":"4"}],"code":"195","pourcent_nuls_vot":"0","lib":"Les Vignes","pourcent_blancs_vot":"0","nuls":"0","pourcent_vot_ins":"80.58","inscrits":"103","exprimes":"83","pourcent_abs_ins":"19.42"}
,{"abstentions":"134","pourcent_blancs_ins":"1.86","pourcent_nuls_ins":"1.59","pourcent_exp_vot":"94.65","votants":"243","pourcent_exp_ins":"61.01","blancs":"7","resultats":[{"pourcent_voix_exp":"53.91","voix":"124","binome":"M. BOYER Henri et Mme MALIGE Sophie","pourcent_voix_ins":"32.89","code_nuance":"BC-DVG","numero_panneau":"4"},{"pourcent_voix_exp":"46.09","voix":"106","binome":"Mme CASTAN Michèle et M. MOREL-A-L'HUISSIER Pierre","pourcent_voix_ins":"28.12","code_nuance":"BC-UD","numero_panneau":"1"}],"code":"16","pourcent_nuls_vot":"2.47","lib":"Balsièges","pourcent_blancs_vot":"2.88","nuls":"6","pourcent_vot_ins":"64.46","inscrits":"377","exprimes":"230","pourcent_abs_ins":"35.54"}
,{"abstentions":"141","pourcent_blancs_ins":"4.03","pourcent_nuls_ins":"1.01","pourcent_exp_vot":"92.96","votants":"355","pourcent_exp_ins":"66.53","blancs":"20","resultats":[{"pourcent_voix_exp":"64.85","voix":"214","binome":"M. BOYER Henri et Mme MALIGE Sophie","pourcent_voix_ins":"43.15","code_nuance":"BC-DVG","numero_panneau":"4"},{"pourcent_voix_exp":"35.15","voix":"116","binome":"Mme CASTAN Michèle et M. MOREL-A-L'HUISSIER Pierre","pourcent_voix_ins":"23.39","code_nuance":"BC-UD","numero_panneau":"1"}],"code":"18","pourcent_nuls_vot":"1.41","lib":"Barjac","pourcent_blancs_vot":"5.63","nuls":"5","pourcent_vot_ins":"71.57","inscrits":"496","exprimes":"330","pourcent_abs_ins":"28.43"}
,{"abstentions":"140","pourcent_blancs_ins":"2.64","pourcent_nuls_ins":"0.66","pourcent_exp_vot":"95.96","votants":"619","pourcent_exp_ins":"78.26","blancs":"20","resultats":[{"pourcent_voix_exp":"57.24","voix":"340","binome":"M. BOYER Henri et Mme MALIGE Sophie","pourcent_voix_ins":"44.8","code_nuance":"BC-DVG","numero_panneau":"4"},{"pourcent_voix_exp":"42.76","voix":"254","binome":"Mme CASTAN Michèle et M. MOREL-A-L'HUISSIER Pierre","pourcent_voix_ins":"33.47","code_nuance":"BC-UD","numero_panneau":"1"}],"code":"49","pourcent_nuls_vot":"0.81","lib":"Chirac","pourcent_blancs_vot":"3.23","nuls":"5","pourcent_vot_ins":"81.55","inscrits":"759","exprimes":"594","pourcent_abs_ins":"18.45"}
,{"abstentions":"53","pourcent_blancs_ins":"0.85","pourcent_nuls_ins":"5.98","pourcent_exp_vot":"87.5","votants":"64","pourcent_exp_ins":"47.86","blancs":"1","resultats":[{"pourcent_voix_exp":"58.93","voix":"33","binome":"M. BOYER Henri et Mme MALIGE Sophie","pourcent_voix_ins":"28.21","code_nuance":"BC-DVG","numero_panneau":"4"},{"pourcent_voix_exp":"41.07","voix":"23","binome":"Mme CASTAN Michèle et M. MOREL-A-L'HUISSIER Pierre","pourcent_voix_ins":"19.66","code_nuance":"BC-UD","numero_panneau":"1"}],"code":"55","pourcent_nuls_vot":"10.94","lib":"Cultures","pourcent_blancs_vot":"1.56","nuls":"7","pourcent_vot_ins":"54.7","inscrits":"117","exprimes":"56","pourcent_abs_ins":"45.3"}
,{"abstentions":"103","pourcent_blancs_ins":"2.34","pourcent_nuls_ins":"1.56","pourcent_exp_vot":"93.46","votants":"153","pourcent_exp_ins":"55.86","blancs":"6","resultats":[{"pourcent_voix_exp":"40.56","voix":"58","binome":"M. BOYER Henri et Mme MALIGE Sophie","pourcent_voix_ins":"22.66","code_nuance":"BC-DVG","numero_panneau":"4"},{"pourcent_voix_exp":"59.44","voix":"85","binome":"Mme CASTAN Michèle et M. MOREL-A-L'HUISSIER Pierre","pourcent_voix_ins":"33.2","code_nuance":"BC-UD","numero_panneau":"1"}],"code":"56","pourcent_nuls_vot":"2.61","lib":"Esclanèdes","pourcent_blancs_vot":"3.92","nuls":"4","pourcent_vot_ins":"59.77","inscrits":"256","exprimes":"143","pourcent_abs_ins":"40.23"}
,{"abstentions":"37","pourcent_blancs_ins":"6.08","pourcent_nuls_ins":"2.03","pourcent_exp_vot":"89.19","votants":"111","pourcent_exp_ins":"66.89","blancs":"9","resultats":[{"pourcent_voix_exp":"48.48","voix":"48","binome":"M. BOYER Henri et Mme MALIGE Sophie","pourcent_voix_ins":"32.43","code_nuance":"BC-DVG","numero_panneau":"4"},{"pourcent_voix_exp":"51.52","voix":"51","binome":"Mme CASTAN Michèle et M. MOREL-A-L'HUISSIER Pierre","pourcent_voix_ins":"34.46","code_nuance":"BC-UD","numero_panneau":"1"}],"code":"68","pourcent_nuls_vot":"2.7","lib":"Gabrias","pourcent_blancs_vot":"8.11","nuls":"3","pourcent_vot_ins":"75","inscrits":"148","exprimes":"99","pourcent_abs_ins":"25"}
,{"abstentions":"54","pourcent_blancs_ins":"3.59","pourcent_nuls_ins":"2.99","pourcent_exp_vot":"90.27","votants":"113","pourcent_exp_ins":"61.08","blancs":"6","resultats":[{"pourcent_voix_exp":"59.8","voix":"61","binome":"M. BOYER Henri et Mme MALIGE Sophie","pourcent_voix_ins":"36.53","code_nuance":"BC-DVG","numero_panneau":"4"},{"pourcent_voix_exp":"40.2","voix":"41","binome":"Mme CASTAN Michèle et M. MOREL-A-L'HUISSIER Pierre","pourcent_voix_ins":"24.55","code_nuance":"BC-UD","numero_panneau":"1"}],"code":"72","pourcent_nuls_vot":"4.42","lib":"Grèzes","pourcent_blancs_vot":"5.31","nuls":"5","pourcent_vot_ins":"67.66","inscrits":"167","exprimes":"102","pourcent_abs_ins":"32.34"}
,{"abstentions":"170","pourcent_blancs_ins":"2.3","pourcent_nuls_ins":"1.87","pourcent_exp_vot":"94.48","votants":"525","pourcent_exp_ins":"71.37","blancs":"16","resultats":[{"pourcent_voix_exp":"53.63","voix":"266","binome":"M. BOYER Henri et Mme MALIGE Sophie","pourcent_voix_ins":"38.27","code_nuance":"BC-DVG","numero_panneau":"4"},{"pourcent_voix_exp":"46.37","voix":"230","binome":"Mme CASTAN Michèle et M. MOREL-A-L'HUISSIER Pierre","pourcent_voix_ins":"33.09","code_nuance":"BC-UD","numero_panneau":"1"}],"code":"99","pourcent_nuls_vot":"2.48","lib":"Le Monastier-Pin-Moriès","pourcent_blancs_vot":"3.05","nuls":"13","pourcent_vot_ins":"75.54","inscrits":"695","exprimes":"496","pourcent_abs_ins":"24.46"}
,{"abstentions":"218","pourcent_blancs_ins":"3.64","pourcent_nuls_ins":"2.01","pourcent_exp_vot":"92.23","votants":"579","pourcent_exp_ins":"67","blancs":"29","resultats":[{"pourcent_voix_exp":"62.92","voix":"336","binome":"M. BOYER Henri et Mme MALIGE Sophie","pourcent_voix_ins":"42.16","code_nuance":"BC-DVG","numero_panneau":"4"},{"pourcent_voix_exp":"37.08","voix":"198","binome":"Mme CASTAN Michèle et M. MOREL-A-L'HUISSIER Pierre","pourcent_voix_ins":"24.84","code_nuance":"BC-UD","numero_panneau":"1"}],"code":"103","pourcent_nuls_vot":"2.76","lib":"Montrodat","pourcent_blancs_vot":"5.01","nuls":"16","pourcent_vot_ins":"72.65","inscrits":"797","exprimes":"534","pourcent_abs_ins":"27.35"}
,{"abstentions":"37","pourcent_blancs_ins":"3.68","pourcent_nuls_ins":"2.94","pourcent_exp_vot":"90.91","votants":"99","pourcent_exp_ins":"66.18","blancs":"5","resultats":[{"pourcent_voix_exp":"57.78","voix":"52","binome":"M. BOYER Henri et Mme MALIGE Sophie","pourcent_voix_ins":"38.24","code_nuance":"BC-DVG","numero_panneau":"4"},{"pourcent_voix_exp":"42.22","voix":"38","binome":"Mme CASTAN Michèle et M. MOREL-A-L'HUISSIER Pierre","pourcent_voix_ins":"27.94","code_nuance":"BC-UD","numero_panneau":"1"}],"code":"107","pourcent_nuls_vot":"4.04","lib":"Palhers","pourcent_blancs_vot":"5.05","nuls":"4","pourcent_vot_ins":"72.79","inscrits":"136","exprimes":"90","pourcent_abs_ins":"27.21"}
,{"abstentions":"25","pourcent_blancs_ins":"0","pourcent_nuls_ins":"3.8","pourcent_exp_vot":"94.44","votants":"54","pourcent_exp_ins":"64.56","blancs":"0","resultats":[{"pourcent_voix_exp":"49.02","voix":"25","binome":"M. BOYER Henri et Mme MALIGE Sophie","pourcent_voix_ins":"31.65","code_nuance":"BC-DVG","numero_panneau":"4"},{"pourcent_voix_exp":"50.98","voix":"26","binome":"Mme CASTAN Michèle et M. MOREL-A-L'HUISSIER Pierre","pourcent_voix_ins":"32.91","code_nuance":"BC-UD","numero_panneau":"1"}],"code":"138","pourcent_nuls_vot":"5.56","lib":"Saint-Bonnet-de-Chirac","pourcent_blancs_vot":"0","nuls":"3","pourcent_vot_ins":"68.35","inscrits":"79","exprimes":"51","pourcent_abs_ins":"31.65"}
,{"abstentions":"148","pourcent_blancs_ins":"1.74","pourcent_nuls_ins":"1.36","pourcent_exp_vot":"95.65","votants":"368","pourcent_exp_ins":"68.22","blancs":"9","resultats":[{"pourcent_voix_exp":"38.35","voix":"135","binome":"M. BOYER Henri et Mme MALIGE Sophie","pourcent_voix_ins":"26.16","code_nuance":"BC-DVG","numero_panneau":"4"},{"pourcent_voix_exp":"61.65","voix":"217","binome":"Mme CASTAN Michèle et M. MOREL-A-L'HUISSIER Pierre","pourcent_voix_ins":"42.05","code_nuance":"BC-UD","numero_panneau":"1"}],"code":"156","pourcent_nuls_vot":"1.9","lib":"Saint-Germain-du-Teil","pourcent_blancs_vot":"2.45","nuls":"7","pourcent_vot_ins":"71.32","inscrits":"516","exprimes":"352","pourcent_abs_ins":"28.68"}
,{"abstentions":"43","pourcent_blancs_ins":"4.17","pourcent_nuls_ins":"6.25","pourcent_exp_vot":"85.15","votants":"101","pourcent_exp_ins":"59.72","blancs":"6","resultats":[{"pourcent_voix_exp":"46.51","voix":"40","binome":"M. BOYER Henri et Mme MALIGE Sophie","pourcent_voix_ins":"27.78","code_nuance":"BC-DVG","numero_panneau":"4"},{"pourcent_voix_exp":"53.49","voix":"46","binome":"Mme CASTAN Michèle et M. MOREL-A-L'HUISSIER Pierre","pourcent_voix_ins":"31.94","code_nuance":"BC-UD","numero_panneau":"1"}],"code":"185","pourcent_nuls_vot":"8.91","lib":"Les Salelles","pourcent_blancs_vot":"5.94","nuls":"9","pourcent_vot_ins":"70.14","inscrits":"144","exprimes":"86","pourcent_abs_ins":"29.86"}
,{"abstentions":"484","pourcent_blancs_ins":"3.64","pourcent_nuls_ins":"1.63","pourcent_exp_vot":"91.57","votants":"807","pourcent_exp_ins":"57.24","blancs":"47","resultats":[{"pourcent_voix_exp":"50.2","voix":"371","binome":"M. BERTRAND Denis et Mme PANTEL Guylène","pourcent_voix_ins":"28.74","code_nuance":"BC-SOC","numero_panneau":"3"},{"pourcent_voix_exp":"49.8","voix":"368","binome":"M. ARGILIER Alain et Mme DONNADIEU Brigitte","pourcent_voix_ins":"28.51","code_nuance":"BC-DVG","numero_panneau":"2"}],"code":"61","pourcent_nuls_vot":"2.6","lib":"Florac","pourcent_blancs_vot":"5.82","nuls":"21","pourcent_vot_ins":"62.51","inscrits":"1291","exprimes":"739","pourcent_abs_ins":"37.49"}
,{"abstentions":"14","pourcent_blancs_ins":"10.87","pourcent_nuls_ins":"2.17","pourcent_exp_vot":"81.25","votants":"32","pourcent_exp_ins":"56.52","blancs":"5","resultats":[{"pourcent_voix_exp":"96.15","voix":"25","binome":"M. BERTRAND Denis et Mme PANTEL Guylène","pourcent_voix_ins":"54.35","code_nuance":"BC-SOC","numero_panneau":"3"},{"pourcent_voix_exp":"3.85","voix":"1","binome":"M. ARGILIER Alain et Mme DONNADIEU Brigitte","pourcent_voix_ins":"2.17","code_nuance":"BC-DVG","numero_panneau":"2"}],"code":"69","pourcent_nuls_vot":"3.13","lib":"Gatuzières","pourcent_blancs_vot":"15.63","nuls":"1","pourcent_vot_ins":"69.57","inscrits":"46","exprimes":"26","pourcent_abs_ins":"30.43"}
,{"abstentions":"78","pourcent_blancs_ins":"5.73","pourcent_nuls_ins":"7.05","pourcent_exp_vot":"80.54","votants":"149","pourcent_exp_ins":"52.86","blancs":"13","resultats":[{"pourcent_voix_exp":"76.67","voix":"92","binome":"M. BERTRAND Denis et Mme PANTEL Guylène","pourcent_voix_ins":"40.53","code_nuance":"BC-SOC","numero_panneau":"3"},{"pourcent_voix_exp":"23.33","voix":"28","binome":"M. ARGILIER Alain et Mme DONNADIEU Brigitte","pourcent_voix_ins":"12.33","code_nuance":"BC-DVG","numero_panneau":"2"}],"code":"74","pourcent_nuls_vot":"10.74","lib":"Hures-la-Parade","pourcent_blancs_vot":"8.72","nuls":"16","pourcent_vot_ins":"65.64","inscrits":"227","exprimes":"120","pourcent_abs_ins":"34.36"}
,{"abstentions":"233","pourcent_blancs_ins":"4.8","pourcent_nuls_ins":"4.8","pourcent_exp_vot":"85.22","votants":"433","pourcent_exp_ins":"55.41","blancs":"32","resultats":[{"pourcent_voix_exp":"54.2","voix":"200","binome":"M. BERTRAND Denis et Mme PANTEL Guylène","pourcent_voix_ins":"30.03","code_nuance":"BC-SOC","numero_panneau":"3"},{"pourcent_voix_exp":"45.8","voix":"169","binome":"M. ARGILIER Alain et Mme DONNADIEU Brigitte","pourcent_voix_ins":"25.38","code_nuance":"BC-DVG","numero_panneau":"2"}],"code":"75","pourcent_nuls_vot":"7.39","lib":"Ispagnac","pourcent_blancs_vot":"7.39","nuls":"32","pourcent_vot_ins":"65.02","inscrits":"666","exprimes":"369","pourcent_abs_ins":"34.98"}
,{"abstentions":"190","pourcent_blancs_ins":"1.06","pourcent_nuls_ins":"3.77","pourcent_exp_vot":"93.23","votants":"473","pourcent_exp_ins":"66.52","blancs":"7","resultats":[{"pourcent_voix_exp":"71.43","voix":"315","binome":"M. BERTRAND Denis et Mme PANTEL Guylène","pourcent_voix_ins":"47.51","code_nuance":"BC-SOC","numero_panneau":"3"},{"pourcent_voix_exp":"28.57","voix":"126","binome":"M. ARGILIER Alain et Mme DONNADIEU Brigitte","pourcent_voix_ins":"19","code_nuance":"BC-DVG","numero_panneau":"2"}],"code":"96","pourcent_nuls_vot":"5.29","lib":"Meyrueis","pourcent_blancs_vot":"1.48","nuls":"25","pourcent_vot_ins":"71.34","inscrits":"663","exprimes":"441","pourcent_abs_ins":"28.66"}
,{"abstentions":"45","pourcent_blancs_ins":"13.86","pourcent_nuls_ins":"3.96","pourcent_exp_vot":"67.86","votants":"56","pourcent_exp_ins":"37.62","blancs":"14","resultats":[{"pourcent_voix_exp":"76.32","voix":"29","binome":"M. BERTRAND Denis et Mme PANTEL Guylène","pourcent_voix_ins":"28.71","code_nuance":"BC-SOC","numero_panneau":"3"},{"pourcent_voix_exp":"23.68","voix":"9","binome":"M. ARGILIER Alain et Mme DONNADIEU Brigitte","pourcent_voix_ins":"8.91","code_nuance":"BC-DVG","numero_panneau":"2"}],"code":"101","pourcent_nuls_vot":"7.14","lib":"Montbrun","pourcent_blancs_vot":"25","nuls":"4","pourcent_vot_ins":"55.45","inscrits":"101","exprimes":"38","pourcent_abs_ins":"44.55"}
,{"abstentions":"126","pourcent_blancs_ins":"5.88","pourcent_nuls_ins":"3.46","pourcent_exp_vot":"83.44","votants":"163","pourcent_exp_ins":"47.06","blancs":"17","resultats":[{"pourcent_voix_exp":"71.32","voix":"97","binome":"M. BERTRAND Denis et Mme PANTEL Guylène","pourcent_voix_ins":"33.56","code_nuance":"BC-SOC","numero_panneau":"3"},{"pourcent_voix_exp":"28.68","voix":"39","binome":"M. ARGILIER Alain et Mme DONNADIEU Brigitte","pourcent_voix_ins":"13.49","code_nuance":"BC-DVG","numero_panneau":"2"}],"code":"122","pourcent_nuls_vot":"6.13","lib":"Quézac","pourcent_blancs_vot":"10.43","nuls":"10","pourcent_vot_ins":"56.4","inscrits":"289","exprimes":"136","pourcent_abs_ins":"43.6"}
,{"abstentions":"50","pourcent_blancs_ins":"8.33","pourcent_nuls_ins":"5.3","pourcent_exp_vot":"78.05","votants":"82","pourcent_exp_ins":"48.48","blancs":"11","resultats":[{"pourcent_voix_exp":"73.44","voix":"47","binome":"M. BERTRAND Denis et Mme PANTEL Guylène","pourcent_voix_ins":"35.61","code_nuance":"BC-SOC","numero_panneau":"3"},{"pourcent_voix_exp":"26.56","voix":"17","binome":"M. ARGILIER Alain et Mme DONNADIEU Brigitte","pourcent_voix_ins":"12.88","code_nuance":"BC-DVG","numero_panneau":"2"}],"code":"131","pourcent_nuls_vot":"8.54","lib":"Le Rozier","pourcent_blancs_vot":"13.41","nuls":"7","pourcent_vot_ins":"62.12","inscrits":"132","exprimes":"64","pourcent_abs_ins":"37.88"}
,{"abstentions":"53","pourcent_blancs_ins":"5.98","pourcent_nuls_ins":"5.13","pourcent_exp_vot":"79.69","votants":"64","pourcent_exp_ins":"43.59","blancs":"7","resultats":[{"pourcent_voix_exp":"74.51","voix":"38","binome":"M. BERTRAND Denis et Mme PANTEL Guylène","pourcent_voix_ins":"32.48","code_nuance":"BC-SOC","numero_panneau":"3"},{"pourcent_voix_exp":"25.49","voix":"13","binome":"M. ARGILIER Alain et Mme DONNADIEU Brigitte","pourcent_voix_ins":"11.11","code_nuance":"BC-DVG","numero_panneau":"2"}],"code":"141","pourcent_nuls_vot":"9.38","lib":"Mas-Saint-Chély","pourcent_blancs_vot":"10.94","nuls":"6","pourcent_vot_ins":"54.7","inscrits":"117","exprimes":"51","pourcent_abs_ins":"45.3"}
,{"abstentions":"42","pourcent_blancs_ins":"3.37","pourcent_nuls_ins":"1.12","pourcent_exp_vot":"91.49","votants":"47","pourcent_exp_ins":"48.31","blancs":"3","resultats":[{"pourcent_voix_exp":"67.44","voix":"29","binome":"M. BERTRAND Denis et Mme PANTEL Guylène","pourcent_voix_ins":"32.58","code_nuance":"BC-SOC","numero_panneau":"3"},{"pourcent_voix_exp":"32.56","voix":"14","binome":"M. ARGILIER Alain et Mme DONNADIEU Brigitte","pourcent_voix_ins":"15.73","code_nuance":"BC-DVG","numero_panneau":"2"}],"code":"176","pourcent_nuls_vot":"2.13","lib":"Saint-Pierre-des-Tripiers","pourcent_blancs_vot":"6.38","nuls":"1","pourcent_vot_ins":"52.81","inscrits":"89","exprimes":"43","pourcent_abs_ins":"47.19"}
,{"abstentions":"52","pourcent_blancs_ins":"2.1","pourcent_nuls_ins":"2.8","pourcent_exp_vot":"92.31","votants":"91","pourcent_exp_ins":"58.74","blancs":"3","resultats":[{"pourcent_voix_exp":"52.38","voix":"44","binome":"M. BERTRAND Denis et Mme PANTEL Guylène","pourcent_voix_ins":"30.77","code_nuance":"BC-SOC","numero_panneau":"3"},{"pourcent_voix_exp":"47.62","voix":"40","binome":"M. ARGILIER Alain et Mme DONNADIEU Brigitte","pourcent_voix_ins":"27.97","code_nuance":"BC-DVG","numero_panneau":"2"}],"code":"186","pourcent_nuls_vot":"4.4","lib":"La Salle-Prunet","pourcent_blancs_vot":"3.3","nuls":"4","pourcent_vot_ins":"63.64","inscrits":"143","exprimes":"84","pourcent_abs_ins":"36.36"}
,{"abstentions":"60","pourcent_blancs_ins":"0.86","pourcent_nuls_ins":"1.72","pourcent_exp_vot":"96.53","votants":"173","pourcent_exp_ins":"71.67","blancs":"2","resultats":[{"pourcent_voix_exp":"67.66","voix":"113","binome":"M. CHAZAL Jean-Claude et Mme GUIGON-BOULLOT Monique","pourcent_voix_ins":"48.5","code_nuance":"BC-UG","numero_panneau":"4"},{"pourcent_voix_exp":"32.34","voix":"54","binome":"M. DURAND Bruno et Mme VIGNAL Valérie","pourcent_voix_ins":"23.18","code_nuance":"BC-DVD","numero_panneau":"2"}],"code":"3","pourcent_nuls_vot":"2.31","lib":"Allenc","pourcent_blancs_vot":"1.16","nuls":"4","pourcent_vot_ins":"74.25","inscrits":"233","exprimes":"167","pourcent_abs_ins":"25.75"}
,{"abstentions":"62","pourcent_blancs_ins":"1.09","pourcent_nuls_ins":"2.17","pourcent_exp_vot":"95.08","votants":"122","pourcent_exp_ins":"63.04","blancs":"2","resultats":[{"pourcent_voix_exp":"43.97","voix":"51","binome":"M. CHAZAL Jean-Claude et Mme GUIGON-BOULLOT Monique","pourcent_voix_ins":"27.72","code_nuance":"BC-UG","numero_panneau":"4"},{"pourcent_voix_exp":"56.03","voix":"65","binome":"M. DURAND Bruno et Mme VIGNAL Valérie","pourcent_voix_ins":"35.33","code_nuance":"BC-DVD","numero_panneau":"2"}],"code":"8","pourcent_nuls_vot":"3.28","lib":"Arzenc-de-Randon","pourcent_blancs_vot":"1.64","nuls":"4","pourcent_vot_ins":"66.3","inscrits":"184","exprimes":"116","pourcent_abs_ins":"33.7"}
,{"abstentions":"252","pourcent_blancs_ins":"3.89","pourcent_nuls_ins":"1.3","pourcent_exp_vot":"92.29","votants":"519","pourcent_exp_ins":"62.13","blancs":"30","resultats":[{"pourcent_voix_exp":"48.23","voix":"231","binome":"M. CHAZAL Jean-Claude et Mme GUIGON-BOULLOT Monique","pourcent_voix_ins":"29.96","code_nuance":"BC-UG","numero_panneau":"4"},{"pourcent_voix_exp":"51.77","voix":"248","binome":"M. DURAND Bruno et Mme VIGNAL Valérie","pourcent_voix_ins":"32.17","code_nuance":"BC-DVD","numero_panneau":"2"}],"code":"13","pourcent_nuls_vot":"1.93","lib":"Badaroux","pourcent_blancs_vot":"5.78","nuls":"10","pourcent_vot_ins":"67.32","inscrits":"771","exprimes":"479","pourcent_abs_ins":"32.68"}
,{"abstentions":"30","pourcent_blancs_ins":"0","pourcent_nuls_ins":"1.19","pourcent_exp_vot":"98.15","votants":"54","pourcent_exp_ins":"63.1","blancs":"0","resultats":[{"pourcent_voix_exp":"47.17","voix":"25","binome":"M. CHAZAL Jean-Claude et Mme GUIGON-BOULLOT Monique","pourcent_voix_ins":"29.76","code_nuance":"BC-UG","numero_panneau":"4"},{"pourcent_voix_exp":"52.83","voix":"28","binome":"M. DURAND Bruno et Mme VIGNAL Valérie","pourcent_voix_ins":"33.33","code_nuance":"BC-DVD","numero_panneau":"2"}],"code":"23","pourcent_nuls_vot":"1.85","lib":"Belvezet","pourcent_blancs_vot":"0","nuls":"1","pourcent_vot_ins":"64.29","inscrits":"84","exprimes":"53","pourcent_abs_ins":"35.71"}
,{"abstentions":"37","pourcent_blancs_ins":"0.73","pourcent_nuls_ins":"2.92","pourcent_exp_vot":"95","votants":"100","pourcent_exp_ins":"69.34","blancs":"1","resultats":[{"pourcent_voix_exp":"34.74","voix":"33","binome":"M. CHAZAL Jean-Claude et Mme GUIGON-BOULLOT Monique","pourcent_voix_ins":"24.09","code_nuance":"BC-UG","numero_panneau":"4"},{"pourcent_voix_exp":"65.26","voix":"62","binome":"M. DURAND Bruno et Mme VIGNAL Valérie","pourcent_voix_ins":"45.26","code_nuance":"BC-DVD","numero_panneau":"2"}],"code":"29","pourcent_nuls_vot":"4","lib":"Le Born","pourcent_blancs_vot":"1","nuls":"4","pourcent_vot_ins":"72.99","inscrits":"137","exprimes":"95","pourcent_abs_ins":"27.01"}
,{"abstentions":"30","pourcent_blancs_ins":"1.12","pourcent_nuls_ins":"0","pourcent_exp_vot":"98.31","votants":"59","pourcent_exp_ins":"65.17","blancs":"1","resultats":[{"pourcent_voix_exp":"55.17","voix":"32","binome":"M. CHAZAL Jean-Claude et Mme GUIGON-BOULLOT Monique","pourcent_voix_ins":"35.96","code_nuance":"BC-UG","numero_panneau":"4"},{"pourcent_voix_exp":"44.83","voix":"26","binome":"M. DURAND Bruno et Mme VIGNAL Valérie","pourcent_voix_ins":"29.21","code_nuance":"BC-DVD","numero_panneau":"2"}],"code":"37","pourcent_nuls_vot":"0","lib":"Chadenet","pourcent_blancs_vot":"1.69","nuls":"0","pourcent_vot_ins":"66.29","inscrits":"89","exprimes":"58","pourcent_abs_ins":"33.71"}
,{"abstentions":"54","pourcent_blancs_ins":"0","pourcent_nuls_ins":"2.17","pourcent_exp_vot":"96.92","votants":"130","pourcent_exp_ins":"68.48","blancs":"0","resultats":[{"pourcent_voix_exp":"53.97","voix":"68","binome":"M. CHAZAL Jean-Claude et Mme GUIGON-BOULLOT Monique","pourcent_voix_ins":"36.96","code_nuance":"BC-UG","numero_panneau":"4"},{"pourcent_voix_exp":"46.03","voix":"58","binome":"M. DURAND Bruno et Mme VIGNAL Valérie","pourcent_voix_ins":"31.52","code_nuance":"BC-DVD","numero_panneau":"2"}],"code":"38","pourcent_nuls_vot":"3.08","lib":"Chambon-le-Château","pourcent_blancs_vot":"0","nuls":"4","pourcent_vot_ins":"70.65","inscrits":"184","exprimes":"126","pourcent_abs_ins":"29.35"}
,{"abstentions":"80","pourcent_blancs_ins":"1.84","pourcent_nuls_ins":"1.84","pourcent_exp_vot":"95.12","votants":"246","pourcent_exp_ins":"71.78","blancs":"6","resultats":[{"pourcent_voix_exp":"23.08","voix":"54","binome":"M. CHAZAL Jean-Claude et Mme GUIGON-BOULLOT Monique","pourcent_voix_ins":"16.56","code_nuance":"BC-UG","numero_panneau":"4"},{"pourcent_voix_exp":"76.92","voix":"180","binome":"M. DURAND Bruno et Mme VIGNAL Valérie","pourcent_voix_ins":"55.21","code_nuance":"BC-DVD","numero_panneau":"2"}],"code":"43","pourcent_nuls_vot":"2.44","lib":"Châteauneuf-de-Randon","pourcent_blancs_vot":"2.44","nuls":"6","pourcent_vot_ins":"75.46","inscrits":"326","exprimes":"234","pourcent_abs_ins":"24.54"}
,{"abstentions":"77","pourcent_blancs_ins":"4.57","pourcent_nuls_ins":"3.65","pourcent_exp_vot":"87.32","votants":"142","pourcent_exp_ins":"56.62","blancs":"10","resultats":[{"pourcent_voix_exp":"33.06","voix":"41","binome":"M. CHAZAL Jean-Claude et Mme GUIGON-BOULLOT Monique","pourcent_voix_ins":"18.72","code_nuance":"BC-UG","numero_panneau":"4"},{"pourcent_voix_exp":"66.94","voix":"83","binome":"M. DURAND Bruno et Mme VIGNAL Valérie","pourcent_voix_ins":"37.9","code_nuance":"BC-DVD","numero_panneau":"2"}],"code":"45","pourcent_nuls_vot":"5.63","lib":"Chaudeyrac","pourcent_blancs_vot":"7.04","nuls":"8","pourcent_vot_ins":"64.84","inscrits":"219","exprimes":"124","pourcent_abs_ins":"35.16"}
,{"abstentions":"106","pourcent_blancs_ins":"2.87","pourcent_nuls_ins":"1.69","pourcent_exp_vot":"94.46","votants":"487","pourcent_exp_ins":"77.57","blancs":"17","resultats":[{"pourcent_voix_exp":"56.52","voix":"260","binome":"M. CHAZAL Jean-Claude et Mme GUIGON-BOULLOT Monique","pourcent_voix_ins":"43.84","code_nuance":"BC-UG","numero_panneau":"4"},{"pourcent_voix_exp":"43.48","voix":"200","binome":"M. DURAND Bruno et Mme VIGNAL Valérie","pourcent_voix_ins":"33.73","code_nuance":"BC-DVD","numero_panneau":"2"}],"code":"70","pourcent_nuls_vot":"2.05","lib":"Grandrieu","pourcent_blancs_vot":"3.49","nuls":"10","pourcent_vot_ins":"82.12","inscrits":"593","exprimes":"460","pourcent_abs_ins":"17.88"}
,{"abstentions":"36","pourcent_blancs_ins":"8.57","pourcent_nuls_ins":"0.95","pourcent_exp_vot":"85.51","votants":"69","pourcent_exp_ins":"56.19","blancs":"9","resultats":[{"pourcent_voix_exp":"55.93","voix":"33","binome":"M. CHAZAL Jean-Claude et Mme GUIGON-BOULLOT Monique","pourcent_voix_ins":"31.43","code_nuance":"BC-UG","numero_panneau":"4"},{"pourcent_voix_exp":"44.07","voix":"26","binome":"M. DURAND Bruno et Mme VIGNAL Valérie","pourcent_voix_ins":"24.76","code_nuance":"BC-DVD","numero_panneau":"2"}],"code":"82","pourcent_nuls_vot":"1.45","lib":"Laubert","pourcent_blancs_vot":"13.04","nuls":"1","pourcent_vot_ins":"65.71","inscrits":"105","exprimes":"59","pourcent_abs_ins":"34.29"}
,{"abstentions":"43","pourcent_blancs_ins":"1.48","pourcent_nuls_ins":"2.96","pourcent_exp_vot":"93.48","votants":"92","pourcent_exp_ins":"63.7","blancs":"2","resultats":[{"pourcent_voix_exp":"47.67","voix":"41","binome":"M. CHAZAL Jean-Claude et Mme GUIGON-BOULLOT Monique","pourcent_voix_ins":"30.37","code_nuance":"BC-UG","numero_panneau":"4"},{"pourcent_voix_exp":"52.33","voix":"45","binome":"M. DURAND Bruno et Mme VIGNAL Valérie","pourcent_voix_ins":"33.33","code_nuance":"BC-DVD","numero_panneau":"2"}],"code":"100","pourcent_nuls_vot":"4.35","lib":"Montbel","pourcent_blancs_vot":"2.17","nuls":"4","pourcent_vot_ins":"68.15","inscrits":"135","exprimes":"86","pourcent_abs_ins":"31.85"}
,{"abstentions":"21","pourcent_blancs_ins":"0","pourcent_nuls_ins":"0","pourcent_exp_vot":"100","votants":"64","pourcent_exp_ins":"75.29","blancs":"0","resultats":[{"pourcent_voix_exp":"53.13","voix":"34","binome":"M. CHAZAL Jean-Claude et Mme GUIGON-BOULLOT Monique","pourcent_voix_ins":"40","code_nuance":"BC-UG","numero_panneau":"4"},{"pourcent_voix_exp":"46.88","voix":"30","binome":"M. DURAND Bruno et Mme VIGNAL Valérie","pourcent_voix_ins":"35.29","code_nuance":"BC-DVD","numero_panneau":"2"}],"code":"108","pourcent_nuls_vot":"0","lib":"La Panouse","pourcent_blancs_vot":"0","nuls":"0","pourcent_vot_ins":"75.29","inscrits":"85","exprimes":"64","pourcent_abs_ins":"24.71"}
,{"abstentions":"52","pourcent_blancs_ins":"3.49","pourcent_nuls_ins":"3.49","pourcent_exp_vot":"90","votants":"120","pourcent_exp_ins":"62.79","blancs":"6","resultats":[{"pourcent_voix_exp":"36.11","voix":"39","binome":"M. CHAZAL Jean-Claude et Mme GUIGON-BOULLOT Monique","pourcent_voix_ins":"22.67","code_nuance":"BC-UG","numero_panneau":"4"},{"pourcent_voix_exp":"63.89","voix":"69","binome":"M. DURAND Bruno et Mme VIGNAL Valérie","pourcent_voix_ins":"40.12","code_nuance":"BC-DVD","numero_panneau":"2"}],"code":"111","pourcent_nuls_vot":"5","lib":"Pelouse","pourcent_blancs_vot":"5","nuls":"6","pourcent_vot_ins":"69.77","inscrits":"172","exprimes":"108","pourcent_abs_ins":"30.23"}
,{"abstentions":"40","pourcent_blancs_ins":"1.71","pourcent_nuls_ins":"1.71","pourcent_exp_vot":"94.81","votants":"77","pourcent_exp_ins":"62.39","blancs":"2","resultats":[{"pourcent_voix_exp":"49.32","voix":"36","binome":"M. CHAZAL Jean-Claude et Mme GUIGON-BOULLOT Monique","pourcent_voix_ins":"30.77","code_nuance":"BC-UG","numero_panneau":"4"},{"pourcent_voix_exp":"50.68","voix":"37","binome":"M. DURAND Bruno et Mme VIGNAL Valérie","pourcent_voix_ins":"31.62","code_nuance":"BC-DVD","numero_panneau":"2"}],"code":"112","pourcent_nuls_vot":"2.6","lib":"Pierrefiche","pourcent_blancs_vot":"2.6","nuls":"2","pourcent_vot_ins":"65.81","inscrits":"117","exprimes":"73","pourcent_abs_ins":"34.19"}
,{"abstentions":"19","pourcent_blancs_ins":"1.85","pourcent_nuls_ins":"3.7","pourcent_exp_vot":"91.43","votants":"35","pourcent_exp_ins":"59.26","blancs":"1","resultats":[{"pourcent_voix_exp":"40.63","voix":"13","binome":"M. CHAZAL Jean-Claude et Mme GUIGON-BOULLOT Monique","pourcent_voix_ins":"24.07","code_nuance":"BC-UG","numero_panneau":"4"},{"pourcent_voix_exp":"59.38","voix":"19","binome":"M. DURAND Bruno et Mme VIGNAL Valérie","pourcent_voix_ins":"35.19","code_nuance":"BC-DVD","numero_panneau":"2"}],"code":"151","pourcent_nuls_vot":"5.71","lib":"Saint-Frézal-d'Albuges","pourcent_blancs_vot":"2.86","nuls":"2","pourcent_vot_ins":"64.81","inscrits":"54","exprimes":"32","pourcent_abs_ins":"35.19"}
,{"abstentions":"15","pourcent_blancs_ins":"1.35","pourcent_nuls_ins":"2.7","pourcent_exp_vot":"94.92","votants":"59","pourcent_exp_ins":"75.68","blancs":"1","resultats":[{"pourcent_voix_exp":"55.36","voix":"31","binome":"M. CHAZAL Jean-Claude et Mme GUIGON-BOULLOT Monique","pourcent_voix_ins":"41.89","code_nuance":"BC-UG","numero_panneau":"4"},{"pourcent_voix_exp":"44.64","voix":"25","binome":"M. DURAND Bruno et Mme VIGNAL Valérie","pourcent_voix_ins":"33.78","code_nuance":"BC-DVD","numero_panneau":"2"}],"code":"157","pourcent_nuls_vot":"3.39","lib":"Sainte-Hélène","pourcent_blancs_vot":"1.69","nuls":"2","pourcent_vot_ins":"79.73","inscrits":"74","exprimes":"56","pourcent_abs_ins":"20.27"}
,{"abstentions":"35","pourcent_blancs_ins":"3.42","pourcent_nuls_ins":"1.37","pourcent_exp_vot":"93.69","votants":"111","pourcent_exp_ins":"71.23","blancs":"5","resultats":[{"pourcent_voix_exp":"50.96","voix":"53","binome":"M. CHAZAL Jean-Claude et Mme GUIGON-BOULLOT Monique","pourcent_voix_ins":"36.3","code_nuance":"BC-UG","numero_panneau":"4"},{"pourcent_voix_exp":"49.04","voix":"51","binome":"M. DURAND Bruno et Mme VIGNAL Valérie","pourcent_voix_ins":"34.93","code_nuance":"BC-DVD","numero_panneau":"2"}],"code":"160","pourcent_nuls_vot":"1.8","lib":"Saint-Jean-la-Fouillouse","pourcent_blancs_vot":"4.5","nuls":"2","pourcent_vot_ins":"76.03","inscrits":"146","exprimes":"104","pourcent_abs_ins":"23.97"}
,{"abstentions":"21","pourcent_blancs_ins":"0","pourcent_nuls_ins":"0.75","pourcent_exp_vot":"99.11","votants":"112","pourcent_exp_ins":"83.46","blancs":"0","resultats":[{"pourcent_voix_exp":"45.95","voix":"51","binome":"M. CHAZAL Jean-Claude et Mme GUIGON-BOULLOT Monique","pourcent_voix_ins":"38.35","code_nuance":"BC-UG","numero_panneau":"4"},{"pourcent_voix_exp":"54.05","voix":"60","binome":"M. DURAND Bruno et Mme VIGNAL Valérie","pourcent_voix_ins":"45.11","code_nuance":"BC-DVD","numero_panneau":"2"}],"code":"174","pourcent_nuls_vot":"0.89","lib":"Saint-Paul-le-Froid","pourcent_blancs_vot":"0","nuls":"1","pourcent_vot_ins":"84.21","inscrits":"133","exprimes":"111","pourcent_abs_ins":"15.79"}
,{"abstentions":"14","pourcent_blancs_ins":"0","pourcent_nuls_ins":"3.51","pourcent_exp_vot":"95.35","votants":"43","pourcent_exp_ins":"71.93","blancs":"0","resultats":[{"pourcent_voix_exp":"41.46","voix":"17","binome":"M. CHAZAL Jean-Claude et Mme GUIGON-BOULLOT Monique","pourcent_voix_ins":"29.82","code_nuance":"BC-UG","numero_panneau":"4"},{"pourcent_voix_exp":"58.54","voix":"24","binome":"M. DURAND Bruno et Mme VIGNAL Valérie","pourcent_voix_ins":"42.11","code_nuance":"BC-DVD","numero_panneau":"2"}],"code":"182","pourcent_nuls_vot":"4.65","lib":"Saint-Sauveur-de-Ginestoux","pourcent_blancs_vot":"0","nuls":"2","pourcent_vot_ins":"75.44","inscrits":"57","exprimes":"41","pourcent_abs_ins":"24.56"}
,{"abstentions":"63","pourcent_blancs_ins":"3","pourcent_nuls_ins":"1.12","pourcent_exp_vot":"94.61","votants":"204","pourcent_exp_ins":"72.28","blancs":"8","resultats":[{"pourcent_voix_exp":"73.58","voix":"142","binome":"M. CHAZAL Jean-Claude et Mme GUIGON-BOULLOT Monique","pourcent_voix_ins":"53.18","code_nuance":"BC-UG","numero_panneau":"4"},{"pourcent_voix_exp":"26.42","voix":"51","binome":"M. DURAND Bruno et Mme VIGNAL Valérie","pourcent_voix_ins":"19.1","code_nuance":"BC-DVD","numero_panneau":"2"}],"code":"184","pourcent_nuls_vot":"1.47","lib":"Saint-Symphorien","pourcent_blancs_vot":"3.92","nuls":"3","pourcent_vot_ins":"76.4","inscrits":"267","exprimes":"193","pourcent_abs_ins":"23.6"}
,{"abstentions":"95","pourcent_blancs_ins":"2.93","pourcent_nuls_ins":"1.83","pourcent_exp_vot":"92.7","votants":"178","pourcent_exp_ins":"60.44","blancs":"8","resultats":[{"pourcent_voix_exp":"53.94","voix":"89","binome":"Mme BEAUD Laurence et M. PALPACUER Bernard","pourcent_voix_ins":"32.6","code_nuance":"BC-DVG","numero_panneau":"2"},{"pourcent_voix_exp":"46.06","voix":"76","binome":"Mme LAROUMET Angélique et M. MURCIA Pierre","pourcent_voix_ins":"27.84","code_nuance":"BC-DVD","numero_panneau":"3"}],"code":"10","pourcent_nuls_vot":"2.81","lib":"Auroux","pourcent_blancs_vot":"4.49","nuls":"5","pourcent_vot_ins":"65.2","inscrits":"273","exprimes":"165","pourcent_abs_ins":"34.8"}
,{"abstentions":"30","pourcent_blancs_ins":"1.08","pourcent_nuls_ins":"0","pourcent_exp_vot":"98.41","votants":"63","pourcent_exp_ins":"66.67","blancs":"1","resultats":[{"pourcent_voix_exp":"53.23","voix":"33","binome":"Mme BEAUD Laurence et M. PALPACUER Bernard","pourcent_voix_ins":"35.48","code_nuance":"BC-DVG","numero_panneau":"2"},{"pourcent_voix_exp":"46.77","voix":"29","binome":"Mme LAROUMET Angélique et M. MURCIA Pierre","pourcent_voix_ins":"31.18","code_nuance":"BC-DVD","numero_panneau":"3"}],"code":"41","pourcent_nuls_vot":"0","lib":"Chastanier","pourcent_blancs_vot":"1.59","nuls":"0","pourcent_vot_ins":"67.74","inscrits":"93","exprimes":"62","pourcent_abs_ins":"32.26"}
,{"abstentions":"21","pourcent_blancs_ins":"8.7","pourcent_nuls_ins":"1.45","pourcent_exp_vot":"85.42","votants":"48","pourcent_exp_ins":"59.42","blancs":"6","resultats":[{"pourcent_voix_exp":"73.17","voix":"30","binome":"Mme BEAUD Laurence et M. PALPACUER Bernard","pourcent_voix_ins":"43.48","code_nuance":"BC-DVG","numero_panneau":"2"},{"pourcent_voix_exp":"26.83","voix":"11","binome":"Mme LAROUMET Angélique et M. MURCIA Pierre","pourcent_voix_ins":"15.94","code_nuance":"BC-DVD","numero_panneau":"3"}],"code":"48","pourcent_nuls_vot":"2.08","lib":"Cheylard-l'Evêque","pourcent_blancs_vot":"12.5","nuls":"1","pourcent_vot_ins":"69.57","inscrits":"69","exprimes":"41","pourcent_abs_ins":"30.43"}
,{"abstentions":"46","pourcent_blancs_ins":"4.13","pourcent_nuls_ins":"1.65","pourcent_exp_vot":"90.67","votants":"75","pourcent_exp_ins":"56.2","blancs":"5","resultats":[{"pourcent_voix_exp":"70.59","voix":"48","binome":"Mme BEAUD Laurence et M. PALPACUER Bernard","pourcent_voix_ins":"39.67","code_nuance":"BC-DVG","numero_panneau":"2"},{"pourcent_voix_exp":"29.41","voix":"20","binome":"Mme LAROUMET Angélique et M. MURCIA Pierre","pourcent_voix_ins":"16.53","code_nuance":"BC-DVD","numero_panneau":"3"}],"code":"62","pourcent_nuls_vot":"2.67","lib":"Fontanes","pourcent_blancs_vot":"6.67","nuls":"2","pourcent_vot_ins":"61.98","inscrits":"121","exprimes":"68","pourcent_abs_ins":"38.02"}
,{"abstentions":"1050","pourcent_blancs_ins":"2.52","pourcent_nuls_ins":"2.26","pourcent_exp_vot":"91.21","votants":"1252","pourcent_exp_ins":"49.61","blancs":"58","resultats":[{"pourcent_voix_exp":"66.2","voix":"756","binome":"Mme BEAUD Laurence et M. PALPACUER Bernard","pourcent_voix_ins":"32.84","code_nuance":"BC-DVG","numero_panneau":"2"},{"pourcent_voix_exp":"33.8","voix":"386","binome":"Mme LAROUMET Angélique et M. MURCIA Pierre","pourcent_voix_ins":"16.77","code_nuance":"BC-DVD","numero_panneau":"3"}],"code":"80","pourcent_nuls_vot":"4.15","lib":"Langogne","pourcent_blancs_vot":"4.63","nuls":"52","pourcent_vot_ins":"54.39","inscrits":"2302","exprimes":"1142","pourcent_abs_ins":"45.61"}
,{"abstentions":"21","pourcent_blancs_ins":"1.23","pourcent_nuls_ins":"1.23","pourcent_exp_vot":"96.67","votants":"60","pourcent_exp_ins":"71.6","blancs":"1","resultats":[{"pourcent_voix_exp":"65.52","voix":"38","binome":"Mme BEAUD Laurence et M. PALPACUER Bernard","pourcent_voix_ins":"46.91","code_nuance":"BC-DVG","numero_panneau":"2"},{"pourcent_voix_exp":"34.48","voix":"20","binome":"Mme LAROUMET Angélique et M. MURCIA Pierre","pourcent_voix_ins":"24.69","code_nuance":"BC-DVD","numero_panneau":"3"}],"code":"84","pourcent_nuls_vot":"1.67","lib":"Laval-Atger","pourcent_blancs_vot":"1.67","nuls":"1","pourcent_vot_ins":"74.07","inscrits":"81","exprimes":"58","pourcent_abs_ins":"25.93"}
,{"abstentions":"88","pourcent_blancs_ins":"7.91","pourcent_nuls_ins":"0.93","pourcent_exp_vot":"85.04","votants":"127","pourcent_exp_ins":"50.23","blancs":"17","resultats":[{"pourcent_voix_exp":"62.96","voix":"68","binome":"Mme BEAUD Laurence et M. PALPACUER Bernard","pourcent_voix_ins":"31.63","code_nuance":"BC-DVG","numero_panneau":"2"},{"pourcent_voix_exp":"37.04","voix":"40","binome":"Mme LAROUMET Angélique et M. MURCIA Pierre","pourcent_voix_ins":"18.6","code_nuance":"BC-DVD","numero_panneau":"3"}],"code":"86","pourcent_nuls_vot":"1.57","lib":"Luc","pourcent_blancs_vot":"13.39","nuls":"2","pourcent_vot_ins":"59.07","inscrits":"215","exprimes":"108","pourcent_abs_ins":"40.93"}
,{"abstentions":"61","pourcent_blancs_ins":"5.43","pourcent_nuls_ins":"3.26","pourcent_exp_vot":"86.99","votants":"123","pourcent_exp_ins":"58.15","blancs":"10","resultats":[{"pourcent_voix_exp":"57.94","voix":"62","binome":"Mme BEAUD Laurence et M. PALPACUER Bernard","pourcent_voix_ins":"33.7","code_nuance":"BC-DVG","numero_panneau":"2"},{"pourcent_voix_exp":"42.06","voix":"45","binome":"Mme LAROUMET Angélique et M. MURCIA Pierre","pourcent_voix_ins":"24.46","code_nuance":"BC-DVD","numero_panneau":"3"}],"code":"105","pourcent_nuls_vot":"4.88","lib":"Naussac","pourcent_blancs_vot":"8.13","nuls":"6","pourcent_vot_ins":"66.85","inscrits":"184","exprimes":"107","pourcent_abs_ins":"33.15"}
,{"abstentions":"68","pourcent_blancs_ins":"0","pourcent_nuls_ins":"3.74","pourcent_exp_vot":"94.12","votants":"119","pourcent_exp_ins":"59.89","blancs":"0","resultats":[{"pourcent_voix_exp":"78.57","voix":"88","binome":"Mme BEAUD Laurence et M. PALPACUER Bernard","pourcent_voix_ins":"47.06","code_nuance":"BC-DVG","numero_panneau":"2"},{"pourcent_voix_exp":"21.43","voix":"24","binome":"Mme LAROUMET Angélique et M. MURCIA Pierre","pourcent_voix_ins":"12.83","code_nuance":"BC-DVD","numero_panneau":"3"}],"code":"129","pourcent_nuls_vot":"5.88","lib":"Rocles","pourcent_blancs_vot":"0","nuls":"7","pourcent_vot_ins":"63.64","inscrits":"187","exprimes":"112","pourcent_abs_ins":"36.36"}
,{"abstentions":"22","pourcent_blancs_ins":"0.93","pourcent_nuls_ins":"0","pourcent_exp_vot":"98.82","votants":"85","pourcent_exp_ins":"78.5","blancs":"1","resultats":[{"pourcent_voix_exp":"63.1","voix":"53","binome":"Mme BEAUD Laurence et M. PALPACUER Bernard","pourcent_voix_ins":"49.53","code_nuance":"BC-DVG","numero_panneau":"2"},{"pourcent_voix_exp":"36.9","voix":"31","binome":"Mme LAROUMET Angélique et M. MURCIA Pierre","pourcent_voix_ins":"28.97","code_nuance":"BC-DVD","numero_panneau":"3"}],"code":"139","pourcent_nuls_vot":"0","lib":"Saint-Bonnet-de-Montauroux","pourcent_blancs_vot":"1.18","nuls":"0","pourcent_vot_ins":"79.44","inscrits":"107","exprimes":"84","pourcent_abs_ins":"20.56"}
,{"abstentions":"60","pourcent_blancs_ins":"2.2","pourcent_nuls_ins":"2.2","pourcent_exp_vot":"93.44","votants":"122","pourcent_exp_ins":"62.64","blancs":"4","resultats":[{"pourcent_voix_exp":"53.51","voix":"61","binome":"Mme BEAUD Laurence et M. PALPACUER Bernard","pourcent_voix_ins":"33.52","code_nuance":"BC-DVG","numero_panneau":"2"},{"pourcent_voix_exp":"46.49","voix":"53","binome":"Mme LAROUMET Angélique et M. MURCIA Pierre","pourcent_voix_ins":"29.12","code_nuance":"BC-DVD","numero_panneau":"3"}],"code":"150","pourcent_nuls_vot":"3.28","lib":"Saint-Flour-de-Mercoire","pourcent_blancs_vot":"3.28","nuls":"4","pourcent_vot_ins":"67.03","inscrits":"182","exprimes":"114","pourcent_abs_ins":"32.97"}
,{"abstentions":"82","pourcent_blancs_ins":"4.28","pourcent_nuls_ins":"3.5","pourcent_exp_vot":"88.57","votants":"175","pourcent_exp_ins":"60.31","blancs":"11","resultats":[{"pourcent_voix_exp":"46.45","voix":"72","binome":"Mme BONNAL Nathalie et M. ROUJON Jean","pourcent_voix_ins":"28.02","code_nuance":"BC-DVD","numero_panneau":"2"},{"pourcent_voix_exp":"53.55","voix":"83","binome":"Mme BREMOND Patricia et M. DURAND Bernard","pourcent_voix_ins":"32.3","code_nuance":"BC-DVD","numero_panneau":"4"}],"code":"5","pourcent_nuls_vot":"5.14","lib":"Antrenas","pourcent_blancs_vot":"6.29","nuls":"9","pourcent_vot_ins":"68.09","inscrits":"257","exprimes":"155","pourcent_abs_ins":"31.91"}
,{"abstentions":"55","pourcent_blancs_ins":"7.19","pourcent_nuls_ins":"4.19","pourcent_exp_vot":"83.04","votants":"112","pourcent_exp_ins":"55.69","blancs":"12","resultats":[{"pourcent_voix_exp":"49.46","voix":"46","binome":"Mme BONNAL Nathalie et M. ROUJON Jean","pourcent_voix_ins":"27.54","code_nuance":"BC-DVD","numero_panneau":"2"},{"pourcent_voix_exp":"50.54","voix":"47","binome":"Mme BREMOND Patricia et M. DURAND Bernard","pourcent_voix_ins":"28.14","code_nuance":"BC-DVD","numero_panneau":"4"}],"code":"78","pourcent_nuls_vot":"6.25","lib":"Lachamp","pourcent_blancs_vot":"10.71","nuls":"7","pourcent_vot_ins":"67.07","inscrits":"167","exprimes":"93","pourcent_abs_ins":"32.93"}
,{"abstentions":"1297","pourcent_blancs_ins":"4.97","pourcent_nuls_ins":"3.94","pourcent_exp_vot":"85.34","votants":"2005","pourcent_exp_ins":"51.82","blancs":"164","resultats":[{"pourcent_voix_exp":"43.83","voix":"750","binome":"Mme BONNAL Nathalie et M. ROUJON Jean","pourcent_voix_ins":"22.71","code_nuance":"BC-DVD","numero_panneau":"2"},{"pourcent_voix_exp":"56.17","voix":"961","binome":"Mme BREMOND Patricia et M. DURAND Bernard","pourcent_voix_ins":"29.1","code_nuance":"BC-DVD","numero_panneau":"4"}],"code":"92","pourcent_nuls_vot":"6.48","lib":"Marvejols","pourcent_blancs_vot":"8.18","nuls":"130","pourcent_vot_ins":"60.72","inscrits":"3302","exprimes":"1711","pourcent_abs_ins":"39.28"}
,{"abstentions":"25","pourcent_blancs_ins":"2.27","pourcent_nuls_ins":"6.82","pourcent_exp_vot":"87.3","votants":"63","pourcent_exp_ins":"62.5","blancs":"2","resultats":[{"pourcent_voix_exp":"61.82","voix":"34","binome":"Mme BONNAL Nathalie et M. ROUJON Jean","pourcent_voix_ins":"38.64","code_nuance":"BC-DVD","numero_panneau":"2"},{"pourcent_voix_exp":"38.18","voix":"21","binome":"Mme BREMOND Patricia et M. DURAND Bernard","pourcent_voix_ins":"23.86","code_nuance":"BC-DVD","numero_panneau":"4"}],"code":"124","pourcent_nuls_vot":"9.52","lib":"Recoules-de-Fumas","pourcent_blancs_vot":"3.17","nuls":"6","pourcent_vot_ins":"71.59","inscrits":"88","exprimes":"55","pourcent_abs_ins":"28.41"}
,{"abstentions":"33","pourcent_blancs_ins":"2.47","pourcent_nuls_ins":"2.47","pourcent_exp_vot":"93.8","votants":"129","pourcent_exp_ins":"74.69","blancs":"4","resultats":[{"pourcent_voix_exp":"73.55","voix":"89","binome":"Mme BONNAL Nathalie et M. ROUJON Jean","pourcent_voix_ins":"54.94","code_nuance":"BC-DVD","numero_panneau":"2"},{"pourcent_voix_exp":"26.45","voix":"32","binome":"Mme BREMOND Patricia et M. DURAND Bernard","pourcent_voix_ins":"19.75","code_nuance":"BC-DVD","numero_panneau":"4"}],"code":"126","pourcent_nuls_vot":"3.1","lib":"Ribennes","pourcent_blancs_vot":"3.1","nuls":"4","pourcent_vot_ins":"79.63","inscrits":"162","exprimes":"121","pourcent_abs_ins":"20.37"}
,{"abstentions":"60","pourcent_blancs_ins":"8.24","pourcent_nuls_ins":"0","pourcent_exp_vot":"87.27","votants":"110","pourcent_exp_ins":"56.47","blancs":"14","resultats":[{"pourcent_voix_exp":"41.67","voix":"40","binome":"Mme BONNAL Nathalie et M. ROUJON Jean","pourcent_voix_ins":"23.53","code_nuance":"BC-DVD","numero_panneau":"2"},{"pourcent_voix_exp":"58.33","voix":"56","binome":"Mme BREMOND Patricia et M. DURAND Bernard","pourcent_voix_ins":"32.94","code_nuance":"BC-DVD","numero_panneau":"4"}],"code":"168","pourcent_nuls_vot":"0","lib":"Saint-Léger-de-Peyre","pourcent_blancs_vot":"12.73","nuls":"0","pourcent_vot_ins":"64.71","inscrits":"170","exprimes":"96","pourcent_abs_ins":"35.29"}
,{"abstentions":"38","pourcent_blancs_ins":"0.75","pourcent_nuls_ins":"3.76","pourcent_exp_vot":"93.68","votants":"95","pourcent_exp_ins":"66.92","blancs":"1","resultats":[{"pourcent_voix_exp":"53.93","voix":"48","binome":"Mme BONNAL Nathalie et M. ROUJON Jean","pourcent_voix_ins":"36.09","code_nuance":"BC-DVD","numero_panneau":"2"},{"pourcent_voix_exp":"46.07","voix":"41","binome":"Mme BREMOND Patricia et M. DURAND Bernard","pourcent_voix_ins":"30.83","code_nuance":"BC-DVD","numero_panneau":"4"}],"code":"189","pourcent_nuls_vot":"5.26","lib":"Servières","pourcent_blancs_vot":"1.05","nuls":"5","pourcent_vot_ins":"71.43","inscrits":"133","exprimes":"89","pourcent_abs_ins":"28.57"}
,{"abstentions":"1439","pourcent_blancs_ins":"2.05","pourcent_nuls_ins":"2.52","pourcent_exp_vot":"93.1","votants":"2813","pourcent_exp_ins":"61.59","blancs":"87","resultats":[{"pourcent_voix_exp":"52.65","voix":"1379","binome":"Mme BOURGADE Régine et M. SUAU Laurent","pourcent_voix_ins":"32.43","code_nuance":"BC-UG","numero_panneau":"4"},{"pourcent_voix_exp":"47.35","voix":"1240","binome":"Mme BRUNEL Ginette et M. HENRY Christophe","pourcent_voix_ins":"29.16","code_nuance":"BC-DVD","numero_panneau":"3"}],"code":"95","pourcent_nuls_vot":"3.8","lib":"Mende","pourcent_blancs_vot":"3.09","nuls":"107","pourcent_vot_ins":"66.16","inscrits":"4252","exprimes":"2619","pourcent_abs_ins":"33.84"}
,{"abstentions":"1441","pourcent_blancs_ins":"2.49","pourcent_nuls_ins":"1.74","pourcent_exp_vot":"92.74","votants":"2010","pourcent_exp_ins":"54.01","blancs":"86","resultats":[{"pourcent_voix_exp":"54.83","voix":"1022","binome":"Mme AMARGER-BRAJON Françoise et M. MOULIN Jean-Claude","pourcent_voix_ins":"29.61","code_nuance":"BC-SOC","numero_panneau":"2"},{"pourcent_voix_exp":"45.17","voix":"842","binome":"M. CORRIGES André et Mme DIAS DA SILVA Marisa","pourcent_voix_ins":"24.4","code_nuance":"BC-DVD","numero_panneau":"1"}],"code":"95","pourcent_nuls_vot":"2.99","lib":"Mende","pourcent_blancs_vot":"4.28","nuls":"60","pourcent_vot_ins":"58.24","inscrits":"3451","exprimes":"1864","pourcent_abs_ins":"41.76"}
,{"abstentions":"197","pourcent_blancs_ins":"4.33","pourcent_nuls_ins":"3.4","pourcent_exp_vot":"88.89","votants":"450","pourcent_exp_ins":"61.82","blancs":"28","resultats":[{"pourcent_voix_exp":"30","voix":"120","binome":"M. BONHOMME Jean-Paul et Mme SAINT LEGER Ludivine","pourcent_voix_ins":"18.55","code_nuance":"BC-DVD","numero_panneau":"2"},{"pourcent_voix_exp":"70","voix":"280","binome":"Mme DALLE Sabine et M. SAINT-LEGER Patrice","pourcent_voix_ins":"43.28","code_nuance":"BC-DVD","numero_panneau":"3"}],"code":"42","pourcent_nuls_vot":"4.89","lib":"Chastel-Nouvel","pourcent_blancs_vot":"6.22","nuls":"22","pourcent_vot_ins":"69.55","inscrits":"647","exprimes":"400","pourcent_abs_ins":"30.45"}
,{"abstentions":"24","pourcent_blancs_ins":"7.79","pourcent_nuls_ins":"0","pourcent_exp_vot":"88.68","votants":"53","pourcent_exp_ins":"61.04","blancs":"6","resultats":[{"pourcent_voix_exp":"59.57","voix":"28","binome":"M. BONHOMME Jean-Paul et Mme SAINT LEGER Ludivine","pourcent_voix_ins":"36.36","code_nuance":"BC-DVD","numero_panneau":"2"},{"pourcent_voix_exp":"40.43","voix":"19","binome":"Mme DALLE Sabine et M. SAINT-LEGER Patrice","pourcent_voix_ins":"24.68","code_nuance":"BC-DVD","numero_panneau":"3"}],"code":"46","pourcent_nuls_vot":"0","lib":"Chaulhac","pourcent_blancs_vot":"11.32","nuls":"0","pourcent_vot_ins":"68.83","inscrits":"77","exprimes":"47","pourcent_abs_ins":"31.17"}
,{"abstentions":"43","pourcent_blancs_ins":"0","pourcent_nuls_ins":"4.09","pourcent_exp_vot":"94.53","votants":"128","pourcent_exp_ins":"70.76","blancs":"0","resultats":[{"pourcent_voix_exp":"27.27","voix":"33","binome":"M. BONHOMME Jean-Paul et Mme SAINT LEGER Ludivine","pourcent_voix_ins":"19.3","code_nuance":"BC-DVD","numero_panneau":"2"},{"pourcent_voix_exp":"72.73","voix":"88","binome":"Mme DALLE Sabine et M. SAINT-LEGER Patrice","pourcent_voix_ins":"51.46","code_nuance":"BC-DVD","numero_panneau":"3"}],"code":"57","pourcent_nuls_vot":"5.47","lib":"Estables","pourcent_blancs_vot":"0","nuls":"7","pourcent_vot_ins":"74.85","inscrits":"171","exprimes":"121","pourcent_abs_ins":"25.15"}
,{"abstentions":"57","pourcent_blancs_ins":"2.39","pourcent_nuls_ins":"3.35","pourcent_exp_vot":"92.11","votants":"152","pourcent_exp_ins":"66.99","blancs":"5","resultats":[{"pourcent_voix_exp":"71.43","voix":"100","binome":"M. BONHOMME Jean-Paul et Mme SAINT LEGER Ludivine","pourcent_voix_ins":"47.85","code_nuance":"BC-DVD","numero_panneau":"2"},{"pourcent_voix_exp":"28.57","voix":"40","binome":"Mme DALLE Sabine et M. SAINT-LEGER Patrice","pourcent_voix_ins":"19.14","code_nuance":"BC-DVD","numero_panneau":"3"}],"code":"63","pourcent_nuls_vot":"4.61","lib":"Fontans","pourcent_blancs_vot":"3.29","nuls":"7","pourcent_vot_ins":"72.73","inscrits":"209","exprimes":"140","pourcent_abs_ins":"27.27"}
,{"abstentions":"25","pourcent_blancs_ins":"0","pourcent_nuls_ins":"0","pourcent_exp_vot":"100","votants":"40","pourcent_exp_ins":"61.54","blancs":"0","resultats":[{"pourcent_voix_exp":"42.5","voix":"17","binome":"M. BONHOMME Jean-Paul et Mme SAINT LEGER Ludivine","pourcent_voix_ins":"26.15","code_nuance":"BC-DVD","numero_panneau":"2"},{"pourcent_voix_exp":"57.5","voix":"23","binome":"Mme DALLE Sabine et M. SAINT-LEGER Patrice","pourcent_voix_ins":"35.38","code_nuance":"BC-DVD","numero_panneau":"3"}],"code":"77","pourcent_nuls_vot":"0","lib":"Julianges","pourcent_blancs_vot":"0","nuls":"0","pourcent_vot_ins":"61.54","inscrits":"65","exprimes":"40","pourcent_abs_ins":"38.46"}
,{"abstentions":"25","pourcent_blancs_ins":"4.03","pourcent_nuls_ins":"2.42","pourcent_exp_vot":"91.92","votants":"99","pourcent_exp_ins":"73.39","blancs":"5","resultats":[{"pourcent_voix_exp":"61.54","voix":"56","binome":"M. BONHOMME Jean-Paul et Mme SAINT LEGER Ludivine","pourcent_voix_ins":"45.16","code_nuance":"BC-DVD","numero_panneau":"2"},{"pourcent_voix_exp":"38.46","voix":"35","binome":"Mme DALLE Sabine et M. SAINT-LEGER Patrice","pourcent_voix_ins":"28.23","code_nuance":"BC-DVD","numero_panneau":"3"}],"code":"79","pourcent_nuls_vot":"3.03","lib":"Lajo","pourcent_blancs_vot":"5.05","nuls":"3","pourcent_vot_ins":"79.84","inscrits":"124","exprimes":"91","pourcent_abs_ins":"20.16"}
,{"abstentions":"58","pourcent_blancs_ins":"2.56","pourcent_nuls_ins":"0.64","pourcent_exp_vot":"94.9","votants":"98","pourcent_exp_ins":"59.62","blancs":"4","resultats":[{"pourcent_voix_exp":"16.13","voix":"15","binome":"M. BONHOMME Jean-Paul et Mme SAINT LEGER Ludivine","pourcent_voix_ins":"9.62","code_nuance":"BC-DVD","numero_panneau":"2"},{"pourcent_voix_exp":"83.87","voix":"78","binome":"Mme DALLE Sabine et M. SAINT-LEGER Patrice","pourcent_voix_ins":"50","code_nuance":"BC-DVD","numero_panneau":"3"}],"code":"83","pourcent_nuls_vot":"1.02","lib":"Les Laubies","pourcent_blancs_vot":"4.08","nuls":"1","pourcent_vot_ins":"62.82","inscrits":"156","exprimes":"93","pourcent_abs_ins":"37.18"}
,{"abstentions":"117","pourcent_blancs_ins":"1.91","pourcent_nuls_ins":"3.1","pourcent_exp_vot":"93.05","votants":"302","pourcent_exp_ins":"67.06","blancs":"8","resultats":[{"pourcent_voix_exp":"32.38","voix":"91","binome":"M. BONHOMME Jean-Paul et Mme SAINT LEGER Ludivine","pourcent_voix_ins":"21.72","code_nuance":"BC-DVD","numero_panneau":"2"},{"pourcent_voix_exp":"67.62","voix":"190","binome":"Mme DALLE Sabine et M. SAINT-LEGER Patrice","pourcent_voix_ins":"45.35","code_nuance":"BC-DVD","numero_panneau":"3"}],"code":"89","pourcent_nuls_vot":"4.3","lib":"Le Malzieu-Forain","pourcent_blancs_vot":"2.65","nuls":"13","pourcent_vot_ins":"72.08","inscrits":"419","exprimes":"281","pourcent_abs_ins":"27.92"}
,{"abstentions":"156","pourcent_blancs_ins":"0.5","pourcent_nuls_ins":"2.98","pourcent_exp_vot":"95.31","votants":"448","pourcent_exp_ins":"70.7","blancs":"3","resultats":[{"pourcent_voix_exp":"48.01","voix":"205","binome":"M. BONHOMME Jean-Paul et Mme SAINT LEGER Ludivine","pourcent_voix_ins":"33.94","code_nuance":"BC-DVD","numero_panneau":"2"},{"pourcent_voix_exp":"51.99","voix":"222","binome":"Mme DALLE Sabine et M. SAINT-LEGER Patrice","pourcent_voix_ins":"36.75","code_nuance":"BC-DVD","numero_panneau":"3"}],"code":"90","pourcent_nuls_vot":"4.02","lib":"Le Malzieu-Ville","pourcent_blancs_vot":"0.67","nuls":"18","pourcent_vot_ins":"74.17","inscrits":"604","exprimes":"427","pourcent_abs_ins":"25.83"}
,{"abstentions":"45","pourcent_blancs_ins":"0","pourcent_nuls_ins":"4","pourcent_exp_vot":"92.73","votants":"55","pourcent_exp_ins":"51","blancs":"0","resultats":[{"pourcent_voix_exp":"47.06","voix":"24","binome":"M. BONHOMME Jean-Paul et Mme SAINT LEGER Ludivine","pourcent_voix_ins":"24","code_nuance":"BC-DVD","numero_panneau":"2"},{"pourcent_voix_exp":"52.94","voix":"27","binome":"Mme DALLE Sabine et M. SAINT-LEGER Patrice","pourcent_voix_ins":"27","code_nuance":"BC-DVD","numero_panneau":"3"}],"code":"110","pourcent_nuls_vot":"7.27","lib":"Paulhac-en-Margeride","pourcent_blancs_vot":"0","nuls":"4","pourcent_vot_ins":"55","inscrits":"100","exprimes":"51","pourcent_abs_ins":"45"}
,{"abstentions":"110","pourcent_blancs_ins":"0.33","pourcent_nuls_ins":"0.99","pourcent_exp_vot":"98.38","votants":"494","pourcent_exp_ins":"80.46","blancs":"2","resultats":[{"pourcent_voix_exp":"18.93","voix":"92","binome":"M. BONHOMME Jean-Paul et Mme SAINT LEGER Ludivine","pourcent_voix_ins":"15.23","code_nuance":"BC-DVD","numero_panneau":"2"},{"pourcent_voix_exp":"81.07","voix":"394","binome":"Mme DALLE Sabine et M. SAINT-LEGER Patrice","pourcent_voix_ins":"65.23","code_nuance":"BC-DVD","numero_panneau":"3"}],"code":"127","pourcent_nuls_vot":"1.21","lib":"Rieutort-de-Randon","pourcent_blancs_vot":"0.4","nuls":"6","pourcent_vot_ins":"81.79","inscrits":"604","exprimes":"486","pourcent_abs_ins":"18.21"}
,{"abstentions":"287","pourcent_blancs_ins":"2.16","pourcent_nuls_ins":"1.58","pourcent_exp_vot":"95.08","votants":"915","pourcent_exp_ins":"72.38","blancs":"26","resultats":[{"pourcent_voix_exp":"58.28","voix":"507","binome":"M. BONHOMME Jean-Paul et Mme SAINT LEGER Ludivine","pourcent_voix_ins":"42.18","code_nuance":"BC-DVD","numero_panneau":"2"},{"pourcent_voix_exp":"41.72","voix":"363","binome":"Mme DALLE Sabine et M. SAINT-LEGER Patrice","pourcent_voix_ins":"30.2","code_nuance":"BC-DVD","numero_panneau":"3"}],"code":"132","pourcent_nuls_vot":"2.08","lib":"Saint-Alban-sur-Limagnole","pourcent_blancs_vot":"2.84","nuls":"19","pourcent_vot_ins":"76.12","inscrits":"1202","exprimes":"870","pourcent_abs_ins":"23.88"}
,{"abstentions":"27","pourcent_blancs_ins":"3.47","pourcent_nuls_ins":"0.69","pourcent_exp_vot":"94.87","votants":"117","pourcent_exp_ins":"77.08","blancs":"5","resultats":[{"pourcent_voix_exp":"27.03","voix":"30","binome":"M. BONHOMME Jean-Paul et Mme SAINT LEGER Ludivine","pourcent_voix_ins":"20.83","code_nuance":"BC-DVD","numero_panneau":"2"},{"pourcent_voix_exp":"72.97","voix":"81","binome":"Mme DALLE Sabine et M. SAINT-LEGER Patrice","pourcent_voix_ins":"56.25","code_nuance":"BC-DVD","numero_panneau":"3"}],"code":"133","pourcent_nuls_vot":"0.85","lib":"Saint-Amans","pourcent_blancs_vot":"4.27","nuls":"1","pourcent_vot_ins":"81.25","inscrits":"144","exprimes":"111","pourcent_abs_ins":"18.75"}
,{"abstentions":"61","pourcent_blancs_ins":"0","pourcent_nuls_ins":"1.01","pourcent_exp_vot":"98.54","votants":"137","pourcent_exp_ins":"68.18","blancs":"0","resultats":[{"pourcent_voix_exp":"37.04","voix":"50","binome":"M. BONHOMME Jean-Paul et Mme SAINT LEGER Ludivine","pourcent_voix_ins":"25.25","code_nuance":"BC-DVD","numero_panneau":"2"},{"pourcent_voix_exp":"62.96","voix":"85","binome":"Mme DALLE Sabine et M. SAINT-LEGER Patrice","pourcent_voix_ins":"42.93","code_nuance":"BC-DVD","numero_panneau":"3"}],"code":"145","pourcent_nuls_vot":"1.46","lib":"Saint-Denis-en-Margeride","pourcent_blancs_vot":"0","nuls":"2","pourcent_vot_ins":"69.19","inscrits":"198","exprimes":"135","pourcent_abs_ins":"30.81"}
,{"abstentions":"7","pourcent_blancs_ins":"1.85","pourcent_nuls_ins":"0","pourcent_exp_vot":"97.87","votants":"47","pourcent_exp_ins":"85.19","blancs":"1","resultats":[{"pourcent_voix_exp":"47.83","voix":"22","binome":"M. BONHOMME Jean-Paul et Mme SAINT LEGER Ludivine","pourcent_voix_ins":"40.74","code_nuance":"BC-DVD","numero_panneau":"2"},{"pourcent_voix_exp":"52.17","voix":"24","binome":"Mme DALLE Sabine et M. SAINT-LEGER Patrice","pourcent_voix_ins":"44.44","code_nuance":"BC-DVD","numero_panneau":"3"}],"code":"149","pourcent_nuls_vot":"0","lib":"Sainte-Eulalie","pourcent_blancs_vot":"2.13","nuls":"0","pourcent_vot_ins":"87.04","inscrits":"54","exprimes":"46","pourcent_abs_ins":"12.96"}
,{"abstentions":"23","pourcent_blancs_ins":"2.9","pourcent_nuls_ins":"2.9","pourcent_exp_vot":"91.3","votants":"46","pourcent_exp_ins":"60.87","blancs":"2","resultats":[{"pourcent_voix_exp":"30.95","voix":"13","binome":"M. BONHOMME Jean-Paul et Mme SAINT LEGER Ludivine","pourcent_voix_ins":"18.84","code_nuance":"BC-DVD","numero_panneau":"2"},{"pourcent_voix_exp":"69.05","voix":"29","binome":"Mme DALLE Sabine et M. SAINT-LEGER Patrice","pourcent_voix_ins":"42.03","code_nuance":"BC-DVD","numero_panneau":"3"}],"code":"153","pourcent_nuls_vot":"4.35","lib":"Saint-Gal","pourcent_blancs_vot":"4.35","nuls":"2","pourcent_vot_ins":"66.67","inscrits":"69","exprimes":"42","pourcent_abs_ins":"33.33"}
,{"abstentions":"61","pourcent_blancs_ins":"9.41","pourcent_nuls_ins":"3.96","pourcent_exp_vot":"80.85","votants":"141","pourcent_exp_ins":"56.44","blancs":"19","resultats":[{"pourcent_voix_exp":"39.47","voix":"45","binome":"M. BONHOMME Jean-Paul et Mme SAINT LEGER Ludivine","pourcent_voix_ins":"22.28","code_nuance":"BC-DVD","numero_panneau":"2"},{"pourcent_voix_exp":"60.53","voix":"69","binome":"Mme DALLE Sabine et M. SAINT-LEGER Patrice","pourcent_voix_ins":"34.16","code_nuance":"BC-DVD","numero_panneau":"3"}],"code":"169","pourcent_nuls_vot":"5.67","lib":"Saint-Léger-du-Malzieu","pourcent_blancs_vot":"13.48","nuls":"8","pourcent_vot_ins":"69.8","inscrits":"202","exprimes":"114","pourcent_abs_ins":"30.2"}
,{"abstentions":"29","pourcent_blancs_ins":"4.46","pourcent_nuls_ins":"1.79","pourcent_exp_vot":"91.57","votants":"83","pourcent_exp_ins":"67.86","blancs":"5","resultats":[{"pourcent_voix_exp":"47.37","voix":"36","binome":"M. BONHOMME Jean-Paul et Mme SAINT LEGER Ludivine","pourcent_voix_ins":"32.14","code_nuance":"BC-DVD","numero_panneau":"2"},{"pourcent_voix_exp":"52.63","voix":"40","binome":"Mme DALLE Sabine et M. SAINT-LEGER Patrice","pourcent_voix_ins":"35.71","code_nuance":"BC-DVD","numero_panneau":"3"}],"code":"179","pourcent_nuls_vot":"2.41","lib":"Saint-Privat-du-Fau","pourcent_blancs_vot":"6.02","nuls":"2","pourcent_vot_ins":"74.11","inscrits":"112","exprimes":"76","pourcent_abs_ins":"25.89"}
,{"abstentions":"47","pourcent_blancs_ins":"3.16","pourcent_nuls_ins":"0.53","pourcent_exp_vot":"95.1","votants":"143","pourcent_exp_ins":"71.58","blancs":"6","resultats":[{"pourcent_voix_exp":"58.09","voix":"79","binome":"M. BONHOMME Jean-Paul et Mme SAINT LEGER Ludivine","pourcent_voix_ins":"41.58","code_nuance":"BC-DVD","numero_panneau":"2"},{"pourcent_voix_exp":"41.91","voix":"57","binome":"Mme DALLE Sabine et M. SAINT-LEGER Patrice","pourcent_voix_ins":"30","code_nuance":"BC-DVD","numero_panneau":"3"}],"code":"188","pourcent_nuls_vot":"0.7","lib":"Serverette","pourcent_blancs_vot":"4.2","nuls":"1","pourcent_vot_ins":"75.26","inscrits":"190","exprimes":"136","pourcent_abs_ins":"24.74"}
,{"abstentions":"13","pourcent_blancs_ins":"0","pourcent_nuls_ins":"0","pourcent_exp_vot":"100","votants":"33","pourcent_exp_ins":"71.74","blancs":"0","resultats":[{"pourcent_voix_exp":"21.21","voix":"7","binome":"M. BONHOMME Jean-Paul et Mme SAINT LEGER Ludivine","pourcent_voix_ins":"15.22","code_nuance":"BC-DVD","numero_panneau":"2"},{"pourcent_voix_exp":"78.79","voix":"26","binome":"Mme DALLE Sabine et M. SAINT-LEGER Patrice","pourcent_voix_ins":"56.52","code_nuance":"BC-DVD","numero_panneau":"3"}],"code":"197","pourcent_nuls_vot":"0","lib":"La Villedieu","pourcent_blancs_vot":"0","nuls":"0","pourcent_vot_ins":"71.74","inscrits":"46","exprimes":"33","pourcent_abs_ins":"28.26"}
,{"abstentions":"97","pourcent_blancs_ins":"2.11","pourcent_nuls_ins":"1.27","pourcent_exp_vot":"95.76","votants":"377","pourcent_exp_ins":"76.16","blancs":"10","resultats":[{"pourcent_voix_exp":"14.13","voix":"51","binome":"Mme BOURGEOIS Ghislaine et M. LAFONT Pierre","pourcent_voix_ins":"10.76","code_nuance":"BC-DVD","numero_panneau":"1"},{"pourcent_voix_exp":"85.87","voix":"310","binome":"Mme HUGON Christine et M. THEROND Michel","pourcent_voix_ins":"65.4","code_nuance":"BC-DVD","numero_panneau":"3"}],"code":"2","pourcent_nuls_vot":"1.59","lib":"Albaret-Sainte-Marie","pourcent_blancs_vot":"2.65","nuls":"6","pourcent_vot_ins":"79.54","inscrits":"474","exprimes":"361","pourcent_abs_ins":"20.46"}
,{"abstentions":"64","pourcent_blancs_ins":"0.93","pourcent_nuls_ins":"4.21","pourcent_exp_vot":"92.67","votants":"150","pourcent_exp_ins":"64.95","blancs":"2","resultats":[{"pourcent_voix_exp":"42.45","voix":"59","binome":"Mme BOURGEOIS Ghislaine et M. LAFONT Pierre","pourcent_voix_ins":"27.57","code_nuance":"BC-DVD","numero_panneau":"1"},{"pourcent_voix_exp":"57.55","voix":"80","binome":"Mme HUGON Christine et M. THEROND Michel","pourcent_voix_ins":"37.38","code_nuance":"BC-DVD","numero_panneau":"3"}],"code":"26","pourcent_nuls_vot":"6","lib":"Blavignac","pourcent_blancs_vot":"1.33","nuls":"9","pourcent_vot_ins":"70.09","inscrits":"214","exprimes":"139","pourcent_abs_ins":"29.91"}
,{"abstentions":"59","pourcent_blancs_ins":"8.37","pourcent_nuls_ins":"2.79","pourcent_exp_vot":"84.62","votants":"156","pourcent_exp_ins":"61.4","blancs":"18","resultats":[{"pourcent_voix_exp":"25","voix":"33","binome":"Mme BOURGEOIS Ghislaine et M. LAFONT Pierre","pourcent_voix_ins":"15.35","code_nuance":"BC-DVD","numero_panneau":"1"},{"pourcent_voix_exp":"75","voix":"99","binome":"Mme HUGON Christine et M. THEROND Michel","pourcent_voix_ins":"46.05","code_nuance":"BC-DVD","numero_panneau":"3"}],"code":"121","pourcent_nuls_vot":"3.85","lib":"Prunières","pourcent_blancs_vot":"11.54","nuls":"6","pourcent_vot_ins":"72.56","inscrits":"215","exprimes":"132","pourcent_abs_ins":"27.44"}
,{"abstentions":"156","pourcent_blancs_ins":"4.15","pourcent_nuls_ins":"2.9","pourcent_exp_vot":"89.57","votants":"326","pourcent_exp_ins":"60.58","blancs":"20","resultats":[{"pourcent_voix_exp":"44.18","voix":"129","binome":"Mme BOURGEOIS Ghislaine et M. LAFONT Pierre","pourcent_voix_ins":"26.76","code_nuance":"BC-DVD","numero_panneau":"1"},{"pourcent_voix_exp":"55.82","voix":"163","binome":"Mme HUGON Christine et M. THEROND Michel","pourcent_voix_ins":"33.82","code_nuance":"BC-DVD","numero_panneau":"3"}],"code":"128","pourcent_nuls_vot":"4.29","lib":"Rimeize","pourcent_blancs_vot":"6.13","nuls":"14","pourcent_vot_ins":"67.63","inscrits":"482","exprimes":"292","pourcent_abs_ins":"32.37"}
,{"abstentions":"843","pourcent_blancs_ins":"2.81","pourcent_nuls_ins":"2.57","pourcent_exp_vot":"92.36","votants":"2002","pourcent_exp_ins":"64.99","blancs":"80","resultats":[{"pourcent_voix_exp":"51.49","voix":"952","binome":"Mme BOURGEOIS Ghislaine et M. LAFONT Pierre","pourcent_voix_ins":"33.46","code_nuance":"BC-DVD","numero_panneau":"1"},{"pourcent_voix_exp":"48.51","voix":"897","binome":"Mme HUGON Christine et M. THEROND Michel","pourcent_voix_ins":"31.53","code_nuance":"BC-DVD","numero_panneau":"3"}],"code":"140","pourcent_nuls_vot":"3.65","lib":"Saint-Chély-d'Apcher","pourcent_blancs_vot":"4","nuls":"73","pourcent_vot_ins":"70.37","inscrits":"2845","exprimes":"1849","pourcent_abs_ins":"29.63"}
,{"abstentions":"66","pourcent_blancs_ins":"2.64","pourcent_nuls_ins":"3.02","pourcent_exp_vot":"92.46","votants":"199","pourcent_exp_ins":"69.43","blancs":"7","resultats":[{"pourcent_voix_exp":"38.04","voix":"70","binome":"Mme BOURGEOIS Ghislaine et M. LAFONT Pierre","pourcent_voix_ins":"26.42","code_nuance":"BC-DVD","numero_panneau":"1"},{"pourcent_voix_exp":"61.96","voix":"114","binome":"Mme HUGON Christine et M. THEROND Michel","pourcent_voix_ins":"43.02","code_nuance":"BC-DVD","numero_panneau":"3"}],"code":"177","pourcent_nuls_vot":"4.02","lib":"Saint-Pierre-le-Vieux","pourcent_blancs_vot":"3.52","nuls":"8","pourcent_vot_ins":"75.09","inscrits":"265","exprimes":"184","pourcent_abs_ins":"24.91"}
,{"abstentions":"62","pourcent_blancs_ins":"1.8","pourcent_nuls_ins":"0.45","pourcent_exp_vot":"96.88","votants":"160","pourcent_exp_ins":"69.82","blancs":"4","resultats":[{"pourcent_voix_exp":"10.97","voix":"17","binome":"M. COURTES Francis et Mme PANTEL Sophie","pourcent_voix_ins":"7.66","code_nuance":"BC-DVG","numero_panneau":"1"},{"pourcent_voix_exp":"89.03","voix":"138","binome":"M. DE LESCURE Jean et Mme MASSADOR Marjorie","pourcent_voix_ins":"62.16","code_nuance":"BC-UMP","numero_panneau":"2"}],"code":"4","pourcent_nuls_vot":"0.63","lib":"Altier","pourcent_blancs_vot":"2.5","nuls":"1","pourcent_vot_ins":"72.07","inscrits":"222","exprimes":"155","pourcent_abs_ins":"27.93"}
,{"abstentions":"34","pourcent_blancs_ins":"2.76","pourcent_nuls_ins":"0","pourcent_exp_vot":"96.6","votants":"147","pourcent_exp_ins":"78.45","blancs":"5","resultats":[{"pourcent_voix_exp":"64.79","voix":"92","binome":"M. COURTES Francis et Mme PANTEL Sophie","pourcent_voix_ins":"50.83","code_nuance":"BC-DVG","numero_panneau":"1"},{"pourcent_voix_exp":"35.21","voix":"50","binome":"M. DE LESCURE Jean et Mme MASSADOR Marjorie","pourcent_voix_ins":"27.62","code_nuance":"BC-UMP","numero_panneau":"2"}],"code":"14","pourcent_nuls_vot":"0","lib":"Bagnols-les-Bains","pourcent_blancs_vot":"3.4","nuls":"0","pourcent_vot_ins":"81.22","inscrits":"181","exprimes":"142","pourcent_abs_ins":"18.78"}
,{"abstentions":"58","pourcent_blancs_ins":"1.15","pourcent_nuls_ins":"1.15","pourcent_exp_vot":"96.55","votants":"116","pourcent_exp_ins":"64.37","blancs":"2","resultats":[{"pourcent_voix_exp":"24.11","voix":"27","binome":"M. COURTES Francis et Mme PANTEL Sophie","pourcent_voix_ins":"15.52","code_nuance":"BC-DVG","numero_panneau":"1"},{"pourcent_voix_exp":"75.89","voix":"85","binome":"M. DE LESCURE Jean et Mme MASSADOR Marjorie","pourcent_voix_ins":"48.85","code_nuance":"BC-UMP","numero_panneau":"2"}],"code":"15","pourcent_nuls_vot":"1.72","lib":"Pied-de-Borne","pourcent_blancs_vot":"1.72","nuls":"2","pourcent_vot_ins":"66.67","inscrits":"174","exprimes":"112","pourcent_abs_ins":"33.33"}
,{"abstentions":"51","pourcent_blancs_ins":"2.47","pourcent_nuls_ins":"0","pourcent_exp_vot":"96.4","votants":"111","pourcent_exp_ins":"66.05","blancs":"4","resultats":[{"pourcent_voix_exp":"16.82","voix":"18","binome":"M. COURTES Francis et Mme PANTEL Sophie","pourcent_voix_ins":"11.11","code_nuance":"BC-DVG","numero_panneau":"1"},{"pourcent_voix_exp":"83.18","voix":"89","binome":"M. DE LESCURE Jean et Mme MASSADOR Marjorie","pourcent_voix_ins":"54.94","code_nuance":"BC-UMP","numero_panneau":"2"}],"code":"21","pourcent_nuls_vot":"0","lib":"La Bastide-Puylaurent","pourcent_blancs_vot":"3.6","nuls":"0","pourcent_vot_ins":"68.52","inscrits":"162","exprimes":"107","pourcent_abs_ins":"31.48"}
,{"abstentions":"99","pourcent_blancs_ins":"2.08","pourcent_nuls_ins":"1.25","pourcent_exp_vot":"94.33","votants":"141","pourcent_exp_ins":"55.42","blancs":"5","resultats":[{"pourcent_voix_exp":"71.43","voix":"95","binome":"M. COURTES Francis et Mme PANTEL Sophie","pourcent_voix_ins":"39.58","code_nuance":"BC-DVG","numero_panneau":"1"},{"pourcent_voix_exp":"28.57","voix":"38","binome":"M. DE LESCURE Jean et Mme MASSADOR Marjorie","pourcent_voix_ins":"15.83","code_nuance":"BC-UMP","numero_panneau":"2"}],"code":"22","pourcent_nuls_vot":"2.13","lib":"Bédouès","pourcent_blancs_vot":"3.55","nuls":"3","pourcent_vot_ins":"58.75","inscrits":"240","exprimes":"133","pourcent_abs_ins":"41.25"}
,{"abstentions":"76","pourcent_blancs_ins":"1.06","pourcent_nuls_ins":"0.71","pourcent_exp_vot":"97.58","votants":"207","pourcent_exp_ins":"71.38","blancs":"3","resultats":[{"pourcent_voix_exp":"64.85","voix":"131","binome":"M. COURTES Francis et Mme PANTEL Sophie","pourcent_voix_ins":"46.29","code_nuance":"BC-DVG","numero_panneau":"1"},{"pourcent_voix_exp":"35.15","voix":"71","binome":"M. DE LESCURE Jean et Mme MASSADOR Marjorie","pourcent_voix_ins":"25.09","code_nuance":"BC-UMP","numero_panneau":"2"}],"code":"27","pourcent_nuls_vot":"0.97","lib":"Le Bleymard","pourcent_blancs_vot":"1.45","nuls":"2","pourcent_vot_ins":"73.14","inscrits":"283","exprimes":"202","pourcent_abs_ins":"26.86"}
,{"abstentions":"42","pourcent_blancs_ins":"1.91","pourcent_nuls_ins":"3.18","pourcent_exp_vot":"93.04","votants":"115","pourcent_exp_ins":"68.15","blancs":"3","resultats":[{"pourcent_voix_exp":"39.25","voix":"42","binome":"M. COURTES Francis et Mme PANTEL Sophie","pourcent_voix_ins":"26.75","code_nuance":"BC-DVG","numero_panneau":"1"},{"pourcent_voix_exp":"60.75","voix":"65","binome":"M. DE LESCURE Jean et Mme MASSADOR Marjorie","pourcent_voix_ins":"41.4","code_nuance":"BC-UMP","numero_panneau":"2"}],"code":"28","pourcent_nuls_vot":"4.35","lib":"Les Bondons","pourcent_blancs_vot":"2.61","nuls":"5","pourcent_vot_ins":"73.25","inscrits":"157","exprimes":"107","pourcent_abs_ins":"26.75"}
,{"abstentions":"86","pourcent_blancs_ins":"4.29","pourcent_nuls_ins":"1.79","pourcent_exp_vot":"91.24","votants":"194","pourcent_exp_ins":"63.21","blancs":"12","resultats":[{"pourcent_voix_exp":"60.45","voix":"107","binome":"M. COURTES Francis et Mme PANTEL Sophie","pourcent_voix_ins":"38.21","code_nuance":"BC-DVG","numero_panneau":"1"},{"pourcent_voix_exp":"39.55","voix":"70","binome":"M. DE LESCURE Jean et Mme MASSADOR Marjorie","pourcent_voix_ins":"25","code_nuance":"BC-UMP","numero_panneau":"2"}],"code":"30","pourcent_nuls_vot":"2.58","lib":"Brenoux","pourcent_blancs_vot":"6.19","nuls":"5","pourcent_vot_ins":"69.29","inscrits":"280","exprimes":"177","pourcent_abs_ins":"30.71"}
,{"abstentions":"69","pourcent_blancs_ins":"5.81","pourcent_nuls_ins":"1.16","pourcent_exp_vot":"88.35","votants":"103","pourcent_exp_ins":"52.91","blancs":"10","resultats":[{"pourcent_voix_exp":"53.85","voix":"49","binome":"M. COURTES Francis et Mme PANTEL Sophie","pourcent_voix_ins":"28.49","code_nuance":"BC-DVG","numero_panneau":"1"},{"pourcent_voix_exp":"46.15","voix":"42","binome":"M. DE LESCURE Jean et Mme MASSADOR Marjorie","pourcent_voix_ins":"24.42","code_nuance":"BC-UMP","numero_panneau":"2"}],"code":"40","pourcent_nuls_vot":"1.94","lib":"Chasseradès","pourcent_blancs_vot":"9.71","nuls":"2","pourcent_vot_ins":"59.88","inscrits":"172","exprimes":"91","pourcent_abs_ins":"40.12"}
,{"abstentions":"76","pourcent_blancs_ins":"1.79","pourcent_nuls_ins":"0.6","pourcent_exp_vot":"95.65","votants":"92","pourcent_exp_ins":"52.38","blancs":"3","resultats":[{"pourcent_voix_exp":"57.95","voix":"51","binome":"M. COURTES Francis et Mme PANTEL Sophie","pourcent_voix_ins":"30.36","code_nuance":"BC-DVG","numero_panneau":"1"},{"pourcent_voix_exp":"42.05","voix":"37","binome":"M. DE LESCURE Jean et Mme MASSADOR Marjorie","pourcent_voix_ins":"22.02","code_nuance":"BC-UMP","numero_panneau":"2"}],"code":"50","pourcent_nuls_vot":"1.09","lib":"Cocurès","pourcent_blancs_vot":"3.26","nuls":"1","pourcent_vot_ins":"54.76","inscrits":"168","exprimes":"88","pourcent_abs_ins":"45.24"}
,{"abstentions":"47","pourcent_blancs_ins":"0.51","pourcent_nuls_ins":"1.02","pourcent_exp_vot":"97.99","votants":"149","pourcent_exp_ins":"74.49","blancs":"1","resultats":[{"pourcent_voix_exp":"28.77","voix":"42","binome":"M. COURTES Francis et Mme PANTEL Sophie","pourcent_voix_ins":"21.43","code_nuance":"BC-DVG","numero_panneau":"1"},{"pourcent_voix_exp":"71.23","voix":"104","binome":"M. DE LESCURE Jean et Mme MASSADOR Marjorie","pourcent_voix_ins":"53.06","code_nuance":"BC-UMP","numero_panneau":"2"}],"code":"53","pourcent_nuls_vot":"1.34","lib":"Cubières","pourcent_blancs_vot":"0.67","nuls":"2","pourcent_vot_ins":"76.02","inscrits":"196","exprimes":"146","pourcent_abs_ins":"23.98"}
,{"abstentions":"15","pourcent_blancs_ins":"1.96","pourcent_nuls_ins":"0","pourcent_exp_vot":"97.22","votants":"36","pourcent_exp_ins":"68.63","blancs":"1","resultats":[{"pourcent_voix_exp":"57.14","voix":"20","binome":"M. COURTES Francis et Mme PANTEL Sophie","pourcent_voix_ins":"39.22","code_nuance":"BC-DVG","numero_panneau":"1"},{"pourcent_voix_exp":"42.86","voix":"15","binome":"M. DE LESCURE Jean et Mme MASSADOR Marjorie","pourcent_voix_ins":"29.41","code_nuance":"BC-UMP","numero_panneau":"2"}],"code":"54","pourcent_nuls_vot":"0","lib":"Cubiérettes","pourcent_blancs_vot":"2.78","nuls":"0","pourcent_vot_ins":"70.59","inscrits":"51","exprimes":"35","pourcent_abs_ins":"29.41"}
,{"abstentions":"42","pourcent_blancs_ins":"1.51","pourcent_nuls_ins":"2.51","pourcent_exp_vot":"94.9","votants":"157","pourcent_exp_ins":"74.87","blancs":"3","resultats":[{"pourcent_voix_exp":"72.48","voix":"108","binome":"M. COURTES Francis et Mme PANTEL Sophie","pourcent_voix_ins":"54.27","code_nuance":"BC-DVG","numero_panneau":"1"},{"pourcent_voix_exp":"27.52","voix":"41","binome":"M. DE LESCURE Jean et Mme MASSADOR Marjorie","pourcent_voix_ins":"20.6","code_nuance":"BC-UMP","numero_panneau":"2"}],"code":"66","pourcent_nuls_vot":"3.18","lib":"Fraissinet-de-Lozère","pourcent_blancs_vot":"1.91","nuls":"5","pourcent_vot_ins":"78.89","inscrits":"199","exprimes":"149","pourcent_abs_ins":"21.11"}
,{"abstentions":"74","pourcent_blancs_ins":"4.17","pourcent_nuls_ins":"2.08","pourcent_exp_vot":"90.96","votants":"166","pourcent_exp_ins":"62.92","blancs":"10","resultats":[{"pourcent_voix_exp":"70.2","voix":"106","binome":"M. COURTES Francis et Mme PANTEL Sophie","pourcent_voix_ins":"44.17","code_nuance":"BC-DVG","numero_panneau":"1"},{"pourcent_voix_exp":"29.8","voix":"45","binome":"M. DE LESCURE Jean et Mme MASSADOR Marjorie","pourcent_voix_ins":"18.75","code_nuance":"BC-UMP","numero_panneau":"2"}],"code":"81","pourcent_nuls_vot":"3.01","lib":"Lanuéjols","pourcent_blancs_vot":"6.02","nuls":"5","pourcent_vot_ins":"69.17","inscrits":"240","exprimes":"151","pourcent_abs_ins":"30.83"}
,{"abstentions":"32","pourcent_blancs_ins":"3.13","pourcent_nuls_ins":"0.78","pourcent_exp_vot":"94.79","votants":"96","pourcent_exp_ins":"71.09","blancs":"4","resultats":[{"pourcent_voix_exp":"46.15","voix":"42","binome":"M. COURTES Francis et Mme PANTEL Sophie","pourcent_voix_ins":"32.81","code_nuance":"BC-DVG","numero_panneau":"1"},{"pourcent_voix_exp":"53.85","voix":"49","binome":"M. DE LESCURE Jean et Mme MASSADOR Marjorie","pourcent_voix_ins":"38.28","code_nuance":"BC-UMP","numero_panneau":"2"}],"code":"93","pourcent_nuls_vot":"1.04","lib":"Mas-d'Orcières","pourcent_blancs_vot":"4.17","nuls":"1","pourcent_vot_ins":"75","inscrits":"128","exprimes":"91","pourcent_abs_ins":"25"}
,{"abstentions":"75","pourcent_blancs_ins":"2.6","pourcent_nuls_ins":"0.32","pourcent_exp_vot":"96.14","votants":"233","pourcent_exp_ins":"72.73","blancs":"8","resultats":[{"pourcent_voix_exp":"82.14","voix":"184","binome":"M. COURTES Francis et Mme PANTEL Sophie","pourcent_voix_ins":"59.74","code_nuance":"BC-DVG","numero_panneau":"1"},{"pourcent_voix_exp":"17.86","voix":"40","binome":"M. DE LESCURE Jean et Mme MASSADOR Marjorie","pourcent_voix_ins":"12.99","code_nuance":"BC-UMP","numero_panneau":"2"}],"code":"116","pourcent_nuls_vot":"0.43","lib":"Le Pont-de-Montvert","pourcent_blancs_vot":"3.43","nuls":"1","pourcent_vot_ins":"75.65","inscrits":"308","exprimes":"224","pourcent_abs_ins":"24.35"}
,{"abstentions":"25","pourcent_blancs_ins":"0.83","pourcent_nuls_ins":"0","pourcent_exp_vot":"98.96","votants":"96","pourcent_exp_ins":"78.51","blancs":"1","resultats":[{"pourcent_voix_exp":"41.05","voix":"39","binome":"M. COURTES Francis et Mme PANTEL Sophie","pourcent_voix_ins":"32.23","code_nuance":"BC-DVG","numero_panneau":"1"},{"pourcent_voix_exp":"58.95","voix":"56","binome":"M. DE LESCURE Jean et Mme MASSADOR Marjorie","pourcent_voix_ins":"46.28","code_nuance":"BC-UMP","numero_panneau":"2"}],"code":"117","pourcent_nuls_vot":"0","lib":"Pourcharesses","pourcent_blancs_vot":"1.04","nuls":"0","pourcent_vot_ins":"79.34","inscrits":"121","exprimes":"95","pourcent_abs_ins":"20.66"}
,{"abstentions":"66","pourcent_blancs_ins":"1.68","pourcent_nuls_ins":"0.84","pourcent_exp_vot":"96.51","votants":"172","pourcent_exp_ins":"69.75","blancs":"4","resultats":[{"pourcent_voix_exp":"19.88","voix":"33","binome":"M. COURTES Francis et Mme PANTEL Sophie","pourcent_voix_ins":"13.87","code_nuance":"BC-DVG","numero_panneau":"1"},{"pourcent_voix_exp":"80.12","voix":"133","binome":"M. DE LESCURE Jean et Mme MASSADOR Marjorie","pourcent_voix_ins":"55.88","code_nuance":"BC-UMP","numero_panneau":"2"}],"code":"119","pourcent_nuls_vot":"1.16","lib":"Prévenchères","pourcent_blancs_vot":"2.33","nuls":"2","pourcent_vot_ins":"72.27","inscrits":"238","exprimes":"166","pourcent_abs_ins":"27.73"}
,{"abstentions":"18","pourcent_blancs_ins":"1.52","pourcent_nuls_ins":"0","pourcent_exp_vot":"98.25","votants":"114","pourcent_exp_ins":"84.85","blancs":"2","resultats":[{"pourcent_voix_exp":"8.04","voix":"9","binome":"M. COURTES Francis et Mme PANTEL Sophie","pourcent_voix_ins":"6.82","code_nuance":"BC-DVG","numero_panneau":"1"},{"pourcent_voix_exp":"91.96","voix":"103","binome":"M. DE LESCURE Jean et Mme MASSADOR Marjorie","pourcent_voix_ins":"78.03","code_nuance":"BC-UMP","numero_panneau":"2"}],"code":"135","pourcent_nuls_vot":"0","lib":"Saint-André-Capcèze","pourcent_blancs_vot":"1.75","nuls":"0","pourcent_vot_ins":"86.36","inscrits":"132","exprimes":"112","pourcent_abs_ins":"13.64"}
,{"abstentions":"119","pourcent_blancs_ins":"2.3","pourcent_nuls_ins":"2.76","pourcent_exp_vot":"93.04","votants":"316","pourcent_exp_ins":"67.59","blancs":"10","resultats":[{"pourcent_voix_exp":"65.99","voix":"194","binome":"M. COURTES Francis et Mme PANTEL Sophie","pourcent_voix_ins":"44.6","code_nuance":"BC-DVG","numero_panneau":"1"},{"pourcent_voix_exp":"34.01","voix":"100","binome":"M. DE LESCURE Jean et Mme MASSADOR Marjorie","pourcent_voix_ins":"22.99","code_nuance":"BC-UMP","numero_panneau":"2"}],"code":"137","pourcent_nuls_vot":"3.8","lib":"Saint-Bauzile","pourcent_blancs_vot":"3.16","nuls":"12","pourcent_vot_ins":"72.64","inscrits":"435","exprimes":"294","pourcent_abs_ins":"27.36"}
,{"abstentions":"105","pourcent_blancs_ins":"1.45","pourcent_nuls_ins":"1.65","pourcent_exp_vot":"96.04","votants":"379","pourcent_exp_ins":"75.21","blancs":"7","resultats":[{"pourcent_voix_exp":"59.62","voix":"217","binome":"M. COURTES Francis et Mme PANTEL Sophie","pourcent_voix_ins":"44.83","code_nuance":"BC-DVG","numero_panneau":"1"},{"pourcent_voix_exp":"40.38","voix":"147","binome":"M. DE LESCURE Jean et Mme MASSADOR Marjorie","pourcent_voix_ins":"30.37","code_nuance":"BC-UMP","numero_panneau":"2"}],"code":"147","pourcent_nuls_vot":"2.11","lib":"Saint-Etienne-du-Valdonnez","pourcent_blancs_vot":"1.85","nuls":"8","pourcent_vot_ins":"78.31","inscrits":"484","exprimes":"364","pourcent_abs_ins":"21.69"}
,{"abstentions":"41","pourcent_blancs_ins":"0","pourcent_nuls_ins":"2.21","pourcent_exp_vot":"96.84","votants":"95","pourcent_exp_ins":"67.65","blancs":"0","resultats":[{"pourcent_voix_exp":"59.78","voix":"55","binome":"M. COURTES Francis et Mme PANTEL Sophie","pourcent_voix_ins":"40.44","code_nuance":"BC-DVG","numero_panneau":"1"},{"pourcent_voix_exp":"40.22","voix":"37","binome":"M. DE LESCURE Jean et Mme MASSADOR Marjorie","pourcent_voix_ins":"27.21","code_nuance":"BC-UMP","numero_panneau":"2"}],"code":"164","pourcent_nuls_vot":"3.16","lib":"Saint-Julien-du-Tournel","pourcent_blancs_vot":"0","nuls":"3","pourcent_vot_ins":"69.85","inscrits":"136","exprimes":"92","pourcent_abs_ins":"30.15"}
,{"abstentions":"12","pourcent_blancs_ins":"2.7","pourcent_nuls_ins":"2.7","pourcent_exp_vot":"93.55","votants":"62","pourcent_exp_ins":"78.38","blancs":"2","resultats":[{"pourcent_voix_exp":"91.38","voix":"53","binome":"M. COURTES Francis et Mme PANTEL Sophie","pourcent_voix_ins":"71.62","code_nuance":"BC-DVG","numero_panneau":"1"},{"pourcent_voix_exp":"8.62","voix":"5","binome":"M. DE LESCURE Jean et Mme MASSADOR Marjorie","pourcent_voix_ins":"6.76","code_nuance":"BC-UMP","numero_panneau":"2"}],"code":"172","pourcent_nuls_vot":"3.23","lib":"Saint-Maurice-de-Ventalon","pourcent_blancs_vot":"3.23","nuls":"2","pourcent_vot_ins":"83.78","inscrits":"74","exprimes":"58","pourcent_abs_ins":"16.22"}
,{"abstentions":"144","pourcent_blancs_ins":"3.59","pourcent_nuls_ins":"1.35","pourcent_exp_vot":"92.72","votants":"302","pourcent_exp_ins":"62.78","blancs":"16","resultats":[{"pourcent_voix_exp":"68.57","voix":"192","binome":"M. COURTES Francis et Mme PANTEL Sophie","pourcent_voix_ins":"43.05","code_nuance":"BC-DVG","numero_panneau":"1"},{"pourcent_voix_exp":"31.43","voix":"88","binome":"M. DE LESCURE Jean et Mme MASSADOR Marjorie","pourcent_voix_ins":"19.73","code_nuance":"BC-UMP","numero_panneau":"2"}],"code":"194","pourcent_nuls_vot":"1.99","lib":"Vialas","pourcent_blancs_vot":"5.3","nuls":"6","pourcent_vot_ins":"67.71","inscrits":"446","exprimes":"280","pourcent_abs_ins":"32.29"}
,{"abstentions":"126","pourcent_blancs_ins":"2.1","pourcent_nuls_ins":"0.63","pourcent_exp_vot":"96.29","votants":"350","pourcent_exp_ins":"70.8","blancs":"10","resultats":[{"pourcent_voix_exp":"20.47","voix":"69","binome":"M. COURTES Francis et Mme PANTEL Sophie","pourcent_voix_ins":"14.5","code_nuance":"BC-DVG","numero_panneau":"1"},{"pourcent_voix_exp":"79.53","voix":"268","binome":"M. DE LESCURE Jean et Mme MASSADOR Marjorie","pourcent_voix_ins":"56.3","code_nuance":"BC-UMP","numero_panneau":"2"}],"code":"198","pourcent_nuls_vot":"0.86","lib":"Villefort","pourcent_blancs_vot":"2.86","nuls":"3","pourcent_vot_ins":"73.53","inscrits":"476","exprimes":"337","pourcent_abs_ins":"26.47"}
]}
