{"status":"success","data":[{"abstentions":"750","pourcent_blancs_ins":"3.58","pourcent_nuls_ins":"1.88","pourcent_exp_vot":"89.96","votants":"896","pourcent_exp_ins":"48.97","blancs":"59","resultats":[{"pourcent_voix_exp":"46.9","voix":"378","binome":"M. DENIS Pierre et Mme GEOFFROY Céline","pourcent_voix_ins":"22.96","code_nuance":"BC-DVG","numero_panneau":"2"},{"pourcent_voix_exp":"53.1","voix":"428","binome":"M. CONREAUX Jean et Mme DISDIER Marie-Noëlle","pourcent_voix_ins":"26","code_nuance":"BC-DVD","numero_panneau":"4"}],"code":"6","pourcent_nuls_vot":"3.46","lib":"L'Argentière-la-Bessée","pourcent_blancs_vot":"6.58","nuls":"31","pourcent_vot_ins":"54.43","inscrits":"1646","exprimes":"806","pourcent_abs_ins":"45.57"}
,{"abstentions":"79","pourcent_blancs_ins":"4.98","pourcent_nuls_ins":"1","pourcent_exp_vot":"90.16","votants":"122","pourcent_exp_ins":"54.73","blancs":"10","resultats":[{"pourcent_voix_exp":"44.55","voix":"49","binome":"M. DENIS Pierre et Mme GEOFFROY Céline","pourcent_voix_ins":"24.38","code_nuance":"BC-DVG","numero_panneau":"2"},{"pourcent_voix_exp":"55.45","voix":"61","binome":"M. CONREAUX Jean et Mme DISDIER Marie-Noëlle","pourcent_voix_ins":"30.35","code_nuance":"BC-DVD","numero_panneau":"4"}],"code":"31","pourcent_nuls_vot":"1.64","lib":"Champcella","pourcent_blancs_vot":"8.2","nuls":"2","pourcent_vot_ins":"60.7","inscrits":"201","exprimes":"110","pourcent_abs_ins":"39.3"}
,{"abstentions":"79","pourcent_blancs_ins":"2.26","pourcent_nuls_ins":"0","pourcent_exp_vot":"95.92","votants":"98","pourcent_exp_ins":"53.11","blancs":"4","resultats":[{"pourcent_voix_exp":"45.74","voix":"43","binome":"M. DENIS Pierre et Mme GEOFFROY Céline","pourcent_voix_ins":"24.29","code_nuance":"BC-DVG","numero_panneau":"2"},{"pourcent_voix_exp":"54.26","voix":"51","binome":"M. CONREAUX Jean et Mme DISDIER Marie-Noëlle","pourcent_voix_ins":"28.81","code_nuance":"BC-DVD","numero_panneau":"4"}],"code":"58","pourcent_nuls_vot":"0","lib":"Freissinières","pourcent_blancs_vot":"4.08","nuls":"0","pourcent_vot_ins":"55.37","inscrits":"177","exprimes":"94","pourcent_abs_ins":"44.63"}
,{"abstentions":"203","pourcent_blancs_ins":"5.08","pourcent_nuls_ins":"2.31","pourcent_exp_vot":"86.09","votants":"230","pourcent_exp_ins":"45.73","blancs":"22","resultats":[{"pourcent_voix_exp":"52.02","voix":"103","binome":"M. DENIS Pierre et Mme GEOFFROY Céline","pourcent_voix_ins":"23.79","code_nuance":"BC-DVG","numero_panneau":"2"},{"pourcent_voix_exp":"47.98","voix":"95","binome":"M. CONREAUX Jean et Mme DISDIER Marie-Noëlle","pourcent_voix_ins":"21.94","code_nuance":"BC-DVD","numero_panneau":"4"}],"code":"101","pourcent_nuls_vot":"4.35","lib":"Pelvoux","pourcent_blancs_vot":"9.57","nuls":"10","pourcent_vot_ins":"53.12","inscrits":"433","exprimes":"198","pourcent_abs_ins":"46.88"}
,{"abstentions":"145","pourcent_blancs_ins":"1.74","pourcent_nuls_ins":"0","pourcent_exp_vot":"96.48","votants":"142","pourcent_exp_ins":"47.74","blancs":"5","resultats":[{"pourcent_voix_exp":"47.45","voix":"65","binome":"M. DENIS Pierre et Mme GEOFFROY Céline","pourcent_voix_ins":"22.65","code_nuance":"BC-DVG","numero_panneau":"2"},{"pourcent_voix_exp":"52.55","voix":"72","binome":"M. CONREAUX Jean et Mme DISDIER Marie-Noëlle","pourcent_voix_ins":"25.09","code_nuance":"BC-DVD","numero_panneau":"4"}],"code":"110","pourcent_nuls_vot":"0","lib":"Puy-Saint-Vincent","pourcent_blancs_vot":"3.52","nuls":"0","pourcent_vot_ins":"49.48","inscrits":"287","exprimes":"137","pourcent_abs_ins":"50.52"}
,{"abstentions":"367","pourcent_blancs_ins":"4.21","pourcent_nuls_ins":"1.74","pourcent_exp_vot":"87.27","votants":"322","pourcent_exp_ins":"40.78","blancs":"29","resultats":[{"pourcent_voix_exp":"46.62","voix":"131","binome":"M. DENIS Pierre et Mme GEOFFROY Céline","pourcent_voix_ins":"19.01","code_nuance":"BC-DVG","numero_panneau":"2"},{"pourcent_voix_exp":"53.38","voix":"150","binome":"M. CONREAUX Jean et Mme DISDIER Marie-Noëlle","pourcent_voix_ins":"21.77","code_nuance":"BC-DVD","numero_panneau":"4"}],"code":"122","pourcent_nuls_vot":"3.73","lib":"La Roche-de-Rame","pourcent_blancs_vot":"9.01","nuls":"12","pourcent_vot_ins":"46.73","inscrits":"689","exprimes":"281","pourcent_abs_ins":"53.27"}
,{"abstentions":"477","pourcent_blancs_ins":"4.1","pourcent_nuls_ins":"0.55","pourcent_exp_vot":"90.14","votants":"426","pourcent_exp_ins":"42.52","blancs":"37","resultats":[{"pourcent_voix_exp":"56.77","voix":"218","binome":"M. DENIS Pierre et Mme GEOFFROY Céline","pourcent_voix_ins":"24.14","code_nuance":"BC-DVG","numero_panneau":"2"},{"pourcent_voix_exp":"43.23","voix":"166","binome":"M. CONREAUX Jean et Mme DISDIER Marie-Noëlle","pourcent_voix_ins":"18.38","code_nuance":"BC-DVD","numero_panneau":"4"}],"code":"151","pourcent_nuls_vot":"1.17","lib":"Saint-Martin-de-Queyrières","pourcent_blancs_vot":"8.69","nuls":"5","pourcent_vot_ins":"47.18","inscrits":"903","exprimes":"384","pourcent_abs_ins":"52.82"}
,{"abstentions":"286","pourcent_blancs_ins":"2.92","pourcent_nuls_ins":"1.46","pourcent_exp_vot":"92.46","votants":"398","pourcent_exp_ins":"53.8","blancs":"20","resultats":[{"pourcent_voix_exp":"41.03","voix":"151","binome":"M. DENIS Pierre et Mme GEOFFROY Céline","pourcent_voix_ins":"22.08","code_nuance":"BC-DVG","numero_panneau":"2"},{"pourcent_voix_exp":"58.97","voix":"217","binome":"M. CONREAUX Jean et Mme DISDIER Marie-Noëlle","pourcent_voix_ins":"31.73","code_nuance":"BC-DVD","numero_panneau":"4"}],"code":"175","pourcent_nuls_vot":"2.51","lib":"Vallouise","pourcent_blancs_vot":"5.03","nuls":"10","pourcent_vot_ins":"58.19","inscrits":"684","exprimes":"368","pourcent_abs_ins":"41.81"}
,{"abstentions":"204","pourcent_blancs_ins":"2.16","pourcent_nuls_ins":"0.72","pourcent_exp_vot":"94.34","votants":"212","pourcent_exp_ins":"48.08","blancs":"9","resultats":[{"pourcent_voix_exp":"58","voix":"116","binome":"M. DENIS Pierre et Mme GEOFFROY Céline","pourcent_voix_ins":"27.88","code_nuance":"BC-DVG","numero_panneau":"2"},{"pourcent_voix_exp":"42","voix":"84","binome":"M. CONREAUX Jean et Mme DISDIER Marie-Noëlle","pourcent_voix_ins":"20.19","code_nuance":"BC-DVD","numero_panneau":"4"}],"code":"180","pourcent_nuls_vot":"1.42","lib":"Les Vigneaux","pourcent_blancs_vot":"4.25","nuls":"3","pourcent_vot_ins":"50.96","inscrits":"416","exprimes":"200","pourcent_abs_ins":"49.04"}
,{"abstentions":"749","pourcent_blancs_ins":"2.14","pourcent_nuls_ins":"1.68","pourcent_exp_vot":"92.33","votants":"743","pourcent_exp_ins":"45.98","blancs":"32","resultats":[{"pourcent_voix_exp":"46.5","voix":"319","binome":"M. FARDELLA Alain et Mme FINE Laurence","pourcent_voix_ins":"21.38","code_nuance":"BC-DVG","numero_panneau":"2"},{"pourcent_voix_exp":"53.5","voix":"367","binome":"Mme MICHEL Marine et M. MURGIA Arnaud","pourcent_voix_ins":"24.6","code_nuance":"BC-UMP","numero_panneau":"1"}],"code":"23","pourcent_nuls_vot":"3.36","lib":"Briançon","pourcent_blancs_vot":"4.31","nuls":"25","pourcent_vot_ins":"49.8","inscrits":"1492","exprimes":"686","pourcent_abs_ins":"50.2"}
,{"abstentions":"64","pourcent_blancs_ins":"4.24","pourcent_nuls_ins":"2.42","pourcent_exp_vot":"89.11","votants":"101","pourcent_exp_ins":"54.55","blancs":"7","resultats":[{"pourcent_voix_exp":"47.78","voix":"43","binome":"M. FARDELLA Alain et Mme FINE Laurence","pourcent_voix_ins":"26.06","code_nuance":"BC-DVG","numero_panneau":"2"},{"pourcent_voix_exp":"52.22","voix":"47","binome":"Mme MICHEL Marine et M. MURGIA Arnaud","pourcent_voix_ins":"28.48","code_nuance":"BC-UMP","numero_panneau":"1"}],"code":"27","pourcent_nuls_vot":"3.96","lib":"Cervières","pourcent_blancs_vot":"6.93","nuls":"4","pourcent_vot_ins":"61.21","inscrits":"165","exprimes":"90","pourcent_abs_ins":"38.79"}
,{"abstentions":"175","pourcent_blancs_ins":"4.48","pourcent_nuls_ins":"0.21","pourcent_exp_vot":"92.52","votants":"294","pourcent_exp_ins":"58","blancs":"21","resultats":[{"pourcent_voix_exp":"36.4","voix":"99","binome":"M. FARDELLA Alain et Mme FINE Laurence","pourcent_voix_ins":"21.11","code_nuance":"BC-DVG","numero_panneau":"2"},{"pourcent_voix_exp":"63.6","voix":"173","binome":"Mme MICHEL Marine et M. MURGIA Arnaud","pourcent_voix_ins":"36.89","code_nuance":"BC-UMP","numero_panneau":"1"}],"code":"63","pourcent_nuls_vot":"0.34","lib":"La Grave","pourcent_blancs_vot":"7.14","nuls":"1","pourcent_vot_ins":"62.69","inscrits":"469","exprimes":"272","pourcent_abs_ins":"37.31"}
,{"abstentions":"462","pourcent_blancs_ins":"3.29","pourcent_nuls_ins":"1.13","pourcent_exp_vot":"91.57","votants":"510","pourcent_exp_ins":"48.05","blancs":"32","resultats":[{"pourcent_voix_exp":"48.82","voix":"228","binome":"M. FARDELLA Alain et Mme FINE Laurence","pourcent_voix_ins":"23.46","code_nuance":"BC-DVG","numero_panneau":"2"},{"pourcent_voix_exp":"51.18","voix":"239","binome":"Mme MICHEL Marine et M. MURGIA Arnaud","pourcent_voix_ins":"24.59","code_nuance":"BC-UMP","numero_panneau":"1"}],"code":"79","pourcent_nuls_vot":"2.16","lib":"Le Monêtier-les-Bains","pourcent_blancs_vot":"6.27","nuls":"11","pourcent_vot_ins":"52.47","inscrits":"972","exprimes":"467","pourcent_abs_ins":"47.53"}
,{"abstentions":"169","pourcent_blancs_ins":"2.65","pourcent_nuls_ins":"0.53","pourcent_exp_vot":"94.23","votants":"208","pourcent_exp_ins":"51.99","blancs":"10","resultats":[{"pourcent_voix_exp":"64.8","voix":"127","binome":"M. FARDELLA Alain et Mme FINE Laurence","pourcent_voix_ins":"33.69","code_nuance":"BC-DVG","numero_panneau":"2"},{"pourcent_voix_exp":"35.2","voix":"69","binome":"Mme MICHEL Marine et M. MURGIA Arnaud","pourcent_voix_ins":"18.3","code_nuance":"BC-UMP","numero_panneau":"1"}],"code":"107","pourcent_nuls_vot":"0.96","lib":"Puy-Saint-André","pourcent_blancs_vot":"4.81","nuls":"2","pourcent_vot_ins":"55.17","inscrits":"377","exprimes":"196","pourcent_abs_ins":"44.83"}
,{"abstentions":"177","pourcent_blancs_ins":"1.48","pourcent_nuls_ins":"1.9","pourcent_exp_vot":"94.59","votants":"296","pourcent_exp_ins":"59.2","blancs":"7","resultats":[{"pourcent_voix_exp":"40.71","voix":"114","binome":"M. FARDELLA Alain et Mme FINE Laurence","pourcent_voix_ins":"24.1","code_nuance":"BC-DVG","numero_panneau":"2"},{"pourcent_voix_exp":"59.29","voix":"166","binome":"Mme MICHEL Marine et M. MURGIA Arnaud","pourcent_voix_ins":"35.1","code_nuance":"BC-UMP","numero_panneau":"1"}],"code":"109","pourcent_nuls_vot":"3.04","lib":"Puy-Saint-Pierre","pourcent_blancs_vot":"2.36","nuls":"9","pourcent_vot_ins":"62.58","inscrits":"473","exprimes":"280","pourcent_abs_ins":"37.42"}
,{"abstentions":"570","pourcent_blancs_ins":"3.26","pourcent_nuls_ins":"1.71","pourcent_exp_vot":"91.07","votants":"717","pourcent_exp_ins":"50.74","blancs":"42","resultats":[{"pourcent_voix_exp":"42.11","voix":"275","binome":"M. FARDELLA Alain et Mme FINE Laurence","pourcent_voix_ins":"21.37","code_nuance":"BC-DVG","numero_panneau":"2"},{"pourcent_voix_exp":"57.89","voix":"378","binome":"Mme MICHEL Marine et M. MURGIA Arnaud","pourcent_voix_ins":"29.37","code_nuance":"BC-UMP","numero_panneau":"1"}],"code":"133","pourcent_nuls_vot":"3.07","lib":"Saint-Chaffrey","pourcent_blancs_vot":"5.86","nuls":"22","pourcent_vot_ins":"55.71","inscrits":"1287","exprimes":"653","pourcent_abs_ins":"44.29"}
,{"abstentions":"340","pourcent_blancs_ins":"2.61","pourcent_nuls_ins":"1.14","pourcent_exp_vot":"93.9","votants":"541","pourcent_exp_ins":"57.66","blancs":"23","resultats":[{"pourcent_voix_exp":"45.87","voix":"233","binome":"M. FARDELLA Alain et Mme FINE Laurence","pourcent_voix_ins":"26.45","code_nuance":"BC-DVG","numero_panneau":"2"},{"pourcent_voix_exp":"54.13","voix":"275","binome":"Mme MICHEL Marine et M. MURGIA Arnaud","pourcent_voix_ins":"31.21","code_nuance":"BC-UMP","numero_panneau":"1"}],"code":"161","pourcent_nuls_vot":"1.85","lib":"La Salle les Alpes","pourcent_blancs_vot":"4.25","nuls":"10","pourcent_vot_ins":"61.41","inscrits":"881","exprimes":"508","pourcent_abs_ins":"38.59"}
,{"abstentions":"105","pourcent_blancs_ins":"2.35","pourcent_nuls_ins":"1.18","pourcent_exp_vot":"94","votants":"150","pourcent_exp_ins":"55.29","blancs":"6","resultats":[{"pourcent_voix_exp":"53.9","voix":"76","binome":"M. FARDELLA Alain et Mme FINE Laurence","pourcent_voix_ins":"29.8","code_nuance":"BC-DVG","numero_panneau":"2"},{"pourcent_voix_exp":"46.1","voix":"65","binome":"Mme MICHEL Marine et M. MURGIA Arnaud","pourcent_voix_ins":"25.49","code_nuance":"BC-UMP","numero_panneau":"1"}],"code":"181","pourcent_nuls_vot":"2","lib":"Villar-d'Arêne","pourcent_blancs_vot":"4","nuls":"3","pourcent_vot_ins":"58.82","inscrits":"255","exprimes":"141","pourcent_abs_ins":"41.18"}
,{"abstentions":"397","pourcent_blancs_ins":"2.54","pourcent_nuls_ins":"2.19","pourcent_exp_vot":"92.74","votants":"744","pourcent_exp_ins":"60.47","blancs":"29","resultats":[{"pourcent_voix_exp":"49.57","voix":"342","binome":"M. FARDELLA Alain et Mme FINE Laurence","pourcent_voix_ins":"29.97","code_nuance":"BC-DVG","numero_panneau":"2"},{"pourcent_voix_exp":"50.43","voix":"348","binome":"Mme MICHEL Marine et M. MURGIA Arnaud","pourcent_voix_ins":"30.5","code_nuance":"BC-UMP","numero_panneau":"1"}],"code":"183","pourcent_nuls_vot":"3.36","lib":"Villar-Saint-Pancrace","pourcent_blancs_vot":"3.9","nuls":"25","pourcent_vot_ins":"65.21","inscrits":"1141","exprimes":"690","pourcent_abs_ins":"34.79"}
,{"abstentions":"3055","pourcent_blancs_ins":"3.3","pourcent_nuls_ins":"2.11","pourcent_exp_vot":"89.86","votants":"3491","pourcent_exp_ins":"47.92","blancs":"216","resultats":[{"pourcent_voix_exp":"49.86","voix":"1564","binome":"M. FROMM Gérard et Mme POYAU Aurélie","pourcent_voix_ins":"23.89","code_nuance":"BC-UG","numero_panneau":"1"},{"pourcent_voix_exp":"50.14","voix":"1573","binome":"M. GRYZKA Romain et Mme VALDENAIRE Catherine","pourcent_voix_ins":"24.03","code_nuance":"BC-UD","numero_panneau":"3"}],"code":"23","pourcent_nuls_vot":"3.95","lib":"Briançon","pourcent_blancs_vot":"6.19","nuls":"138","pourcent_vot_ins":"53.33","inscrits":"6546","exprimes":"3137","pourcent_abs_ins":"46.67"}
,{"abstentions":"169","pourcent_blancs_ins":"3.42","pourcent_nuls_ins":"1.47","pourcent_exp_vot":"91.67","votants":"240","pourcent_exp_ins":"53.79","blancs":"14","resultats":[{"pourcent_voix_exp":"47.73","voix":"105","binome":"M. FROMM Gérard et Mme POYAU Aurélie","pourcent_voix_ins":"25.67","code_nuance":"BC-UG","numero_panneau":"1"},{"pourcent_voix_exp":"52.27","voix":"115","binome":"M. GRYZKA Romain et Mme VALDENAIRE Catherine","pourcent_voix_ins":"28.12","code_nuance":"BC-UD","numero_panneau":"3"}],"code":"85","pourcent_nuls_vot":"2.5","lib":"Montgenèvre","pourcent_blancs_vot":"5.83","nuls":"6","pourcent_vot_ins":"58.68","inscrits":"409","exprimes":"220","pourcent_abs_ins":"41.32"}
,{"abstentions":"160","pourcent_blancs_ins":"4.86","pourcent_nuls_ins":"1.71","pourcent_exp_vot":"87.89","votants":"190","pourcent_exp_ins":"47.71","blancs":"17","resultats":[{"pourcent_voix_exp":"65.87","voix":"110","binome":"M. FROMM Gérard et Mme POYAU Aurélie","pourcent_voix_ins":"31.43","code_nuance":"BC-UG","numero_panneau":"1"},{"pourcent_voix_exp":"34.13","voix":"57","binome":"M. GRYZKA Romain et Mme VALDENAIRE Catherine","pourcent_voix_ins":"16.29","code_nuance":"BC-UD","numero_panneau":"3"}],"code":"93","pourcent_nuls_vot":"3.16","lib":"Névache","pourcent_blancs_vot":"8.95","nuls":"6","pourcent_vot_ins":"54.29","inscrits":"350","exprimes":"167","pourcent_abs_ins":"45.71"}
,{"abstentions":"160","pourcent_blancs_ins":"3.26","pourcent_nuls_ins":"1.4","pourcent_exp_vot":"92.59","votants":"270","pourcent_exp_ins":"58.14","blancs":"14","resultats":[{"pourcent_voix_exp":"45.2","voix":"113","binome":"M. FROMM Gérard et Mme POYAU Aurélie","pourcent_voix_ins":"26.28","code_nuance":"BC-UG","numero_panneau":"1"},{"pourcent_voix_exp":"54.8","voix":"137","binome":"M. GRYZKA Romain et Mme VALDENAIRE Catherine","pourcent_voix_ins":"31.86","code_nuance":"BC-UD","numero_panneau":"3"}],"code":"174","pourcent_nuls_vot":"2.22","lib":"Val-des-Prés","pourcent_blancs_vot":"5.19","nuls":"6","pourcent_vot_ins":"62.79","inscrits":"430","exprimes":"250","pourcent_abs_ins":"37.21"}
,{"abstentions":"631","pourcent_blancs_ins":"3","pourcent_nuls_ins":"1.04","pourcent_exp_vot":"93.65","votants":"1103","pourcent_exp_ins":"59.57","blancs":"52","resultats":[{"pourcent_voix_exp":"67.47","voix":"697","binome":"M. BONNAFFOUX Joël et Mme ROSSI Valérie","pourcent_voix_ins":"40.2","code_nuance":"BC-UG","numero_panneau":"3"},{"pourcent_voix_exp":"32.53","voix":"336","binome":"M. BERENGUEL Victor et Mme MICHEL-RISPAUD Murielle","pourcent_voix_ins":"19.38","code_nuance":"BC-UD","numero_panneau":"2"}],"code":"17","pourcent_nuls_vot":"1.63","lib":"La Bâtie-Neuve","pourcent_blancs_vot":"4.71","nuls":"18","pourcent_vot_ins":"63.61","inscrits":"1734","exprimes":"1033","pourcent_abs_ins":"36.39"}
,{"abstentions":"65","pourcent_blancs_ins":"3.49","pourcent_nuls_ins":"1.16","pourcent_exp_vot":"92.52","votants":"107","pourcent_exp_ins":"57.56","blancs":"6","resultats":[{"pourcent_voix_exp":"47.47","voix":"47","binome":"M. BONNAFFOUX Joël et Mme ROSSI Valérie","pourcent_voix_ins":"27.33","code_nuance":"BC-UG","numero_panneau":"3"},{"pourcent_voix_exp":"52.53","voix":"52","binome":"M. BERENGUEL Victor et Mme MICHEL-RISPAUD Murielle","pourcent_voix_ins":"30.23","code_nuance":"BC-UD","numero_panneau":"2"}],"code":"22","pourcent_nuls_vot":"1.87","lib":"Bréziers","pourcent_blancs_vot":"5.61","nuls":"2","pourcent_vot_ins":"62.21","inscrits":"172","exprimes":"99","pourcent_abs_ins":"37.79"}
,{"abstentions":"760","pourcent_blancs_ins":"2.78","pourcent_nuls_ins":"1.55","pourcent_exp_vot":"93.38","votants":"1434","pourcent_exp_ins":"61.03","blancs":"61","resultats":[{"pourcent_voix_exp":"43.54","voix":"583","binome":"M. BONNAFFOUX Joël et Mme ROSSI Valérie","pourcent_voix_ins":"26.57","code_nuance":"BC-UG","numero_panneau":"3"},{"pourcent_voix_exp":"56.46","voix":"756","binome":"M. BERENGUEL Victor et Mme MICHEL-RISPAUD Murielle","pourcent_voix_ins":"34.46","code_nuance":"BC-UD","numero_panneau":"2"}],"code":"40","pourcent_nuls_vot":"2.37","lib":"Chorges","pourcent_blancs_vot":"4.25","nuls":"34","pourcent_vot_ins":"65.36","inscrits":"2194","exprimes":"1339","pourcent_abs_ins":"34.64"}
,{"abstentions":"217","pourcent_blancs_ins":"3.94","pourcent_nuls_ins":"1.24","pourcent_exp_vot":"90.57","votants":"265","pourcent_exp_ins":"49.79","blancs":"19","resultats":[{"pourcent_voix_exp":"49.17","voix":"118","binome":"M. BONNAFFOUX Joël et Mme ROSSI Valérie","pourcent_voix_ins":"24.48","code_nuance":"BC-UG","numero_panneau":"3"},{"pourcent_voix_exp":"50.83","voix":"122","binome":"M. BERENGUEL Victor et Mme MICHEL-RISPAUD Murielle","pourcent_voix_ins":"25.31","code_nuance":"BC-UD","numero_panneau":"2"}],"code":"50","pourcent_nuls_vot":"2.26","lib":"Espinasses","pourcent_blancs_vot":"7.17","nuls":"6","pourcent_vot_ins":"54.98","inscrits":"482","exprimes":"240","pourcent_abs_ins":"45.02"}
,{"abstentions":"129","pourcent_blancs_ins":"1.03","pourcent_nuls_ins":"0.77","pourcent_exp_vot":"97.32","votants":"261","pourcent_exp_ins":"65.13","blancs":"4","resultats":[{"pourcent_voix_exp":"56.69","voix":"144","binome":"M. BONNAFFOUX Joël et Mme ROSSI Valérie","pourcent_voix_ins":"36.92","code_nuance":"BC-UG","numero_panneau":"3"},{"pourcent_voix_exp":"43.31","voix":"110","binome":"M. BERENGUEL Victor et Mme MICHEL-RISPAUD Murielle","pourcent_voix_ins":"28.21","code_nuance":"BC-UD","numero_panneau":"2"}],"code":"84","pourcent_nuls_vot":"1.15","lib":"Montgardin","pourcent_blancs_vot":"1.53","nuls":"3","pourcent_vot_ins":"66.92","inscrits":"390","exprimes":"254","pourcent_abs_ins":"33.08"}
,{"abstentions":"71","pourcent_blancs_ins":"5.46","pourcent_nuls_ins":"0.84","pourcent_exp_vot":"91.02","votants":"167","pourcent_exp_ins":"63.87","blancs":"13","resultats":[{"pourcent_voix_exp":"34.21","voix":"52","binome":"M. BONNAFFOUX Joël et Mme ROSSI Valérie","pourcent_voix_ins":"21.85","code_nuance":"BC-UG","numero_panneau":"3"},{"pourcent_voix_exp":"65.79","voix":"100","binome":"M. BERENGUEL Victor et Mme MICHEL-RISPAUD Murielle","pourcent_voix_ins":"42.02","code_nuance":"BC-UD","numero_panneau":"2"}],"code":"106","pourcent_nuls_vot":"1.2","lib":"Prunières","pourcent_blancs_vot":"7.78","nuls":"2","pourcent_vot_ins":"70.17","inscrits":"238","exprimes":"152","pourcent_abs_ins":"29.83"}
,{"abstentions":"45","pourcent_blancs_ins":"0","pourcent_nuls_ins":"1.43","pourcent_exp_vot":"97.89","votants":"95","pourcent_exp_ins":"66.43","blancs":"0","resultats":[{"pourcent_voix_exp":"90.32","voix":"84","binome":"M. BONNAFFOUX Joël et Mme ROSSI Valérie","pourcent_voix_ins":"60","code_nuance":"BC-UG","numero_panneau":"3"},{"pourcent_voix_exp":"9.68","voix":"9","binome":"M. BERENGUEL Victor et Mme MICHEL-RISPAUD Murielle","pourcent_voix_ins":"6.43","code_nuance":"BC-UD","numero_panneau":"2"}],"code":"108","pourcent_nuls_vot":"2.11","lib":"Puy-Saint-Eusèbe","pourcent_blancs_vot":"0","nuls":"2","pourcent_vot_ins":"67.86","inscrits":"140","exprimes":"93","pourcent_abs_ins":"32.14"}
,{"abstentions":"43","pourcent_blancs_ins":"0.53","pourcent_nuls_ins":"1.06","pourcent_exp_vot":"97.93","votants":"145","pourcent_exp_ins":"75.53","blancs":"1","resultats":[{"pourcent_voix_exp":"76.76","voix":"109","binome":"M. BONNAFFOUX Joël et Mme ROSSI Valérie","pourcent_voix_ins":"57.98","code_nuance":"BC-UG","numero_panneau":"3"},{"pourcent_voix_exp":"23.24","voix":"33","binome":"M. BERENGUEL Victor et Mme MICHEL-RISPAUD Murielle","pourcent_voix_ins":"17.55","code_nuance":"BC-UD","numero_panneau":"2"}],"code":"111","pourcent_nuls_vot":"1.38","lib":"Puy-Sanières","pourcent_blancs_vot":"0.69","nuls":"2","pourcent_vot_ins":"77.13","inscrits":"188","exprimes":"142","pourcent_abs_ins":"22.87"}
,{"abstentions":"88","pourcent_blancs_ins":"1.14","pourcent_nuls_ins":"0.38","pourcent_exp_vot":"97.71","votants":"175","pourcent_exp_ins":"65.02","blancs":"3","resultats":[{"pourcent_voix_exp":"48.54","voix":"83","binome":"M. BONNAFFOUX Joël et Mme ROSSI Valérie","pourcent_voix_ins":"31.56","code_nuance":"BC-UG","numero_panneau":"3"},{"pourcent_voix_exp":"51.46","voix":"88","binome":"M. BERENGUEL Victor et Mme MICHEL-RISPAUD Murielle","pourcent_voix_ins":"33.46","code_nuance":"BC-UD","numero_panneau":"2"}],"code":"114","pourcent_nuls_vot":"0.57","lib":"Réallon","pourcent_blancs_vot":"1.71","nuls":"1","pourcent_vot_ins":"66.54","inscrits":"263","exprimes":"171","pourcent_abs_ins":"33.46"}
,{"abstentions":"129","pourcent_blancs_ins":"1.15","pourcent_nuls_ins":"2.3","pourcent_exp_vot":"94.52","votants":"219","pourcent_exp_ins":"59.48","blancs":"4","resultats":[{"pourcent_voix_exp":"66.18","voix":"137","binome":"M. BONNAFFOUX Joël et Mme ROSSI Valérie","pourcent_voix_ins":"39.37","code_nuance":"BC-UG","numero_panneau":"3"},{"pourcent_voix_exp":"33.82","voix":"70","binome":"M. BERENGUEL Victor et Mme MICHEL-RISPAUD Murielle","pourcent_voix_ins":"20.11","code_nuance":"BC-UD","numero_panneau":"2"}],"code":"115","pourcent_nuls_vot":"3.65","lib":"Remollon","pourcent_blancs_vot":"1.83","nuls":"8","pourcent_vot_ins":"62.93","inscrits":"348","exprimes":"207","pourcent_abs_ins":"37.07"}
,{"abstentions":"47","pourcent_blancs_ins":"4.7","pourcent_nuls_ins":"2.68","pourcent_exp_vot":"89.22","votants":"102","pourcent_exp_ins":"61.07","blancs":"7","resultats":[{"pourcent_voix_exp":"57.14","voix":"52","binome":"M. BONNAFFOUX Joël et Mme ROSSI Valérie","pourcent_voix_ins":"34.9","code_nuance":"BC-UG","numero_panneau":"3"},{"pourcent_voix_exp":"42.86","voix":"39","binome":"M. BERENGUEL Victor et Mme MICHEL-RISPAUD Murielle","pourcent_voix_ins":"26.17","code_nuance":"BC-UD","numero_panneau":"2"}],"code":"121","pourcent_nuls_vot":"3.92","lib":"Rochebrune","pourcent_blancs_vot":"6.86","nuls":"4","pourcent_vot_ins":"68.46","inscrits":"149","exprimes":"91","pourcent_abs_ins":"31.54"}
,{"abstentions":"164","pourcent_blancs_ins":"3.06","pourcent_nuls_ins":"2.79","pourcent_exp_vot":"89.23","votants":"195","pourcent_exp_ins":"48.47","blancs":"11","resultats":[{"pourcent_voix_exp":"66.67","voix":"116","binome":"M. BONNAFFOUX Joël et Mme ROSSI Valérie","pourcent_voix_ins":"32.31","code_nuance":"BC-UG","numero_panneau":"3"},{"pourcent_voix_exp":"33.33","voix":"58","binome":"M. BERENGUEL Victor et Mme MICHEL-RISPAUD Murielle","pourcent_voix_ins":"16.16","code_nuance":"BC-UD","numero_panneau":"2"}],"code":"124","pourcent_nuls_vot":"5.13","lib":"La Rochette","pourcent_blancs_vot":"5.64","nuls":"10","pourcent_vot_ins":"54.32","inscrits":"359","exprimes":"174","pourcent_abs_ins":"45.68"}
,{"abstentions":"59","pourcent_blancs_ins":"3.42","pourcent_nuls_ins":"0.68","pourcent_exp_vot":"93.1","votants":"87","pourcent_exp_ins":"55.48","blancs":"5","resultats":[{"pourcent_voix_exp":"48.15","voix":"39","binome":"M. BONNAFFOUX Joël et Mme ROSSI Valérie","pourcent_voix_ins":"26.71","code_nuance":"BC-UG","numero_panneau":"3"},{"pourcent_voix_exp":"51.85","voix":"42","binome":"M. BERENGUEL Victor et Mme MICHEL-RISPAUD Murielle","pourcent_voix_ins":"28.77","code_nuance":"BC-UD","numero_panneau":"2"}],"code":"127","pourcent_nuls_vot":"1.15","lib":"Rousset","pourcent_blancs_vot":"5.75","nuls":"1","pourcent_vot_ins":"59.59","inscrits":"146","exprimes":"81","pourcent_abs_ins":"40.41"}
,{"abstentions":"37","pourcent_blancs_ins":"3.2","pourcent_nuls_ins":"0","pourcent_exp_vot":"95.45","votants":"88","pourcent_exp_ins":"67.2","blancs":"4","resultats":[{"pourcent_voix_exp":"52.38","voix":"44","binome":"M. BONNAFFOUX Joël et Mme ROSSI Valérie","pourcent_voix_ins":"35.2","code_nuance":"BC-UG","numero_panneau":"3"},{"pourcent_voix_exp":"47.62","voix":"40","binome":"M. BERENGUEL Victor et Mme MICHEL-RISPAUD Murielle","pourcent_voix_ins":"32","code_nuance":"BC-UD","numero_panneau":"2"}],"code":"130","pourcent_nuls_vot":"0","lib":"Saint-Apollinaire","pourcent_blancs_vot":"4.55","nuls":"0","pourcent_vot_ins":"70.4","inscrits":"125","exprimes":"84","pourcent_abs_ins":"29.6"}
,{"abstentions":"29","pourcent_blancs_ins":"0.79","pourcent_nuls_ins":"2.36","pourcent_exp_vot":"95.92","votants":"98","pourcent_exp_ins":"74.02","blancs":"1","resultats":[{"pourcent_voix_exp":"32.98","voix":"31","binome":"M. BONNAFFOUX Joël et Mme ROSSI Valérie","pourcent_voix_ins":"24.41","code_nuance":"BC-UG","numero_panneau":"3"},{"pourcent_voix_exp":"67.02","voix":"63","binome":"M. BERENGUEL Victor et Mme MICHEL-RISPAUD Murielle","pourcent_voix_ins":"49.61","code_nuance":"BC-UD","numero_panneau":"2"}],"code":"163","pourcent_nuls_vot":"3.06","lib":"Le Sauze-du-Lac","pourcent_blancs_vot":"1.02","nuls":"3","pourcent_vot_ins":"77.17","inscrits":"127","exprimes":"94","pourcent_abs_ins":"22.83"}
,{"abstentions":"225","pourcent_blancs_ins":"1.58","pourcent_nuls_ins":"1.21","pourcent_exp_vot":"96.16","votants":"599","pourcent_exp_ins":"69.9","blancs":"13","resultats":[{"pourcent_voix_exp":"30.73","voix":"177","binome":"M. BONNAFFOUX Joël et Mme ROSSI Valérie","pourcent_voix_ins":"21.48","code_nuance":"BC-UG","numero_panneau":"3"},{"pourcent_voix_exp":"69.27","voix":"399","binome":"M. BERENGUEL Victor et Mme MICHEL-RISPAUD Murielle","pourcent_voix_ins":"48.42","code_nuance":"BC-UD","numero_panneau":"2"}],"code":"164","pourcent_nuls_vot":"1.67","lib":"Savines-le-Lac","pourcent_blancs_vot":"2.17","nuls":"10","pourcent_vot_ins":"72.69","inscrits":"824","exprimes":"576","pourcent_abs_ins":"27.31"}
,{"abstentions":"44","pourcent_blancs_ins":"1.11","pourcent_nuls_ins":"2.22","pourcent_exp_vot":"95.59","votants":"136","pourcent_exp_ins":"72.22","blancs":"2","resultats":[{"pourcent_voix_exp":"39.23","voix":"51","binome":"M. BONNAFFOUX Joël et Mme ROSSI Valérie","pourcent_voix_ins":"28.33","code_nuance":"BC-UG","numero_panneau":"3"},{"pourcent_voix_exp":"60.77","voix":"79","binome":"M. BERENGUEL Victor et Mme MICHEL-RISPAUD Murielle","pourcent_voix_ins":"43.89","code_nuance":"BC-UD","numero_panneau":"2"}],"code":"171","pourcent_nuls_vot":"2.94","lib":"Théus","pourcent_blancs_vot":"1.47","nuls":"4","pourcent_vot_ins":"75.56","inscrits":"180","exprimes":"130","pourcent_abs_ins":"24.44"}
,{"abstentions":"152","pourcent_blancs_ins":"6.03","pourcent_nuls_ins":"2.51","pourcent_exp_vot":"86.18","votants":"246","pourcent_exp_ins":"53.27","blancs":"24","resultats":[{"pourcent_voix_exp":"43.87","voix":"93","binome":"Mme ASSANDRI Martine et M. MALUSI Roland","pourcent_voix_ins":"23.37","code_nuance":"BC-SOC","numero_panneau":"4"},{"pourcent_voix_exp":"56.13","voix":"119","binome":"Mme CHAUVET Carole et M. VIOSSAT Marc","pourcent_voix_ins":"29.9","code_nuance":"BC-UD","numero_panneau":"1"}],"code":"12","pourcent_nuls_vot":"4.07","lib":"Baratier","pourcent_blancs_vot":"9.76","nuls":"10","pourcent_vot_ins":"61.81","inscrits":"398","exprimes":"212","pourcent_abs_ins":"38.19"}
,{"abstentions":"364","pourcent_blancs_ins":"3.53","pourcent_nuls_ins":"2.28","pourcent_exp_vot":"90.1","votants":"515","pourcent_exp_ins":"52.79","blancs":"31","resultats":[{"pourcent_voix_exp":"44.61","voix":"207","binome":"Mme ASSANDRI Martine et M. MALUSI Roland","pourcent_voix_ins":"23.55","code_nuance":"BC-SOC","numero_panneau":"4"},{"pourcent_voix_exp":"55.39","voix":"257","binome":"Mme CHAUVET Carole et M. VIOSSAT Marc","pourcent_voix_ins":"29.24","code_nuance":"BC-UD","numero_panneau":"1"}],"code":"36","pourcent_nuls_vot":"3.88","lib":"Châteauroux-les-Alpes","pourcent_blancs_vot":"6.02","nuls":"20","pourcent_vot_ins":"58.59","inscrits":"879","exprimes":"464","pourcent_abs_ins":"41.41"}
,{"abstentions":"56","pourcent_blancs_ins":"2.26","pourcent_nuls_ins":"2.26","pourcent_exp_vot":"92.21","votants":"77","pourcent_exp_ins":"53.38","blancs":"3","resultats":[{"pourcent_voix_exp":"26.76","voix":"19","binome":"Mme ASSANDRI Martine et M. MALUSI Roland","pourcent_voix_ins":"14.29","code_nuance":"BC-SOC","numero_panneau":"4"},{"pourcent_voix_exp":"73.24","voix":"52","binome":"Mme CHAUVET Carole et M. VIOSSAT Marc","pourcent_voix_ins":"39.1","code_nuance":"BC-UD","numero_panneau":"1"}],"code":"44","pourcent_nuls_vot":"3.9","lib":"Crévoux","pourcent_blancs_vot":"3.9","nuls":"3","pourcent_vot_ins":"57.89","inscrits":"133","exprimes":"71","pourcent_abs_ins":"42.11"}
,{"abstentions":"356","pourcent_blancs_ins":"3.99","pourcent_nuls_ins":"1.16","pourcent_exp_vot":"90.5","votants":"421","pourcent_exp_ins":"49.03","blancs":"31","resultats":[{"pourcent_voix_exp":"38.85","voix":"148","binome":"Mme ASSANDRI Martine et M. MALUSI Roland","pourcent_voix_ins":"19.05","code_nuance":"BC-SOC","numero_panneau":"4"},{"pourcent_voix_exp":"61.15","voix":"233","binome":"Mme CHAUVET Carole et M. VIOSSAT Marc","pourcent_voix_ins":"29.99","code_nuance":"BC-UD","numero_panneau":"1"}],"code":"45","pourcent_nuls_vot":"2.14","lib":"Crots","pourcent_blancs_vot":"7.36","nuls":"9","pourcent_vot_ins":"54.18","inscrits":"777","exprimes":"381","pourcent_abs_ins":"45.82"}
,{"abstentions":"2727","pourcent_blancs_ins":"2.79","pourcent_nuls_ins":"1.33","pourcent_exp_vot":"91.31","votants":"2463","pourcent_exp_ins":"43.33","blancs":"145","resultats":[{"pourcent_voix_exp":"42.06","voix":"946","binome":"Mme ASSANDRI Martine et M. MALUSI Roland","pourcent_voix_ins":"18.23","code_nuance":"BC-SOC","numero_panneau":"4"},{"pourcent_voix_exp":"57.94","voix":"1303","binome":"Mme CHAUVET Carole et M. VIOSSAT Marc","pourcent_voix_ins":"25.11","code_nuance":"BC-UD","numero_panneau":"1"}],"code":"46","pourcent_nuls_vot":"2.8","lib":"Embrun","pourcent_blancs_vot":"5.89","nuls":"69","pourcent_vot_ins":"47.46","inscrits":"5190","exprimes":"2249","pourcent_abs_ins":"52.54"}
,{"abstentions":"277","pourcent_blancs_ins":"4.15","pourcent_nuls_ins":"1.09","pourcent_exp_vot":"86.74","votants":"181","pourcent_exp_ins":"34.28","blancs":"19","resultats":[{"pourcent_voix_exp":"38.22","voix":"60","binome":"Mme ASSANDRI Martine et M. MALUSI Roland","pourcent_voix_ins":"13.1","code_nuance":"BC-SOC","numero_panneau":"4"},{"pourcent_voix_exp":"61.78","voix":"97","binome":"Mme CHAUVET Carole et M. VIOSSAT Marc","pourcent_voix_ins":"21.18","code_nuance":"BC-UD","numero_panneau":"1"}],"code":"98","pourcent_nuls_vot":"2.76","lib":"Les Orres","pourcent_blancs_vot":"10.5","nuls":"5","pourcent_vot_ins":"39.52","inscrits":"458","exprimes":"157","pourcent_abs_ins":"60.48"}
,{"abstentions":"219","pourcent_blancs_ins":"4.44","pourcent_nuls_ins":"2.4","pourcent_exp_vot":"88.51","votants":"322","pourcent_exp_ins":"52.68","blancs":"24","resultats":[{"pourcent_voix_exp":"43.86","voix":"125","binome":"Mme ASSANDRI Martine et M. MALUSI Roland","pourcent_voix_ins":"23.11","code_nuance":"BC-SOC","numero_panneau":"4"},{"pourcent_voix_exp":"56.14","voix":"160","binome":"Mme CHAUVET Carole et M. VIOSSAT Marc","pourcent_voix_ins":"29.57","code_nuance":"BC-UD","numero_panneau":"1"}],"code":"128","pourcent_nuls_vot":"4.04","lib":"Saint-André-d'Embrun","pourcent_blancs_vot":"7.45","nuls":"13","pourcent_vot_ins":"59.52","inscrits":"541","exprimes":"285","pourcent_abs_ins":"40.48"}
,{"abstentions":"170","pourcent_blancs_ins":"3.38","pourcent_nuls_ins":"1.41","pourcent_exp_vot":"90.81","votants":"185","pourcent_exp_ins":"47.32","blancs":"12","resultats":[{"pourcent_voix_exp":"36.9","voix":"62","binome":"Mme ASSANDRI Martine et M. MALUSI Roland","pourcent_voix_ins":"17.46","code_nuance":"BC-SOC","numero_panneau":"4"},{"pourcent_voix_exp":"63.1","voix":"106","binome":"Mme CHAUVET Carole et M. VIOSSAT Marc","pourcent_voix_ins":"29.86","code_nuance":"BC-UD","numero_panneau":"1"}],"code":"156","pourcent_nuls_vot":"2.7","lib":"Saint-Sauveur","pourcent_blancs_vot":"6.49","nuls":"5","pourcent_vot_ins":"52.11","inscrits":"355","exprimes":"168","pourcent_abs_ins":"47.89"}
,{"abstentions":"4009","pourcent_blancs_ins":"3.06","pourcent_nuls_ins":"1.92","pourcent_exp_vot":"88.9","votants":"3270","pourcent_exp_ins":"39.94","blancs":"223","resultats":[{"pourcent_voix_exp":"49.33","voix":"1434","binome":"M. BLANC Guy et Mme BOYER Pascale","pourcent_voix_ins":"19.7","code_nuance":"BC-UG","numero_panneau":"1"},{"pourcent_voix_exp":"50.67","voix":"1473","binome":"Mme GAUDIN Brigitte et M. ZAMPA Francis","pourcent_voix_ins":"20.24","code_nuance":"BC-DVD","numero_panneau":"3"}],"code":"61","pourcent_nuls_vot":"4.28","lib":"Gap","pourcent_blancs_vot":"6.82","nuls":"140","pourcent_vot_ins":"44.92","inscrits":"7279","exprimes":"2907","pourcent_abs_ins":"55.08"}
,{"abstentions":"3738","pourcent_blancs_ins":"3.35","pourcent_nuls_ins":"2.07","pourcent_exp_vot":"89.13","votants":"3715","pourcent_exp_ins":"44.43","blancs":"250","resultats":[{"pourcent_voix_exp":"48.78","voix":"1615","binome":"Mme BERGER Karine et M. FEUTRIER Claude","pourcent_voix_ins":"21.67","code_nuance":"BC-SOC","numero_panneau":"3"},{"pourcent_voix_exp":"51.22","voix":"1696","binome":"M. GALLAND Daniel et Mme GRENIER Maryvonne","pourcent_voix_ins":"22.76","code_nuance":"BC-UMP","numero_panneau":"4"}],"code":"61","pourcent_nuls_vot":"4.15","lib":"Gap","pourcent_blancs_vot":"6.73","nuls":"154","pourcent_vot_ins":"49.85","inscrits":"7453","exprimes":"3311","pourcent_abs_ins":"50.15"}
,{"abstentions":"3617","pourcent_blancs_ins":"2.95","pourcent_nuls_ins":"2.05","pourcent_exp_vot":"90.19","votants":"3761","pourcent_exp_ins":"45.97","blancs":"218","resultats":[{"pourcent_voix_exp":"47.73","voix":"1619","binome":"M. GRAGLIA Christian et Mme LANGE-MALLET Danielle","pourcent_voix_ins":"21.94","code_nuance":"BC-UG","numero_panneau":"2"},{"pourcent_voix_exp":"52.27","voix":"1773","binome":"M. HUBAUD Christian et Mme MOSTACHI Ginette","pourcent_voix_ins":"24.03","code_nuance":"BC-UD","numero_panneau":"3"}],"code":"61","pourcent_nuls_vot":"4.01","lib":"Gap","pourcent_blancs_vot":"5.8","nuls":"151","pourcent_vot_ins":"50.98","inscrits":"7378","exprimes":"3392","pourcent_abs_ins":"49.02"}
,{"abstentions":"3234","pourcent_blancs_ins":"3.5","pourcent_nuls_ins":"1.73","pourcent_exp_vot":"89.74","votants":"3362","pourcent_exp_ins":"45.74","blancs":"231","resultats":[{"pourcent_voix_exp":"46.83","voix":"1413","binome":"M. LOMBARD Pierre-Yves et Mme PICARD Vanessa","pourcent_voix_ins":"21.42","code_nuance":"BC-UG","numero_panneau":"1"},{"pourcent_voix_exp":"53.17","voix":"1604","binome":"M. DIDIER Roger et Mme FEROTIN Bénédicte","pourcent_voix_ins":"24.32","code_nuance":"BC-DVD","numero_panneau":"3"}],"code":"61","pourcent_nuls_vot":"3.39","lib":"Gap","pourcent_blancs_vot":"6.87","nuls":"114","pourcent_vot_ins":"50.97","inscrits":"6596","exprimes":"3017","pourcent_abs_ins":"49.03"}
,{"abstentions":"34","pourcent_blancs_ins":"3.28","pourcent_nuls_ins":"1.64","pourcent_exp_vot":"93.18","votants":"88","pourcent_exp_ins":"67.21","blancs":"4","resultats":[{"pourcent_voix_exp":"68.29","voix":"56","binome":"M. ARMAND Florent et Mme TRUPHEME Anne","pourcent_voix_ins":"45.9","code_nuance":"BC-DVG","numero_panneau":"4"},{"pourcent_voix_exp":"31.71","voix":"26","binome":"Mme GARCIN Martine et M. LAGIER Bruno","pourcent_voix_ins":"21.31","code_nuance":"BC-UD","numero_panneau":"3"}],"code":"5","pourcent_nuls_vot":"2.27","lib":"Antonaves","pourcent_blancs_vot":"4.55","nuls":"2","pourcent_vot_ins":"72.13","inscrits":"122","exprimes":"82","pourcent_abs_ins":"27.87"}
,{"abstentions":"60","pourcent_blancs_ins":"1.02","pourcent_nuls_ins":"1.02","pourcent_exp_vot":"97.06","votants":"136","pourcent_exp_ins":"67.35","blancs":"2","resultats":[{"pourcent_voix_exp":"43.94","voix":"58","binome":"M. ARMAND Florent et Mme TRUPHEME Anne","pourcent_voix_ins":"29.59","code_nuance":"BC-DVG","numero_panneau":"4"},{"pourcent_voix_exp":"56.06","voix":"74","binome":"Mme GARCIN Martine et M. LAGIER Bruno","pourcent_voix_ins":"37.76","code_nuance":"BC-UD","numero_panneau":"3"}],"code":"14","pourcent_nuls_vot":"1.47","lib":"Barret-sur-Méouge","pourcent_blancs_vot":"1.47","nuls":"2","pourcent_vot_ins":"69.39","inscrits":"196","exprimes":"132","pourcent_abs_ins":"30.61"}
,{"abstentions":"123","pourcent_blancs_ins":"5.23","pourcent_nuls_ins":"0.98","pourcent_exp_vot":"89.62","votants":"183","pourcent_exp_ins":"53.59","blancs":"16","resultats":[{"pourcent_voix_exp":"71.34","voix":"117","binome":"M. ARMAND Florent et Mme TRUPHEME Anne","pourcent_voix_ins":"38.24","code_nuance":"BC-DVG","numero_panneau":"4"},{"pourcent_voix_exp":"28.66","voix":"47","binome":"Mme GARCIN Martine et M. LAGIER Bruno","pourcent_voix_ins":"15.36","code_nuance":"BC-UD","numero_panneau":"3"}],"code":"34","pourcent_nuls_vot":"1.64","lib":"Châteauneuf-de-Chabre","pourcent_blancs_vot":"8.74","nuls":"3","pourcent_vot_ins":"59.8","inscrits":"306","exprimes":"164","pourcent_abs_ins":"40.2"}
,{"abstentions":"43","pourcent_blancs_ins":"3.75","pourcent_nuls_ins":"0","pourcent_exp_vot":"91.89","votants":"37","pourcent_exp_ins":"42.5","blancs":"3","resultats":[{"pourcent_voix_exp":"67.65","voix":"23","binome":"M. ARMAND Florent et Mme TRUPHEME Anne","pourcent_voix_ins":"28.75","code_nuance":"BC-DVG","numero_panneau":"4"},{"pourcent_voix_exp":"32.35","voix":"11","binome":"Mme GARCIN Martine et M. LAGIER Bruno","pourcent_voix_ins":"13.75","code_nuance":"BC-UD","numero_panneau":"3"}],"code":"47","pourcent_nuls_vot":"0","lib":"Eourres","pourcent_blancs_vot":"8.11","nuls":"0","pourcent_vot_ins":"46.25","inscrits":"80","exprimes":"34","pourcent_abs_ins":"53.75"}
,{"abstentions":"848","pourcent_blancs_ins":"3.93","pourcent_nuls_ins":"2.87","pourcent_exp_vot":"89.79","votants":"1695","pourcent_exp_ins":"59.85","blancs":"100","resultats":[{"pourcent_voix_exp":"49.93","voix":"760","binome":"M. ARMAND Florent et Mme TRUPHEME Anne","pourcent_voix_ins":"29.89","code_nuance":"BC-DVG","numero_panneau":"4"},{"pourcent_voix_exp":"50.07","voix":"762","binome":"Mme GARCIN Martine et M. LAGIER Bruno","pourcent_voix_ins":"29.96","code_nuance":"BC-UD","numero_panneau":"3"}],"code":"70","pourcent_nuls_vot":"4.31","lib":"Laragne-Montéglin","pourcent_blancs_vot":"5.9","nuls":"73","pourcent_vot_ins":"66.65","inscrits":"2543","exprimes":"1522","pourcent_abs_ins":"33.35"}
,{"abstentions":"96","pourcent_blancs_ins":"7.55","pourcent_nuls_ins":"2.88","pourcent_exp_vot":"84.07","votants":"182","pourcent_exp_ins":"55.04","blancs":"21","resultats":[{"pourcent_voix_exp":"38.56","voix":"59","binome":"M. ARMAND Florent et Mme TRUPHEME Anne","pourcent_voix_ins":"21.22","code_nuance":"BC-DVG","numero_panneau":"4"},{"pourcent_voix_exp":"61.44","voix":"94","binome":"Mme GARCIN Martine et M. LAGIER Bruno","pourcent_voix_ins":"33.81","code_nuance":"BC-UD","numero_panneau":"3"}],"code":"73","pourcent_nuls_vot":"4.4","lib":"Lazer","pourcent_blancs_vot":"11.54","nuls":"8","pourcent_vot_ins":"65.47","inscrits":"278","exprimes":"153","pourcent_abs_ins":"34.53"}
,{"abstentions":"61","pourcent_blancs_ins":"1.46","pourcent_nuls_ins":"1.94","pourcent_exp_vot":"95.17","votants":"145","pourcent_exp_ins":"66.99","blancs":"3","resultats":[{"pourcent_voix_exp":"39.86","voix":"55","binome":"M. ARMAND Florent et Mme TRUPHEME Anne","pourcent_voix_ins":"26.7","code_nuance":"BC-DVG","numero_panneau":"4"},{"pourcent_voix_exp":"60.14","voix":"83","binome":"Mme GARCIN Martine et M. LAGIER Bruno","pourcent_voix_ins":"40.29","code_nuance":"BC-UD","numero_panneau":"3"}],"code":"78","pourcent_nuls_vot":"2.76","lib":"Monêtier-Allemont","pourcent_blancs_vot":"2.07","nuls":"4","pourcent_vot_ins":"70.39","inscrits":"206","exprimes":"138","pourcent_abs_ins":"29.61"}
,{"abstentions":"206","pourcent_blancs_ins":"4.46","pourcent_nuls_ins":"2.04","pourcent_exp_vot":"89.46","votants":"332","pourcent_exp_ins":"55.2","blancs":"24","resultats":[{"pourcent_voix_exp":"55.22","voix":"164","binome":"M. ARMAND Florent et Mme TRUPHEME Anne","pourcent_voix_ins":"30.48","code_nuance":"BC-DVG","numero_panneau":"4"},{"pourcent_voix_exp":"44.78","voix":"133","binome":"Mme GARCIN Martine et M. LAGIER Bruno","pourcent_voix_ins":"24.72","code_nuance":"BC-UD","numero_panneau":"3"}],"code":"103","pourcent_nuls_vot":"3.31","lib":"Le Poët","pourcent_blancs_vot":"7.23","nuls":"11","pourcent_vot_ins":"61.71","inscrits":"538","exprimes":"297","pourcent_abs_ins":"38.29"}
,{"abstentions":"247","pourcent_blancs_ins":"2.54","pourcent_nuls_ins":"3.17","pourcent_exp_vot":"90.63","votants":"384","pourcent_exp_ins":"55.15","blancs":"16","resultats":[{"pourcent_voix_exp":"51.72","voix":"180","binome":"M. ARMAND Florent et Mme TRUPHEME Anne","pourcent_voix_ins":"28.53","code_nuance":"BC-DVG","numero_panneau":"4"},{"pourcent_voix_exp":"48.28","voix":"168","binome":"Mme GARCIN Martine et M. LAGIER Bruno","pourcent_voix_ins":"26.62","code_nuance":"BC-UD","numero_panneau":"3"}],"code":"118","pourcent_nuls_vot":"5.21","lib":"Ribiers","pourcent_blancs_vot":"4.17","nuls":"20","pourcent_vot_ins":"60.86","inscrits":"631","exprimes":"348","pourcent_abs_ins":"39.14"}
,{"abstentions":"13","pourcent_blancs_ins":"2.86","pourcent_nuls_ins":"2.86","pourcent_exp_vot":"90.91","votants":"22","pourcent_exp_ins":"57.14","blancs":"1","resultats":[{"pourcent_voix_exp":"80","voix":"16","binome":"M. ARMAND Florent et Mme TRUPHEME Anne","pourcent_voix_ins":"45.71","code_nuance":"BC-DVG","numero_panneau":"4"},{"pourcent_voix_exp":"20","voix":"4","binome":"Mme GARCIN Martine et M. LAGIER Bruno","pourcent_voix_ins":"11.43","code_nuance":"BC-UD","numero_panneau":"3"}],"code":"155","pourcent_nuls_vot":"4.55","lib":"Saint-Pierre-Avez","pourcent_blancs_vot":"4.55","nuls":"1","pourcent_vot_ins":"62.86","inscrits":"35","exprimes":"20","pourcent_abs_ins":"37.14"}
,{"abstentions":"56","pourcent_blancs_ins":"1.01","pourcent_nuls_ins":"0","pourcent_exp_vot":"97.67","votants":"43","pourcent_exp_ins":"42.42","blancs":"1","resultats":[{"pourcent_voix_exp":"50","voix":"21","binome":"M. ARMAND Florent et Mme TRUPHEME Anne","pourcent_voix_ins":"21.21","code_nuance":"BC-DVG","numero_panneau":"4"},{"pourcent_voix_exp":"50","voix":"21","binome":"Mme GARCIN Martine et M. LAGIER Bruno","pourcent_voix_ins":"21.21","code_nuance":"BC-UD","numero_panneau":"3"}],"code":"160","pourcent_nuls_vot":"0","lib":"Salérans","pourcent_blancs_vot":"2.33","nuls":"0","pourcent_vot_ins":"43.43","inscrits":"99","exprimes":"42","pourcent_abs_ins":"56.57"}
,{"abstentions":"132","pourcent_blancs_ins":"5.26","pourcent_nuls_ins":"1.94","pourcent_exp_vot":"88.65","votants":"229","pourcent_exp_ins":"56.23","blancs":"19","resultats":[{"pourcent_voix_exp":"62.07","voix":"126","binome":"M. ARMAND Florent et Mme TRUPHEME Anne","pourcent_voix_ins":"34.9","code_nuance":"BC-DVG","numero_panneau":"4"},{"pourcent_voix_exp":"37.93","voix":"77","binome":"Mme GARCIN Martine et M. LAGIER Bruno","pourcent_voix_ins":"21.33","code_nuance":"BC-UD","numero_panneau":"3"}],"code":"173","pourcent_nuls_vot":"3.06","lib":"Upaix","pourcent_blancs_vot":"8.3","nuls":"7","pourcent_vot_ins":"63.43","inscrits":"361","exprimes":"203","pourcent_abs_ins":"36.57"}
,{"abstentions":"170","pourcent_blancs_ins":"5.28","pourcent_nuls_ins":"0.69","pourcent_exp_vot":"90.23","votants":"266","pourcent_exp_ins":"55.05","blancs":"23","resultats":[{"pourcent_voix_exp":"60.83","voix":"146","binome":"M. ARMAND Florent et Mme TRUPHEME Anne","pourcent_voix_ins":"33.49","code_nuance":"BC-DVG","numero_panneau":"4"},{"pourcent_voix_exp":"39.17","voix":"94","binome":"Mme GARCIN Martine et M. LAGIER Bruno","pourcent_voix_ins":"21.56","code_nuance":"BC-UD","numero_panneau":"3"}],"code":"178","pourcent_nuls_vot":"1.13","lib":"Ventavon","pourcent_blancs_vot":"8.65","nuls":"3","pourcent_vot_ins":"61.01","inscrits":"436","exprimes":"240","pourcent_abs_ins":"38.99"}
,{"abstentions":"141","pourcent_blancs_ins":"2.56","pourcent_nuls_ins":"3.53","pourcent_exp_vot":"88.89","votants":"171","pourcent_exp_ins":"48.72","blancs":"8","resultats":[{"pourcent_voix_exp":"51.32","voix":"78","binome":"M. ODDOU Rémy et Mme VINCENT Patricia","pourcent_voix_ins":"25","code_nuance":"BC-DIV","numero_panneau":"2"},{"pourcent_voix_exp":"48.68","voix":"74","binome":"M. ARNAUD Jean-Michel et Mme BOUBAULT Dominique","pourcent_voix_ins":"23.72","code_nuance":"BC-UD","numero_panneau":"1"}],"code":"11","pourcent_nuls_vot":"6.43","lib":"Avançon","pourcent_blancs_vot":"4.68","nuls":"11","pourcent_vot_ins":"54.81","inscrits":"312","exprimes":"152","pourcent_abs_ins":"45.19"}
,{"abstentions":"47","pourcent_blancs_ins":"0.78","pourcent_nuls_ins":"0.78","pourcent_exp_vot":"97.53","votants":"81","pourcent_exp_ins":"61.72","blancs":"1","resultats":[{"pourcent_voix_exp":"89.87","voix":"71","binome":"M. ODDOU Rémy et Mme VINCENT Patricia","pourcent_voix_ins":"55.47","code_nuance":"BC-DIV","numero_panneau":"2"},{"pourcent_voix_exp":"10.13","voix":"8","binome":"M. ARNAUD Jean-Michel et Mme BOUBAULT Dominique","pourcent_voix_ins":"6.25","code_nuance":"BC-UD","numero_panneau":"1"}],"code":"13","pourcent_nuls_vot":"1.23","lib":"Barcillonnette","pourcent_blancs_vot":"1.23","nuls":"1","pourcent_vot_ins":"63.28","inscrits":"128","exprimes":"79","pourcent_abs_ins":"36.72"}
,{"abstentions":"80","pourcent_blancs_ins":"3.16","pourcent_nuls_ins":"1.05","pourcent_exp_vot":"94.15","votants":"205","pourcent_exp_ins":"67.72","blancs":"9","resultats":[{"pourcent_voix_exp":"39.38","voix":"76","binome":"M. ODDOU Rémy et Mme VINCENT Patricia","pourcent_voix_ins":"26.67","code_nuance":"BC-DIV","numero_panneau":"2"},{"pourcent_voix_exp":"60.62","voix":"117","binome":"M. ARNAUD Jean-Michel et Mme BOUBAULT Dominique","pourcent_voix_ins":"41.05","code_nuance":"BC-UD","numero_panneau":"1"}],"code":"18","pourcent_nuls_vot":"1.46","lib":"La Bâtie-Vieille","pourcent_blancs_vot":"4.39","nuls":"3","pourcent_vot_ins":"71.93","inscrits":"285","exprimes":"193","pourcent_abs_ins":"28.07"}
,{"abstentions":"98","pourcent_blancs_ins":"4.89","pourcent_nuls_ins":"2.45","pourcent_exp_vot":"90","votants":"270","pourcent_exp_ins":"66.03","blancs":"18","resultats":[{"pourcent_voix_exp":"46.91","voix":"114","binome":"M. ODDOU Rémy et Mme VINCENT Patricia","pourcent_voix_ins":"30.98","code_nuance":"BC-DIV","numero_panneau":"2"},{"pourcent_voix_exp":"53.09","voix":"129","binome":"M. ARNAUD Jean-Michel et Mme BOUBAULT Dominique","pourcent_voix_ins":"35.05","code_nuance":"BC-UD","numero_panneau":"1"}],"code":"37","pourcent_nuls_vot":"3.33","lib":"Châteauvieux","pourcent_blancs_vot":"6.67","nuls":"9","pourcent_vot_ins":"73.37","inscrits":"368","exprimes":"243","pourcent_abs_ins":"26.63"}
,{"abstentions":"16","pourcent_blancs_ins":"1.85","pourcent_nuls_ins":"1.85","pourcent_exp_vot":"94.74","votants":"38","pourcent_exp_ins":"66.67","blancs":"1","resultats":[{"pourcent_voix_exp":"50","voix":"18","binome":"M. ODDOU Rémy et Mme VINCENT Patricia","pourcent_voix_ins":"33.33","code_nuance":"BC-DIV","numero_panneau":"2"},{"pourcent_voix_exp":"50","voix":"18","binome":"M. ARNAUD Jean-Michel et Mme BOUBAULT Dominique","pourcent_voix_ins":"33.33","code_nuance":"BC-UD","numero_panneau":"1"}],"code":"49","pourcent_nuls_vot":"2.63","lib":"Esparron","pourcent_blancs_vot":"2.63","nuls":"1","pourcent_vot_ins":"70.37","inscrits":"54","exprimes":"36","pourcent_abs_ins":"29.63"}
,{"abstentions":"43","pourcent_blancs_ins":"2.81","pourcent_nuls_ins":"0.56","pourcent_exp_vot":"95.56","votants":"135","pourcent_exp_ins":"72.47","blancs":"5","resultats":[{"pourcent_voix_exp":"56.59","voix":"73","binome":"M. ODDOU Rémy et Mme VINCENT Patricia","pourcent_voix_ins":"41.01","code_nuance":"BC-DIV","numero_panneau":"2"},{"pourcent_voix_exp":"43.41","voix":"56","binome":"M. ARNAUD Jean-Michel et Mme BOUBAULT Dominique","pourcent_voix_ins":"31.46","code_nuance":"BC-UD","numero_panneau":"1"}],"code":"57","pourcent_nuls_vot":"0.74","lib":"Fouillouse","pourcent_blancs_vot":"3.7","nuls":"1","pourcent_vot_ins":"75.84","inscrits":"178","exprimes":"129","pourcent_abs_ins":"24.16"}
,{"abstentions":"243","pourcent_blancs_ins":"2.06","pourcent_nuls_ins":"1.31","pourcent_exp_vot":"93.79","votants":"290","pourcent_exp_ins":"51.03","blancs":"11","resultats":[{"pourcent_voix_exp":"60.66","voix":"165","binome":"M. ODDOU Rémy et Mme VINCENT Patricia","pourcent_voix_ins":"30.96","code_nuance":"BC-DIV","numero_panneau":"2"},{"pourcent_voix_exp":"39.34","voix":"107","binome":"M. ARNAUD Jean-Michel et Mme BOUBAULT Dominique","pourcent_voix_ins":"20.08","code_nuance":"BC-UD","numero_panneau":"1"}],"code":"59","pourcent_nuls_vot":"2.41","lib":"La Freissinouse","pourcent_blancs_vot":"3.79","nuls":"7","pourcent_vot_ins":"54.41","inscrits":"533","exprimes":"272","pourcent_abs_ins":"45.59"}
,{"abstentions":"129","pourcent_blancs_ins":"2.97","pourcent_nuls_ins":"1.78","pourcent_exp_vot":"92.31","votants":"208","pourcent_exp_ins":"56.97","blancs":"10","resultats":[{"pourcent_voix_exp":"55.21","voix":"106","binome":"M. ODDOU Rémy et Mme VINCENT Patricia","pourcent_voix_ins":"31.45","code_nuance":"BC-DIV","numero_panneau":"2"},{"pourcent_voix_exp":"44.79","voix":"86","binome":"M. ARNAUD Jean-Michel et Mme BOUBAULT Dominique","pourcent_voix_ins":"25.52","code_nuance":"BC-UD","numero_panneau":"1"}],"code":"68","pourcent_nuls_vot":"2.88","lib":"Jarjayes","pourcent_blancs_vot":"4.81","nuls":"6","pourcent_vot_ins":"61.72","inscrits":"337","exprimes":"192","pourcent_abs_ins":"38.28"}
,{"abstentions":"82","pourcent_blancs_ins":"2.14","pourcent_nuls_ins":"0.36","pourcent_exp_vot":"96.48","votants":"199","pourcent_exp_ins":"68.33","blancs":"6","resultats":[{"pourcent_voix_exp":"78.65","voix":"151","binome":"M. ODDOU Rémy et Mme VINCENT Patricia","pourcent_voix_ins":"53.74","code_nuance":"BC-DIV","numero_panneau":"2"},{"pourcent_voix_exp":"21.35","voix":"41","binome":"M. ARNAUD Jean-Michel et Mme BOUBAULT Dominique","pourcent_voix_ins":"14.59","code_nuance":"BC-UD","numero_panneau":"1"}],"code":"71","pourcent_nuls_vot":"0.5","lib":"Lardier-et-Valença","pourcent_blancs_vot":"3.02","nuls":"1","pourcent_vot_ins":"70.82","inscrits":"281","exprimes":"192","pourcent_abs_ins":"29.18"}
,{"abstentions":"33","pourcent_blancs_ins":"4.22","pourcent_nuls_ins":"1.2","pourcent_exp_vot":"93.23","votants":"133","pourcent_exp_ins":"74.7","blancs":"7","resultats":[{"pourcent_voix_exp":"67.74","voix":"84","binome":"M. ODDOU Rémy et Mme VINCENT Patricia","pourcent_voix_ins":"50.6","code_nuance":"BC-DIV","numero_panneau":"2"},{"pourcent_voix_exp":"32.26","voix":"40","binome":"M. ARNAUD Jean-Michel et Mme BOUBAULT Dominique","pourcent_voix_ins":"24.1","code_nuance":"BC-UD","numero_panneau":"1"}],"code":"74","pourcent_nuls_vot":"1.5","lib":"Lettret","pourcent_blancs_vot":"5.26","nuls":"2","pourcent_vot_ins":"80.12","inscrits":"166","exprimes":"124","pourcent_abs_ins":"19.88"}
,{"abstentions":"256","pourcent_blancs_ins":"1.91","pourcent_nuls_ins":"1.43","pourcent_exp_vot":"94.37","votants":"373","pourcent_exp_ins":"55.96","blancs":"12","resultats":[{"pourcent_voix_exp":"53.13","voix":"187","binome":"M. ODDOU Rémy et Mme VINCENT Patricia","pourcent_voix_ins":"29.73","code_nuance":"BC-DIV","numero_panneau":"2"},{"pourcent_voix_exp":"46.88","voix":"165","binome":"M. ARNAUD Jean-Michel et Mme BOUBAULT Dominique","pourcent_voix_ins":"26.23","code_nuance":"BC-UD","numero_panneau":"1"}],"code":"92","pourcent_nuls_vot":"2.41","lib":"Neffes","pourcent_blancs_vot":"3.22","nuls":"9","pourcent_vot_ins":"59.3","inscrits":"629","exprimes":"352","pourcent_abs_ins":"40.7"}
,{"abstentions":"181","pourcent_blancs_ins":"3.99","pourcent_nuls_ins":"1.45","pourcent_exp_vot":"91.89","votants":"370","pourcent_exp_ins":"61.71","blancs":"22","resultats":[{"pourcent_voix_exp":"44.41","voix":"151","binome":"M. ODDOU Rémy et Mme VINCENT Patricia","pourcent_voix_ins":"27.4","code_nuance":"BC-DIV","numero_panneau":"2"},{"pourcent_voix_exp":"55.59","voix":"189","binome":"M. ARNAUD Jean-Michel et Mme BOUBAULT Dominique","pourcent_voix_ins":"34.3","code_nuance":"BC-UD","numero_panneau":"1"}],"code":"100","pourcent_nuls_vot":"2.16","lib":"Pelleautier","pourcent_blancs_vot":"5.95","nuls":"8","pourcent_vot_ins":"67.15","inscrits":"551","exprimes":"340","pourcent_abs_ins":"32.85"}
,{"abstentions":"114","pourcent_blancs_ins":"0.6","pourcent_nuls_ins":"5.74","pourcent_exp_vot":"90.32","votants":"217","pourcent_exp_ins":"59.21","blancs":"2","resultats":[{"pourcent_voix_exp":"76.53","voix":"150","binome":"M. ODDOU Rémy et Mme VINCENT Patricia","pourcent_voix_ins":"45.32","code_nuance":"BC-DIV","numero_panneau":"2"},{"pourcent_voix_exp":"23.47","voix":"46","binome":"M. ARNAUD Jean-Michel et Mme BOUBAULT Dominique","pourcent_voix_ins":"13.9","code_nuance":"BC-UD","numero_panneau":"1"}],"code":"113","pourcent_nuls_vot":"8.76","lib":"Rambaud","pourcent_blancs_vot":"0.92","nuls":"19","pourcent_vot_ins":"65.56","inscrits":"331","exprimes":"196","pourcent_abs_ins":"34.44"}
,{"abstentions":"97","pourcent_blancs_ins":"8.33","pourcent_nuls_ins":"1.67","pourcent_exp_vot":"83.22","votants":"143","pourcent_exp_ins":"49.58","blancs":"20","resultats":[{"pourcent_voix_exp":"49.58","voix":"59","binome":"M. ODDOU Rémy et Mme VINCENT Patricia","pourcent_voix_ins":"24.58","code_nuance":"BC-DIV","numero_panneau":"2"},{"pourcent_voix_exp":"50.42","voix":"60","binome":"M. ARNAUD Jean-Michel et Mme BOUBAULT Dominique","pourcent_voix_ins":"25","code_nuance":"BC-UD","numero_panneau":"1"}],"code":"140","pourcent_nuls_vot":"2.8","lib":"Saint-Etienne-le-Laus","pourcent_blancs_vot":"13.99","nuls":"4","pourcent_vot_ins":"59.58","inscrits":"240","exprimes":"119","pourcent_abs_ins":"40.42"}
,{"abstentions":"333","pourcent_blancs_ins":"2.46","pourcent_nuls_ins":"0.9","pourcent_exp_vot":"94.64","votants":"560","pourcent_exp_ins":"59.35","blancs":"22","resultats":[{"pourcent_voix_exp":"59.06","voix":"313","binome":"M. ODDOU Rémy et Mme VINCENT Patricia","pourcent_voix_ins":"35.05","code_nuance":"BC-DIV","numero_panneau":"2"},{"pourcent_voix_exp":"40.94","voix":"217","binome":"M. ARNAUD Jean-Michel et Mme BOUBAULT Dominique","pourcent_voix_ins":"24.3","code_nuance":"BC-UD","numero_panneau":"1"}],"code":"162","pourcent_nuls_vot":"1.43","lib":"La Saulce","pourcent_blancs_vot":"3.93","nuls":"8","pourcent_vot_ins":"62.71","inscrits":"893","exprimes":"530","pourcent_abs_ins":"37.29"}
,{"abstentions":"217","pourcent_blancs_ins":"2.95","pourcent_nuls_ins":"1.66","pourcent_exp_vot":"92.33","votants":"326","pourcent_exp_ins":"55.43","blancs":"16","resultats":[{"pourcent_voix_exp":"55.15","voix":"166","binome":"M. ODDOU Rémy et Mme VINCENT Patricia","pourcent_voix_ins":"30.57","code_nuance":"BC-DIV","numero_panneau":"2"},{"pourcent_voix_exp":"44.85","voix":"135","binome":"M. ARNAUD Jean-Michel et Mme BOUBAULT Dominique","pourcent_voix_ins":"24.86","code_nuance":"BC-UD","numero_panneau":"1"}],"code":"168","pourcent_nuls_vot":"2.76","lib":"Sigoyer","pourcent_blancs_vot":"4.91","nuls":"9","pourcent_vot_ins":"60.04","inscrits":"543","exprimes":"301","pourcent_abs_ins":"39.96"}
,{"abstentions":"497","pourcent_blancs_ins":"1.36","pourcent_nuls_ins":"0.78","pourcent_exp_vot":"96.86","votants":"1050","pourcent_exp_ins":"65.74","blancs":"21","resultats":[{"pourcent_voix_exp":"33.73","voix":"343","binome":"M. ODDOU Rémy et Mme VINCENT Patricia","pourcent_voix_ins":"22.17","code_nuance":"BC-DIV","numero_panneau":"2"},{"pourcent_voix_exp":"66.27","voix":"674","binome":"M. ARNAUD Jean-Michel et Mme BOUBAULT Dominique","pourcent_voix_ins":"43.57","code_nuance":"BC-UD","numero_panneau":"1"}],"code":"170","pourcent_nuls_vot":"1.14","lib":"Tallard","pourcent_blancs_vot":"2","nuls":"12","pourcent_vot_ins":"67.87","inscrits":"1547","exprimes":"1017","pourcent_abs_ins":"32.13"}
,{"abstentions":"72","pourcent_blancs_ins":"4.74","pourcent_nuls_ins":"2.11","pourcent_exp_vot":"88.98","votants":"118","pourcent_exp_ins":"55.26","blancs":"9","resultats":[{"pourcent_voix_exp":"63.81","voix":"67","binome":"M. ODDOU Rémy et Mme VINCENT Patricia","pourcent_voix_ins":"35.26","code_nuance":"BC-DIV","numero_panneau":"2"},{"pourcent_voix_exp":"36.19","voix":"38","binome":"M. ARNAUD Jean-Michel et Mme BOUBAULT Dominique","pourcent_voix_ins":"20","code_nuance":"BC-UD","numero_panneau":"1"}],"code":"176","pourcent_nuls_vot":"3.39","lib":"Valserres","pourcent_blancs_vot":"7.63","nuls":"4","pourcent_vot_ins":"62.11","inscrits":"190","exprimes":"105","pourcent_abs_ins":"37.89"}
,{"abstentions":"49","pourcent_blancs_ins":"2.27","pourcent_nuls_ins":"3.98","pourcent_exp_vot":"91.34","votants":"127","pourcent_exp_ins":"65.91","blancs":"4","resultats":[{"pourcent_voix_exp":"77.59","voix":"90","binome":"M. ODDOU Rémy et Mme VINCENT Patricia","pourcent_voix_ins":"51.14","code_nuance":"BC-DIV","numero_panneau":"2"},{"pourcent_voix_exp":"22.41","voix":"26","binome":"M. ARNAUD Jean-Michel et Mme BOUBAULT Dominique","pourcent_voix_ins":"14.77","code_nuance":"BC-UD","numero_panneau":"1"}],"code":"184","pourcent_nuls_vot":"5.51","lib":"Vitrolles","pourcent_blancs_vot":"3.15","nuls":"7","pourcent_vot_ins":"72.16","inscrits":"176","exprimes":"116","pourcent_abs_ins":"27.84"}
]}
