{"status":"success","data":[{"abstentions":"13640","pourcent_blancs_ins":"1.96","pourcent_nuls_ins":"1.15","pourcent_exp_vot":"92.66","votants":"10006","pourcent_exp_ins":"39.21","blancs":"463","resultats":[{"pourcent_voix_exp":"58.84","voix":"5456","binome":"M. CHIKOUCHE Mohamed et Mme SANTIAGO Isabelle","pourcent_voix_ins":"23.07","code_nuance":"BC-UG","numero_panneau":"2"},{"pourcent_voix_exp":"41.16","voix":"3816","binome":"M. TANGUY François et Mme ZABOUNIAN Déborah","pourcent_voix_ins":"16.14","code_nuance":"BC-UD","numero_panneau":"4"}],"code":"2","pourcent_nuls_vot":"2.71","lib":"Alfortville","pourcent_blancs_vot":"4.63","nuls":"271","pourcent_vot_ins":"42.32","inscrits":"23646","exprimes":"9272","pourcent_abs_ins":"57.68"}
,{"abstentions":"7687","pourcent_blancs_ins":"3.08","pourcent_nuls_ins":"0","pourcent_exp_vot":"91.72","votants":"4551","pourcent_exp_ins":"34.11","blancs":"377","resultats":[{"pourcent_voix_exp":"71.23","voix":"2973","binome":"M. BREUILLER Daniel et Mme DE COMARMOND Hélène","pourcent_voix_ins":"24.29","code_nuance":"BC-UG","numero_panneau":"4"},{"pourcent_voix_exp":"28.77","voix":"1201","binome":"Mme GANNE-LEVY Sarah et M. TROUILLAS Sébastien","pourcent_voix_ins":"9.81","code_nuance":"BC-UD","numero_panneau":"1"}],"code":"3","pourcent_nuls_vot":"0","lib":"Arcueil","pourcent_blancs_vot":"8.28","nuls":"0","pourcent_vot_ins":"37.19","inscrits":"12238","exprimes":"4174","pourcent_abs_ins":"62.81"}
,{"abstentions":"9622","pourcent_blancs_ins":"1.76","pourcent_nuls_ins":"1","pourcent_exp_vot":"93.32","votants":"6781","pourcent_exp_ins":"38.58","blancs":"289","resultats":[{"pourcent_voix_exp":"62.2","voix":"3936","binome":"M. BREUILLER Daniel et Mme DE COMARMOND Hélène","pourcent_voix_ins":"24","code_nuance":"BC-UG","numero_panneau":"4"},{"pourcent_voix_exp":"37.8","voix":"2392","binome":"Mme GANNE-LEVY Sarah et M. TROUILLAS Sébastien","pourcent_voix_ins":"14.58","code_nuance":"BC-UD","numero_panneau":"1"}],"code":"16","pourcent_nuls_vot":"2.42","lib":"Cachan","pourcent_blancs_vot":"4.26","nuls":"164","pourcent_vot_ins":"41.34","inscrits":"16403","exprimes":"6328","pourcent_abs_ins":"58.66"}
,{"abstentions":"15912","pourcent_blancs_ins":"0.95","pourcent_nuls_ins":"0.48","pourcent_exp_vot":"96.72","votants":"12410","pourcent_exp_ins":"42.38","blancs":"270","resultats":[{"pourcent_voix_exp":"51.88","voix":"6227","binome":"M. FAVIER Christian et Mme LE LAGADEC Jeannick","pourcent_voix_ins":"21.99","code_nuance":"BC-FG","numero_panneau":"2"},{"pourcent_voix_exp":"48.12","voix":"5776","binome":"M. JEANNE Laurent et Mme THIROUX Aurore","pourcent_voix_ins":"20.39","code_nuance":"BC-UD","numero_panneau":"4"}],"code":"17","pourcent_nuls_vot":"1.1","lib":"Champigny-sur-Marne","pourcent_blancs_vot":"2.18","nuls":"137","pourcent_vot_ins":"43.82","inscrits":"28322","exprimes":"12003","pourcent_abs_ins":"56.18"}
,{"abstentions":"8508","pourcent_blancs_ins":"1.11","pourcent_nuls_ins":"0.53","pourcent_exp_vot":"95.79","votants":"5443","pourcent_exp_ins":"37.37","blancs":"155","resultats":[{"pourcent_voix_exp":"61.43","voix":"3203","binome":"M. AUDHÉON Alain et Mme KENNEDY Marie","pourcent_voix_ins":"22.96","code_nuance":"BC-FG","numero_panneau":"2"},{"pourcent_voix_exp":"38.57","voix":"2011","binome":"M. BARNAUD Jean-Pierre et Mme DE AMORIN Isilda","pourcent_voix_ins":"14.41","code_nuance":"BC-UD","numero_panneau":"1"}],"code":"17","pourcent_nuls_vot":"1.36","lib":"Champigny-sur-Marne","pourcent_blancs_vot":"2.85","nuls":"74","pourcent_vot_ins":"39.02","inscrits":"13951","exprimes":"5214","pourcent_abs_ins":"60.98"}
,{"abstentions":"6035","pourcent_blancs_ins":"1.93","pourcent_nuls_ins":"0.8","pourcent_exp_vot":"93.42","votants":"4288","pourcent_exp_ins":"38.81","blancs":"199","resultats":[{"pourcent_voix_exp":"39.17","voix":"1569","binome":"M. AUDHÉON Alain et Mme KENNEDY Marie","pourcent_voix_ins":"15.2","code_nuance":"BC-FG","numero_panneau":"2"},{"pourcent_voix_exp":"60.83","voix":"2437","binome":"M. BARNAUD Jean-Pierre et Mme DE AMORIN Isilda","pourcent_voix_ins":"23.61","code_nuance":"BC-UD","numero_panneau":"1"}],"code":"19","pourcent_nuls_vot":"1.94","lib":"Chennevières-sur-Marne","pourcent_blancs_vot":"4.64","nuls":"83","pourcent_vot_ins":"41.54","inscrits":"10323","exprimes":"4006","pourcent_abs_ins":"58.46"}
,{"abstentions":"11227","pourcent_blancs_ins":"1.27","pourcent_nuls_ins":"0.54","pourcent_exp_vot":"95.79","votants":"8430","pourcent_exp_ins":"41.08","blancs":"249","resultats":[{"pourcent_voix_exp":"33.42","voix":"2699","binome":"M. CLAIR Jean François et Mme UDDIN Alison","pourcent_voix_ins":"13.73","code_nuance":"BC-UG","numero_panneau":"2"},{"pourcent_voix_exp":"66.58","voix":"5376","binome":"Mme DURAND Chantal et M. GICQUEL Hervé","pourcent_voix_ins":"27.35","code_nuance":"BC-UD","numero_panneau":"5"}],"code":"18","pourcent_nuls_vot":"1.26","lib":"Charenton-le-Pont","pourcent_blancs_vot":"2.95","nuls":"106","pourcent_vot_ins":"42.89","inscrits":"19657","exprimes":"8075","pourcent_abs_ins":"57.11"}
,{"abstentions":"6783","pourcent_blancs_ins":"1.73","pourcent_nuls_ins":"1.13","pourcent_exp_vot":"93.42","votants":"5214","pourcent_exp_ins":"40.6","blancs":"207","resultats":[{"pourcent_voix_exp":"42.72","voix":"2081","binome":"M. CLAIR Jean François et Mme UDDIN Alison","pourcent_voix_ins":"17.35","code_nuance":"BC-UG","numero_panneau":"2"},{"pourcent_voix_exp":"57.28","voix":"2790","binome":"Mme DURAND Chantal et M. GICQUEL Hervé","pourcent_voix_ins":"23.26","code_nuance":"BC-UD","numero_panneau":"5"}],"code":"42","pourcent_nuls_vot":"2.61","lib":"Joinville-le-Pont","pourcent_blancs_vot":"3.97","nuls":"136","pourcent_vot_ins":"43.46","inscrits":"11997","exprimes":"4871","pourcent_abs_ins":"56.54"}
,{"abstentions":"357","pourcent_blancs_ins":"1.37","pourcent_nuls_ins":"0.61","pourcent_exp_vot":"95.64","votants":"298","pourcent_exp_ins":"43.51","blancs":"9","resultats":[{"pourcent_voix_exp":"22.46","voix":"64","binome":"M. CLAIR Jean François et Mme UDDIN Alison","pourcent_voix_ins":"9.77","code_nuance":"BC-UG","numero_panneau":"2"},{"pourcent_voix_exp":"77.54","voix":"221","binome":"Mme DURAND Chantal et M. GICQUEL Hervé","pourcent_voix_ins":"33.74","code_nuance":"BC-UD","numero_panneau":"5"}],"code":"52","pourcent_nuls_vot":"1.34","lib":"Nogent-sur-Marne","pourcent_blancs_vot":"3.02","nuls":"4","pourcent_vot_ins":"45.5","inscrits":"655","exprimes":"285","pourcent_abs_ins":"54.5"}
,{"abstentions":"4816","pourcent_blancs_ins":"1.39","pourcent_nuls_ins":"0.88","pourcent_exp_vot":"94.49","votants":"3373","pourcent_exp_ins":"38.92","blancs":"114","resultats":[{"pourcent_voix_exp":"33.35","voix":"1063","binome":"M. CLAIR Jean François et Mme UDDIN Alison","pourcent_voix_ins":"12.98","code_nuance":"BC-UG","numero_panneau":"2"},{"pourcent_voix_exp":"66.65","voix":"2124","binome":"Mme DURAND Chantal et M. GICQUEL Hervé","pourcent_voix_ins":"25.94","code_nuance":"BC-UD","numero_panneau":"5"}],"code":"69","pourcent_nuls_vot":"2.13","lib":"Saint-Maurice","pourcent_blancs_vot":"3.38","nuls":"72","pourcent_vot_ins":"41.19","inscrits":"8189","exprimes":"3187","pourcent_abs_ins":"58.81"}
,{"abstentions":"10882","pourcent_blancs_ins":"3.14","pourcent_nuls_ins":"1.42","pourcent_exp_vot":"90.05","votants":"9183","pourcent_exp_ins":"41.21","blancs":"630","resultats":[{"pourcent_voix_exp":"66.97","voix":"5538","binome":"Mme DINNER Nathalie et M. GUILLAUME Didier","pourcent_voix_ins":"27.6","code_nuance":"BC-FG","numero_panneau":"5"},{"pourcent_voix_exp":"33.03","voix":"2731","binome":"Mme DOS SANTOS Lucie et M. JOLY Dominique","pourcent_voix_ins":"13.61","code_nuance":"BC-FN","numero_panneau":"6"}],"code":"22","pourcent_nuls_vot":"3.09","lib":"Choisy-le-Roi","pourcent_blancs_vot":"6.86","nuls":"284","pourcent_vot_ins":"45.77","inscrits":"20065","exprimes":"8269","pourcent_abs_ins":"54.23"}
,{"abstentions":"3785","pourcent_blancs_ins":"1.74","pourcent_nuls_ins":"1.04","pourcent_exp_vot":"93.82","votants":"3073","pourcent_exp_ins":"42.04","blancs":"119","resultats":[{"pourcent_voix_exp":"52.2","voix":"1505","binome":"Mme DINNER Nathalie et M. GUILLAUME Didier","pourcent_voix_ins":"21.95","code_nuance":"BC-FG","numero_panneau":"5"},{"pourcent_voix_exp":"47.8","voix":"1378","binome":"Mme DOS SANTOS Lucie et M. JOLY Dominique","pourcent_voix_ins":"20.09","code_nuance":"BC-FN","numero_panneau":"6"}],"code":"78","pourcent_nuls_vot":"2.31","lib":"Villeneuve-Saint-Georges","pourcent_blancs_vot":"3.87","nuls":"71","pourcent_vot_ins":"44.81","inscrits":"6858","exprimes":"2883","pourcent_abs_ins":"55.19"}
,{"abstentions":"14523","pourcent_blancs_ins":"1.89","pourcent_nuls_ins":"0.96","pourcent_exp_vot":"92.6","votants":"9091","pourcent_exp_ins":"35.65","blancs":"446","resultats":[{"pourcent_voix_exp":"57.4","voix":"4832","binome":"M. JOHNSON Abraham et Mme SOL Josette","pourcent_voix_ins":"20.46","code_nuance":"BC-UG","numero_panneau":"5"},{"pourcent_voix_exp":"42.6","voix":"3586","binome":"Mme SMANIOTTO GRUSKA Sylvie et M. THEZARD Sylvain","pourcent_voix_ins":"15.19","code_nuance":"BC-UD","numero_panneau":"3"}],"code":"28","pourcent_nuls_vot":"2.5","lib":"Créteil","pourcent_blancs_vot":"4.91","nuls":"227","pourcent_vot_ins":"38.5","inscrits":"23614","exprimes":"8418","pourcent_abs_ins":"61.5"}
,{"abstentions":"14222","pourcent_blancs_ins":"2.03","pourcent_nuls_ins":"0.94","pourcent_exp_vot":"92.71","votants":"9753","pourcent_exp_ins":"37.71","blancs":"486","resultats":[{"pourcent_voix_exp":"55.82","voix":"5047","binome":"M. HELIN Bruno et Mme JEANVOINE Brigitte","pourcent_voix_ins":"21.05","code_nuance":"BC-UG","numero_panneau":"5"},{"pourcent_voix_exp":"44.18","voix":"3995","binome":"Mme CADOT Ange et M. HEBBRECHT Thierry","pourcent_voix_ins":"16.66","code_nuance":"BC-UD","numero_panneau":"4"}],"code":"28","pourcent_nuls_vot":"2.31","lib":"Créteil","pourcent_blancs_vot":"4.98","nuls":"225","pourcent_vot_ins":"40.68","inscrits":"23975","exprimes":"9042","pourcent_abs_ins":"59.32"}
,{"abstentions":"17911","pourcent_blancs_ins":"1.22","pourcent_nuls_ins":"0.5","pourcent_exp_vot":"96.17","votants":"14588","pourcent_exp_ins":"43.17","blancs":"395","resultats":[{"pourcent_voix_exp":"58.49","voix":"8205","binome":"Mme NIAKHATE Sokona et M. SAINT-GAL Gilles","pourcent_voix_ins":"25.25","code_nuance":"BC-FG","numero_panneau":"2"},{"pourcent_voix_exp":"41.51","voix":"5824","binome":"Mme CHAMBRE-MARTIN Brigitte et M. LECOQ Gildas","pourcent_voix_ins":"17.92","code_nuance":"BC-UD","numero_panneau":"6"}],"code":"33","pourcent_nuls_vot":"1.12","lib":"Fontenay-sous-Bois","pourcent_blancs_vot":"2.71","nuls":"164","pourcent_vot_ins":"44.89","inscrits":"32499","exprimes":"14029","pourcent_abs_ins":"55.11"}
,{"abstentions":"3081","pourcent_blancs_ins":"1.36","pourcent_nuls_ins":"0.53","pourcent_exp_vot":"96.06","votants":"2818","pourcent_exp_ins":"45.89","blancs":"80","resultats":[{"pourcent_voix_exp":"36.98","voix":"1001","binome":"Mme NIAKHATE Sokona et M. SAINT-GAL Gilles","pourcent_voix_ins":"16.97","code_nuance":"BC-FG","numero_panneau":"2"},{"pourcent_voix_exp":"63.02","voix":"1706","binome":"Mme CHAMBRE-MARTIN Brigitte et M. LECOQ Gildas","pourcent_voix_ins":"28.92","code_nuance":"BC-UD","numero_panneau":"6"}],"code":"80","pourcent_nuls_vot":"1.1","lib":"Vincennes","pourcent_blancs_vot":"2.84","nuls":"31","pourcent_vot_ins":"47.77","inscrits":"5899","exprimes":"2707","pourcent_abs_ins":"52.23"}
,{"abstentions":"9112","pourcent_blancs_ins":"1.78","pourcent_nuls_ins":"0.81","pourcent_exp_vot":"93.55","votants":"6112","pourcent_exp_ins":"37.56","blancs":"271","resultats":[{"pourcent_voix_exp":"48.57","voix":"2777","binome":"Mme HEILBRONN Fabienne et M. VAFIADÈS Philippe","pourcent_voix_ins":"18.24","code_nuance":"BC-UG","numero_panneau":"3"},{"pourcent_voix_exp":"51.43","voix":"2941","binome":"M. JEANBRUN Vincent et Mme PRADIER Frédérique","pourcent_voix_ins":"19.32","code_nuance":"BC-UD","numero_panneau":"6"}],"code":"34","pourcent_nuls_vot":"2.01","lib":"Fresnes","pourcent_blancs_vot":"4.43","nuls":"123","pourcent_vot_ins":"40.15","inscrits":"15224","exprimes":"5718","pourcent_abs_ins":"59.85"}
,{"abstentions":"10731","pourcent_blancs_ins":"1.21","pourcent_nuls_ins":"0.66","pourcent_exp_vot":"95.82","votants":"8699","pourcent_exp_ins":"42.9","blancs":"235","resultats":[{"pourcent_voix_exp":"41.42","voix":"3452","binome":"Mme HEILBRONN Fabienne et M. VAFIADÈS Philippe","pourcent_voix_ins":"17.77","code_nuance":"BC-UG","numero_panneau":"3"},{"pourcent_voix_exp":"58.58","voix":"4883","binome":"M. JEANBRUN Vincent et Mme PRADIER Frédérique","pourcent_voix_ins":"25.13","code_nuance":"BC-UD","numero_panneau":"6"}],"code":"38","pourcent_nuls_vot":"1.48","lib":"L'Hay-les-Roses","pourcent_blancs_vot":"2.7","nuls":"129","pourcent_vot_ins":"44.77","inscrits":"19430","exprimes":"8335","pourcent_abs_ins":"55.23"}
,{"abstentions":"19410","pourcent_blancs_ins":"3.74","pourcent_nuls_ins":"2.37","pourcent_exp_vot":"79.64","votants":"8327","pourcent_exp_ins":"23.91","blancs":"1037","resultats":[{"pourcent_voix_exp":"100","voix":"6632","binome":"Mme KIROUANI Lamya et M. SAVOLDELLI Pascal","pourcent_voix_ins":"23.91","code_nuance":"BC-FG","numero_panneau":"6"},{"pourcent_voix_exp":"","voix":"null","binome":"","pourcent_voix_ins":"","code_nuance":"","numero_panneau":"null"}],"code":"41","pourcent_nuls_vot":"7.9","lib":"Ivry-sur-Seine","pourcent_blancs_vot":"12.45","nuls":"658","pourcent_vot_ins":"30.02","inscrits":"27737","exprimes":"6632","pourcent_abs_ins":"69.98"}
,{"abstentions":"6755","pourcent_blancs_ins":"5.26","pourcent_nuls_ins":"1.13","pourcent_exp_vot":"79.62","votants":"3081","pourcent_exp_ins":"24.94","blancs":"517","resultats":[{"pourcent_voix_exp":"100","voix":"2453","binome":"Mme AGGOUNE Fatiha et M. DESMAREST Alain","pourcent_voix_ins":"24.94","code_nuance":"BC-FG","numero_panneau":"3"},{"pourcent_voix_exp":"","voix":"null","binome":"","pourcent_voix_ins":"","code_nuance":"","numero_panneau":"null"}],"code":"37","pourcent_nuls_vot":"3.6","lib":"Gentilly","pourcent_blancs_vot":"16.78","nuls":"111","pourcent_vot_ins":"31.32","inscrits":"9836","exprimes":"2453","pourcent_abs_ins":"68.68"}
,{"abstentions":"10839","pourcent_blancs_ins":"6.58","pourcent_nuls_ins":"1.52","pourcent_exp_vot":"69.29","votants":"3881","pourcent_exp_ins":"18.27","blancs":"968","resultats":[{"pourcent_voix_exp":"100","voix":"2689","binome":"Mme AGGOUNE Fatiha et M. DESMAREST Alain","pourcent_voix_ins":"18.27","code_nuance":"BC-FG","numero_panneau":"3"},{"pourcent_voix_exp":"","voix":"null","binome":"","pourcent_voix_ins":"","code_nuance":"","numero_panneau":"null"}],"code":"43","pourcent_nuls_vot":"5.77","lib":"Le Kremlin-Bicêtre","pourcent_blancs_vot":"24.94","nuls":"224","pourcent_vot_ins":"26.37","inscrits":"14720","exprimes":"2689","pourcent_abs_ins":"73.63"}
,{"abstentions":"13233","pourcent_blancs_ins":"1.62","pourcent_nuls_ins":"0.81","pourcent_exp_vot":"93.84","votants":"8586","pourcent_exp_ins":"36.93","blancs":"353","resultats":[{"pourcent_voix_exp":"33.92","voix":"2733","binome":"Mme GYSEL Fabienne et M. MOUGE Patrick","pourcent_voix_ins":"12.53","code_nuance":"BC-UG","numero_panneau":"2"},{"pourcent_voix_exp":"66.08","voix":"5324","binome":"M. BAZIN Paul et Mme MÜNZER Déborah","pourcent_voix_ins":"24.4","code_nuance":"BC-UD","numero_panneau":"5"}],"code":"52","pourcent_nuls_vot":"2.05","lib":"Nogent-sur-Marne","pourcent_blancs_vot":"4.11","nuls":"176","pourcent_vot_ins":"39.35","inscrits":"21819","exprimes":"8057","pourcent_abs_ins":"60.65"}
,{"abstentions":"13659","pourcent_blancs_ins":"1.5","pourcent_nuls_ins":"0.6","pourcent_exp_vot":"94.75","votants":"9160","pourcent_exp_ins":"38.03","blancs":"343","resultats":[{"pourcent_voix_exp":"32.85","voix":"2851","binome":"Mme GYSEL Fabienne et M. MOUGE Patrick","pourcent_voix_ins":"12.49","code_nuance":"BC-UG","numero_panneau":"2"},{"pourcent_voix_exp":"67.15","voix":"5828","binome":"M. BAZIN Paul et Mme MÜNZER Déborah","pourcent_voix_ins":"25.54","code_nuance":"BC-UD","numero_panneau":"5"}],"code":"58","pourcent_nuls_vot":"1.51","lib":"Le Perreux-sur-Marne","pourcent_blancs_vot":"3.74","nuls":"138","pourcent_vot_ins":"40.14","inscrits":"22819","exprimes":"8679","pourcent_abs_ins":"59.86"}
,{"abstentions":"1426","pourcent_blancs_ins":"1.46","pourcent_nuls_ins":"0.65","pourcent_exp_vot":"96.09","votants":"1661","pourcent_exp_ins":"51.7","blancs":"45","resultats":[{"pourcent_voix_exp":"40.23","voix":"642","binome":"M. GUERIN Daniel et Mme JANODET Christine","pourcent_voix_ins":"20.8","code_nuance":"BC-DVG","numero_panneau":"1"},{"pourcent_voix_exp":"59.77","voix":"954","binome":"Mme DURU BERREBI Nicole et M. GONZALES Didier","pourcent_voix_ins":"30.9","code_nuance":"BC-UD","numero_panneau":"3"}],"code":"1","pourcent_nuls_vot":"1.2","lib":"Ablon-sur-Seine","pourcent_blancs_vot":"2.71","nuls":"20","pourcent_vot_ins":"53.81","inscrits":"3087","exprimes":"1596","pourcent_abs_ins":"46.19"}
,{"abstentions":"6331","pourcent_blancs_ins":"1.71","pourcent_nuls_ins":"0.93","pourcent_exp_vot":"93.64","votants":"4495","pourcent_exp_ins":"38.88","blancs":"185","resultats":[{"pourcent_voix_exp":"66.31","voix":"2791","binome":"M. GUERIN Daniel et Mme JANODET Christine","pourcent_voix_ins":"25.78","code_nuance":"BC-DVG","numero_panneau":"1"},{"pourcent_voix_exp":"33.69","voix":"1418","binome":"Mme DURU BERREBI Nicole et M. GONZALES Didier","pourcent_voix_ins":"13.1","code_nuance":"BC-UD","numero_panneau":"3"}],"code":"54","pourcent_nuls_vot":"2.25","lib":"Orly","pourcent_blancs_vot":"4.12","nuls":"101","pourcent_vot_ins":"41.52","inscrits":"10826","exprimes":"4209","pourcent_abs_ins":"58.48"}
,{"abstentions":"5407","pourcent_blancs_ins":"2.08","pourcent_nuls_ins":"0","pourcent_exp_vot":"95.81","votants":"5345","pourcent_exp_ins":"47.63","blancs":"224","resultats":[{"pourcent_voix_exp":"40.38","voix":"2068","binome":"M. GUERIN Daniel et Mme JANODET Christine","pourcent_voix_ins":"19.23","code_nuance":"BC-DVG","numero_panneau":"1"},{"pourcent_voix_exp":"59.62","voix":"3053","binome":"Mme DURU BERREBI Nicole et M. GONZALES Didier","pourcent_voix_ins":"28.39","code_nuance":"BC-UD","numero_panneau":"3"}],"code":"77","pourcent_nuls_vot":"0","lib":"Villeneuve-le-Roi","pourcent_blancs_vot":"4.19","nuls":"0","pourcent_vot_ins":"49.71","inscrits":"10752","exprimes":"5121","pourcent_abs_ins":"50.29"}
,{"abstentions":"5075","pourcent_blancs_ins":"3.48","pourcent_nuls_ins":"1.35","pourcent_exp_vot":"87.73","votants":"3293","pourcent_exp_ins":"34.52","blancs":"291","resultats":[{"pourcent_voix_exp":"69.61","voix":"2011","binome":"Mme BASTIER Karine et M. GRAVELLE Pierre-Jean","pourcent_voix_ins":"24.03","code_nuance":"BC-UD","numero_panneau":"2"},{"pourcent_voix_exp":"30.39","voix":"878","binome":"M. KLIMCZAK Christian et Mme MARQUANT Béatrice","pourcent_voix_ins":"10.49","code_nuance":"BC-FN","numero_panneau":"6"}],"code":"4","pourcent_nuls_vot":"3.43","lib":"Boissy-Saint-Léger","pourcent_blancs_vot":"8.84","nuls":"113","pourcent_vot_ins":"39.35","inscrits":"8368","exprimes":"2889","pourcent_abs_ins":"60.65"}
,{"abstentions":"1682","pourcent_blancs_ins":"2.81","pourcent_nuls_ins":"1.06","pourcent_exp_vot":"91.86","votants":"1523","pourcent_exp_ins":"43.65","blancs":"90","resultats":[{"pourcent_voix_exp":"66.62","voix":"932","binome":"Mme BASTIER Karine et M. GRAVELLE Pierre-Jean","pourcent_voix_ins":"29.08","code_nuance":"BC-UD","numero_panneau":"2"},{"pourcent_voix_exp":"33.38","voix":"467","binome":"M. KLIMCZAK Christian et Mme MARQUANT Béatrice","pourcent_voix_ins":"14.57","code_nuance":"BC-FN","numero_panneau":"6"}],"code":"47","pourcent_nuls_vot":"2.23","lib":"Mandres-les-Roses","pourcent_blancs_vot":"5.91","nuls":"34","pourcent_vot_ins":"47.52","inscrits":"3205","exprimes":"1399","pourcent_abs_ins":"52.48"}
,{"abstentions":"2089","pourcent_blancs_ins":"3.13","pourcent_nuls_ins":"0.87","pourcent_exp_vot":"91.4","votants":"1813","pourcent_exp_ins":"42.47","blancs":"122","resultats":[{"pourcent_voix_exp":"74.29","voix":"1231","binome":"Mme BASTIER Karine et M. GRAVELLE Pierre-Jean","pourcent_voix_ins":"31.55","code_nuance":"BC-UD","numero_panneau":"2"},{"pourcent_voix_exp":"25.71","voix":"426","binome":"M. KLIMCZAK Christian et Mme MARQUANT Béatrice","pourcent_voix_ins":"10.92","code_nuance":"BC-FN","numero_panneau":"6"}],"code":"48","pourcent_nuls_vot":"1.88","lib":"Marolles-en-Brie","pourcent_blancs_vot":"6.73","nuls":"34","pourcent_vot_ins":"46.46","inscrits":"3902","exprimes":"1657","pourcent_abs_ins":"53.54"}
,{"abstentions":"1630","pourcent_blancs_ins":"4.76","pourcent_nuls_ins":"1.29","pourcent_exp_vot":"88.17","votants":"1707","pourcent_exp_ins":"45.1","blancs":"159","resultats":[{"pourcent_voix_exp":"67.84","voix":"1021","binome":"Mme BASTIER Karine et M. GRAVELLE Pierre-Jean","pourcent_voix_ins":"30.6","code_nuance":"BC-UD","numero_panneau":"2"},{"pourcent_voix_exp":"32.16","voix":"484","binome":"M. KLIMCZAK Christian et Mme MARQUANT Béatrice","pourcent_voix_ins":"14.5","code_nuance":"BC-FN","numero_panneau":"6"}],"code":"53","pourcent_nuls_vot":"2.52","lib":"Noiseau","pourcent_blancs_vot":"9.31","nuls":"43","pourcent_vot_ins":"51.15","inscrits":"3337","exprimes":"1505","pourcent_abs_ins":"48.85"}
,{"abstentions":"918","pourcent_blancs_ins":"2.79","pourcent_nuls_ins":"1.14","pourcent_exp_vot":"91.79","votants":"840","pourcent_exp_ins":"43.86","blancs":"49","resultats":[{"pourcent_voix_exp":"67.06","voix":"517","binome":"Mme BASTIER Karine et M. GRAVELLE Pierre-Jean","pourcent_voix_ins":"29.41","code_nuance":"BC-UD","numero_panneau":"2"},{"pourcent_voix_exp":"32.94","voix":"254","binome":"M. KLIMCZAK Christian et Mme MARQUANT Béatrice","pourcent_voix_ins":"14.45","code_nuance":"BC-FN","numero_panneau":"6"}],"code":"56","pourcent_nuls_vot":"2.38","lib":"Périgny-sur-Yerres","pourcent_blancs_vot":"5.83","nuls":"20","pourcent_vot_ins":"47.78","inscrits":"1758","exprimes":"771","pourcent_abs_ins":"52.22"}
,{"abstentions":"4540","pourcent_blancs_ins":"3.44","pourcent_nuls_ins":"1.13","pourcent_exp_vot":"88.75","votants":"3102","pourcent_exp_ins":"36.02","blancs":"263","resultats":[{"pourcent_voix_exp":"67.16","voix":"1849","binome":"Mme BASTIER Karine et M. GRAVELLE Pierre-Jean","pourcent_voix_ins":"24.2","code_nuance":"BC-UD","numero_panneau":"2"},{"pourcent_voix_exp":"32.84","voix":"904","binome":"M. KLIMCZAK Christian et Mme MARQUANT Béatrice","pourcent_voix_ins":"11.83","code_nuance":"BC-FN","numero_panneau":"6"}],"code":"60","pourcent_nuls_vot":"2.77","lib":"La Queue-en-Brie","pourcent_blancs_vot":"8.48","nuls":"86","pourcent_vot_ins":"40.59","inscrits":"7642","exprimes":"2753","pourcent_abs_ins":"59.41"}
,{"abstentions":"1209","pourcent_blancs_ins":"2.2","pourcent_nuls_ins":"0.8","pourcent_exp_vot":"94.17","votants":"1287","pourcent_exp_ins":"48.56","blancs":"55","resultats":[{"pourcent_voix_exp":"71.53","voix":"867","binome":"Mme BASTIER Karine et M. GRAVELLE Pierre-Jean","pourcent_voix_ins":"34.74","code_nuance":"BC-UD","numero_panneau":"2"},{"pourcent_voix_exp":"28.47","voix":"345","binome":"M. KLIMCZAK Christian et Mme MARQUANT Béatrice","pourcent_voix_ins":"13.82","code_nuance":"BC-FN","numero_panneau":"6"}],"code":"70","pourcent_nuls_vot":"1.55","lib":"Santeny","pourcent_blancs_vot":"4.27","nuls":"20","pourcent_vot_ins":"51.56","inscrits":"2496","exprimes":"1212","pourcent_abs_ins":"48.44"}
,{"abstentions":"3312","pourcent_blancs_ins":"3.34","pourcent_nuls_ins":"1.41","pourcent_exp_vot":"90.33","votants":"3194","pourcent_exp_ins":"44.34","blancs":"217","resultats":[{"pourcent_voix_exp":"67.28","voix":"1941","binome":"Mme BASTIER Karine et M. GRAVELLE Pierre-Jean","pourcent_voix_ins":"29.83","code_nuance":"BC-UD","numero_panneau":"2"},{"pourcent_voix_exp":"32.72","voix":"944","binome":"M. KLIMCZAK Christian et Mme MARQUANT Béatrice","pourcent_voix_ins":"14.51","code_nuance":"BC-FN","numero_panneau":"6"}],"code":"75","pourcent_nuls_vot":"2.88","lib":"Villecresnes","pourcent_blancs_vot":"6.79","nuls":"92","pourcent_vot_ins":"49.09","inscrits":"6506","exprimes":"2885","pourcent_abs_ins":"50.91"}
,{"abstentions":"24766","pourcent_blancs_ins":"4.28","pourcent_nuls_ins":"1.76","pourcent_exp_vot":"85.17","votants":"17024","pourcent_exp_ins":"34.69","blancs":"1788","resultats":[{"pourcent_voix_exp":"60.85","voix":"8823","binome":"Mme COULON Laurence et M. LE HELLOCO Jean-François","pourcent_voix_ins":"21.11","code_nuance":"BC-UD","numero_panneau":"5"},{"pourcent_voix_exp":"39.15","voix":"5676","binome":"Mme AUVRIGNON Anne et M. LEROY Jacques","pourcent_voix_ins":"13.58","code_nuance":"BC-DVD","numero_panneau":"2"}],"code":"68","pourcent_nuls_vot":"4.33","lib":"Saint-Maur-des-Fossés","pourcent_blancs_vot":"10.5","nuls":"737","pourcent_vot_ins":"40.74","inscrits":"41790","exprimes":"14499","pourcent_abs_ins":"59.26"}
,{"abstentions":"5905","pourcent_blancs_ins":"4.1","pourcent_nuls_ins":"1.76","pourcent_exp_vot":"82.32","votants":"2924","pourcent_exp_ins":"27.26","blancs":"362","resultats":[{"pourcent_voix_exp":"66.68","voix":"1605","binome":"M. AMSLER Jean-Daniel et Mme SEGUI Marie-Christine","pourcent_voix_ins":"18.18","code_nuance":"BC-UD","numero_panneau":"3"},{"pourcent_voix_exp":"33.32","voix":"802","binome":"Mme GERVOIS Valérie et M. PALLARES Alexandre","pourcent_voix_ins":"9.08","code_nuance":"BC-FN","numero_panneau":"2"}],"code":"11","pourcent_nuls_vot":"5.3","lib":"Bonneuil-sur-Marne","pourcent_blancs_vot":"12.38","nuls":"155","pourcent_vot_ins":"33.12","inscrits":"8829","exprimes":"2407","pourcent_abs_ins":"66.88"}
,{"abstentions":"3650","pourcent_blancs_ins":"2.71","pourcent_nuls_ins":"1.01","pourcent_exp_vot":"91.78","votants":"3004","pourcent_exp_ins":"41.43","blancs":"180","resultats":[{"pourcent_voix_exp":"73.74","voix":"2033","binome":"M. AMSLER Jean-Daniel et Mme SEGUI Marie-Christine","pourcent_voix_ins":"30.55","code_nuance":"BC-UD","numero_panneau":"3"},{"pourcent_voix_exp":"26.26","voix":"724","binome":"Mme GERVOIS Valérie et M. PALLARES Alexandre","pourcent_voix_ins":"10.88","code_nuance":"BC-FN","numero_panneau":"2"}],"code":"55","pourcent_nuls_vot":"2.23","lib":"Ormesson-sur-Marne","pourcent_blancs_vot":"5.99","nuls":"67","pourcent_vot_ins":"45.15","inscrits":"6654","exprimes":"2757","pourcent_abs_ins":"54.85"}
,{"abstentions":"4461","pourcent_blancs_ins":"2.71","pourcent_nuls_ins":"0.99","pourcent_exp_vot":"92.3","votants":"4115","pourcent_exp_ins":"44.29","blancs":"232","resultats":[{"pourcent_voix_exp":"79.41","voix":"3016","binome":"M. AMSLER Jean-Daniel et Mme SEGUI Marie-Christine","pourcent_voix_ins":"35.17","code_nuance":"BC-UD","numero_panneau":"3"},{"pourcent_voix_exp":"20.59","voix":"782","binome":"Mme GERVOIS Valérie et M. PALLARES Alexandre","pourcent_voix_ins":"9.12","code_nuance":"BC-FN","numero_panneau":"2"}],"code":"68","pourcent_nuls_vot":"2.07","lib":"Saint-Maur-des-Fossés","pourcent_blancs_vot":"5.64","nuls":"85","pourcent_vot_ins":"47.98","inscrits":"8576","exprimes":"3798","pourcent_abs_ins":"52.02"}
,{"abstentions":"8409","pourcent_blancs_ins":"4.09","pourcent_nuls_ins":"1.15","pourcent_exp_vot":"89.15","votants":"7849","pourcent_exp_ins":"43.04","blancs":"665","resultats":[{"pourcent_voix_exp":"77.66","voix":"5434","binome":"M. AMSLER Jean-Daniel et Mme SEGUI Marie-Christine","pourcent_voix_ins":"33.42","code_nuance":"BC-UD","numero_panneau":"3"},{"pourcent_voix_exp":"22.34","voix":"1563","binome":"Mme GERVOIS Valérie et M. PALLARES Alexandre","pourcent_voix_ins":"9.61","code_nuance":"BC-FN","numero_panneau":"2"}],"code":"71","pourcent_nuls_vot":"2.38","lib":"Sucy-en-Brie","pourcent_blancs_vot":"8.47","nuls":"187","pourcent_vot_ins":"48.28","inscrits":"16258","exprimes":"6997","pourcent_abs_ins":"51.72"}
,{"abstentions":"5943","pourcent_blancs_ins":"1.53","pourcent_nuls_ins":"0.73","pourcent_exp_vot":"94.75","votants":"4494","pourcent_exp_ins":"40.8","blancs":"160","resultats":[{"pourcent_voix_exp":"57.28","voix":"2439","binome":"M. HERVY Christian et Mme LE SOUFFACHÉ Laurence","pourcent_voix_ins":"23.37","code_nuance":"BC-FG","numero_panneau":"3"},{"pourcent_voix_exp":"42.72","voix":"1819","binome":"M. DELL'AGNOLA Richard et Mme KORCHEF-LAMBERT Patricia","pourcent_voix_ins":"17.43","code_nuance":"BC-UD","numero_panneau":"2"}],"code":"21","pourcent_nuls_vot":"1.69","lib":"Chevilly-Larue","pourcent_blancs_vot":"3.56","nuls":"76","pourcent_vot_ins":"43.06","inscrits":"10437","exprimes":"4258","pourcent_abs_ins":"56.94"}
,{"abstentions":"2053","pourcent_blancs_ins":"2.17","pourcent_nuls_ins":"1.25","pourcent_exp_vot":"92.99","votants":"1955","pourcent_exp_ins":"45.36","blancs":"87","resultats":[{"pourcent_voix_exp":"39","voix":"709","binome":"M. HERVY Christian et Mme LE SOUFFACHÉ Laurence","pourcent_voix_ins":"17.69","code_nuance":"BC-FG","numero_panneau":"3"},{"pourcent_voix_exp":"61","voix":"1109","binome":"M. DELL'AGNOLA Richard et Mme KORCHEF-LAMBERT Patricia","pourcent_voix_ins":"27.67","code_nuance":"BC-UD","numero_panneau":"2"}],"code":"65","pourcent_nuls_vot":"2.56","lib":"Rungis","pourcent_blancs_vot":"4.45","nuls":"50","pourcent_vot_ins":"48.78","inscrits":"4008","exprimes":"1818","pourcent_abs_ins":"51.22"}
,{"abstentions":"8961","pourcent_blancs_ins":"1.75","pourcent_nuls_ins":"0.93","pourcent_exp_vot":"93.96","votants":"7155","pourcent_exp_ins":"41.72","blancs":"282","resultats":[{"pourcent_voix_exp":"34.43","voix":"2315","binome":"M. HERVY Christian et Mme LE SOUFFACHÉ Laurence","pourcent_voix_ins":"14.36","code_nuance":"BC-FG","numero_panneau":"3"},{"pourcent_voix_exp":"65.57","voix":"4408","binome":"M. DELL'AGNOLA Richard et Mme KORCHEF-LAMBERT Patricia","pourcent_voix_ins":"27.35","code_nuance":"BC-UD","numero_panneau":"2"}],"code":"73","pourcent_nuls_vot":"2.1","lib":"Thiais","pourcent_blancs_vot":"3.94","nuls":"150","pourcent_vot_ins":"44.4","inscrits":"16116","exprimes":"6723","pourcent_abs_ins":"55.6"}
,{"abstentions":"17728","pourcent_blancs_ins":"1.23","pourcent_nuls_ins":"0.62","pourcent_exp_vot":"95.31","votants":"11467","pourcent_exp_ins":"37.43","blancs":"358","resultats":[{"pourcent_voix_exp":"55.11","voix":"6023","binome":"M. GARZON Pierre et Mme MUNCK Flore","pourcent_voix_ins":"20.63","code_nuance":"BC-FG","numero_panneau":"5"},{"pourcent_voix_exp":"44.89","voix":"4906","binome":"Mme DUCELLIER Annie et M. JESSET Thierry","pourcent_voix_ins":"16.8","code_nuance":"BC-UD","numero_panneau":"7"}],"code":"76","pourcent_nuls_vot":"1.57","lib":"Villejuif","pourcent_blancs_vot":"3.12","nuls":"180","pourcent_vot_ins":"39.28","inscrits":"29195","exprimes":"10929","pourcent_abs_ins":"60.72"}
,{"abstentions":"6391","pourcent_blancs_ins":"1.4","pourcent_nuls_ins":"0.92","pourcent_exp_vot":"94.74","votants":"5073","pourcent_exp_ins":"41.92","blancs":"161","resultats":[{"pourcent_voix_exp":"40.12","voix":"1928","binome":"M. HENRY Daniel et Mme SIMON Claude","pourcent_voix_ins":"16.82","code_nuance":"BC-FG","numero_panneau":"5"},{"pourcent_voix_exp":"59.88","voix":"2878","binome":"Mme LECOUFLE Françoise et M. YAVUZ Metin","pourcent_voix_ins":"25.1","code_nuance":"BC-UD","numero_panneau":"3"}],"code":"44","pourcent_nuls_vot":"2.09","lib":"Limeil-Brévannes","pourcent_blancs_vot":"3.17","nuls":"106","pourcent_vot_ins":"44.25","inscrits":"11464","exprimes":"4806","pourcent_abs_ins":"55.75"}
,{"abstentions":"3827","pourcent_blancs_ins":"1.32","pourcent_nuls_ins":"1.03","pourcent_exp_vot":"93.74","votants":"2301","pourcent_exp_ins":"35.2","blancs":"81","resultats":[{"pourcent_voix_exp":"59.81","voix":"1290","binome":"M. HENRY Daniel et Mme SIMON Claude","pourcent_voix_ins":"21.05","code_nuance":"BC-FG","numero_panneau":"5"},{"pourcent_voix_exp":"40.19","voix":"867","binome":"Mme LECOUFLE Françoise et M. YAVUZ Metin","pourcent_voix_ins":"14.15","code_nuance":"BC-UD","numero_panneau":"3"}],"code":"74","pourcent_nuls_vot":"2.74","lib":"Valenton","pourcent_blancs_vot":"3.52","nuls":"63","pourcent_vot_ins":"37.55","inscrits":"6128","exprimes":"2157","pourcent_abs_ins":"62.45"}
,{"abstentions":"3279","pourcent_blancs_ins":"1.6","pourcent_nuls_ins":"1.25","pourcent_exp_vot":"93.24","votants":"2396","pourcent_exp_ins":"39.37","blancs":"91","resultats":[{"pourcent_voix_exp":"56.94","voix":"1272","binome":"M. HENRY Daniel et Mme SIMON Claude","pourcent_voix_ins":"22.41","code_nuance":"BC-FG","numero_panneau":"5"},{"pourcent_voix_exp":"43.06","voix":"962","binome":"Mme LECOUFLE Françoise et M. YAVUZ Metin","pourcent_voix_ins":"16.95","code_nuance":"BC-UD","numero_panneau":"3"}],"code":"78","pourcent_nuls_vot":"2.96","lib":"Villeneuve-Saint-Georges","pourcent_blancs_vot":"3.8","nuls":"71","pourcent_vot_ins":"42.22","inscrits":"5675","exprimes":"2234","pourcent_abs_ins":"57.78"}
,{"abstentions":"6411","pourcent_blancs_ins":"4.78","pourcent_nuls_ins":"0","pourcent_exp_vot":"89.22","votants":"5112","pourcent_exp_ins":"39.58","blancs":"551","resultats":[{"pourcent_voix_exp":"78.86","voix":"3597","binome":"M. GILLES DE LA LONDE Emmanuel et Mme PATOUX Sabine","pourcent_voix_ins":"31.22","code_nuance":"BC-UD","numero_panneau":"3"},{"pourcent_voix_exp":"21.14","voix":"964","binome":"Mme DUCHESNE France et M. LÉVÊQUE Jean-Philippe","pourcent_voix_ins":"8.37","code_nuance":"BC-FN","numero_panneau":"4"}],"code":"15","pourcent_nuls_vot":"0","lib":"Bry-sur-Marne","pourcent_blancs_vot":"10.78","nuls":"0","pourcent_vot_ins":"44.36","inscrits":"11523","exprimes":"4561","pourcent_abs_ins":"55.64"}
,{"abstentions":"6349","pourcent_blancs_ins":"2.98","pourcent_nuls_ins":"1.1","pourcent_exp_vot":"90.89","votants":"5148","pourcent_exp_ins":"40.7","blancs":"343","resultats":[{"pourcent_voix_exp":"73.35","voix":"3432","binome":"M. GILLES DE LA LONDE Emmanuel et Mme PATOUX Sabine","pourcent_voix_ins":"29.85","code_nuance":"BC-UD","numero_panneau":"3"},{"pourcent_voix_exp":"26.65","voix":"1247","binome":"Mme DUCHESNE France et M. LÉVÊQUE Jean-Philippe","pourcent_voix_ins":"10.85","code_nuance":"BC-FN","numero_panneau":"4"}],"code":"59","pourcent_nuls_vot":"2.45","lib":"Le Plessis-Trévise","pourcent_blancs_vot":"6.66","nuls":"126","pourcent_vot_ins":"44.78","inscrits":"11497","exprimes":"4679","pourcent_abs_ins":"55.22"}
,{"abstentions":"9710","pourcent_blancs_ins":"3.82","pourcent_nuls_ins":"1.55","pourcent_exp_vot":"86.76","votants":"6629","pourcent_exp_ins":"35.2","blancs":"624","resultats":[{"pourcent_voix_exp":"71.45","voix":"4109","binome":"M. GILLES DE LA LONDE Emmanuel et Mme PATOUX Sabine","pourcent_voix_ins":"25.15","code_nuance":"BC-UD","numero_panneau":"3"},{"pourcent_voix_exp":"28.55","voix":"1642","binome":"Mme DUCHESNE France et M. LÉVÊQUE Jean-Philippe","pourcent_voix_ins":"10.05","code_nuance":"BC-FN","numero_panneau":"4"}],"code":"79","pourcent_nuls_vot":"3.83","lib":"Villiers-sur-Marne","pourcent_blancs_vot":"9.41","nuls":"254","pourcent_vot_ins":"40.57","inscrits":"16339","exprimes":"5751","pourcent_abs_ins":"59.43"}
,{"abstentions":"9313","pourcent_blancs_ins":"1.43","pourcent_nuls_ins":"0.66","pourcent_exp_vot":"94.69","votants":"6022","pourcent_exp_ins":"37.18","blancs":"219","resultats":[{"pourcent_voix_exp":"34.71","voix":"1979","binome":"M. CADET Hugo et Mme GUIGUET Patricia","pourcent_voix_ins":"12.91","code_nuance":"BC-SOC","numero_panneau":"4"},{"pourcent_voix_exp":"65.29","voix":"3723","binome":"Mme LE BIDEAU Dominique et M. WEIL Julien","pourcent_voix_ins":"24.28","code_nuance":"BC-UD","numero_panneau":"3"}],"code":"67","pourcent_nuls_vot":"1.68","lib":"Saint-Mandé","pourcent_blancs_vot":"3.64","nuls":"101","pourcent_vot_ins":"39.27","inscrits":"15335","exprimes":"5702","pourcent_abs_ins":"60.73"}
,{"abstentions":"13908","pourcent_blancs_ins":"1.59","pourcent_nuls_ins":"0.69","pourcent_exp_vot":"95.1","votants":"12092","pourcent_exp_ins":"44.23","blancs":"414","resultats":[{"pourcent_voix_exp":"38.79","voix":"4460","binome":"M. CADET Hugo et Mme GUIGUET Patricia","pourcent_voix_ins":"17.15","code_nuance":"BC-SOC","numero_panneau":"4"},{"pourcent_voix_exp":"61.21","voix":"7039","binome":"Mme LE BIDEAU Dominique et M. WEIL Julien","pourcent_voix_ins":"27.07","code_nuance":"BC-UD","numero_panneau":"3"}],"code":"80","pourcent_nuls_vot":"1.48","lib":"Vincennes","pourcent_blancs_vot":"3.42","nuls":"179","pourcent_vot_ins":"46.51","inscrits":"26000","exprimes":"11499","pourcent_abs_ins":"53.49"}
,{"abstentions":"14222","pourcent_blancs_ins":"1.36","pourcent_nuls_ins":"0.67","pourcent_exp_vot":"94.67","votants":"8776","pourcent_exp_ins":"36.12","blancs":"313","resultats":[{"pourcent_voix_exp":"62.37","voix":"5182","binome":"Mme BARRE Corinne et M. BELL-LLOCH Pierre","pourcent_voix_ins":"22.53","code_nuance":"BC-FG","numero_panneau":"4"},{"pourcent_voix_exp":"37.63","voix":"3126","binome":"M. AFFLATET Alain et Mme PAULET Anne-Laure","pourcent_voix_ins":"13.59","code_nuance":"BC-UD","numero_panneau":"6"}],"code":"81","pourcent_nuls_vot":"1.77","lib":"Vitry-sur-Seine","pourcent_blancs_vot":"3.57","nuls":"155","pourcent_vot_ins":"38.16","inscrits":"22998","exprimes":"8308","pourcent_abs_ins":"61.84"}
,{"abstentions":"14259","pourcent_blancs_ins":"1.5","pourcent_nuls_ins":"0.81","pourcent_exp_vot":"93.63","votants":"8067","pourcent_exp_ins":"33.83","blancs":"334","resultats":[{"pourcent_voix_exp":"71.53","voix":"5403","binome":"Mme RABARDEL Evelyne et M. TMIMI Hocine","pourcent_voix_ins":"24.2","code_nuance":"BC-FG","numero_panneau":"2"},{"pourcent_voix_exp":"28.47","voix":"2150","binome":"M. PARADOL François et Mme PATRY Thérèse","pourcent_voix_ins":"9.63","code_nuance":"BC-FN","numero_panneau":"6"}],"code":"81","pourcent_nuls_vot":"2.23","lib":"Vitry-sur-Seine","pourcent_blancs_vot":"4.14","nuls":"180","pourcent_vot_ins":"36.13","inscrits":"22326","exprimes":"7553","pourcent_abs_ins":"63.87"}
]}
