<?xml version="1.0" encoding="UTF-8"?>
<svg width="19px" height="21px" viewBox="0 0 19 21" version="1.1" xmlns="http://www.w3.org/2000/svg" xmlns:xlink="http://www.w3.org/1999/xlink">
    <!-- Generator: Sketch 44.1 (41455) - http://www.bohemiancoding.com/sketch -->
    <title>Group 20</title>
    <desc>Created with Sketch.</desc>
    <defs></defs>
    <g id="Desktop-v2" stroke="none" stroke-width="1" fill="none" fill-rule="evenodd">
        <g id="Enquête---Avec-preview" transform="translate(-743.000000, -20.000000)" fill="#000000">
            <g id="Group-21" transform="translate(743.000000, 20.000000)">
                <g id="Group-20">
                    <path d="M4.725842,17.1174838 C4.7284204,17.1166236 4.7301386,17.1166236 4.732717,17.1157656 C4.7722488,17.0994372 4.808342,17.0753758 4.8384204,17.0452974 C4.8392806,17.0444372 4.8401386,17.0444372 4.8401386,17.043577 L6.4987406,15.384975 C6.6276474,15.2560682 6.6276474,15.047231 6.4987406,14.918333 C6.3698338,14.7894262 6.1609966,14.7894262 6.0320986,14.918333 L4.9363886,16.014043 L4.9363886,12.813703 C4.9363886,12.6315166 4.788575,12.483703 4.6063886,12.483703 C4.4242022,12.483703 4.2763886,12.6315166 4.2763886,12.813703 L4.2763886,16.013163 L3.1806786,14.917453 C3.0517718,14.7885462 2.8429346,14.7885462 2.7140366,14.917453 C2.5851298,15.0463598 2.5851298,15.255197 2.7140366,15.384095 L4.3709006,17.040959 C4.401837,17.0727556 4.4396506,17.0985374 4.4817608,17.1157238 C4.482621,17.116584 4.4843392,17.116584 4.4851994,17.116584 C4.523013,17.131192 4.5634028,17.1397874 4.606371,17.1397874 L4.607229,17.1397874 C4.648479,17.1397874 4.6888688,17.1311942 4.7258222,17.1174442 L4.725842,17.1174838 Z M17.711782,2.52004378 L16.2921,2.52004378 L16.2921,1.75004378 C16.2921,1.32550978 15.946634,0.98004378 15.5221,0.98004378 L3.93514,0.98004378 C3.510606,0.98004378 3.16514,1.32550978 3.16514,1.75004378 L3.16514,10.4400438 C1.329504,11.0467598 0,12.7757838 0,14.8116638 C0,16.8483798 1.32946,18.5765238 3.16514,19.1832838 L3.16514,20.23 C3.16514,20.654534 3.510606,21 3.93514,21 L15.5221,21 C15.946634,21 16.2921,20.654534 16.2921,20.23 L16.2921,19.6799998 L16.831782,19.6799998 C17.498646,19.6799998 18.041782,19.1368638 18.041782,18.4699998 L18.041782,10.0875598 L18.817788,9.36052578 C18.8839596,9.29779058 18.9217732,9.21099398 18.9217732,9.11988978 L18.9217732,3.72988978 C18.9217732,3.06302578 18.3786372,2.51988978 17.7117732,2.51988978 L17.711782,2.52004378 Z M0.66002112,14.8116638 C0.66002112,12.6357318 2.43034,10.8653038 4.606382,10.8653038 C6.782424,10.8653038 8.552742,12.6356218 8.552742,14.8116638 C8.552742,16.9877058 6.782424,18.7580238 4.606382,18.7580238 C2.43045,18.7588818 0.66002112,16.9885638 0.66002112,14.8116638 Z M15.632122,20.2300433 C15.632122,20.2902001 15.5822788,20.3400433 15.522122,20.3400433 L3.935162,20.3400433 C3.8741472,20.3400433 3.825162,20.2902001 3.825162,20.2300433 L3.825162,19.3466118 C4.079526,19.3904402 4.339918,19.4179402 4.606338,19.4179402 C7.145798,19.4179402 9.212698,17.3511502 9.212698,14.8115802 C9.212698,12.2712402 7.146766,10.2052202 4.606338,10.2052202 C4.33994,10.2052202 4.079548,10.2327202 3.825162,10.2765486 L3.825162,1.74978858 C3.825162,1.68877378 3.8741472,1.63978858 3.935162,1.63978858 L15.522122,1.63978858 C15.5822788,1.63978858 15.632122,1.68877378 15.632122,1.74978858 L15.632122,20.2300433 Z M18.261782,8.97748378 L17.485776,9.70451778 C17.4196044,9.76725298 17.3817908,9.85404958 17.3817908,9.94515378 L17.3817908,18.4701538 C17.3817908,18.7735118 17.1351488,19.0201538 16.8317908,19.0201538 L16.2921088,19.0201538 L16.2921088,3.18015378 L17.7117908,3.18015378 C18.0151488,3.18015378 18.2617908,3.42679578 18.2617908,3.73015378 L18.261782,8.97748378 Z M13.469082,3.73180378 L5.989082,3.73180378 C5.8068956,3.73180378 5.659082,3.87961738 5.659082,4.06180378 C5.659082,4.24399238 5.8068956,4.39180378 5.989082,4.39180378 L13.469082,4.39180378 C13.6512684,4.39180378 13.799082,4.24399238 13.799082,4.06180378 C13.799082,3.87875718 13.6512684,3.73180378 13.469082,3.73180378 Z M13.469082,5.38180378 L8.849082,5.38180378 C8.6668956,5.38180378 8.519082,5.52961738 8.519082,5.71180378 C8.519082,5.89399238 8.6668956,6.04180378 8.849082,6.04180378 L13.469082,6.04180378 C13.6512684,6.04180378 13.799082,5.89399238 13.799082,5.71180378 C13.799082,5.52875718 13.6512684,5.38180378 13.469082,5.38180378 Z" id="Page-1"></path>
                </g>
            </g>
        </g>
    </g>
</svg>