<?xml version="1.0" encoding="UTF-8"?>
<svg width="24px" height="24px" viewBox="0 0 24 24" version="1.1" xmlns="http://www.w3.org/2000/svg" xmlns:xlink="http://www.w3.org/1999/xlink">
    <!-- Generator: Sketch 44.1 (41455) - http://www.bohemiancoding.com/sketch -->
    <title>Group 11</title>
    <desc>Created with Sketch.</desc>
    <defs></defs>
    <g id="Desktop-v2" stroke="none" stroke-width="1" fill="none" fill-rule="evenodd">
        <g id="Equipe---Modification" transform="translate(-829.000000, -151.000000)" fill="#9B9B9B">
            <path d="M846.076527,153 L835.923473,153 C835.373917,153 835,153.419681 835,153.954658 L835,173.045342 C835,173.578545 835.373917,174 835.923473,174 L846.076527,174 C846.626083,174 847,173.577481 847,173.045342 L847,153.954658 C847,153.419681 846.626083,153 846.076527,153 L846.076527,153 Z M846.076527,172.521362 C846.076527,172.841355 846.005517,173.045342 845.677225,173.045342 L836.349533,173.045342 C836.070638,173.045342 835.924502,172.802686 835.924502,172.482693 L835.924502,170.180657 L846.077899,170.180657 L846.077899,172.521362 L846.076527,172.521362 Z M846.076527,169.225999 L835.923473,169.225999 L835.923473,156.817569 L846.076527,156.817569 L846.076527,169.225999 Z M846.076527,155.862911 L835.923473,155.862911 C835.923473,155.862911 835.892599,153.953239 835.923473,153.953239 C835.923473,153.953239 846.076527,153.903573 846.076527,153.953239 L846.076527,155.862911 Z M841.000515,172.090329 C841.255396,172.090329 841.461565,171.877118 841.461565,171.613532 C841.461565,171.3503 841.255396,171.137089 841.000515,171.137089 C840.745976,171.137089 840.539807,171.3503 840.539807,171.613532 C840.538435,171.877118 840.745976,172.090329 841.000515,172.090329 L841.000515,172.090329 Z" id="Page-1"></path>
        </g>
    </g>
</svg>