[{
  "forms": [
    {
      "group_id": 0,
      "label": "Nom",
      "name": "STATIC",
      "order": 1,
      "section": "Informations",
      "type": "surname"
    },
    {
      "group_id": 0,
      "label": "Nom matrimonial",
      "name": "STATIC",
      "order": 2,
      "section": "Informations",
      "type": "married_name"
    },
    {
      "group_id": 0,
      "label": "Prénom",
      "name": "STATIC",
      "order": 3,
      "section": "Informations",
      "type": "firstname"
    },
    {
      "group_id": 0,
      "label": "Sexe",
      "name": "STATIC",
      "order": 4,
      "section": "Informations",
      "type": "gender"
    },
    {
      "group_id": 0,
      "label": "Date de naissance",
      "name": "STATIC",
      "order": 5,
      "section": "Informations",
      "type": "age"
    },
    {
      "group_id": 0,
      "label": "Libellé",
      "name": "STATIC",
      "order": 6,
      "section": "Addresse",
      "type": "address"
    },
    {
      "group_id": 0,
      "label": "Ville",
      "name": "STATIC",
      "order": 7,
      "section": "Addresse",
      "type": "city"
    },
    {
      "group_id": 0,
      "label": "Email",
      "name": "STATIC",
      "order": 8,
      "section": "Contact",
      "type": "mail"
    },
    {
      "group_id": 0,
      "label": "Téléphone",
      "name": "STATIC",
      "order": 9,
      "section": "Contact",
      "type": "phone"
    }
  ],
  "title": "Template 1"
}]