{
  "status": "success",
  "data": {
    "abstentions": "847567",
    "pourcent_blancs_ins": "2.65",
    "pourcent_nuls_ins": "0.99",
    "pourcent_exp_vot": "92.29",
    "votants": "758502",
    "pourcent_exp_ins": "43.59",
    "blancs": "42619",
    "resultats": [
      {
        "pourcent_voix_exp": "1.36",
        "voix": "9555",
        "sieges": "4",
        "pourcent_voix_ins": "0.59",
        "code_nuance": "BC-FG"
      },
      {
        "pourcent_voix_exp": "0.22",
        "voix": "1553",
        "sieges": "2",
        "pourcent_voix_ins": "0.1",
        "code_nuance": "BC-COM"
      },
      {
        "pourcent_voix_exp": "17.59",
        "voix": "123171",
        "sieges": "34",
        "pourcent_voix_ins": "7.67",
        "code_nuance": "BC-SOC"
      },
      {
        "pourcent_voix_exp": "2.51",
        "voix": "17602",
        "sieges": "6",
        "pourcent_voix_ins": "1.1",
        "code_nuance": "BC-UG"
      },
      {
        "pourcent_voix_exp": "2.58",
        "voix": "18068",
        "sieges": "6",
        "pourcent_voix_ins": "1.12",
        "code_nuance": "BC-DVG"
      },
      {
        "pourcent_voix_exp": "0.89",
        "voix": "6246",
        "sieges": "0",
        "pourcent_voix_ins": "0.39",
        "code_nuance": "BC-UC"
      },
      {
        "pourcent_voix_exp": "5.57",
        "voix": "38990",
        "sieges": "8",
        "pourcent_voix_ins": "2.43",
        "code_nuance": "BC-UDI"
      },
      {
        "pourcent_voix_exp": "9.94",
        "voix": "69557",
        "sieges": "26",
        "pourcent_voix_ins": "4.33",
        "code_nuance": "BC-UMP"
      },
      {
        "pourcent_voix_exp": "11.89",
        "voix": "83209",
        "sieges": "30",
        "pourcent_voix_ins": "5.18",
        "code_nuance": "BC-UD"
      },
      {
        "pourcent_voix_exp": "15.58",
        "voix": "109096",
        "sieges": "40",
        "pourcent_voix_ins": "6.79",
        "code_nuance": "BC-DVD"
      },
      {
        "pourcent_voix_exp": "31.85",
        "voix": "222996",
        "sieges": "2",
        "pourcent_voix_ins": "13.88",
        "code_nuance": "BC-FN"
      }
    ],
    "code": "41",
    "pourcent_nuls_vot": "2.09",
    "lib": "LORRAINE",
    "pourcent_blancs_vot": "5.62",
    "nuls": "15840",
    "exprimes": "700043",
    "pourcent_vot_ins": "47.23",
    "inscrits": "1606069",
    "pourcent_abs_ins": "52.77"
  }
}