{
  "status": "success",
  "data": {
    "abstentions": "675218",
    "pourcent_blancs_ins": "2.43",
    "pourcent_nuls_ins": "0.93",
    "pourcent_exp_vot": "92.77",
    "votants": "586147",
    "pourcent_exp_ins": "43.11",
    "blancs": "30672",
    "resultats": [
      {
        "pourcent_voix_exp": "5.46",
        "voix": "29674",
        "sieges": "8",
        "pourcent_voix_ins": "2.35",
        "code_nuance": "BC-SOC"
      },
      {
        "pourcent_voix_exp": "2.23",
        "voix": "12132",
        "sieges": "2",
        "pourcent_voix_ins": "0.96",
        "code_nuance": "BC-DVG"
      },
      {
        "pourcent_voix_exp": "2.07",
        "voix": "11236",
        "sieges": "2",
        "pourcent_voix_ins": "0.89",
        "code_nuance": "BC-UDI"
      },
      {
        "pourcent_voix_exp": "24.69",
        "voix": "134284",
        "sieges": "24",
        "pourcent_voix_ins": "10.65",
        "code_nuance": "BC-UMP"
      },
      {
        "pourcent_voix_exp": "30.92",
        "voix": "168142",
        "sieges": "38",
        "pourcent_voix_ins": "13.33",
        "code_nuance": "BC-UD"
      },
      {
        "pourcent_voix_exp": "3.19",
        "voix": "17327",
        "sieges": "4",
        "pourcent_voix_ins": "1.37",
        "code_nuance": "BC-DVD"
      },
      {
        "pourcent_voix_exp": "31.45",
        "voix": "171002",
        "sieges": "0",
        "pourcent_voix_ins": "13.56",
        "code_nuance": "BC-FN"
      }
    ],
    "code": "42",
    "pourcent_nuls_vot": "1.99",
    "lib": "ALSACE",
    "pourcent_blancs_vot": "5.23",
    "nuls": "11678",
    "exprimes": "543797",
    "pourcent_vot_ins": "46.47",
    "inscrits": "1261365",
    "pourcent_abs_ins": "53.53"
  }
}