{
  "status": "success",
  "data": {
    "abstentions": "1720362",
    "pourcent_blancs_ins": "2.92",
    "pourcent_nuls_ins": "1.09",
    "pourcent_exp_vot": "91.89",
    "votants": "1690596",
    "pourcent_exp_ins": "45.55",
    "blancs": "99739",
    "resultats": [
      {
        "pourcent_voix_exp": "0.56",
        "voix": "8766",
        "sieges": "2",
        "pourcent_voix_ins": "0.26",
        "code_nuance": "BC-FG"
      },
      {
        "pourcent_voix_exp": "8.3",
        "voix": "128952",
        "sieges": "42",
        "pourcent_voix_ins": "3.78",
        "code_nuance": "BC-SOC"
      },
      {
        "pourcent_voix_exp": "12.78",
        "voix": "198473",
        "sieges": "40",
        "pourcent_voix_ins": "5.82",
        "code_nuance": "BC-UG"
      },
      {
        "pourcent_voix_exp": "3.71",
        "voix": "57707",
        "sieges": "8",
        "pourcent_voix_ins": "1.69",
        "code_nuance": "BC-DVG"
      },
      {
        "pourcent_voix_exp": "0.7",
        "voix": "10857",
        "sieges": "0",
        "pourcent_voix_ins": "0.32",
        "code_nuance": "BC-VEC"
      },
      {
        "pourcent_voix_exp": "0.44",
        "voix": "6906",
        "sieges": "2",
        "pourcent_voix_ins": "0.2",
        "code_nuance": "BC-DIV"
      },
      {
        "pourcent_voix_exp": "2.38",
        "voix": "36994",
        "sieges": "10",
        "pourcent_voix_ins": "1.08",
        "code_nuance": "BC-UDI"
      },
      {
        "pourcent_voix_exp": "11.97",
        "voix": "186004",
        "sieges": "52",
        "pourcent_voix_ins": "5.45",
        "code_nuance": "BC-UMP"
      },
      {
        "pourcent_voix_exp": "25.77",
        "voix": "400297",
        "sieges": "114",
        "pourcent_voix_ins": "11.74",
        "code_nuance": "BC-UD"
      },
      {
        "pourcent_voix_exp": "9.1",
        "voix": "141448",
        "sieges": "38",
        "pourcent_voix_ins": "4.15",
        "code_nuance": "BC-DVD"
      },
      {
        "pourcent_voix_exp": "24.28",
        "voix": "377138",
        "sieges": "0",
        "pourcent_voix_ins": "11.06",
        "code_nuance": "BC-FN"
      }
    ],
    "code": "82",
    "pourcent_nuls_vot": "2.21",
    "lib": "RHONE-ALPES",
    "pourcent_blancs_vot": "5.9",
    "nuls": "37315",
    "exprimes": "1553542",
    "pourcent_vot_ins": "49.56",
    "inscrits": "3410958",
    "pourcent_abs_ins": "50.44"
  }
}