{"status":"success","data":[{"CODGEO":"24004","inversion":"1"}
,{"CODGEO":"24009","inversion":"1"}
,{"CODGEO":"24018","inversion":"1"}
,{"CODGEO":"24019","inversion":"0"}
,{"CODGEO":"24020","inversion":"1"}
,{"CODGEO":"24021","inversion":"1"}
,{"CODGEO":"24025","inversion":"1"}
,{"CODGEO":"24028","inversion":"0"}
,{"CODGEO":"24032","inversion":"0"}
,{"CODGEO":"24037","inversion":"1"}
,{"CODGEO":"24039","inversion":"0"}
,{"CODGEO":"24040","inversion":"1"}
,{"CODGEO":"24041","inversion":"1"}
,{"CODGEO":"24044","inversion":"1"}
,{"CODGEO":"24052","inversion":"1"}
,{"CODGEO":"24058","inversion":"0"}
,{"CODGEO":"24059","inversion":"1"}
,{"CODGEO":"24060","inversion":"0"}
,{"CODGEO":"24064","inversion":"0"}
,{"CODGEO":"24067","inversion":"1"}
,{"CODGEO":"24069","inversion":"1"}
,{"CODGEO":"24070","inversion":"0"}
,{"CODGEO":"24071","inversion":"1"}
,{"CODGEO":"24076","inversion":"1"}
,{"CODGEO":"24079","inversion":"1"}
,{"CODGEO":"24080","inversion":"1"}
,{"CODGEO":"24081","inversion":"1"}
,{"CODGEO":"24083","inversion":"0"}
,{"CODGEO":"24087","inversion":"1"}
,{"CODGEO":"24090","inversion":"1"}
,{"CODGEO":"24092","inversion":"0"}
,{"CODGEO":"24100","inversion":"0"}
,{"CODGEO":"24107","inversion":"1"}
,{"CODGEO":"24111","inversion":"0"}
,{"CODGEO":"24121","inversion":"0"}
,{"CODGEO":"24124","inversion":"1"}
,{"CODGEO":"24126","inversion":"1"}
,{"CODGEO":"24131","inversion":"0"}
,{"CODGEO":"24136","inversion":"1"}
,{"CODGEO":"24139","inversion":"1"}
,{"CODGEO":"24144","inversion":"0"}
,{"CODGEO":"24147","inversion":"1"}
,{"CODGEO":"24159","inversion":"1"}
,{"CODGEO":"24170","inversion":"1"}
,{"CODGEO":"24172","inversion":"1"}
,{"CODGEO":"24178","inversion":"1"}
,{"CODGEO":"24181","inversion":"0"}
,{"CODGEO":"24183","inversion":"1"}
,{"CODGEO":"24188","inversion":"1"}
,{"CODGEO":"24189","inversion":"1"}
,{"CODGEO":"24192","inversion":"1"}
,{"CODGEO":"24198","inversion":"1"}
,{"CODGEO":"24199","inversion":"0"}
,{"CODGEO":"24209","inversion":"1"}
,{"CODGEO":"24214","inversion":"0"}
,{"CODGEO":"24216","inversion":"1"}
,{"CODGEO":"24217","inversion":"1"}
,{"CODGEO":"24219","inversion":"0"}
,{"CODGEO":"24227","inversion":"1"}
,{"CODGEO":"24236","inversion":"1"}
,{"CODGEO":"24244","inversion":"1"}
,{"CODGEO":"24249","inversion":"0"}
,{"CODGEO":"24259","inversion":"1"}
,{"CODGEO":"24261","inversion":"1"}
,{"CODGEO":"24270","inversion":"1"}
,{"CODGEO":"24272","inversion":"1"}
,{"CODGEO":"24273","inversion":"1"}
,{"CODGEO":"24274","inversion":"0"}
,{"CODGEO":"24284","inversion":"0"}
,{"CODGEO":"24285","inversion":"0"}
,{"CODGEO":"24286","inversion":"0"}
,{"CODGEO":"24288","inversion":"1"}
,{"CODGEO":"24289","inversion":"0"}
,{"CODGEO":"24290","inversion":"1"}
,{"CODGEO":"24292","inversion":"1"}
,{"CODGEO":"24295","inversion":"1"}
,{"CODGEO":"24299","inversion":"1"}
,{"CODGEO":"24302","inversion":"1"}
,{"CODGEO":"24307","inversion":"1"}
,{"CODGEO":"24309","inversion":"1"}
,{"CODGEO":"24310","inversion":"0"}
,{"CODGEO":"24318","inversion":"0"}
,{"CODGEO":"24319","inversion":"1"}
,{"CODGEO":"24322","inversion":"1"}
,{"CODGEO":"24322","inversion":"1"}
,{"CODGEO":"24327","inversion":"1"}
,{"CODGEO":"24343","inversion":"0"}
,{"CODGEO":"24346","inversion":"1"}
,{"CODGEO":"24347","inversion":"1"}
,{"CODGEO":"24352","inversion":"1"}
,{"CODGEO":"24355","inversion":"0"}
,{"CODGEO":"24356","inversion":"1"}
,{"CODGEO":"24362","inversion":"0"}
,{"CODGEO":"24368","inversion":"1"}
,{"CODGEO":"24370","inversion":"1"}
,{"CODGEO":"24372","inversion":"1"}
,{"CODGEO":"24377","inversion":"1"}
,{"CODGEO":"24378","inversion":"1"}
,{"CODGEO":"24388","inversion":"1"}
,{"CODGEO":"24391","inversion":"0"}
,{"CODGEO":"24394","inversion":"1"}
,{"CODGEO":"24399","inversion":"0"}
,{"CODGEO":"24401","inversion":"1"}
,{"CODGEO":"24403","inversion":"1"}
,{"CODGEO":"24404","inversion":"1"}
,{"CODGEO":"24410","inversion":"1"}
,{"CODGEO":"24415","inversion":"0"}
,{"CODGEO":"24424","inversion":"0"}
,{"CODGEO":"24430","inversion":"1"}
,{"CODGEO":"24436","inversion":"1"}
,{"CODGEO":"24444","inversion":"1"}
,{"CODGEO":"24454","inversion":"1"}
,{"CODGEO":"24455","inversion":"1"}
,{"CODGEO":"24460","inversion":"1"}
,{"CODGEO":"24461","inversion":"1"}
,{"CODGEO":"24464","inversion":"1"}
,{"CODGEO":"24468","inversion":"0"}
,{"CODGEO":"24473","inversion":"1"}
,{"CODGEO":"24474","inversion":"1"}
,{"CODGEO":"24475","inversion":"1"}
,{"CODGEO":"24479","inversion":"1"}
,{"CODGEO":"24483","inversion":"0"}
,{"CODGEO":"24489","inversion":"0"}
,{"CODGEO":"24490","inversion":"1"}
,{"CODGEO":"24493","inversion":"1"}
,{"CODGEO":"24494","inversion":"1"}
,{"CODGEO":"24495","inversion":"0"}
,{"CODGEO":"24497","inversion":"1"}
,{"CODGEO":"24498","inversion":"0"}
,{"CODGEO":"24504","inversion":"0"}
,{"CODGEO":"24507","inversion":"1"}
,{"CODGEO":"24510","inversion":"1"}
,{"CODGEO":"24516","inversion":"1"}
,{"CODGEO":"24520","inversion":"1"}
,{"CODGEO":"24524","inversion":"1"}
,{"CODGEO":"24527","inversion":"1"}
,{"CODGEO":"24528","inversion":"1"}
,{"CODGEO":"24530","inversion":"1"}
,{"CODGEO":"24533","inversion":"0"}
,{"CODGEO":"24537","inversion":"1"}
,{"CODGEO":"24540","inversion":"1"}
,{"CODGEO":"24541","inversion":"1"}
,{"CODGEO":"24542","inversion":"0"}
,{"CODGEO":"24543","inversion":"1"}
,{"CODGEO":"24547","inversion":"1"}
,{"CODGEO":"24548","inversion":"1"}
,{"CODGEO":"24550","inversion":"0"}
,{"CODGEO":"24555","inversion":"1"}
,{"CODGEO":"24558","inversion":"1"}
,{"CODGEO":"24561","inversion":"1"}
,{"CODGEO":"24564","inversion":"0"}
,{"CODGEO":"24568","inversion":"1"}
,{"CODGEO":"24582","inversion":"1"}
,{"CODGEO":"24584","inversion":"1"}
]}