{"status":"success","data":[{"CODGEO":"79001","inversion":"0"}
,{"CODGEO":"79002","inversion":"0"}
,{"CODGEO":"79005","inversion":"0"}
,{"CODGEO":"79007","inversion":"0"}
,{"CODGEO":"79008","inversion":"0"}
,{"CODGEO":"79014","inversion":"0"}
,{"CODGEO":"79015","inversion":"1"}
,{"CODGEO":"79019","inversion":"0"}
,{"CODGEO":"79022","inversion":"0"}
,{"CODGEO":"79023","inversion":"0"}
,{"CODGEO":"79025","inversion":"0"}
,{"CODGEO":"79029","inversion":"1"}
,{"CODGEO":"79031","inversion":"1"}
,{"CODGEO":"79032","inversion":"1"}
,{"CODGEO":"79033","inversion":"1"}
,{"CODGEO":"79034","inversion":"1"}
,{"CODGEO":"79038","inversion":"0"}
,{"CODGEO":"79039","inversion":"1"}
,{"CODGEO":"79040","inversion":"0"}
,{"CODGEO":"79042","inversion":"1"}
,{"CODGEO":"79043","inversion":"0"}
,{"CODGEO":"79044","inversion":"1"}
,{"CODGEO":"79045","inversion":"0"}
,{"CODGEO":"79047","inversion":"0"}
,{"CODGEO":"79049","inversion":"0"}
,{"CODGEO":"79051","inversion":"0"}
,{"CODGEO":"79054","inversion":"0"}
,{"CODGEO":"79055","inversion":"1"}
,{"CODGEO":"79056","inversion":"0"}
,{"CODGEO":"79057","inversion":"0"}
,{"CODGEO":"79059","inversion":"0"}
,{"CODGEO":"79063","inversion":"0"}
,{"CODGEO":"79064","inversion":"1"}
,{"CODGEO":"79068","inversion":"1"}
,{"CODGEO":"79070","inversion":"1"}
,{"CODGEO":"79071","inversion":"1"}
,{"CODGEO":"79072","inversion":"0"}
,{"CODGEO":"79076","inversion":"0"}
,{"CODGEO":"79077","inversion":"0"}
,{"CODGEO":"79078","inversion":"1"}
,{"CODGEO":"79080","inversion":"0"}
,{"CODGEO":"79081","inversion":"1"}
,{"CODGEO":"79083","inversion":"1"}
,{"CODGEO":"79085","inversion":"1"}
,{"CODGEO":"79086","inversion":"1"}
,{"CODGEO":"79088","inversion":"0"}
,{"CODGEO":"79090","inversion":"1"}
,{"CODGEO":"79091","inversion":"0"}
,{"CODGEO":"79094","inversion":"0"}
,{"CODGEO":"79096","inversion":"0"}
,{"CODGEO":"79101","inversion":"0"}
,{"CODGEO":"79102","inversion":"0"}
,{"CODGEO":"79106","inversion":"0"}
,{"CODGEO":"79108","inversion":"0"}
,{"CODGEO":"79111","inversion":"0"}
,{"CODGEO":"79112","inversion":"1"}
,{"CODGEO":"79114","inversion":"0"}
,{"CODGEO":"79115","inversion":"1"}
,{"CODGEO":"79116","inversion":"0"}
,{"CODGEO":"79117","inversion":"0"}
,{"CODGEO":"79118","inversion":"1"}
,{"CODGEO":"79119","inversion":"1"}
,{"CODGEO":"79120","inversion":"0"}
,{"CODGEO":"79121","inversion":"0"}
,{"CODGEO":"79123","inversion":"0"}
,{"CODGEO":"79124","inversion":"0"}
,{"CODGEO":"79126","inversion":"1"}
,{"CODGEO":"79127","inversion":"1"}
,{"CODGEO":"79131","inversion":"0"}
,{"CODGEO":"79134","inversion":"0"}
,{"CODGEO":"79135","inversion":"0"}
,{"CODGEO":"79136","inversion":"0"}
,{"CODGEO":"79139","inversion":"0"}
,{"CODGEO":"79140","inversion":"1"}
,{"CODGEO":"79141","inversion":"0"}
,{"CODGEO":"79142","inversion":"0"}
,{"CODGEO":"79144","inversion":"0"}
,{"CODGEO":"79145","inversion":"1"}
,{"CODGEO":"79147","inversion":"0"}
,{"CODGEO":"79149","inversion":"0"}
,{"CODGEO":"79157","inversion":"1"}
,{"CODGEO":"79158","inversion":"1"}
,{"CODGEO":"79159","inversion":"0"}
,{"CODGEO":"79160","inversion":"0"}
,{"CODGEO":"79161","inversion":"0"}
,{"CODGEO":"79164","inversion":"1"}
,{"CODGEO":"79165","inversion":"0"}
,{"CODGEO":"79166","inversion":"1"}
,{"CODGEO":"79168","inversion":"1"}
,{"CODGEO":"79172","inversion":"0"}
,{"CODGEO":"79175","inversion":"0"}
,{"CODGEO":"79176","inversion":"0"}
,{"CODGEO":"79178","inversion":"0"}
,{"CODGEO":"79179","inversion":"0"}
,{"CODGEO":"79184","inversion":"1"}
,{"CODGEO":"79188","inversion":"0"}
,{"CODGEO":"79189","inversion":"1"}
,{"CODGEO":"79190","inversion":"0"}
,{"CODGEO":"79191","inversion":"1"}
,{"CODGEO":"79191","inversion":"1"}
,{"CODGEO":"79197","inversion":"0"}
,{"CODGEO":"79200","inversion":"1"}
,{"CODGEO":"79201","inversion":"1"}
,{"CODGEO":"79202","inversion":"1"}
,{"CODGEO":"79203","inversion":"1"}
,{"CODGEO":"79204","inversion":"1"}
,{"CODGEO":"79205","inversion":"0"}
,{"CODGEO":"79208","inversion":"0"}
,{"CODGEO":"79209","inversion":"0"}
,{"CODGEO":"79210","inversion":"0"}
,{"CODGEO":"79211","inversion":"0"}
,{"CODGEO":"79212","inversion":"0"}
,{"CODGEO":"79213","inversion":"0"}
,{"CODGEO":"79214","inversion":"0"}
,{"CODGEO":"79215","inversion":"0"}
,{"CODGEO":"79218","inversion":"0"}
,{"CODGEO":"79219","inversion":"0"}
,{"CODGEO":"79220","inversion":"1"}
,{"CODGEO":"79225","inversion":"1"}
,{"CODGEO":"79231","inversion":"1"}
,{"CODGEO":"79236","inversion":"0"}
,{"CODGEO":"79239","inversion":"1"}
,{"CODGEO":"79241","inversion":"1"}
,{"CODGEO":"79244","inversion":"0"}
,{"CODGEO":"79250","inversion":"0"}
,{"CODGEO":"79251","inversion":"1"}
,{"CODGEO":"79252","inversion":"0"}
,{"CODGEO":"79253","inversion":"0"}
,{"CODGEO":"79255","inversion":"0"}
,{"CODGEO":"79256","inversion":"1"}
,{"CODGEO":"79258","inversion":"0"}
,{"CODGEO":"79259","inversion":"1"}
,{"CODGEO":"79260","inversion":"0"}
,{"CODGEO":"79263","inversion":"0"}
,{"CODGEO":"79265","inversion":"1"}
,{"CODGEO":"79267","inversion":"0"}
,{"CODGEO":"79269","inversion":"0"}
,{"CODGEO":"79270","inversion":"0"}
,{"CODGEO":"79271","inversion":"1"}
,{"CODGEO":"79274","inversion":"0"}
,{"CODGEO":"79276","inversion":"0"}
,{"CODGEO":"79277","inversion":"0"}
,{"CODGEO":"79278","inversion":"0"}
,{"CODGEO":"79282","inversion":"1"}
,{"CODGEO":"79285","inversion":"0"}
,{"CODGEO":"79286","inversion":"0"}
,{"CODGEO":"79290","inversion":"1"}
,{"CODGEO":"79292","inversion":"1"}
,{"CODGEO":"79293","inversion":"1"}
,{"CODGEO":"79294","inversion":"0"}
,{"CODGEO":"79298","inversion":"1"}
,{"CODGEO":"79299","inversion":"0"}
,{"CODGEO":"79300","inversion":"1"}
,{"CODGEO":"79303","inversion":"0"}
,{"CODGEO":"79306","inversion":"0"}
,{"CODGEO":"79309","inversion":"0"}
,{"CODGEO":"79310","inversion":"1"}
,{"CODGEO":"79311","inversion":"0"}
,{"CODGEO":"79312","inversion":"1"}
,{"CODGEO":"79314","inversion":"1"}
,{"CODGEO":"79316","inversion":"1"}
,{"CODGEO":"79318","inversion":"0"}
,{"CODGEO":"79320","inversion":"1"}
,{"CODGEO":"79322","inversion":"1"}
,{"CODGEO":"79325","inversion":"0"}
,{"CODGEO":"79326","inversion":"0"}
,{"CODGEO":"79328","inversion":"0"}
,{"CODGEO":"79330","inversion":"0"}
,{"CODGEO":"79332","inversion":"0"}
,{"CODGEO":"79338","inversion":"0"}
,{"CODGEO":"79339","inversion":"0"}
,{"CODGEO":"79340","inversion":"1"}
,{"CODGEO":"79341","inversion":"0"}
,{"CODGEO":"79342","inversion":"0"}
,{"CODGEO":"79343","inversion":"1"}
,{"CODGEO":"79345","inversion":"0"}
,{"CODGEO":"79346","inversion":"1"}
,{"CODGEO":"79347","inversion":"1"}
,{"CODGEO":"79348","inversion":"0"}
,{"CODGEO":"79351","inversion":"1"}
,{"CODGEO":"79352","inversion":"0"}
,{"CODGEO":"79354","inversion":"1"}
,{"CODGEO":"79357","inversion":"1"}
]}