{"status":"success","data":[{"CODGEO":"87001","inversion":"1"}
,{"CODGEO":"87006","inversion":"0"}
,{"CODGEO":"87007","inversion":"1"}
,{"CODGEO":"87008","inversion":"0"}
,{"CODGEO":"87013","inversion":"0"}
,{"CODGEO":"87015","inversion":"1"}
,{"CODGEO":"87041","inversion":"1"}
,{"CODGEO":"87052","inversion":"0"}
,{"CODGEO":"87054","inversion":"1"}
,{"CODGEO":"87055","inversion":"0"}
,{"CODGEO":"87057","inversion":"0"}
,{"CODGEO":"87059","inversion":"0"}
,{"CODGEO":"87083","inversion":"1"}
,{"CODGEO":"87085","inversion":"1"}
,{"CODGEO":"87085","inversion":"1"}
,{"CODGEO":"87085","inversion":"1"}
,{"CODGEO":"87085","inversion":"1"}
,{"CODGEO":"87089","inversion":"1"}
,{"CODGEO":"87109","inversion":"0"}
,{"CODGEO":"87133","inversion":"1"}
,{"CODGEO":"87160","inversion":"1"}
,{"CODGEO":"87172","inversion":"1"}
,{"CODGEO":"87179","inversion":"0"}
,{"CODGEO":"87180","inversion":"1"}
,{"CODGEO":"87189","inversion":"0"}
,{"CODGEO":"87191","inversion":"1"}
,{"CODGEO":"87195","inversion":"0"}
,{"CODGEO":"87196","inversion":"0"}
,{"CODGEO":"87200","inversion":"0"}
,{"CODGEO":"87206","inversion":"1"}
]}