{"status":"success","data":[
{"CODGEO":33001,"TxCS6":92},
{"CODGEO":33002,"TxCS6":93},
{"CODGEO":33003,"TxCS6":95},
{"CODGEO":33004,"TxCS6":90},
{"CODGEO":33005,"TxCS6":115},
{"CODGEO":33006,"TxCS6":84},
{"CODGEO":33007,"TxCS6":93},
{"CODGEO":33008,"TxCS6":84},
{"CODGEO":33009,"TxCS6":132},
{"CODGEO":33010,"TxCS6":69},
{"CODGEO":33011,"TxCS6":116},
{"CODGEO":33012,"TxCS6":111},
{"CODGEO":33013,"TxCS6":108},
{"CODGEO":33014,"TxCS6":97},
{"CODGEO":33015,"TxCS6":110},
{"CODGEO":33016,"TxCS6":102},
{"CODGEO":33017,"TxCS6":67},
{"CODGEO":33018,"TxCS6":90},
{"CODGEO":33019,"TxCS6":105},
{"CODGEO":33020,"TxCS6":66},
{"CODGEO":33021,"TxCS6":94},
{"CODGEO":33022,"TxCS6":91},
{"CODGEO":33023,"TxCS6":99},
{"CODGEO":33024,"TxCS6":80},
{"CODGEO":33025,"TxCS6":82},
{"CODGEO":33026,"TxCS6":97},
{"CODGEO":33027,"TxCS6":75},
{"CODGEO":33028,"TxCS6":86},
{"CODGEO":33029,"TxCS6":112},
{"CODGEO":33030,"TxCS6":107},
{"CODGEO":33031,"TxCS6":66},
{"CODGEO":33032,"TxCS6":92},
{"CODGEO":33033,"TxCS6":96},
{"CODGEO":33034,"TxCS6":95},
{"CODGEO":33035,"TxCS6":77},
{"CODGEO":33036,"TxCS6":106},
{"CODGEO":33037,"TxCS6":93},
{"CODGEO":33038,"TxCS6":86},
{"CODGEO":33039,"TxCS6":93},
{"CODGEO":33040,"TxCS6":108},
{"CODGEO":33042,"TxCS6":87},
{"CODGEO":33043,"TxCS6":69},
{"CODGEO":33044,"TxCS6":98},
{"CODGEO":33045,"TxCS6":90},
{"CODGEO":33046,"TxCS6":104},
{"CODGEO":33047,"TxCS6":107},
{"CODGEO":33048,"TxCS6":73},
{"CODGEO":33049,"TxCS6":108},
{"CODGEO":33050,"TxCS6":94},
{"CODGEO":33051,"TxCS6":90},
{"CODGEO":33052,"TxCS6":108},
{"CODGEO":33053,"TxCS6":102},
{"CODGEO":33054,"TxCS6":71},
{"CODGEO":33055,"TxCS6":86},
{"CODGEO":33056,"TxCS6":113},
{"CODGEO":33057,"TxCS6":76},
{"CODGEO":33058,"TxCS6":110},
{"CODGEO":33059,"TxCS6":77},
{"CODGEO":33060,"TxCS6":88},
{"CODGEO":33061,"TxCS6":94},
{"CODGEO":33062,"TxCS6":83},
{"CODGEO":33063,"TxCS6":125},
{"CODGEO":33064,"TxCS6":109},
{"CODGEO":33065,"TxCS6":125},
{"CODGEO":33066,"TxCS6":87},
{"CODGEO":33067,"TxCS6":106},
{"CODGEO":33068,"TxCS6":90},
{"CODGEO":33069,"TxCS6":140},
{"CODGEO":33070,"TxCS6":93},
{"CODGEO":33071,"TxCS6":104},
{"CODGEO":33072,"TxCS6":76},
{"CODGEO":33073,"TxCS6":103},
{"CODGEO":33074,"TxCS6":72},
{"CODGEO":33075,"TxCS6":129},
{"CODGEO":33076,"TxCS6":91},
{"CODGEO":33077,"TxCS6":94},
{"CODGEO":33078,"TxCS6":98},
{"CODGEO":33079,"TxCS6":87},
{"CODGEO":33080,"TxCS6":108},
{"CODGEO":33081,"TxCS6":110},
{"CODGEO":33082,"TxCS6":106},
{"CODGEO":33083,"TxCS6":97},
{"CODGEO":33084,"TxCS6":112},
{"CODGEO":33085,"TxCS6":113},
{"CODGEO":33086,"TxCS6":87},
{"CODGEO":33087,"TxCS6":71},
{"CODGEO":33088,"TxCS6":74},
{"CODGEO":33089,"TxCS6":92},
{"CODGEO":33090,"TxCS6":96},
{"CODGEO":33091,"TxCS6":88},
{"CODGEO":33092,"TxCS6":109},
{"CODGEO":33093,"TxCS6":84},
{"CODGEO":33094,"TxCS6":104},
{"CODGEO":33095,"TxCS6":84},
{"CODGEO":33096,"TxCS6":89},
{"CODGEO":33097,"TxCS6":87},
{"CODGEO":33098,"TxCS6":77},
{"CODGEO":33099,"TxCS6":111},
{"CODGEO":33100,"TxCS6":105},
{"CODGEO":33101,"TxCS6":85},
{"CODGEO":33102,"TxCS6":81},
{"CODGEO":33103,"TxCS6":64},
{"CODGEO":33104,"TxCS6":94},
{"CODGEO":33105,"TxCS6":87},
{"CODGEO":33106,"TxCS6":95},
{"CODGEO":33107,"TxCS6":101},
{"CODGEO":33108,"TxCS6":89},
{"CODGEO":33109,"TxCS6":111},
{"CODGEO":33111,"TxCS6":101},
{"CODGEO":33112,"TxCS6":57},
{"CODGEO":33113,"TxCS6":71},
{"CODGEO":33114,"TxCS6":103},
{"CODGEO":33115,"TxCS6":61},
{"CODGEO":33116,"TxCS6":67},
{"CODGEO":33117,"TxCS6":81},
{"CODGEO":33118,"TxCS6":108},
{"CODGEO":33119,"TxCS6":93},
{"CODGEO":33120,"TxCS6":89},
{"CODGEO":33121,"TxCS6":57},
{"CODGEO":33122,"TxCS6":111},
{"CODGEO":33123,"TxCS6":96},
{"CODGEO":33124,"TxCS6":74},
{"CODGEO":33125,"TxCS6":88},
{"CODGEO":33126,"TxCS6":94},
{"CODGEO":33127,"TxCS6":70},
{"CODGEO":33128,"TxCS6":95},
{"CODGEO":33129,"TxCS6":73},
{"CODGEO":33130,"TxCS6":98},
{"CODGEO":33131,"TxCS6":83},
{"CODGEO":33132,"TxCS6":95},
{"CODGEO":33133,"TxCS6":70},
{"CODGEO":33134,"TxCS6":95},
{"CODGEO":33135,"TxCS6":69},
{"CODGEO":33136,"TxCS6":78},
{"CODGEO":33137,"TxCS6":66},
{"CODGEO":33138,"TxCS6":92},
{"CODGEO":33139,"TxCS6":92},
{"CODGEO":33140,"TxCS6":90},
{"CODGEO":33141,"TxCS6":86},
{"CODGEO":33142,"TxCS6":88},
{"CODGEO":33143,"TxCS6":92},
{"CODGEO":33144,"TxCS6":95},
{"CODGEO":33145,"TxCS6":82},
{"CODGEO":33146,"TxCS6":91},
{"CODGEO":33147,"TxCS6":82},
{"CODGEO":33148,"TxCS6":63},
{"CODGEO":33149,"TxCS6":114},
{"CODGEO":33150,"TxCS6":103},
{"CODGEO":33151,"TxCS6":83},
{"CODGEO":33152,"TxCS6":95},
{"CODGEO":33153,"TxCS6":73},
{"CODGEO":33154,"TxCS6":89},
{"CODGEO":33155,"TxCS6":58},
{"CODGEO":33156,"TxCS6":82},
{"CODGEO":33157,"TxCS6":80},
{"CODGEO":33158,"TxCS6":100},
{"CODGEO":33159,"TxCS6":94},
{"CODGEO":33160,"TxCS6":81},
{"CODGEO":33161,"TxCS6":92},
{"CODGEO":33162,"TxCS6":112},
{"CODGEO":33163,"TxCS6":84},
{"CODGEO":33164,"TxCS6":93},
{"CODGEO":33165,"TxCS6":120},
{"CODGEO":33166,"TxCS6":82},
{"CODGEO":33167,"TxCS6":95},
{"CODGEO":33168,"TxCS6":75},
{"CODGEO":33169,"TxCS6":63},
{"CODGEO":33170,"TxCS6":80},
{"CODGEO":33171,"TxCS6":56},
{"CODGEO":33172,"TxCS6":101},
{"CODGEO":33173,"TxCS6":85},
{"CODGEO":33174,"TxCS6":124},
{"CODGEO":33175,"TxCS6":81},
{"CODGEO":33176,"TxCS6":84},
{"CODGEO":33177,"TxCS6":84},
{"CODGEO":33178,"TxCS6":82},
{"CODGEO":33179,"TxCS6":105},
{"CODGEO":33180,"TxCS6":95},
{"CODGEO":33181,"TxCS6":70},
{"CODGEO":33182,"TxCS6":76},
{"CODGEO":33183,"TxCS6":89},
{"CODGEO":33184,"TxCS6":95},
{"CODGEO":33185,"TxCS6":110},
{"CODGEO":33186,"TxCS6":78},
{"CODGEO":33187,"TxCS6":87},
{"CODGEO":33188,"TxCS6":94},
{"CODGEO":33189,"TxCS6":119},
{"CODGEO":33190,"TxCS6":77},
{"CODGEO":33191,"TxCS6":73},
{"CODGEO":33192,"TxCS6":108},
{"CODGEO":33193,"TxCS6":80},
{"CODGEO":33194,"TxCS6":101},
{"CODGEO":33195,"TxCS6":109},
{"CODGEO":33196,"TxCS6":81},
{"CODGEO":33197,"TxCS6":74},
{"CODGEO":33198,"TxCS6":94},
{"CODGEO":33199,"TxCS6":118},
{"CODGEO":33200,"TxCS6":114},
{"CODGEO":33201,"TxCS6":105},
{"CODGEO":33202,"TxCS6":96},
{"CODGEO":33203,"TxCS6":100},
{"CODGEO":33204,"TxCS6":94},
{"CODGEO":33205,"TxCS6":108},
{"CODGEO":33206,"TxCS6":86},
{"CODGEO":33207,"TxCS6":89},
{"CODGEO":33208,"TxCS6":75},
{"CODGEO":33209,"TxCS6":86},
{"CODGEO":33210,"TxCS6":87},
{"CODGEO":33211,"TxCS6":82},
{"CODGEO":33212,"TxCS6":54},
{"CODGEO":33213,"TxCS6":129},
{"CODGEO":33214,"TxCS6":116},
{"CODGEO":33215,"TxCS6":121},
{"CODGEO":33216,"TxCS6":80},
{"CODGEO":33218,"TxCS6":92},
{"CODGEO":33219,"TxCS6":91},
{"CODGEO":33220,"TxCS6":85},
{"CODGEO":33221,"TxCS6":88},
{"CODGEO":33222,"TxCS6":98},
{"CODGEO":33223,"TxCS6":112},
{"CODGEO":33224,"TxCS6":90},
{"CODGEO":33225,"TxCS6":92},
{"CODGEO":33226,"TxCS6":106},
{"CODGEO":33227,"TxCS6":107},
{"CODGEO":33228,"TxCS6":93},
{"CODGEO":33229,"TxCS6":119},
{"CODGEO":33230,"TxCS6":112},
{"CODGEO":33231,"TxCS6":82},
{"CODGEO":33232,"TxCS6":88},
{"CODGEO":33233,"TxCS6":105},
{"CODGEO":33234,"TxCS6":123},
{"CODGEO":33235,"TxCS6":91},
{"CODGEO":33236,"TxCS6":133},
{"CODGEO":33237,"TxCS6":86},
{"CODGEO":33238,"TxCS6":111},
{"CODGEO":33239,"TxCS6":105},
{"CODGEO":33240,"TxCS6":91},
{"CODGEO":33241,"TxCS6":86},
{"CODGEO":33242,"TxCS6":79},
{"CODGEO":33243,"TxCS6":110},
{"CODGEO":33244,"TxCS6":81},
{"CODGEO":33245,"TxCS6":114},
{"CODGEO":33246,"TxCS6":88},
{"CODGEO":33247,"TxCS6":54},
{"CODGEO":33248,"TxCS6":92},
{"CODGEO":33249,"TxCS6":94},
{"CODGEO":33250,"TxCS6":91},
{"CODGEO":33251,"TxCS6":79},
{"CODGEO":33252,"TxCS6":85},
{"CODGEO":33253,"TxCS6":95},
{"CODGEO":33254,"TxCS6":102},
{"CODGEO":33255,"TxCS6":77},
{"CODGEO":33256,"TxCS6":92},
{"CODGEO":33257,"TxCS6":94},
{"CODGEO":33258,"TxCS6":77},
{"CODGEO":33259,"TxCS6":93},
{"CODGEO":33260,"TxCS6":89},
{"CODGEO":33261,"TxCS6":115},
{"CODGEO":33262,"TxCS6":90},
{"CODGEO":33263,"TxCS6":70},
{"CODGEO":33264,"TxCS6":77},
{"CODGEO":33266,"TxCS6":88},
{"CODGEO":33267,"TxCS6":92},
{"CODGEO":33268,"TxCS6":89},
{"CODGEO":33269,"TxCS6":83},
{"CODGEO":33270,"TxCS6":72},
{"CODGEO":33271,"TxCS6":86},
{"CODGEO":33272,"TxCS6":88},
{"CODGEO":33273,"TxCS6":112},
{"CODGEO":33274,"TxCS6":112},
{"CODGEO":33275,"TxCS6":62},
{"CODGEO":33276,"TxCS6":87},
{"CODGEO":33277,"TxCS6":65},
{"CODGEO":33278,"TxCS6":102},
{"CODGEO":33279,"TxCS6":86},
{"CODGEO":33280,"TxCS6":97},
{"CODGEO":33281,"TxCS6":112},
{"CODGEO":33282,"TxCS6":75},
{"CODGEO":33283,"TxCS6":83},
{"CODGEO":33284,"TxCS6":95},
{"CODGEO":33285,"TxCS6":75},
{"CODGEO":33287,"TxCS6":79},
{"CODGEO":33288,"TxCS6":86},
{"CODGEO":33289,"TxCS6":86},
{"CODGEO":33290,"TxCS6":125},
{"CODGEO":33291,"TxCS6":51},
{"CODGEO":33292,"TxCS6":63},
{"CODGEO":33293,"TxCS6":94},
{"CODGEO":33294,"TxCS6":93},
{"CODGEO":33295,"TxCS6":70},
{"CODGEO":33296,"TxCS6":85},
{"CODGEO":33297,"TxCS6":90},
{"CODGEO":33298,"TxCS6":86},
{"CODGEO":33299,"TxCS6":103},
{"CODGEO":33300,"TxCS6":90},
{"CODGEO":33301,"TxCS6":97},
{"CODGEO":33302,"TxCS6":124},
{"CODGEO":33303,"TxCS6":81},
{"CODGEO":33304,"TxCS6":74},
{"CODGEO":33305,"TxCS6":98},
{"CODGEO":33306,"TxCS6":79},
{"CODGEO":33307,"TxCS6":93},
{"CODGEO":33308,"TxCS6":87},
{"CODGEO":33309,"TxCS6":78},
{"CODGEO":33310,"TxCS6":58},
{"CODGEO":33311,"TxCS6":95},
{"CODGEO":33312,"TxCS6":95},
{"CODGEO":33314,"TxCS6":90},
{"CODGEO":33315,"TxCS6":86},
{"CODGEO":33316,"TxCS6":110},
{"CODGEO":33317,"TxCS6":99},
{"CODGEO":33318,"TxCS6":110},
{"CODGEO":33319,"TxCS6":93},
{"CODGEO":33320,"TxCS6":82},
{"CODGEO":33321,"TxCS6":94},
{"CODGEO":33322,"TxCS6":108},
{"CODGEO":33323,"TxCS6":94},
{"CODGEO":33324,"TxCS6":102},
{"CODGEO":33325,"TxCS6":110},
{"CODGEO":33326,"TxCS6":98},
{"CODGEO":33327,"TxCS6":93},
{"CODGEO":33328,"TxCS6":118},
{"CODGEO":33329,"TxCS6":61},
{"CODGEO":33330,"TxCS6":111},
{"CODGEO":33331,"TxCS6":75},
{"CODGEO":33332,"TxCS6":80},
{"CODGEO":33333,"TxCS6":104},
{"CODGEO":33334,"TxCS6":108},
{"CODGEO":33335,"TxCS6":72},
{"CODGEO":33336,"TxCS6":98},
{"CODGEO":33337,"TxCS6":110},
{"CODGEO":33338,"TxCS6":91},
{"CODGEO":33339,"TxCS6":91},
{"CODGEO":33341,"TxCS6":89},
{"CODGEO":33342,"TxCS6":124},
{"CODGEO":33343,"TxCS6":82},
{"CODGEO":33344,"TxCS6":96},
{"CODGEO":33345,"TxCS6":84},
{"CODGEO":33346,"TxCS6":78},
{"CODGEO":33347,"TxCS6":75},
{"CODGEO":33348,"TxCS6":86},
{"CODGEO":33349,"TxCS6":110},
{"CODGEO":33350,"TxCS6":102},
{"CODGEO":33351,"TxCS6":104},
{"CODGEO":33352,"TxCS6":92},
{"CODGEO":33353,"TxCS6":95},
{"CODGEO":33354,"TxCS6":63},
{"CODGEO":33355,"TxCS6":94},
{"CODGEO":33356,"TxCS6":78},
{"CODGEO":33357,"TxCS6":94},
{"CODGEO":33358,"TxCS6":73},
{"CODGEO":33359,"TxCS6":67},
{"CODGEO":33360,"TxCS6":115},
{"CODGEO":33361,"TxCS6":84},
{"CODGEO":33362,"TxCS6":93},
{"CODGEO":33363,"TxCS6":92},
{"CODGEO":33364,"TxCS6":105},
{"CODGEO":33365,"TxCS6":81},
{"CODGEO":33366,"TxCS6":96},
{"CODGEO":33367,"TxCS6":79},
{"CODGEO":33369,"TxCS6":109},
{"CODGEO":33370,"TxCS6":83},
{"CODGEO":33371,"TxCS6":72},
{"CODGEO":33372,"TxCS6":63},
{"CODGEO":33373,"TxCS6":77},
{"CODGEO":33374,"TxCS6":78},
{"CODGEO":33375,"TxCS6":68},
{"CODGEO":33376,"TxCS6":144},
{"CODGEO":33377,"TxCS6":53},
{"CODGEO":33378,"TxCS6":89},
{"CODGEO":33379,"TxCS6":85},
{"CODGEO":33380,"TxCS6":77},
{"CODGEO":33381,"TxCS6":91},
{"CODGEO":33382,"TxCS6":93},
{"CODGEO":33383,"TxCS6":67},
{"CODGEO":33384,"TxCS6":126},
{"CODGEO":33385,"TxCS6":76},
{"CODGEO":33386,"TxCS6":74},
{"CODGEO":33387,"TxCS6":93},
{"CODGEO":33388,"TxCS6":85},
{"CODGEO":33389,"TxCS6":108},
{"CODGEO":33390,"TxCS6":95},
{"CODGEO":33391,"TxCS6":66},
{"CODGEO":33392,"TxCS6":88},
{"CODGEO":33393,"TxCS6":90},
{"CODGEO":33394,"TxCS6":140},
{"CODGEO":33395,"TxCS6":84},
{"CODGEO":33396,"TxCS6":123},
{"CODGEO":33397,"TxCS6":107},
{"CODGEO":33398,"TxCS6":62},
{"CODGEO":33399,"TxCS6":84},
{"CODGEO":33400,"TxCS6":92},
{"CODGEO":33401,"TxCS6":77},
{"CODGEO":33402,"TxCS6":103},
{"CODGEO":33403,"TxCS6":57},
{"CODGEO":33404,"TxCS6":81},
{"CODGEO":33405,"TxCS6":101},
{"CODGEO":33406,"TxCS6":92},
{"CODGEO":33407,"TxCS6":82},
{"CODGEO":33408,"TxCS6":86},
{"CODGEO":33409,"TxCS6":86},
{"CODGEO":33411,"TxCS6":104},
{"CODGEO":33412,"TxCS6":90},
{"CODGEO":33413,"TxCS6":126},
{"CODGEO":33414,"TxCS6":103},
{"CODGEO":33415,"TxCS6":110},
{"CODGEO":33416,"TxCS6":73},
{"CODGEO":33417,"TxCS6":89},
{"CODGEO":33418,"TxCS6":69},
{"CODGEO":33419,"TxCS6":85},
{"CODGEO":33420,"TxCS6":106},
{"CODGEO":33421,"TxCS6":114},
{"CODGEO":33422,"TxCS6":129},
{"CODGEO":33423,"TxCS6":91},
{"CODGEO":33424,"TxCS6":103},
{"CODGEO":33425,"TxCS6":91},
{"CODGEO":33426,"TxCS6":103},
{"CODGEO":33427,"TxCS6":83},
{"CODGEO":33428,"TxCS6":104},
{"CODGEO":33429,"TxCS6":71},
{"CODGEO":33431,"TxCS6":71},
{"CODGEO":33432,"TxCS6":81},
{"CODGEO":33433,"TxCS6":94},
{"CODGEO":33434,"TxCS6":93},
{"CODGEO":33435,"TxCS6":96},
{"CODGEO":33436,"TxCS6":79},
{"CODGEO":33437,"TxCS6":100},
{"CODGEO":33438,"TxCS6":90},
{"CODGEO":33439,"TxCS6":91},
{"CODGEO":33440,"TxCS6":92},
{"CODGEO":33441,"TxCS6":99},
{"CODGEO":33442,"TxCS6":84},
{"CODGEO":33443,"TxCS6":101},
{"CODGEO":33444,"TxCS6":106},
{"CODGEO":33445,"TxCS6":97},
{"CODGEO":33446,"TxCS6":100},
{"CODGEO":33447,"TxCS6":104},
{"CODGEO":33448,"TxCS6":111},
{"CODGEO":33449,"TxCS6":111},
{"CODGEO":33450,"TxCS6":61},
{"CODGEO":33451,"TxCS6":80},
{"CODGEO":33452,"TxCS6":75},
{"CODGEO":33453,"TxCS6":73},
{"CODGEO":33454,"TxCS6":112},
{"CODGEO":33456,"TxCS6":90},
{"CODGEO":33457,"TxCS6":94},
{"CODGEO":33458,"TxCS6":78},
{"CODGEO":33459,"TxCS6":97},
{"CODGEO":33460,"TxCS6":92},
{"CODGEO":33461,"TxCS6":102},
{"CODGEO":33462,"TxCS6":93},
{"CODGEO":33463,"TxCS6":91},
{"CODGEO":33464,"TxCS6":85},
{"CODGEO":33465,"TxCS6":86},
{"CODGEO":33466,"TxCS6":98},
{"CODGEO":33467,"TxCS6":69},
{"CODGEO":33468,"TxCS6":77},
{"CODGEO":33470,"TxCS6":96},
{"CODGEO":33471,"TxCS6":90},
{"CODGEO":33472,"TxCS6":71},
{"CODGEO":33473,"TxCS6":91},
{"CODGEO":33474,"TxCS6":112},
{"CODGEO":33475,"TxCS6":90},
{"CODGEO":33476,"TxCS6":96},
{"CODGEO":33477,"TxCS6":80},
{"CODGEO":33478,"TxCS6":90},
{"CODGEO":33479,"TxCS6":64},
{"CODGEO":33480,"TxCS6":107},
{"CODGEO":33481,"TxCS6":72},
{"CODGEO":33482,"TxCS6":86},
{"CODGEO":33483,"TxCS6":103},
{"CODGEO":33484,"TxCS6":86},
{"CODGEO":33485,"TxCS6":108},
{"CODGEO":33486,"TxCS6":77},
{"CODGEO":33487,"TxCS6":96},
{"CODGEO":33488,"TxCS6":93},
{"CODGEO":33489,"TxCS6":90},
{"CODGEO":33490,"TxCS6":84},
{"CODGEO":33491,"TxCS6":78},
{"CODGEO":33492,"TxCS6":91},
{"CODGEO":33493,"TxCS6":84},
{"CODGEO":33494,"TxCS6":97},
{"CODGEO":33495,"TxCS6":96},
{"CODGEO":33496,"TxCS6":107},
{"CODGEO":33498,"TxCS6":108},
{"CODGEO":33499,"TxCS6":81},
{"CODGEO":33500,"TxCS6":82},
{"CODGEO":33501,"TxCS6":108},
{"CODGEO":33502,"TxCS6":68},
{"CODGEO":33503,"TxCS6":93},
{"CODGEO":33504,"TxCS6":99},
{"CODGEO":33505,"TxCS6":94},
{"CODGEO":33506,"TxCS6":113},
{"CODGEO":33507,"TxCS6":77},
{"CODGEO":33508,"TxCS6":90},
{"CODGEO":33509,"TxCS6":73},
{"CODGEO":33510,"TxCS6":53},
{"CODGEO":33511,"TxCS6":70},
{"CODGEO":33512,"TxCS6":72},
{"CODGEO":33513,"TxCS6":80},
{"CODGEO":33514,"TxCS6":116},
{"CODGEO":33515,"TxCS6":99},
{"CODGEO":33516,"TxCS6":73},
{"CODGEO":33517,"TxCS6":94},
{"CODGEO":33518,"TxCS6":96},
{"CODGEO":33519,"TxCS6":111},
{"CODGEO":33520,"TxCS6":71},
{"CODGEO":33521,"TxCS6":81},
{"CODGEO":33522,"TxCS6":109},
{"CODGEO":33523,"TxCS6":90},
{"CODGEO":33524,"TxCS6":68},
{"CODGEO":33525,"TxCS6":91},
{"CODGEO":33526,"TxCS6":54},
{"CODGEO":33527,"TxCS6":92},
{"CODGEO":33528,"TxCS6":112},
{"CODGEO":33529,"TxCS6":119},
{"CODGEO":33530,"TxCS6":112},
{"CODGEO":33531,"TxCS6":65},
{"CODGEO":33532,"TxCS6":97},
{"CODGEO":33533,"TxCS6":90},
{"CODGEO":33534,"TxCS6":79},
{"CODGEO":33535,"TxCS6":93},
{"CODGEO":33536,"TxCS6":74},
{"CODGEO":33537,"TxCS6":84},
{"CODGEO":33538,"TxCS6":76},
{"CODGEO":33539,"TxCS6":109},
{"CODGEO":33540,"TxCS6":98},
{"CODGEO":33541,"TxCS6":69},
{"CODGEO":33542,"TxCS6":85},
{"CODGEO":33543,"TxCS6":97},
{"CODGEO":33544,"TxCS6":82},
{"CODGEO":33545,"TxCS6":84},
{"CODGEO":33546,"TxCS6":111},
{"CODGEO":33547,"TxCS6":88},
{"CODGEO":33548,"TxCS6":94},
{"CODGEO":33549,"TxCS6":72},
{"CODGEO":33550,"TxCS6":95},
{"CODGEO":33551,"TxCS6":73},
{"CODGEO":33552,"TxCS6":91},
{"CODGEO":33553,"TxCS6":80},
{"CODGEO":33554,"TxCS6":106},
{"CODGEO":33555,"TxCS6":93}
]}